# zsim stats
===
root: # Stats
 contention: # Contention simulation stats
  domain-0: # Domain stats
   time: 1490045355941 # Weave simulation time
 time: # Simulator time breakdown
  init: 74079716
  bound: 21233993904871
  weave: 2645028412932
  ff: 0
 trigger: 20000 # Reason for this stats dump
 phase: 18808815 # Simulated phases
 CPU: # Core stats
  CPU-0: # Core stats
   cycles: 188088159309 # Simulated unhalted cycles
   cCycles: 32878627962 # Cycles due to contention stalls
   instrs: 223034983217 # Simulated instructions
   uops: 257549933629 # Retired micro-ops
   bbls: 12134298510 # Basic blocks
   approxInstrs: 1758461509 # Instrs with approx uop decoding
   mispredBranches: 56241450 # Mispredicted branches
 l1d_CPU: # Cache stats
  l1d_CPU-0: # Filter cache stats
   fhGETS: 49430133256 # Filtered GETS hits
   fhGETX: 20933004599 # Filtered GETX hits
   hGETS: 5552059568 # GETS hits
   hGETX: 4087344485 # GETX hits
   mGETS: 5214889187 # GETS misses
   mGETXIM: 753321436 # GETX I->M misses
   mGETXSM: 0 # GETX S->M misses (upgrade misses)
   PUTS: 0 # Clean evictions (from lower level)
   PUTX: 0 # Dirty evictions (from lower level)
   INV: 1542307609 # Invalidates (from upper level)
   INVX: 1 # Downgrades (from upper level)
   FWD: 0 # Forwards (from upper level)
   latGETnl: 307876953171 # GET request latency on next level
   latGETnet: 0 # GET request latency on network to next level
 l1i_CPU: # Cache stats
  l1i_CPU-0: # Filter cache stats
   fhGETS: 23139845303 # Filtered GETS hits
   fhGETX: 0 # Filtered GETX hits
   hGETS: 1676908 # GETS hits
   hGETX: 0 # GETX hits
   mGETS: 56260703 # GETS misses
   mGETXIM: 0 # GETX I->M misses
   mGETXSM: 0 # GETX S->M misses (upgrade misses)
   PUTS: 0 # Clean evictions (from lower level)
   PUTX: 0 # Dirty evictions (from lower level)
   INV: 56182711 # Invalidates (from upper level)
   INVX: 0 # Downgrades (from upper level)
   FWD: 0 # Forwards (from upper level)
   latGETnl: 2371109025 # GET request latency on next level
   latGETnet: 0 # GET request latency on network to next level
 l2_CPU: # Cache stats
  l2_CPU-0: # Cache stats
   hGETS: 470439403 # GETS hits
   hGETX: 52580500 # GETX hits
   mGETS: 4800710487 # GETS misses
   mGETXIM: 700740936 # GETX I->M misses
   mGETXSM: 0 # GETX S->M misses (upgrade misses)
   PUTS: 1994454065 # Clean evictions (from lower level)
   PUTX: 2431525917 # Dirty evictions (from lower level)
   INV: 0 # Invalidates (from upper level)
   INVX: 0 # Downgrades (from upper level)
   FWD: 0 # Forwards (from upper level)
   latGETnl: 237954406280 # GET request latency on next level
   latGETnet: 0 # GET request latency on network to next level
 l3: # Cache stats
  l3-0b0: # Cache stats
   hGETS: 426048361 # GETS hits
   hGETX: 67214098 # GETX hits
   mGETS: 173357844 # GETS misses
   mGETXIM: 20534609 # GETX I->M misses
   mGETXSM: 0 # GETX S->M misses (upgrade misses)
   PUTS: 354902315 # Clean evictions (from lower level)
   PUTX: 332252097 # Dirty evictions (from lower level)
   INV: 0 # Invalidates (from upper level)
   INVX: 0 # Downgrades (from upper level)
   FWD: 0 # Forwards (from upper level)
   latGETnl: 9112945291 # GET request latency on next level
   latGETnet: 0 # GET request latency on network to next level
  l3-0b1: # Cache stats
   hGETS: 426270891 # GETS hits
   hGETX: 66847403 # GETX hits
   mGETS: 173388410 # GETS misses
   mGETXIM: 20531001 # GETX I->M misses
   mGETXSM: 0 # GETX S->M misses (upgrade misses)
   PUTS: 354494626 # Clean evictions (from lower level)
   PUTX: 332542586 # Dirty evictions (from lower level)
   INV: 0 # Invalidates (from upper level)
   INVX: 0 # Downgrades (from upper level)
   FWD: 0 # Forwards (from upper level)
   latGETnl: 9114212317 # GET request latency on next level
   latGETnet: 0 # GET request latency on network to next level
  l3-0b2: # Cache stats
   hGETS: 425673561 # GETS hits
   hGETX: 67310961 # GETX hits
   mGETS: 173382496 # GETS misses
   mGETXIM: 20533400 # GETX I->M misses
   mGETXSM: 0 # GETX S->M misses (upgrade misses)
   PUTS: 354659516 # Clean evictions (from lower level)
   PUTX: 332240369 # Dirty evictions (from lower level)
   INV: 0 # Invalidates (from upper level)
   INVX: 0 # Downgrades (from upper level)
   FWD: 0 # Forwards (from upper level)
   latGETnl: 9114047112 # GET request latency on next level
   latGETnet: 0 # GET request latency on network to next level
  l3-0b3: # Cache stats
   hGETS: 425503681 # GETS hits
   hGETX: 67145960 # GETX hits
   mGETS: 173371613 # GETS misses
   mGETXIM: 20527794 # GETX I->M misses
   mGETXSM: 0 # GETX S->M misses (upgrade misses)
   PUTS: 353951148 # Clean evictions (from lower level)
   PUTX: 332597412 # Dirty evictions (from lower level)
   INV: 0 # Invalidates (from upper level)
   INVX: 0 # Downgrades (from upper level)
   FWD: 0 # Forwards (from upper level)
   latGETnl: 9113272129 # GET request latency on next level
   latGETnet: 0 # GET request latency on network to next level
  l3-0b4: # Cache stats
   hGETS: 428362744 # GETS hits
   hGETX: 67363558 # GETX hits
   mGETS: 173354355 # GETS misses
   mGETXIM: 20529706 # GETX I->M misses
   mGETXSM: 0 # GETX S->M misses (upgrade misses)
   PUTS: 357060082 # Clean evictions (from lower level)
   PUTX: 332549751 # Dirty evictions (from lower level)
   INV: 0 # Invalidates (from upper level)
   INVX: 0 # Downgrades (from upper level)
   FWD: 0 # Forwards (from upper level)
   latGETnl: 9112550867 # GET request latency on next level
   latGETnet: 0 # GET request latency on network to next level
  l3-0b5: # Cache stats
   hGETS: 428322253 # GETS hits
   hGETX: 67360206 # GETX hits
   mGETS: 173370154 # GETS misses
   mGETXIM: 20529352 # GETX I->M misses
   mGETXSM: 0 # GETX S->M misses (upgrade misses)
   PUTS: 356930455 # Clean evictions (from lower level)
   PUTX: 332651004 # Dirty evictions (from lower level)
   INV: 0 # Invalidates (from upper level)
   INVX: 0 # Downgrades (from upper level)
   FWD: 0 # Forwards (from upper level)
   latGETnl: 9113276782 # GET request latency on next level
   latGETnet: 0 # GET request latency on network to next level
  l3-0b6: # Cache stats
   hGETS: 427817994 # GETS hits
   hGETX: 66511081 # GETX hits
   mGETS: 173405218 # GETS misses
   mGETXIM: 20533400 # GETX I->M misses
   mGETXSM: 0 # GETX S->M misses (upgrade misses)
   PUTS: 356778347 # Clean evictions (from lower level)
   PUTX: 331488823 # Dirty evictions (from lower level)
   INV: 0 # Invalidates (from upper level)
   INVX: 0 # Downgrades (from upper level)
   FWD: 0 # Forwards (from upper level)
   latGETnl: 9115115046 # GET request latency on next level
   latGETnet: 0 # GET request latency on network to next level
  l3-0b7: # Cache stats
   hGETS: 425669905 # GETS hits
   hGETX: 66733796 # GETX hits
   mGETS: 173411007 # GETS misses
   mGETXIM: 20534611 # GETX I->M misses
   mGETXSM: 0 # GETX S->M misses (upgrade misses)
   PUTS: 355103100 # Clean evictions (from lower level)
   PUTX: 331245696 # Dirty evictions (from lower level)
   INV: 0 # Invalidates (from upper level)
   INVX: 0 # Downgrades (from upper level)
   FWD: 0 # Forwards (from upper level)
   latGETnl: 9115444046 # GET request latency on next level
   latGETnet: 0 # GET request latency on network to next level
 mem: # Memory controller stats
  mem-0: # Memory controller stats
   rd: 387798372 # Read requests
   wr: 152921750 # Write requests
   rdlat: 37276743963 # Total latency experienced by read requests
   wrlat: 15267510184 # Total latency experienced by write requests
   rdhits: 33259 # Read row hits
   wrhits: 1967318 # Write row hits
   mlh: # latency histogram for memory requests
    0: 0
    1: 0
    2: 0
    3: 0
    4: 0
    5: 0
    6: 10875
    7: 6369
    8: 312789339
    9: 25253297
    10: 5917157
    11: 1303236
    12: 2710076
    13: 1301905
    14: 1885229
    15: 3108169
    16: 2736031
    17: 1507406
    18: 3453055
    19: 9278545
    20: 15411800
    21: 124605
    22: 123294
    23: 72370
    24: 100389
    25: 140670
    26: 144486
    27: 87212
    28: 98299
    29: 73988
    30: 62362
    31: 53749
    32: 10786
    33: 3272
    34: 984
    35: 17612
    36: 9643
    37: 2133
    38: 23
    39: 3
    40: 3
    41: 0
    42: 0
    43: 0
    44: 0
    45: 0
    46: 0
    47: 0
    48: 0
    49: 0
    50: 0
    51: 0
    52: 0
    53: 0
    54: 0
    55: 0
    56: 0
    57: 0
    58: 0
    59: 0
    60: 0
    61: 0
    62: 0
    63: 0
    64: 0
    65: 0
    66: 0
    67: 0
    68: 0
    69: 0
    70: 0
    71: 0
    72: 0
    73: 0
    74: 0
    75: 0
    76: 0
    77: 0
    78: 0
    79: 0
    80: 0
    81: 0
    82: 0
    83: 0
    84: 0
    85: 0
    86: 0
    87: 0
    88: 0
    89: 0
    90: 0
    91: 0
    92: 0
    93: 0
    94: 0
    95: 0
    96: 0
    97: 0
    98: 0
    99: 0
  mem-1: # Memory controller stats
   rd: 387800662 # Read requests
   wr: 152934301 # Write requests
   rdlat: 37293765109 # Total latency experienced by read requests
   wrlat: 15384229080 # Total latency experienced by write requests
   rdhits: 33450 # Read row hits
   wrhits: 1878032 # Write row hits
   mlh: # latency histogram for memory requests
    0: 0
    1: 0
    2: 0
    3: 0
    4: 0
    5: 0
    6: 11577
    7: 7255
    8: 310701259
    9: 27287415
    10: 5761964
    11: 1271271
    12: 3057717
    13: 1182601
    14: 1749361
    15: 3261185
    16: 2834028
    17: 1309216
    18: 3478506
    19: 9405511
    20: 15324745
    21: 128830
    22: 115565
    23: 82112
    24: 106980
    25: 138691
    26: 148861
    27: 86389
    28: 98903
    29: 87265
    30: 64096
    31: 54750
    32: 11448
    33: 2149
    34: 933
    35: 17459
    36: 9981
    37: 1821
    38: 135
    39: 90
    40: 67
    41: 28
    42: 6
    43: 382
    44: 0
    45: 35
    46: 45
    47: 11
    48: 0
    49: 3
    50: 3
    51: 3
    52: 3
    53: 4
    54: 2
    55: 1
    56: 0
    57: 0
    58: 0
    59: 0
    60: 0
    61: 0
    62: 0
    63: 0
    64: 0
    65: 0
    66: 0
    67: 0
    68: 0
    69: 0
    70: 0
    71: 0
    72: 0
    73: 0
    74: 0
    75: 0
    76: 0
    77: 0
    78: 0
    79: 0
    80: 0
    81: 0
    82: 0
    83: 0
    84: 0
    85: 0
    86: 0
    87: 0
    88: 0
    89: 0
    90: 0
    91: 0
    92: 0
    93: 0
    94: 0
    95: 0
    96: 0
    97: 0
    98: 0
    99: 0
  mem-2: # Memory controller stats
   rd: 387879787 # Read requests
   wr: 152999908 # Write requests
   rdlat: 37290342838 # Total latency experienced by read requests
   wrlat: 15258536494 # Total latency experienced by write requests
   rdhits: 31445 # Read row hits
   wrhits: 1976274 # Write row hits
   mlh: # latency histogram for memory requests
    0: 0
    1: 0
    2: 0
    3: 0
    4: 0
    5: 0
    6: 10732
    7: 6693
    8: 313021361
    9: 25045184
    10: 5738214
    11: 1348130
    12: 2870710
    13: 1232321
    14: 1964817
    15: 3103552
    16: 2842938
    17: 1439418
    18: 3452356
    19: 9354054
    20: 15324871
    21: 123350
    22: 120760
    23: 70974
    24: 99921
    25: 139470
    26: 146179
    27: 85796
    28: 97548
    29: 77284
    30: 63784
    31: 53621
    32: 10624
    33: 3225
    34: 1026
    35: 19359
    36: 9815
    37: 1671
    38: 15
    39: 7
    40: 4
    41: 3
    42: 0
    43: 0
    44: 0
    45: 0
    46: 0
    47: 0
    48: 0
    49: 0
    50: 0
    51: 0
    52: 0
    53: 0
    54: 0
    55: 0
    56: 0
    57: 0
    58: 0
    59: 0
    60: 0
    61: 0
    62: 0
    63: 0
    64: 0
    65: 0
    66: 0
    67: 0
    68: 0
    69: 0
    70: 0
    71: 0
    72: 0
    73: 0
    74: 0
    75: 0
    76: 0
    77: 0
    78: 0
    79: 0
    80: 0
    81: 0
    82: 0
    83: 0
    84: 0
    85: 0
    86: 0
    87: 0
    88: 0
    89: 0
    90: 0
    91: 0
    92: 0
    93: 0
    94: 0
    95: 0
    96: 0
    97: 0
    98: 0
    99: 0
  mem-3: # Memory controller stats
   rd: 387815971 # Read requests
   wr: 152949234 # Write requests
   rdlat: 37300944695 # Total latency experienced by read requests
   wrlat: 15409682967 # Total latency experienced by write requests
   rdhits: 35775 # Read row hits
   wrhits: 1841975 # Write row hits
   mlh: # latency histogram for memory requests
    0: 0
    1: 0
    2: 0
    3: 0
    4: 0
    5: 0
    6: 11112
    7: 7562
    8: 310593168
    9: 27504557
    10: 5670733
    11: 1267721
    12: 2961305
    13: 1098131
    14: 1801374
    15: 3289242
    16: 2699481
    17: 1538361
    18: 3476809
    19: 9416716
    20: 15282286
    21: 128730
    22: 115876
    23: 81424
    24: 106577
    25: 144880
    26: 150921
    27: 90629
    28: 106940
    29: 89736
    30: 78494
    31: 55811
    32: 11142
    33: 2495
    34: 998
    35: 19357
    36: 10130
    37: 1970
    38: 272
    39: 155
    40: 378
    41: 346
    42: 17
    43: 18
    44: 4
    45: 26
    46: 24
    47: 33
    48: 14
    49: 2
    50: 5
    51: 4
    52: 5
    53: 0
    54: 0
    55: 0
    56: 0
    57: 0
    58: 0
    59: 0
    60: 0
    61: 0
    62: 0
    63: 0
    64: 0
    65: 0
    66: 0
    67: 0
    68: 0
    69: 0
    70: 0
    71: 0
    72: 0
    73: 0
    74: 0
    75: 0
    76: 0
    77: 0
    78: 0
    79: 0
    80: 0
    81: 0
    82: 0
    83: 0
    84: 0
    85: 0
    86: 0
    87: 0
    88: 0
    89: 0
    90: 0
    91: 0
    92: 0
    93: 0
    94: 0
    95: 0
    96: 0
    97: 0
    98: 0
    99: 0
 sched: # Scheduler stats
  thCr: 1 # Threads created
  thFn: 1 # Threads finished
  schedEvs: 1 # Schedule events
  waitEvs: 0 # Wait events
  handoffEvs: 0 # Handoff events
  sleepEvs: 0 # Sleep events
  idlePhases: 0 # Phases with no thread active
  idlePeriods: 0 # Periods with no thread active
  occHist: # Occupancy histogram
   0: 0
   1: 18808815
  rqSzHist: # Run queue size histogram
   0: 18808815
   1: 0
   2: 0
   3: 0
   4: 0
   5: 0
   6: 0
   7: 0
   8: 0
   9: 0
   10: 0
   11: 0
   12: 0
   13: 0
   14: 0
   15: 0
   16: 0
 procCycles: # Per-process unhalted core cycles
  0: 188088159309
  1: 0
  2: 0
  3: 0
  4: 0
  5: 0
  6: 0
  7: 0
  8: 0
  9: 0
  10: 0
  11: 0
  12: 0
  13: 0
  14: 0
  15: 0
  16: 0
  17: 0
  18: 0
  19: 0
  20: 0
  21: 0
  22: 0
  23: 0
  24: 0
  25: 0
  26: 0
  27: 0
  28: 0
  29: 0
  30: 0
  31: 0
  32: 0
  33: 0
  34: 0
  35: 0
  36: 0
  37: 0
  38: 0
  39: 0
  40: 0
  41: 0
  42: 0
  43: 0
  44: 0
  45: 0
  46: 0
  47: 0
  48: 0
  49: 0
  50: 0
  51: 0
  52: 0
  53: 0
  54: 0
  55: 0
  56: 0
  57: 0
  58: 0
  59: 0
  60: 0
  61: 0
  62: 0
  63: 0
 procInstrs: # Per-process instructions
  0: 223034983217
  1: 0
  2: 0
  3: 0
  4: 0
  5: 0
  6: 0
  7: 0
  8: 0
  9: 0
  10: 0
  11: 0
  12: 0
  13: 0
  14: 0
  15: 0
  16: 0
  17: 0
  18: 0
  19: 0
  20: 0
  21: 0
  22: 0
  23: 0
  24: 0
  25: 0
  26: 0
  27: 0
  28: 0
  29: 0
  30: 0
  31: 0
  32: 0
  33: 0
  34: 0
  35: 0
  36: 0
  37: 0
  38: 0
  39: 0
  40: 0
  41: 0
  42: 0
  43: 0
  44: 0
  45: 0
  46: 0
  47: 0
  48: 0
  49: 0
  50: 0
  51: 0
  52: 0
  53: 0
  54: 0
  55: 0
  56: 0
  57: 0
  58: 0
  59: 0
  60: 0
  61: 0
  62: 0
  63: 0
 heartbeats: # Per-process heartbeats
  0: 0
  1: 0
  2: 0
  3: 0
  4: 0
  5: 0
  6: 0
  7: 0
  8: 0
  9: 0
  10: 0
  11: 0
  12: 0
  13: 0
  14: 0
  15: 0
  16: 0
  17: 0
  18: 0
  19: 0
  20: 0
  21: 0
  22: 0
  23: 0
  24: 0
  25: 0
  26: 0
  27: 0
  28: 0
  29: 0
  30: 0
  31: 0
  32: 0
  33: 0
  34: 0
  35: 0
  36: 0
  37: 0
  38: 0
  39: 0
  40: 0
  41: 0
  42: 0
  43: 0
  44: 0
  45: 0
  46: 0
  47: 0
  48: 0
  49: 0
  50: 0
  51: 0
  52: 0
  53: 0
  54: 0
  55: 0
  56: 0
  57: 0
  58: 0
  59: 0
  60: 0
  61: 0
  62: 0
  63: 0
===
