bt,A,4,CPU-0,cycles,60327048282
bt,A,4,CPU-0,cCycles,4369033128
bt,A,4,CPU-0,instrs,99827737022
bt,A,4,CPU-0,uops,117523909743
bt,A,4,CPU-0,bbls,3128326554
bt,A,4,CPU-0,approxInstrs,1310322855
bt,A,4,CPU-0,mispredBranches,4536383
bt,A,4,l1i_CPU-0,hGETS,4245547242
bt,A,4,l1i_CPU-0,hGETX,0
bt,A,4,l1i_CPU-0,mGETS,115278
bt,A,4,l1i_CPU-0,mGETXIM,0
bt,A,4,l1i_CPU-0,mGETXSM,0
bt,A,4,l1i_CPU-0,PUTS,0
bt,A,4,l1i_CPU-0,PUTX,0
bt,A,4,l1i_CPU-0,INV,21121 0
bt,A,4,l1i_CPU-0,INVX,0
bt,A,4,l1i_CPU-0,FWD,0
bt,A,4,l1i_CPU-0,latGETnl,5874468
bt,A,4,l1i_CPU-0,latGETnet,0
bt,A,4,l1d_CPU-0,hGETS,1831377741
bt,A,4,l1d_CPU-0,hGETX,1310155521
bt,A,4,l1d_CPU-0,mGETS,1035823492
bt,A,4,l1d_CPU-0,mGETXIM,621141125
bt,A,4,l1d_CPU-0,mGETXSM,6699
bt,A,4,l1d_CPU-0,PUTS,0
bt,A,4,l1d_CPU-0,PUTX,0
bt,A,4,l1d_CPU-0,INV,4200 15812
bt,A,4,l1d_CPU-0,INVX,15812
bt,A,4,l1d_CPU-0,FWD,0
bt,A,4,l1d_CPU-0,latGETnl,38423032339
bt,A,4,l1d_CPU-0,latGETnet,0
bt,A,4,l2_CPU-0,hGETS,743369368
bt,A,4,l2_CPU-0,hGETX,602107982
bt,A,4,l2_CPU-0,mGETS,292569402
bt,A,4,l2_CPU-0,mGETXIM,19033140
bt,A,4,l2_CPU-0,mGETXSM,6702
bt,A,4,l2_CPU-0,PUTS,638938037
bt,A,4,l2_CPU-0,PUTX,1018115514
bt,A,4,l2_CPU-0,INV,13022 190385
bt,A,4,l2_CPU-0,INVX,190385
bt,A,4,l2_CPU-0,FWD,0
bt,A,4,l2_CPU-0,latGETnl,18543867675
bt,A,4,l2_CPU-0,latGETnet,0
bt,A,4,CPU-1,cycles,60325940461
bt,A,4,CPU-1,cCycles,4284461263
bt,A,4,CPU-1,instrs,99952027473
bt,A,4,CPU-1,uops,117683774284
bt,A,4,CPU-1,bbls,3164011180
bt,A,4,CPU-1,approxInstrs,1310313497
bt,A,4,CPU-1,mispredBranches,4521458
bt,A,4,l1i_CPU-1,hGETS,4245474797
bt,A,4,l1i_CPU-1,hGETX,0
bt,A,4,l1i_CPU-1,mGETS,78492
bt,A,4,l1i_CPU-1,mGETXIM,0
bt,A,4,l1i_CPU-1,mGETXSM,0
bt,A,4,l1i_CPU-1,PUTS,0
bt,A,4,l1i_CPU-1,PUTX,0
bt,A,4,l1i_CPU-1,INV,11759 0
bt,A,4,l1i_CPU-1,INVX,0
bt,A,4,l1i_CPU-1,FWD,0
bt,A,4,l1i_CPU-1,latGETnl,3833614
bt,A,4,l1i_CPU-1,latGETnet,0
bt,A,4,l1d_CPU-1,hGETS,1518602919
bt,A,4,l1d_CPU-1,hGETX,1113732473
bt,A,4,l1d_CPU-1,mGETS,1033976468
bt,A,4,l1d_CPU-1,mGETXIM,621545026
bt,A,4,l1d_CPU-1,mGETXSM,5650
bt,A,4,l1d_CPU-1,PUTS,0
bt,A,4,l1d_CPU-1,PUTX,0
bt,A,4,l1d_CPU-1,INV,6592 6965
bt,A,4,l1d_CPU-1,INVX,6965
bt,A,4,l1d_CPU-1,FWD,0
bt,A,4,l1d_CPU-1,latGETnl,38249982701
bt,A,4,l1d_CPU-1,latGETnet,0
bt,A,4,l2_CPU-1,hGETS,741132786
bt,A,4,l2_CPU-1,hGETX,602575795
bt,A,4,l2_CPU-1,mGETS,292922174
bt,A,4,l2_CPU-1,mGETXIM,18969249
bt,A,4,l2_CPU-1,mGETXSM,5632
bt,A,4,l2_CPU-1,PUTS,638170995
bt,A,4,l2_CPU-1,PUTX,1017409689
bt,A,4,l2_CPU-1,INV,8312 90908
bt,A,4,l2_CPU-1,INVX,90908
bt,A,4,l2_CPU-1,FWD,0
bt,A,4,l2_CPU-1,latGETnl,18386548683
bt,A,4,l2_CPU-1,latGETnet,0
bt,A,4,CPU-2,cycles,59017519054
bt,A,4,CPU-2,cCycles,3944254550
bt,A,4,CPU-2,instrs,95492834651
bt,A,4,CPU-2,uops,112620482602
bt,A,4,CPU-2,bbls,3465368839
bt,A,4,CPU-2,approxInstrs,1228419033
bt,A,4,CPU-2,mispredBranches,4266282
bt,A,4,l1i_CPU-2,hGETS,3980131207
bt,A,4,l1i_CPU-2,hGETX,0
bt,A,4,l1i_CPU-2,mGETS,78435
bt,A,4,l1i_CPU-2,mGETXIM,0
bt,A,4,l1i_CPU-2,mGETXSM,0
bt,A,4,l1i_CPU-2,PUTS,0
bt,A,4,l1i_CPU-2,PUTX,0
bt,A,4,l1i_CPU-2,INV,12730 0
bt,A,4,l1i_CPU-2,INVX,0
bt,A,4,l1i_CPU-2,FWD,0
bt,A,4,l1i_CPU-2,latGETnl,4438612
bt,A,4,l1i_CPU-2,latGETnet,0
bt,A,4,l1d_CPU-2,hGETS,1424424199
bt,A,4,l1d_CPU-2,hGETX,1044586304
bt,A,4,l1d_CPU-2,mGETS,970218602
bt,A,4,l1d_CPU-2,mGETXIM,583864431
bt,A,4,l1d_CPU-2,mGETXSM,4915
bt,A,4,l1d_CPU-2,PUTS,0
bt,A,4,l1d_CPU-2,PUTX,0
bt,A,4,l1d_CPU-2,INV,7939 13820
bt,A,4,l1d_CPU-2,INVX,13820
bt,A,4,l1d_CPU-2,FWD,0
bt,A,4,l1d_CPU-2,latGETnl,35992761557
bt,A,4,l1d_CPU-2,latGETnet,0
bt,A,4,l2_CPU-2,hGETS,694917275
bt,A,4,l2_CPU-2,hGETX,564915963
bt,A,4,l2_CPU-2,mGETS,275379762
bt,A,4,l2_CPU-2,mGETXIM,18948473
bt,A,4,l2_CPU-2,mGETXSM,4910
bt,A,4,l2_CPU-2,PUTS,599161749
bt,A,4,l2_CPU-2,PUTX,954978091
bt,A,4,l2_CPU-2,INV,8150 21628
bt,A,4,l2_CPU-2,INVX,21628
bt,A,4,l2_CPU-2,FWD,0
bt,A,4,l2_CPU-2,latGETnl,17347203573
bt,A,4,l2_CPU-2,latGETnet,0
bt,A,4,CPU-3,cycles,59054139090
bt,A,4,CPU-3,cCycles,4055676306
bt,A,4,CPU-3,instrs,95419523477
bt,A,4,CPU-3,uops,112526225122
bt,A,4,CPU-3,bbls,3444422517
bt,A,4,CPU-3,approxInstrs,1228419061
bt,A,4,CPU-3,mispredBranches,4266346
bt,A,4,l1i_CPU-3,hGETS,3980134887
bt,A,4,l1i_CPU-3,hGETX,0
bt,A,4,l1i_CPU-3,mGETS,75071
bt,A,4,l1i_CPU-3,mGETXIM,0
bt,A,4,l1i_CPU-3,mGETXSM,0
bt,A,4,l1i_CPU-3,PUTS,0
bt,A,4,l1i_CPU-3,PUTX,0
bt,A,4,l1i_CPU-3,INV,13349 0
bt,A,4,l1i_CPU-3,INVX,0
bt,A,4,l1i_CPU-3,FWD,0
bt,A,4,l1i_CPU-3,latGETnl,3820007
bt,A,4,l1i_CPU-3,latGETnet,0
bt,A,4,l1d_CPU-3,hGETS,1424319769
bt,A,4,l1d_CPU-3,hGETX,1044565895
bt,A,4,l1d_CPU-3,mGETS,970239963
bt,A,4,l1d_CPU-3,mGETXIM,583863228
bt,A,4,l1d_CPU-3,mGETXSM,6660
bt,A,4,l1d_CPU-3,PUTS,0
bt,A,4,l1d_CPU-3,PUTX,0
bt,A,4,l1d_CPU-3,INV,7894 10288
bt,A,4,l1d_CPU-3,INVX,10288
bt,A,4,l1d_CPU-3,FWD,0
bt,A,4,l1d_CPU-3,latGETnl,36059840885
bt,A,4,l1d_CPU-3,latGETnet,0
bt,A,4,l2_CPU-3,hGETS,695284851
bt,A,4,l2_CPU-3,hGETX,564901933
bt,A,4,l2_CPU-3,mGETS,275030183
bt,A,4,l2_CPU-3,mGETXIM,18961301
bt,A,4,l2_CPU-3,mGETXSM,6654
bt,A,4,l2_CPU-3,PUTS,599186566
bt,A,4,l2_CPU-3,PUTX,954969497
bt,A,4,l2_CPU-3,INV,8362 20128
bt,A,4,l2_CPU-3,INVX,20128
bt,A,4,l2_CPU-3,FWD,0
bt,A,4,l2_CPU-3,latGETnl,17413441828
bt,A,4,l2_CPU-3,latGETnet,0
bt,A,4,l3-0b0,hGETS,57495972
bt,A,4,l3-0b0,hGETX,77602
bt,A,4,l3-0b0,mGETS,84579239
bt,A,4,l3-0b0,mGETXIM,9408498
bt,A,4,l3-0b0,mGETXSM,0
bt,A,4,l3-0b0,PUTS,99483192
bt,A,4,l3-0b0,PUTX,52069746
bt,A,4,l3-0b0,INV,0 0
bt,A,4,l3-0b0,INVX,0
bt,A,4,l3-0b0,FWD,0
bt,A,4,l3-0b0,latGETnl,4417423639
bt,A,4,l3-0b0,latGETnet,0
bt,A,4,l3-0b1,hGETS,57429577
bt,A,4,l3-0b1,hGETX,71654
bt,A,4,l3-0b1,mGETS,84565414
bt,A,4,l3-0b1,mGETXIM,9404448
bt,A,4,l3-0b1,mGETXSM,0
bt,A,4,l3-0b1,PUTS,99416631
bt,A,4,l3-0b1,PUTX,52043635
bt,A,4,l3-0b1,INV,0 0
bt,A,4,l3-0b1,INVX,0
bt,A,4,l3-0b1,FWD,0
bt,A,4,l3-0b1,latGETnl,4416583514
bt,A,4,l3-0b1,latGETnet,0
bt,A,4,l3-0b2,hGETS,57377008
bt,A,4,l3-0b2,hGETX,76929
bt,A,4,l3-0b2,mGETS,84570061
bt,A,4,l3-0b2,mGETXIM,9407154
bt,A,4,l3-0b2,mGETXSM,0
bt,A,4,l3-0b2,PUTS,99366350
bt,A,4,l3-0b2,PUTX,52055895
bt,A,4,l3-0b2,INV,0 0
bt,A,4,l3-0b2,INVX,0
bt,A,4,l3-0b2,FWD,0
bt,A,4,l3-0b2,latGETnl,4416929105
bt,A,4,l3-0b2,latGETnet,0
bt,A,4,l3-0b3,hGETS,57462305
bt,A,4,l3-0b3,hGETX,75086
bt,A,4,l3-0b3,mGETS,84547635
bt,A,4,l3-0b3,mGETXIM,9405426
bt,A,4,l3-0b3,mGETXSM,0
bt,A,4,l3-0b3,PUTS,99423232
bt,A,4,l3-0b3,PUTX,52062025
bt,A,4,l3-0b3,INV,0 0
bt,A,4,l3-0b3,INVX,0
bt,A,4,l3-0b3,FWD,0
bt,A,4,l3-0b3,latGETnl,4415793867
bt,A,4,l3-0b3,latGETnet,0
bt,A,4,l3-0b4,hGETS,57430737
bt,A,4,l3-0b4,hGETX,90454
bt,A,4,l3-0b4,mGETS,84554880
bt,A,4,l3-0b4,mGETXIM,9406458
bt,A,4,l3-0b4,mGETXSM,0
bt,A,4,l3-0b4,PUTS,99399757
bt,A,4,l3-0b4,PUTX,52070640
bt,A,4,l3-0b4,INV,0 0
bt,A,4,l3-0b4,INVX,0
bt,A,4,l3-0b4,FWD,0
bt,A,4,l3-0b4,latGETnl,4416182886
bt,A,4,l3-0b4,latGETnet,0
bt,A,4,l3-0b5,hGETS,57356708
bt,A,4,l3-0b5,hGETX,78928
bt,A,4,l3-0b5,mGETS,84562745
bt,A,4,l3-0b5,mGETXIM,9402668
bt,A,4,l3-0b5,mGETXSM,0
bt,A,4,l3-0b5,PUTS,99342583
bt,A,4,l3-0b5,PUTX,52038020
bt,A,4,l3-0b5,INV,0 0
bt,A,4,l3-0b5,INVX,0
bt,A,4,l3-0b5,FWD,0
bt,A,4,l3-0b5,latGETnl,4416374411
bt,A,4,l3-0b5,latGETnet,0
bt,A,4,l3-0b6,hGETS,57441069
bt,A,4,l3-0b6,hGETX,106625
bt,A,4,l3-0b6,mGETS,84536220
bt,A,4,l3-0b6,mGETXIM,9406889
bt,A,4,l3-0b6,mGETXSM,0
bt,A,4,l3-0b6,PUTS,99377560
bt,A,4,l3-0b6,PUTX,52106479
bt,A,4,l3-0b6,INV,0 0
bt,A,4,l3-0b6,INVX,0
bt,A,4,l3-0b6,FWD,0
bt,A,4,l3-0b6,latGETnl,4415326123
bt,A,4,l3-0b6,latGETnet,0
bt,A,4,l3-0b7,hGETS,57423437
bt,A,4,l3-0b7,hGETX,110770
bt,A,4,l3-0b7,mGETS,84568514
bt,A,4,l3-0b7,mGETXIM,9406472
bt,A,4,l3-0b7,mGETXSM,0
bt,A,4,l3-0b7,PUTS,99420217
bt,A,4,l3-0b7,PUTX,52083578
bt,A,4,l3-0b7,INV,0 0
bt,A,4,l3-0b7,INVX,0
bt,A,4,l3-0b7,FWD,0
bt,A,4,l3-0b7,latGETnl,4416824342
bt,A,4,l3-0b7,latGETnet,0
