"app","threads","event","exec","avg","se"
"bt",1,"cycles","Real without Prefetch",196545900681,0
"bt",1,"cycles","Real with Prefetch",156420721053,0
"bt",1,"cycles","Simulation",239754152544,0
"bt",2,"cycles","Real without Prefetch",98721462544,0
"bt",2,"cycles","Real with Prefetch",79115253111,0
"bt",2,"cycles","Simulation",123401109974,0
"bt",4,"cycles","Real without Prefetch",52125220878,0
"bt",4,"cycles","Real with Prefetch",41788972034,0
"bt",4,"cycles","Simulation",60327048282,0
"bt",8,"cycles","Real without Prefetch",27431368541,0
"bt",8,"cycles","Real with Prefetch",23011522957,0
"bt",8,"cycles","Simulation",30603472377,0
"cg",1,"cycles","Real without Prefetch",10203773196,0
"cg",1,"cycles","Real with Prefetch",4452735990,0
"cg",1,"cycles","Simulation",9153347164,0
"cg",2,"cycles","Real without Prefetch",5131076298,0
"cg",2,"cycles","Real with Prefetch",2305881295,0
"cg",2,"cycles","Simulation",4673930420,0
"cg",4,"cycles","Real without Prefetch",2780106697,0
"cg",4,"cycles","Real with Prefetch",1146747512,0
"cg",4,"cycles","Simulation",2395180860,0
"cg",8,"cycles","Real without Prefetch",1574591061,0
"cg",8,"cycles","Real with Prefetch",638337861,0
"cg",8,"cycles","Simulation",1255851287,0
"ep",1,"cycles","Real without Prefetch",41912139358,0
"ep",1,"cycles","Real with Prefetch",40876043724,0
"ep",1,"cycles","Simulation",47502243666,0
"ep",2,"cycles","Real without Prefetch",21012412618,0
"ep",2,"cycles","Real with Prefetch",20502734172,0
"ep",2,"cycles","Simulation",23753831509,0
"ep",4,"cycles","Real without Prefetch",10551540107,0
"ep",4,"cycles","Real with Prefetch",10253366878,0
"ep",4,"cycles","Simulation",11878522892,0
"ep",8,"cycles","Real without Prefetch",5277607758,0
"ep",8,"cycles","Real with Prefetch",5161861139,0
"ep",8,"cycles","Simulation",5941619747,0
"ft",1,"cycles","Real without Prefetch",18053025218,0
"ft",1,"cycles","Real with Prefetch",13532524857,0
"ft",1,"cycles","Simulation",19568772822,0
"ft",2,"cycles","Real without Prefetch",9343978999,0
"ft",2,"cycles","Real with Prefetch",6924076820,0
"ft",2,"cycles","Simulation",9869092346,0
"ft",4,"cycles","Real without Prefetch",4951295237,0
"ft",4,"cycles","Real with Prefetch",3781148791,0
"ft",4,"cycles","Simulation",4969422292,0
"ft",8,"cycles","Real without Prefetch",2725728986,0
"ft",8,"cycles","Real with Prefetch",2223186398,0
"ft",8,"cycles","Simulation",2616879437,0
"is",1,"cycles","Real without Prefetch",8078580957,0
"is",1,"cycles","Real with Prefetch",6061018646,0
"is",1,"cycles","Simulation",8211926499,0
"is",2,"cycles","Real without Prefetch",4079488798,0
"is",2,"cycles","Real with Prefetch",3109527895,0
"is",2,"cycles","Simulation",4115405562,0
"is",4,"cycles","Real without Prefetch",2084895892,0
"is",4,"cycles","Real with Prefetch",1604901564,0
"is",4,"cycles","Simulation",2063207032,0
"is",8,"cycles","Real without Prefetch",1092701788,0
"is",8,"cycles","Real with Prefetch",842192102,0
"is",8,"cycles","Simulation",1036957177,0
"lu",1,"cycles","Real without Prefetch",166700548861,0
"lu",1,"cycles","Real with Prefetch",120033494675,0
"lu",1,"cycles","Simulation",159080624177,0
"lu",2,"cycles","Real without Prefetch",85238150898,0
"lu",2,"cycles","Real with Prefetch",61229355161,0
"lu",2,"cycles","Simulation",74818535492,0
"lu",4,"cycles","Real without Prefetch",45075504073,0
"lu",4,"cycles","Real with Prefetch",32918709112,0
"lu",4,"cycles","Simulation",39150857237,0
"lu",8,"cycles","Real without Prefetch",23849809541,0
"lu",8,"cycles","Real with Prefetch",17998747030,0
"lu",8,"cycles","Simulation",20367506782,0
"mg",1,"cycles","Real without Prefetch",20313089797,0
"mg",1,"cycles","Real with Prefetch",6589610916,0
"mg",1,"cycles","Simulation",19696616191,0
"mg",2,"cycles","Real without Prefetch",10818063060,0
"mg",2,"cycles","Real with Prefetch",3460231395,0
"mg",2,"cycles","Simulation",9899943489,0
"mg",4,"cycles","Real without Prefetch",5863829870,0
"mg",4,"cycles","Real with Prefetch",2050202825,0
"mg",4,"cycles","Simulation",4997962380,0
"mg",8,"cycles","Real without Prefetch",3507534715,0
"mg",8,"cycles","Real with Prefetch",1980959199,0
"mg",8,"cycles","Simulation",2704619172,0
"sp",1,"cycles","Real without Prefetch",189037295865,0
"sp",1,"cycles","Real with Prefetch",104882628650,0
"sp",1,"cycles","Simulation",188088159309,0
"sp",2,"cycles","Real without Prefetch",98572083086,0
"sp",2,"cycles","Real with Prefetch",54037109016,0
"sp",2,"cycles","Simulation",95198062274,0
"sp",4,"cycles","Real without Prefetch",53756548379,0
"sp",4,"cycles","Real with Prefetch",30911032099,0
"sp",4,"cycles","Simulation",49859462416,0
"sp",8,"cycles","Real without Prefetch",31266986751,0
"sp",8,"cycles","Real with Prefetch",21048334787,0
"sp",8,"cycles","Simulation",26687715749,0
"ua",1,"cycles","Real without Prefetch",146499099770,0
"ua",1,"cycles","Real with Prefetch",122806936883,0
"ua",1,"cycles","Simulation",189842376324,0
"ua",2,"cycles","Real without Prefetch",75625725880,0
"ua",2,"cycles","Real with Prefetch",63276917027,0
"ua",2,"cycles","Simulation",96700182270,0
"ua",4,"cycles","Real without Prefetch",40614361724,0
"ua",4,"cycles","Real with Prefetch",34096130188,0
"ua",4,"cycles","Simulation",50799555180,0
"ua",8,"cycles","Real without Prefetch",22055846376,0
"ua",8,"cycles","Real with Prefetch",19042218219,0
"ua",8,"cycles","Simulation",26655628657,0
"bt",1,"L1-Dcache","Real without Prefetch",155298843734.3,379992.128129268
"bt",1,"L1-Dcache","Real with Prefetch",155287655655,745722.983591092
"bt",1,"L1-Dcache","Simulation",18555297320,NA
"bt",2,"L1-Dcache","Real without Prefetch",77666564848.7,9155717.26507794
"bt",2,"L1-Dcache","Real with Prefetch",77664546495.15,17519235.1284834
"bt",2,"L1-Dcache","Simulation",8815312338,1455121680
"bt",4,"L1-Dcache","Real without Prefetch",38944444061.15,548651083.462299
"bt",4,"L1-Dcache","Real with Prefetch",38915805848.95,559386261.474292
"bt",4,"L1-Dcache","Simulation",4283115270,548351877.291853
"bt",8,"L1-Dcache","Real without Prefetch",19487596617.3625,332076568.500042
"bt",8,"L1-Dcache","Real with Prefetch",19472232095.425,337237834.05863
"bt",8,"L1-Dcache","Simulation",2109684117.375,177175947.570366
"cg",1,"L1-Dcache","Real without Prefetch",2949667470.4,832242.812431468
"cg",1,"L1-Dcache","Real with Prefetch",2947811778.5,764134.975783369
"cg",1,"L1-Dcache","Simulation",979667448,NA
"cg",2,"L1-Dcache","Real without Prefetch",1480536724.65,3217484.06336281
"cg",2,"L1-Dcache","Real with Prefetch",1476650842.15,489135.555565613
"cg",2,"L1-Dcache","Simulation",489767089,200919
"cg",4,"L1-Dcache","Real without Prefetch",744330489.6,2173671.79882193
"cg",4,"L1-Dcache","Real with Prefetch",741359703.7,2491678.5441653
"cg",4,"L1-Dcache","Simulation",244905327.25,2632902.52936993
"cg",8,"L1-Dcache","Real without Prefetch",377194444.4375,1258722.4086895
"cg",8,"L1-Dcache","Real with Prefetch",373357267.8,993236.431514428
"cg",8,"L1-Dcache","Simulation",122486971.625,899608.837524427
"ep",1,"L1-Dcache","Real without Prefetch",13608181618.6,1032049.48472001
"ep",1,"L1-Dcache","Real with Prefetch",13607784479,798228.407095488
"ep",1,"L1-Dcache","Simulation",1446194920,NA
"ep",2,"L1-Dcache","Real without Prefetch",6804481986.35,1461224.91147202
"ep",2,"L1-Dcache","Real with Prefetch",6803810147.85,1023071.05073867
"ep",2,"L1-Dcache","Simulation",831282410.5,307532332.5
"ep",4,"L1-Dcache","Real without Prefetch",3402741387.775,799554.111184498
"ep",4,"L1-Dcache","Real with Prefetch",3402559409.3,719379.980882051
"ep",4,"L1-Dcache","Simulation",440608664,78914833.7186534
"ep",8,"L1-Dcache","Real without Prefetch",1702210218.1375,644149.36380881
"ep",8,"L1-Dcache","Real with Prefetch",1701924723.2,531423.688033206
"ep",8,"L1-Dcache","Simulation",226907171.75,19685628.6680078
"ft",1,"L1-Dcache","Real without Prefetch",9407717170.8,839106.248873979
"ft",1,"L1-Dcache","Real with Prefetch",9404691497.4,647352.848329595
"ft",1,"L1-Dcache","Simulation",1667384826,NA
"ft",2,"L1-Dcache","Real without Prefetch",4705765398.15,9218278.44309753
"ft",2,"L1-Dcache","Real with Prefetch",4704383860.1,8566568.18698639
"ft",2,"L1-Dcache","Simulation",831040748.5,8047393.5
"ft",4,"L1-Dcache","Real without Prefetch",2354228241.2,5567411.28829803
"ft",4,"L1-Dcache","Real with Prefetch",2353423505.45,5240340.13651685
"ft",4,"L1-Dcache","Simulation",414851339.25,2005675.8629274
"ft",8,"L1-Dcache","Real without Prefetch",1179577029.925,3028115.87075107
"ft",8,"L1-Dcache","Real with Prefetch",1178079679.5,2931005.64825073
"ft",8,"L1-Dcache","Simulation",207216919.25,540705.343017464
"is",1,"L1-Dcache","Real without Prefetch",1640236637.6,662996.711976945
"is",1,"L1-Dcache","Real with Prefetch",1639463142.6,591380.631028308
"is",1,"L1-Dcache","Simulation",229774793,NA
"is",2,"L1-Dcache","Real without Prefetch",820566326.3,1474443.06610502
"is",2,"L1-Dcache","Real with Prefetch",820128386.15,2013929.37563189
"is",2,"L1-Dcache","Simulation",118890950.5,220270.5
"is",4,"L1-Dcache","Real without Prefetch",410794927.7,948163.420384165
"is",4,"L1-Dcache","Real with Prefetch",410247914.725,1094205.33039846
"is",4,"L1-Dcache","Simulation",59880989.25,491781.723765801
"is",8,"L1-Dcache","Real without Prefetch",205944567.075,614281.900269981
"is",8,"L1-Dcache","Real with Prefetch",205689428.325,641095.23691289
"is",8,"L1-Dcache","Simulation",29162118.75,107054.940274634
"lu",1,"L1-Dcache","Real without Prefetch",86428049304.1,989399.592132769
"lu",1,"L1-Dcache","Real with Prefetch",86415551561.5,571721.077774163
"lu",1,"L1-Dcache","Simulation",11276715499,NA
"lu",2,"L1-Dcache","Real without Prefetch",43286893029.15,20557794.8080546
"lu",2,"L1-Dcache","Real with Prefetch",43243411460.05,6167738.53381183
"lu",2,"L1-Dcache","Simulation",5595879744.5,19876201.5
"lu",4,"L1-Dcache","Real without Prefetch",21746544680.95,305856422.355127
"lu",4,"L1-Dcache","Real with Prefetch",21702131861.375,308885305.739195
"lu",4,"L1-Dcache","Simulation",2799631096,150690346.600818
"lu",8,"L1-Dcache","Real without Prefetch",10919000400.975,183098297.859456
"lu",8,"L1-Dcache","Real with Prefetch",10887212710.5,188259660.429822
"lu",8,"L1-Dcache","Simulation",1401145878.875,86769741.4432866
"mg",1,"L1-Dcache","Real without Prefetch",6549224564.6,590920.20078217
"mg",1,"L1-Dcache","Real with Prefetch",6543734077.8,619766.184548141
"mg",1,"L1-Dcache","Simulation",2388574696,NA
"mg",2,"L1-Dcache","Real without Prefetch",3276545942.6,12218385.1618506
"mg",2,"L1-Dcache","Real with Prefetch",3272413686.65,12363934.1662619
"mg",2,"L1-Dcache","Simulation",1194804032,513030
"mg",4,"L1-Dcache","Real without Prefetch",1641130683.25,7361462.12035436
"mg",4,"L1-Dcache","Real with Prefetch",1637173775,7589034.21095536
"mg",4,"L1-Dcache","Simulation",597538854.25,194239.389588112
"mg",8,"L1-Dcache","Real without Prefetch",821821567.325,4211222.72034215
"mg",8,"L1-Dcache","Real with Prefetch",819479930.6,4093601.09764607
"mg",8,"L1-Dcache","Simulation",298804288.5,205519.428537791
"sp",1,"L1-Dcache","Real without Prefetch",86046633708.3,934234.707813732
"sp",1,"L1-Dcache","Real with Prefetch",86023525451,657473.297868438
"sp",1,"L1-Dcache","Simulation",15607614676,NA
"sp",2,"L1-Dcache","Real without Prefetch",43062011682.8,23438502.8713408
"sp",2,"L1-Dcache","Real with Prefetch",43026924066.35,8724087.15553046
"sp",2,"L1-Dcache","Simulation",7726449877,116095932
"sp",4,"L1-Dcache","Real without Prefetch",21636538714.425,279257133.55967
"sp",4,"L1-Dcache","Real with Prefetch",21572756705.25,299042194.166321
"sp",4,"L1-Dcache","Simulation",3871673287.25,198274132.635311
"sp",8,"L1-Dcache","Real without Prefetch",10853424853.5625,164001173.439183
"sp",8,"L1-Dcache","Real with Prefetch",10802992588.05,175911918.332387
"sp",8,"L1-Dcache","Simulation",1925860254.5,108644096.637333
"ua",1,"L1-Dcache","Real without Prefetch",85626125227.7,687264.877985053
"ua",1,"L1-Dcache","Real with Prefetch",85620062488.5,484578.506377089
"ua",1,"L1-Dcache","Simulation",9966300260,NA
"ua",2,"L1-Dcache","Real without Prefetch",42922005528.7,90040821.7239243
"ua",2,"L1-Dcache","Real with Prefetch",42897454845.7,92866326.398576
"ua",2,"L1-Dcache","Simulation",4802175797.5,432733762.5
"ua",4,"L1-Dcache","Real without Prefetch",21575757146.8,35891810.7142014
"ua",4,"L1-Dcache","Real with Prefetch",21546788973.95,39123471.3904579
"ua",4,"L1-Dcache","Simulation",2354871124.25,84722859.9554567
"ua",8,"L1-Dcache","Real without Prefetch",10861304444.8,19312066.8869121
"ua",8,"L1-Dcache","Real with Prefetch",10832754651.1,20929604.0648658
"ua",8,"L1-Dcache","Simulation",1167312154.125,24877833.8729226
"bt",1,"LLC","Real without Prefetch",12265677949,0
"bt",1,"LLC","Real with Prefetch",7389220155,0
"bt",1,"LLC","Simulation",2109204428,0
"bt",2,"LLC","Real without Prefetch",12442183511,0
"bt",2,"LLC","Real with Prefetch",7496652321,0
"bt",2,"LLC","Simulation",2310727948,0
"bt",4,"LLC","Real without Prefetch",12378528399,0
"bt",4,"LLC","Real with Prefetch",8167496615,0
"bt",4,"LLC","Simulation",1211837582,0
"bt",8,"LLC","Real without Prefetch",12421651596,0
"bt",8,"LLC","Real with Prefetch",9136874135,0
"bt",8,"LLC","Simulation",1213483581,0
"cg",1,"LLC","Real without Prefetch",4920195054,0
"cg",1,"LLC","Real with Prefetch",1519343548,0
"cg",1,"LLC","Simulation",162630267,0
"cg",2,"LLC","Real without Prefetch",2082658055,0
"cg",2,"LLC","Real with Prefetch",1475608482,0
"cg",2,"LLC","Simulation",159354035,0
"cg",4,"LLC","Real without Prefetch",1994988735,0
"cg",4,"LLC","Real with Prefetch",1588030921,0
"cg",4,"LLC","Simulation",160569797,0
"cg",8,"LLC","Real without Prefetch",1876725789,0
"cg",8,"LLC","Real with Prefetch",1571744769,0
"cg",8,"LLC","Simulation",162586465,0
"ep",1,"LLC","Real without Prefetch",1365985783,0
"ep",1,"LLC","Real with Prefetch",56823615,0
"ep",1,"LLC","Simulation",135261369,0
"ep",2,"LLC","Real without Prefetch",1366404977,0
"ep",2,"LLC","Real with Prefetch",58645778,0
"ep",2,"LLC","Simulation",135289188,0
"ep",4,"LLC","Real without Prefetch",1367163469,0
"ep",4,"LLC","Real with Prefetch",60295020,0
"ep",4,"LLC","Simulation",135355553,0
"ep",8,"LLC","Real without Prefetch",1368514846,0
"ep",8,"LLC","Real with Prefetch",61522695,0
"ep",8,"LLC","Simulation",135484660,0
"ft",1,"LLC","Real without Prefetch",2918239601,0
"ft",1,"LLC","Real with Prefetch",1981103993,0
"ft",1,"LLC","Simulation",460446163,0
"ft",2,"LLC","Real without Prefetch",3060950009,0
"ft",2,"LLC","Real with Prefetch",2021422778,0
"ft",2,"LLC","Simulation",429030570,0
"ft",4,"LLC","Real without Prefetch",3138533474,0
"ft",4,"LLC","Real with Prefetch",2083183129,0
"ft",4,"LLC","Simulation",411698840,0
"ft",8,"LLC","Real without Prefetch",3163484744,0
"ft",8,"LLC","Real with Prefetch",2140103120,0
"ft",8,"LLC","Simulation",385084793,0
"is",1,"LLC","Real without Prefetch",276271095,0
"is",1,"LLC","Real with Prefetch",115243794,0
"is",1,"LLC","Simulation",26507554,0
"is",2,"LLC","Real without Prefetch",292161926,0
"is",2,"LLC","Real with Prefetch",141097764,0
"is",2,"LLC","Simulation",28064245,0
"is",4,"LLC","Real without Prefetch",300940440,0
"is",4,"LLC","Real with Prefetch",174991838,0
"is",4,"LLC","Simulation",28782966,0
"is",8,"LLC","Real without Prefetch",305858457,0
"is",8,"LLC","Real with Prefetch",202114197,0
"is",8,"LLC","Simulation",29147796,0
"lu",1,"LLC","Real without Prefetch",41023738807,0
"lu",1,"LLC","Real with Prefetch",8780705431,0
"lu",1,"LLC","Simulation",4978346092,0
"lu",2,"LLC","Real without Prefetch",41369021823,0
"lu",2,"LLC","Real with Prefetch",9520723360,0
"lu",2,"LLC","Simulation",4121613190,0
"lu",4,"LLC","Real without Prefetch",41205175456,0
"lu",4,"LLC","Real with Prefetch",10199053392,0
"lu",4,"LLC","Simulation",4105687465,0
"lu",8,"LLC","Real without Prefetch",38345427402,0
"lu",8,"LLC","Real with Prefetch",9681741219,0
"lu",8,"LLC","Simulation",3945750131,0
"mg",1,"LLC","Real without Prefetch",2547405932,0
"mg",1,"LLC","Real with Prefetch",1175412486,0
"mg",1,"LLC","Simulation",251499330,0
"mg",2,"LLC","Real without Prefetch",2552259844,0
"mg",2,"LLC","Real with Prefetch",1265413850,0
"mg",2,"LLC","Simulation",251483809,0
"mg",4,"LLC","Real without Prefetch",2554347865,0
"mg",4,"LLC","Real with Prefetch",1597966874,0
"mg",4,"LLC","Simulation",251451781,0
"mg",8,"LLC","Real without Prefetch",2558738475,0
"mg",8,"LLC","Real with Prefetch",2490682933,0
"mg",8,"LLC","Simulation",251520343,0
"sp",1,"LLC","Real without Prefetch",47028604565,0
"sp",1,"LLC","Real with Prefetch",19339270964,0
"sp",1,"LLC","Simulation",5501451423,0
"sp",2,"LLC","Real without Prefetch",46971090899,0
"sp",2,"LLC","Real with Prefetch",19883218987,0
"sp",2,"LLC","Simulation",5240089496,0
"sp",4,"LLC","Real without Prefetch",46988567101,0
"sp",4,"LLC","Real with Prefetch",21733847272,0
"sp",4,"LLC","Simulation",4750841942,0
"sp",8,"LLC","Real without Prefetch",47082987726,0
"sp",8,"LLC","Real with Prefetch",25927828558,0
"sp",8,"LLC","Simulation",4755925447,0
"ua",1,"LLC","Real without Prefetch",20838985051,0
"ua",1,"LLC","Real with Prefetch",11126891360,0
"ua",1,"LLC","Simulation",2074528024,0
"ua",2,"LLC","Real without Prefetch",20912938663,0
"ua",2,"LLC","Real with Prefetch",11314573348,0
"ua",2,"LLC","Simulation",2078181438,0
"ua",4,"LLC","Real without Prefetch",21006824473,0
"ua",4,"LLC","Real with Prefetch",11695440687,0
"ua",4,"LLC","Simulation",2085354219,0
"ua",8,"LLC","Real without Prefetch",21204722557,0
"ua",8,"LLC","Real with Prefetch",12260856974,0
"ua",8,"LLC","Simulation",2105994265,0
