"app","threads","resource","aggr"
"bt",1,"CPU-0",239754152544
"bt",1,"L1-Dcache",18555297320
"bt",1,"LLC",2109204428
"bt",2,"CPU-0",123401109974
"bt",2,"CPU-1",120190718348
"bt",2,"L1-Dcache",9300352898
"bt",2,"L1-Dcache",8330271778
"bt",2,"LLC",2310727948
"bt",4,"CPU-0",60327048282
"bt",4,"CPU-1",60325940461
"bt",4,"CPU-2",59017519054
"bt",4,"CPU-3",59054139090
"bt",4,"L1-Dcache",4798504578
"bt",4,"L1-Dcache",4287862536
"bt",4,"L1-Dcache",4023098451
"bt",4,"L1-Dcache",4022995515
"bt",4,"LLC",1211837582
"bt",8,"CPU-0",30603472377
"bt",8,"CPU-1",30602360347
"bt",8,"CPU-2",30602340851
"bt",8,"CPU-3",30602320286
"bt",8,"CPU-4",30602300917
"bt",8,"CPU-5",30602280761
"bt",8,"CPU-6",29354788457
"bt",8,"CPU-7",29305629384
"bt",8,"L1-Dcache",2401132255
"bt",8,"L1-Dcache",2145742785
"bt",8,"L1-Dcache",2142235678
"bt",8,"L1-Dcache",2142180497
"bt",8,"L1-Dcache",2142342993
"bt",8,"L1-Dcache",2142360201
"bt",8,"L1-Dcache",1880560669
"bt",8,"L1-Dcache",1880917861
"bt",8,"LLC",1213483581
"cg",1,"CPU-0",9153347164
"cg",1,"L1-Dcache",979667448
"cg",1,"LLC",162630267
"cg",2,"CPU-0",4661089562
"cg",2,"CPU-1",4673930420
"cg",2,"L1-Dcache",489834062
"cg",2,"L1-Dcache",489700116
"cg",2,"LLC",159354035
"cg",4,"CPU-0",2388236473
"cg",4,"CPU-1",2388085317
"cg",4,"CPU-2",2395180208
"cg",4,"CPU-3",2395180860
"cg",4,"L1-Dcache",246894236
"cg",4,"L1-Dcache",242937663
"cg",4,"L1-Dcache",245735899
"cg",4,"L1-Dcache",244053511
"cg",4,"LLC",160569797
"cg",8,"CPU-0",1250240604
"cg",8,"CPU-1",1251565018
"cg",8,"CPU-2",1250265435
"cg",8,"CPU-3",1254347687
"cg",8,"CPU-4",1255503656
"cg",8,"CPU-5",1255851287
"cg",8,"CPU-6",1255840907
"cg",8,"CPU-7",1255840582
"cg",8,"L1-Dcache",123666010
"cg",8,"L1-Dcache",123268612
"cg",8,"L1-Dcache",121107026
"cg",8,"L1-Dcache",121909600
"cg",8,"L1-Dcache",122947016
"cg",8,"L1-Dcache",122865839
"cg",8,"L1-Dcache",121857238
"cg",8,"L1-Dcache",122274432
"cg",8,"LLC",162586465
"ep",1,"CPU-0",47502243666
"ep",1,"L1-Dcache",1446194920
"ep",1,"LLC",135261369
"ep",2,"CPU-0",23753831509
"ep",2,"CPU-1",23752250368
"ep",2,"L1-Dcache",728771633
"ep",2,"L1-Dcache",933793188
"ep",2,"LLC",135289188
"ep",4,"CPU-0",11878522892
"ep",4,"CPU-1",11876950195
"ep",4,"CPU-2",11876690270
"ep",4,"CPU-3",11876420760
"ep",4,"L1-Dcache",361693836
"ep",4,"L1-Dcache",466921939
"ep",4,"L1-Dcache",466885996
"ep",4,"L1-Dcache",466932885
"ep",4,"LLC",135355553
"ep",8,"CPU-0",5941619747
"ep",8,"CPU-1",5940040758
"ep",8,"CPU-2",5939780016
"ep",8,"CPU-3",5939520062
"ep",8,"CPU-4",5939260681
"ep",8,"CPU-5",5938990712
"ep",8,"CPU-6",5938730748
"ep",8,"CPU-7",5938470215
"ep",8,"L1-Dcache",180974053
"ep",8,"L1-Dcache",233488786
"ep",8,"L1-Dcache",233472622
"ep",8,"L1-Dcache",233469030
"ep",8,"L1-Dcache",233439839
"ep",8,"L1-Dcache",233457276
"ep",8,"L1-Dcache",233476383
"ep",8,"L1-Dcache",233479385
"ep",8,"LLC",135484660
"ft",1,"CPU-0",19568772822
"ft",1,"L1-Dcache",1667384826
"ft",1,"LLC",460446163
"ft",2,"CPU-0",9869092346
"ft",2,"CPU-1",9656784745
"ft",2,"L1-Dcache",833723213
"ft",2,"L1-Dcache",828358284
"ft",2,"LLC",429030570
"ft",4,"CPU-0",4969422292
"ft",4,"CPU-1",4890513267
"ft",4,"CPU-2",4909889286
"ft",4,"CPU-3",4890279867
"ft",4,"L1-Dcache",416857002
"ft",4,"L1-Dcache",414189149
"ft",4,"L1-Dcache",414181769
"ft",4,"L1-Dcache",414177437
"ft",4,"LLC",411698840
"ft",8,"CPU-0",2616879437
"ft",8,"CPU-1",2587568994
"ft",8,"CPU-2",2574989427
"ft",8,"CPU-3",2552140813
"ft",8,"CPU-4",2572868755
"ft",8,"CPU-5",2580053127
"ft",8,"CPU-6",2585069522
"ft",8,"CPU-7",2591858278
"ft",8,"L1-Dcache",208477635
"ft",8,"L1-Dcache",207038027
"ft",8,"L1-Dcache",207061642
"ft",8,"L1-Dcache",207017977
"ft",8,"L1-Dcache",207007232
"ft",8,"L1-Dcache",207064990
"ft",8,"L1-Dcache",207037291
"ft",8,"L1-Dcache",207030560
"ft",8,"LLC",385084793
"is",1,"CPU-0",8211926499
"is",1,"L1-Dcache",229774793
"is",1,"LLC",26507554
"is",2,"CPU-0",4115405562
"is",2,"CPU-1",4114780405
"is",2,"L1-Dcache",118817527
"is",2,"L1-Dcache",118964374
"is",2,"LLC",28064245
"is",4,"CPU-0",2063207032
"is",4,"CPU-1",2062580130
"is",4,"CPU-2",2062581197
"is",4,"CPU-3",2062580250
"is",4,"L1-Dcache",59963968
"is",4,"L1-Dcache",59593453
"is",4,"L1-Dcache",60308830
"is",4,"L1-Dcache",59657706
"is",4,"LLC",28782966
"is",8,"CPU-0",1036957177
"is",8,"CPU-1",1036330644
"is",8,"CPU-2",1036330053
"is",8,"CPU-3",1036330800
"is",8,"CPU-4",1036320170
"is",8,"CPU-5",1036320196
"is",8,"CPU-6",1036321167
"is",8,"CPU-7",1035283403
"is",8,"L1-Dcache",29177659
"is",8,"L1-Dcache",29063457
"is",8,"L1-Dcache",29309183
"is",8,"L1-Dcache",29247900
"is",8,"L1-Dcache",29099671
"is",8,"L1-Dcache",29208076
"is",8,"L1-Dcache",29002062
"is",8,"L1-Dcache",29188942
"is",8,"LLC",29147796
"lu",1,"CPU-0",159080624177
"lu",1,"L1-Dcache",11276715499
"lu",1,"LLC",4978346092
"lu",2,"CPU-0",74818535492
"lu",2,"CPU-1",74817500071
"lu",2,"L1-Dcache",5589254344
"lu",2,"L1-Dcache",5602505145
"lu",2,"LLC",4121613190
"lu",4,"CPU-0",39150857237
"lu",4,"CPU-1",39149810189
"lu",4,"CPU-2",39149138750
"lu",4,"CPU-3",39149123206
"lu",4,"L1-Dcache",2883092603
"lu",4,"L1-Dcache",2890096607
"lu",4,"L1-Dcache",2713572698
"lu",4,"L1-Dcache",2711762476
"lu",4,"LLC",4105687465
"lu",8,"CPU-0",20367506782
"lu",8,"CPU-1",20366470707
"lu",8,"CPU-2",20366470727
"lu",8,"CPU-3",20366460305
"lu",8,"CPU-4",20366460553
"lu",8,"CPU-5",20366460516
"lu",8,"CPU-6",20365796033
"lu",8,"CPU-7",20365824167
"lu",8,"L1-Dcache",1442791561
"lu",8,"L1-Dcache",1446330244
"lu",8,"L1-Dcache",1445489092
"lu",8,"L1-Dcache",1446083596
"lu",8,"L1-Dcache",1445181433
"lu",8,"L1-Dcache",1446044831
"lu",8,"L1-Dcache",1270315445
"lu",8,"L1-Dcache",1266930829
"lu",8,"LLC",3945750131
"mg",1,"CPU-0",19696616191
"mg",1,"L1-Dcache",2388574696
"mg",1,"LLC",251499330
"mg",2,"CPU-0",9899943489
"mg",2,"CPU-1",9898920472
"mg",2,"L1-Dcache",1194633022
"mg",2,"L1-Dcache",1194975042
"mg",2,"LLC",251483809
"mg",4,"CPU-0",4997962380
"mg",4,"CPU-1",4996930074
"mg",4,"CPU-2",4996930153
"mg",4,"CPU-3",4996930488
"mg",4,"L1-Dcache",597719886
"mg",4,"L1-Dcache",597544886
"mg",4,"L1-Dcache",597445301
"mg",4,"L1-Dcache",597445344
"mg",4,"LLC",251451781
"mg",8,"CPU-0",2704619172
"mg",8,"CPU-1",2703591183
"mg",8,"CPU-2",2703590333
"mg",8,"CPU-3",2703590765
"mg",8,"CPU-4",2703590852
"mg",8,"CPU-5",2703590869
"mg",8,"CPU-6",2703590459
"mg",8,"CPU-7",2703580958
"mg",8,"L1-Dcache",299275879
"mg",8,"L1-Dcache",298821593
"mg",8,"L1-Dcache",298724833
"mg",8,"L1-Dcache",298725306
"mg",8,"L1-Dcache",298733190
"mg",8,"L1-Dcache",298710705
"mg",8,"L1-Dcache",298724017
"mg",8,"L1-Dcache",298718785
"mg",8,"LLC",251520343
"sp",1,"CPU-0",188088159309
"sp",1,"L1-Dcache",15607614676
"sp",1,"LLC",5501451423
"sp",2,"CPU-0",95198062274
"sp",2,"CPU-1",95196720448
"sp",2,"L1-Dcache",7687751233
"sp",2,"L1-Dcache",7765148521
"sp",2,"LLC",5240089496
"sp",4,"CPU-0",49859462416
"sp",4,"CPU-1",49858120662
"sp",4,"CPU-2",49857990132
"sp",4,"CPU-3",49857860186
"sp",4,"L1-Dcache",3997426988
"sp",4,"L1-Dcache",3961577925
"sp",4,"L1-Dcache",3712532591
"sp",4,"L1-Dcache",3815155645
"sp",4,"LLC",4750841942
"sp",8,"CPU-0",26687715749
"sp",8,"CPU-1",26686380244
"sp",8,"CPU-2",26686250313
"sp",8,"CPU-3",26686120789
"sp",8,"CPU-4",26685990865
"sp",8,"CPU-5",26685860395
"sp",8,"CPU-6",26685731281
"sp",8,"CPU-7",26685610498
"sp",8,"L1-Dcache",1951924745
"sp",8,"L1-Dcache",1972264975
"sp",8,"L1-Dcache",1925901728
"sp",8,"L1-Dcache",2028864016
"sp",8,"L1-Dcache",1994641124
"sp",8,"L1-Dcache",1947361074
"sp",8,"L1-Dcache",1891665857
"sp",8,"L1-Dcache",1694258517
"sp",8,"LLC",4755925447
"ua",1,"CPU-0",189842376324
"ua",1,"L1-Dcache",9966300260
"ua",1,"LLC",2074528024
"ua",2,"CPU-0",96316568187
"ua",2,"CPU-1",96700182270
"ua",2,"L1-Dcache",4946420385
"ua",2,"L1-Dcache",4657931210
"ua",2,"LLC",2078181438
"ua",4,"CPU-0",49624302222
"ua",4,"CPU-1",50650135850
"ua",4,"CPU-2",50799555180
"ua",4,"CPU-3",49900654351
"ua",4,"L1-Dcache",2435189487
"ua",4,"L1-Dcache",2326507524
"ua",4,"L1-Dcache",2350864581
"ua",4,"L1-Dcache",2306922905
"ua",4,"LLC",2085354219
"ua",8,"CPU-0",25877368404
"ua",8,"CPU-1",26186139777
"ua",8,"CPU-2",26464044389
"ua",8,"CPU-3",26615195717
"ua",8,"CPU-4",26655628657
"ua",8,"CPU-5",26586041277
"ua",8,"CPU-6",26386171617
"ua",8,"CPU-7",25940519113
"ua",8,"L1-Dcache",1212200787
"ua",8,"L1-Dcache",1139195914
"ua",8,"L1-Dcache",1156108353
"ua",8,"L1-Dcache",1172114854
"ua",8,"L1-Dcache",1177436187
"ua",8,"L1-Dcache",1174578329
"ua",8,"L1-Dcache",1166777328
"ua",8,"L1-Dcache",1140085481
"ua",8,"LLC",2105994265
