"app","threads","resource","event","value","exec"
"bt",1,"0","LLC",2109204428,"Simulation"
"bt",2,"0","LLC",2310727948,"Simulation"
"bt",4,"0","LLC",1211837582,"Simulation"
"bt",8,"0","LLC",1213483581,"Simulation"
"cg",1,"0","LLC",162630267,"Simulation"
"cg",2,"0","LLC",159354035,"Simulation"
"cg",4,"0","LLC",160569797,"Simulation"
"cg",8,"0","LLC",162586465,"Simulation"
"ep",1,"0","LLC",135261369,"Simulation"
"ep",2,"0","LLC",135289188,"Simulation"
"ep",4,"0","LLC",135355553,"Simulation"
"ep",8,"0","LLC",135484660,"Simulation"
"ft",1,"0","LLC",460446163,"Simulation"
"ft",2,"0","LLC",429030570,"Simulation"
"ft",4,"0","LLC",411698840,"Simulation"
"ft",8,"0","LLC",385084793,"Simulation"
"is",1,"0","LLC",26507554,"Simulation"
"is",2,"0","LLC",28064245,"Simulation"
"is",4,"0","LLC",28782966,"Simulation"
"is",8,"0","LLC",29147796,"Simulation"
"lu",1,"0","LLC",4978346092,"Simulation"
"lu",2,"0","LLC",4121613190,"Simulation"
"lu",4,"0","LLC",4105687465,"Simulation"
"lu",8,"0","LLC",3945750131,"Simulation"
"mg",1,"0","LLC",251499330,"Simulation"
"mg",2,"0","LLC",251483809,"Simulation"
"mg",4,"0","LLC",251451781,"Simulation"
"mg",8,"0","LLC",251520343,"Simulation"
"sp",1,"0","LLC",5501451423,"Simulation"
"sp",2,"0","LLC",5240089496,"Simulation"
"sp",4,"0","LLC",4750841942,"Simulation"
"sp",8,"0","LLC",4755925447,"Simulation"
"ua",1,"0","LLC",2074528024,"Simulation"
"ua",2,"0","LLC",2078181438,"Simulation"
"ua",4,"0","LLC",2085354219,"Simulation"
"ua",8,"0","LLC",2105994265,"Simulation"
"bt",1,"0","L1-Dcache",18555297320,"Simulation"
"bt",2,"0","L1-Dcache",9300352898,"Simulation"
"bt",2,"2","L1-Dcache",8330271778,"Simulation"
"bt",4,"0","L1-Dcache",4798504578,"Simulation"
"bt",4,"2","L1-Dcache",4287862536,"Simulation"
"bt",4,"4","L1-Dcache",4023098451,"Simulation"
"bt",4,"6","L1-Dcache",4022995515,"Simulation"
"bt",8,"0","L1-Dcache",2401132255,"Simulation"
"bt",8,"2","L1-Dcache",2145742785,"Simulation"
"bt",8,"4","L1-Dcache",2142235678,"Simulation"
"bt",8,"6","L1-Dcache",2142180497,"Simulation"
"bt",8,"8","L1-Dcache",2142342993,"Simulation"
"bt",8,"10","L1-Dcache",2142360201,"Simulation"
"bt",8,"12","L1-Dcache",1880560669,"Simulation"
"bt",8,"14","L1-Dcache",1880917861,"Simulation"
"cg",1,"0","L1-Dcache",979667448,"Simulation"
"cg",2,"0","L1-Dcache",489834062,"Simulation"
"cg",2,"2","L1-Dcache",489700116,"Simulation"
"cg",4,"0","L1-Dcache",246894236,"Simulation"
"cg",4,"2","L1-Dcache",242937663,"Simulation"
"cg",4,"4","L1-Dcache",245735899,"Simulation"
"cg",4,"6","L1-Dcache",244053511,"Simulation"
"cg",8,"0","L1-Dcache",123666010,"Simulation"
"cg",8,"2","L1-Dcache",123268612,"Simulation"
"cg",8,"4","L1-Dcache",121107026,"Simulation"
"cg",8,"6","L1-Dcache",121909600,"Simulation"
"cg",8,"8","L1-Dcache",122947016,"Simulation"
"cg",8,"10","L1-Dcache",122865839,"Simulation"
"cg",8,"12","L1-Dcache",121857238,"Simulation"
"cg",8,"14","L1-Dcache",122274432,"Simulation"
"ep",1,"0","L1-Dcache",1446194920,"Simulation"
"ep",2,"0","L1-Dcache",728771633,"Simulation"
"ep",2,"2","L1-Dcache",933793188,"Simulation"
"ep",4,"0","L1-Dcache",361693836,"Simulation"
"ep",4,"2","L1-Dcache",466921939,"Simulation"
"ep",4,"4","L1-Dcache",466885996,"Simulation"
"ep",4,"6","L1-Dcache",466932885,"Simulation"
"ep",8,"0","L1-Dcache",180974053,"Simulation"
"ep",8,"2","L1-Dcache",233488786,"Simulation"
"ep",8,"4","L1-Dcache",233472622,"Simulation"
"ep",8,"6","L1-Dcache",233469030,"Simulation"
"ep",8,"8","L1-Dcache",233439839,"Simulation"
"ep",8,"10","L1-Dcache",233457276,"Simulation"
"ep",8,"12","L1-Dcache",233476383,"Simulation"
"ep",8,"14","L1-Dcache",233479385,"Simulation"
"ft",1,"0","L1-Dcache",1667384826,"Simulation"
"ft",2,"0","L1-Dcache",833723213,"Simulation"
"ft",2,"2","L1-Dcache",828358284,"Simulation"
"ft",4,"0","L1-Dcache",416857002,"Simulation"
"ft",4,"2","L1-Dcache",414189149,"Simulation"
"ft",4,"4","L1-Dcache",414181769,"Simulation"
"ft",4,"6","L1-Dcache",414177437,"Simulation"
"ft",8,"0","L1-Dcache",208477635,"Simulation"
"ft",8,"2","L1-Dcache",207038027,"Simulation"
"ft",8,"4","L1-Dcache",207061642,"Simulation"
"ft",8,"6","L1-Dcache",207017977,"Simulation"
"ft",8,"8","L1-Dcache",207007232,"Simulation"
"ft",8,"10","L1-Dcache",207064990,"Simulation"
"ft",8,"12","L1-Dcache",207037291,"Simulation"
"ft",8,"14","L1-Dcache",207030560,"Simulation"
"is",1,"0","L1-Dcache",229774793,"Simulation"
"is",2,"0","L1-Dcache",118817527,"Simulation"
"is",2,"2","L1-Dcache",118964374,"Simulation"
"is",4,"0","L1-Dcache",59963968,"Simulation"
"is",4,"2","L1-Dcache",59593453,"Simulation"
"is",4,"4","L1-Dcache",60308830,"Simulation"
"is",4,"6","L1-Dcache",59657706,"Simulation"
"is",8,"0","L1-Dcache",29177659,"Simulation"
"is",8,"2","L1-Dcache",29063457,"Simulation"
"is",8,"4","L1-Dcache",29309183,"Simulation"
"is",8,"6","L1-Dcache",29247900,"Simulation"
"is",8,"8","L1-Dcache",29099671,"Simulation"
"is",8,"10","L1-Dcache",29208076,"Simulation"
"is",8,"12","L1-Dcache",29002062,"Simulation"
"is",8,"14","L1-Dcache",29188942,"Simulation"
"lu",1,"0","L1-Dcache",11276715499,"Simulation"
"lu",2,"0","L1-Dcache",5589254344,"Simulation"
"lu",2,"2","L1-Dcache",5602505145,"Simulation"
"lu",4,"0","L1-Dcache",2883092603,"Simulation"
"lu",4,"2","L1-Dcache",2890096607,"Simulation"
"lu",4,"4","L1-Dcache",2713572698,"Simulation"
"lu",4,"6","L1-Dcache",2711762476,"Simulation"
"lu",8,"0","L1-Dcache",1442791561,"Simulation"
"lu",8,"2","L1-Dcache",1446330244,"Simulation"
"lu",8,"4","L1-Dcache",1445489092,"Simulation"
"lu",8,"6","L1-Dcache",1446083596,"Simulation"
"lu",8,"8","L1-Dcache",1445181433,"Simulation"
"lu",8,"10","L1-Dcache",1446044831,"Simulation"
"lu",8,"12","L1-Dcache",1270315445,"Simulation"
"lu",8,"14","L1-Dcache",1266930829,"Simulation"
"mg",1,"0","L1-Dcache",2388574696,"Simulation"
"mg",2,"0","L1-Dcache",1194633022,"Simulation"
"mg",2,"2","L1-Dcache",1194975042,"Simulation"
"mg",4,"0","L1-Dcache",597719886,"Simulation"
"mg",4,"2","L1-Dcache",597544886,"Simulation"
"mg",4,"4","L1-Dcache",597445301,"Simulation"
"mg",4,"6","L1-Dcache",597445344,"Simulation"
"mg",8,"0","L1-Dcache",299275879,"Simulation"
"mg",8,"2","L1-Dcache",298821593,"Simulation"
"mg",8,"4","L1-Dcache",298724833,"Simulation"
"mg",8,"6","L1-Dcache",298725306,"Simulation"
"mg",8,"8","L1-Dcache",298733190,"Simulation"
"mg",8,"10","L1-Dcache",298710705,"Simulation"
"mg",8,"12","L1-Dcache",298724017,"Simulation"
"mg",8,"14","L1-Dcache",298718785,"Simulation"
"sp",1,"0","L1-Dcache",15607614676,"Simulation"
"sp",2,"0","L1-Dcache",7687751233,"Simulation"
"sp",2,"2","L1-Dcache",7765148521,"Simulation"
"sp",4,"0","L1-Dcache",3997426988,"Simulation"
"sp",4,"2","L1-Dcache",3961577925,"Simulation"
"sp",4,"4","L1-Dcache",3712532591,"Simulation"
"sp",4,"6","L1-Dcache",3815155645,"Simulation"
"sp",8,"0","L1-Dcache",1951924745,"Simulation"
"sp",8,"2","L1-Dcache",1972264975,"Simulation"
"sp",8,"4","L1-Dcache",1925901728,"Simulation"
"sp",8,"6","L1-Dcache",2028864016,"Simulation"
"sp",8,"8","L1-Dcache",1994641124,"Simulation"
"sp",8,"10","L1-Dcache",1947361074,"Simulation"
"sp",8,"12","L1-Dcache",1891665857,"Simulation"
"sp",8,"14","L1-Dcache",1694258517,"Simulation"
"ua",1,"0","L1-Dcache",9966300260,"Simulation"
"ua",2,"0","L1-Dcache",4946420385,"Simulation"
"ua",2,"2","L1-Dcache",4657931210,"Simulation"
"ua",4,"0","L1-Dcache",2435189487,"Simulation"
"ua",4,"2","L1-Dcache",2326507524,"Simulation"
"ua",4,"4","L1-Dcache",2350864581,"Simulation"
"ua",4,"6","L1-Dcache",2306922905,"Simulation"
"ua",8,"0","L1-Dcache",1212200787,"Simulation"
"ua",8,"2","L1-Dcache",1139195914,"Simulation"
"ua",8,"4","L1-Dcache",1156108353,"Simulation"
"ua",8,"6","L1-Dcache",1172114854,"Simulation"
"ua",8,"8","L1-Dcache",1177436187,"Simulation"
"ua",8,"10","L1-Dcache",1174578329,"Simulation"
"ua",8,"12","L1-Dcache",1166777328,"Simulation"
"ua",8,"14","L1-Dcache",1140085481,"Simulation"
"bt",1,"0","cycles",239754152544,"Simulation"
"bt",2,"0","cycles",123401109974,"Simulation"
"bt",2,"2","cycles",120190718348,"Simulation"
"bt",4,"0","cycles",60327048282,"Simulation"
"bt",4,"2","cycles",60325940461,"Simulation"
"bt",4,"4","cycles",59017519054,"Simulation"
"bt",4,"6","cycles",59054139090,"Simulation"
"bt",8,"0","cycles",30603472377,"Simulation"
"bt",8,"2","cycles",30602360347,"Simulation"
"bt",8,"4","cycles",30602340851,"Simulation"
"bt",8,"6","cycles",30602320286,"Simulation"
"bt",8,"8","cycles",30602300917,"Simulation"
"bt",8,"10","cycles",30602280761,"Simulation"
"bt",8,"12","cycles",29354788457,"Simulation"
"bt",8,"14","cycles",29305629384,"Simulation"
"cg",1,"0","cycles",9153347164,"Simulation"
"cg",2,"0","cycles",4661089562,"Simulation"
"cg",2,"2","cycles",4673930420,"Simulation"
"cg",4,"0","cycles",2388236473,"Simulation"
"cg",4,"2","cycles",2388085317,"Simulation"
"cg",4,"4","cycles",2395180208,"Simulation"
"cg",4,"6","cycles",2395180860,"Simulation"
"cg",8,"0","cycles",1250240604,"Simulation"
"cg",8,"2","cycles",1251565018,"Simulation"
"cg",8,"4","cycles",1250265435,"Simulation"
"cg",8,"6","cycles",1254347687,"Simulation"
"cg",8,"8","cycles",1255503656,"Simulation"
"cg",8,"10","cycles",1255851287,"Simulation"
"cg",8,"12","cycles",1255840907,"Simulation"
"cg",8,"14","cycles",1255840582,"Simulation"
"ep",1,"0","cycles",47502243666,"Simulation"
"ep",2,"0","cycles",23753831509,"Simulation"
"ep",2,"2","cycles",23752250368,"Simulation"
"ep",4,"0","cycles",11878522892,"Simulation"
"ep",4,"2","cycles",11876950195,"Simulation"
"ep",4,"4","cycles",11876690270,"Simulation"
"ep",4,"6","cycles",11876420760,"Simulation"
"ep",8,"0","cycles",5941619747,"Simulation"
"ep",8,"2","cycles",5940040758,"Simulation"
"ep",8,"4","cycles",5939780016,"Simulation"
"ep",8,"6","cycles",5939520062,"Simulation"
"ep",8,"8","cycles",5939260681,"Simulation"
"ep",8,"10","cycles",5938990712,"Simulation"
"ep",8,"12","cycles",5938730748,"Simulation"
"ep",8,"14","cycles",5938470215,"Simulation"
"ft",1,"0","cycles",19568772822,"Simulation"
"ft",2,"0","cycles",9869092346,"Simulation"
"ft",2,"2","cycles",9656784745,"Simulation"
"ft",4,"0","cycles",4969422292,"Simulation"
"ft",4,"2","cycles",4890513267,"Simulation"
"ft",4,"4","cycles",4909889286,"Simulation"
"ft",4,"6","cycles",4890279867,"Simulation"
"ft",8,"0","cycles",2616879437,"Simulation"
"ft",8,"2","cycles",2587568994,"Simulation"
"ft",8,"4","cycles",2574989427,"Simulation"
"ft",8,"6","cycles",2552140813,"Simulation"
"ft",8,"8","cycles",2572868755,"Simulation"
"ft",8,"10","cycles",2580053127,"Simulation"
"ft",8,"12","cycles",2585069522,"Simulation"
"ft",8,"14","cycles",2591858278,"Simulation"
"is",1,"0","cycles",8211926499,"Simulation"
"is",2,"0","cycles",4115405562,"Simulation"
"is",2,"2","cycles",4114780405,"Simulation"
"is",4,"0","cycles",2063207032,"Simulation"
"is",4,"2","cycles",2062580130,"Simulation"
"is",4,"4","cycles",2062581197,"Simulation"
"is",4,"6","cycles",2062580250,"Simulation"
"is",8,"0","cycles",1036957177,"Simulation"
"is",8,"2","cycles",1036330644,"Simulation"
"is",8,"4","cycles",1036330053,"Simulation"
"is",8,"6","cycles",1036330800,"Simulation"
"is",8,"8","cycles",1036320170,"Simulation"
"is",8,"10","cycles",1036320196,"Simulation"
"is",8,"12","cycles",1036321167,"Simulation"
"is",8,"14","cycles",1035283403,"Simulation"
"lu",1,"0","cycles",159080624177,"Simulation"
"lu",2,"0","cycles",74818535492,"Simulation"
"lu",2,"2","cycles",74817500071,"Simulation"
"lu",4,"0","cycles",39150857237,"Simulation"
"lu",4,"2","cycles",39149810189,"Simulation"
"lu",4,"4","cycles",39149138750,"Simulation"
"lu",4,"6","cycles",39149123206,"Simulation"
"lu",8,"0","cycles",20367506782,"Simulation"
"lu",8,"2","cycles",20366470707,"Simulation"
"lu",8,"4","cycles",20366470727,"Simulation"
"lu",8,"6","cycles",20366460305,"Simulation"
"lu",8,"8","cycles",20366460553,"Simulation"
"lu",8,"10","cycles",20366460516,"Simulation"
"lu",8,"12","cycles",20365796033,"Simulation"
"lu",8,"14","cycles",20365824167,"Simulation"
"mg",1,"0","cycles",19696616191,"Simulation"
"mg",2,"0","cycles",9899943489,"Simulation"
"mg",2,"2","cycles",9898920472,"Simulation"
"mg",4,"0","cycles",4997962380,"Simulation"
"mg",4,"2","cycles",4996930074,"Simulation"
"mg",4,"4","cycles",4996930153,"Simulation"
"mg",4,"6","cycles",4996930488,"Simulation"
"mg",8,"0","cycles",2704619172,"Simulation"
"mg",8,"2","cycles",2703591183,"Simulation"
"mg",8,"4","cycles",2703590333,"Simulation"
"mg",8,"6","cycles",2703590765,"Simulation"
"mg",8,"8","cycles",2703590852,"Simulation"
"mg",8,"10","cycles",2703590869,"Simulation"
"mg",8,"12","cycles",2703590459,"Simulation"
"mg",8,"14","cycles",2703580958,"Simulation"
"sp",1,"0","cycles",188088159309,"Simulation"
"sp",2,"0","cycles",95198062274,"Simulation"
"sp",2,"2","cycles",95196720448,"Simulation"
"sp",4,"0","cycles",49859462416,"Simulation"
"sp",4,"2","cycles",49858120662,"Simulation"
"sp",4,"4","cycles",49857990132,"Simulation"
"sp",4,"6","cycles",49857860186,"Simulation"
"sp",8,"0","cycles",26687715749,"Simulation"
"sp",8,"2","cycles",26686380244,"Simulation"
"sp",8,"4","cycles",26686250313,"Simulation"
"sp",8,"6","cycles",26686120789,"Simulation"
"sp",8,"8","cycles",26685990865,"Simulation"
"sp",8,"10","cycles",26685860395,"Simulation"
"sp",8,"12","cycles",26685731281,"Simulation"
"sp",8,"14","cycles",26685610498,"Simulation"
"ua",1,"0","cycles",189842376324,"Simulation"
"ua",2,"0","cycles",96316568187,"Simulation"
"ua",2,"2","cycles",96700182270,"Simulation"
"ua",4,"0","cycles",49624302222,"Simulation"
"ua",4,"2","cycles",50650135850,"Simulation"
"ua",4,"4","cycles",50799555180,"Simulation"
"ua",4,"6","cycles",49900654351,"Simulation"
"ua",8,"0","cycles",25877368404,"Simulation"
"ua",8,"2","cycles",26186139777,"Simulation"
"ua",8,"4","cycles",26464044389,"Simulation"
"ua",8,"6","cycles",26615195717,"Simulation"
"ua",8,"8","cycles",26655628657,"Simulation"
"ua",8,"10","cycles",26586041277,"Simulation"
"ua",8,"12","cycles",26386171617,"Simulation"
"ua",8,"14","cycles",25940519113,"Simulation"
