ua,A,1,CPU-0,cycles,189842376324
ua,A,1,CPU-0,cCycles,10267633536
ua,A,1,CPU-0,instrs,229262342993
ua,A,1,CPU-0,uops,280676300575
ua,A,1,CPU-0,bbls,33904952204
ua,A,1,CPU-0,approxInstrs,1513223406
ua,A,1,CPU-0,mispredBranches,40199570
ua,A,1,l1i_CPU-0,hGETS,980611770
ua,A,1,l1i_CPU-0,hGETX,0
ua,A,1,l1i_CPU-0,mGETS,152015
ua,A,1,l1i_CPU-0,mGETXIM,0
ua,A,1,l1i_CPU-0,mGETXSM,0
ua,A,1,l1i_CPU-0,PUTS,0
ua,A,1,l1i_CPU-0,PUTX,0
ua,A,1,l1i_CPU-0,INV,9979 0
ua,A,1,l1i_CPU-0,INVX,0
ua,A,1,l1i_CPU-0,FWD,0
ua,A,1,l1i_CPU-0,latGETnl,12117146
ua,A,1,l1i_CPU-0,latGETnet,0
ua,A,1,l1d_CPU-0,hGETS,5506987819
ua,A,1,l1d_CPU-0,hGETX,2310265684
ua,A,1,l1d_CPU-0,mGETS,1861498694
ua,A,1,l1d_CPU-0,mGETXIM,287548063
ua,A,1,l1d_CPU-0,mGETXSM,0
ua,A,1,l1d_CPU-0,PUTS,0
ua,A,1,l1d_CPU-0,PUTX,0
ua,A,1,l1d_CPU-0,INV,1121990 1
ua,A,1,l1d_CPU-0,INVX,1
ua,A,1,l1d_CPU-0,FWD,0
ua,A,1,l1d_CPU-0,latGETnl,111247192364
ua,A,1,l1d_CPU-0,latGETnet,0
ua,A,1,l2_CPU-0,hGETS,71421930
ua,A,1,l2_CPU-0,hGETX,3248818
ua,A,1,l2_CPU-0,mGETS,1790228779
ua,A,1,l2_CPU-0,mGETXIM,284299245
ua,A,1,l2_CPU-0,mGETXSM,0
ua,A,1,l2_CPU-0,PUTS,1372568794
ua,A,1,l2_CPU-0,PUTX,775497419
ua,A,1,l2_CPU-0,INV,0 0
ua,A,1,l2_CPU-0,INVX,0
ua,A,1,l2_CPU-0,FWD,0
ua,A,1,l2_CPU-0,latGETnl,85468924242
ua,A,1,l2_CPU-0,latGETnet,0
ua,A,1,l3-0b0,hGETS,167525594
ua,A,1,l3-0b0,hGETX,30121313
ua,A,1,l3-0b0,mGETS,56303531
ua,A,1,l3-0b0,mGETXIM,5451409
ua,A,1,l3-0b0,mGETXSM,0
ua,A,1,l3-0b0,PUTS,167740792
ua,A,1,l3-0b0,PUTX,91660498
ua,A,1,l3-0b0,INV,0 0
ua,A,1,l3-0b0,INVX,0
ua,A,1,l3-0b0,FWD,0
ua,A,1,l3-0b0,latGETnl,2902482180
ua,A,1,l3-0b0,latGETnet,0
ua,A,1,l3-0b1,hGETS,167468658
ua,A,1,l3-0b1,hGETX,30053443
ua,A,1,l3-0b1,mGETS,56343292
ua,A,1,l3-0b1,mGETXIM,5460455
ua,A,1,l3-0b1,mGETXSM,0
ua,A,1,l3-0b1,PUTS,167696063
ua,A,1,l3-0b1,PUTX,91629235
ua,A,1,l3-0b1,INV,0 0
ua,A,1,l3-0b1,INVX,0
ua,A,1,l3-0b1,FWD,0
ua,A,1,l3-0b1,latGETnl,2904776109
ua,A,1,l3-0b1,latGETnet,0
ua,A,1,l3-0b2,hGETS,167477656
ua,A,1,l3-0b2,hGETX,30080365
ua,A,1,l3-0b2,mGETS,56363628
ua,A,1,l3-0b2,mGETXIM,5461508
ua,A,1,l3-0b2,mGETXSM,0
ua,A,1,l3-0b2,PUTS,167761708
ua,A,1,l3-0b2,PUTX,91620981
ua,A,1,l3-0b2,INV,0 0
ua,A,1,l3-0b2,INVX,0
ua,A,1,l3-0b2,FWD,0
ua,A,1,l3-0b2,latGETnl,2905781392
ua,A,1,l3-0b2,latGETnet,0
ua,A,1,l3-0b3,hGETS,167507610
ua,A,1,l3-0b3,hGETX,30060993
ua,A,1,l3-0b3,mGETS,56332187
ua,A,1,l3-0b3,mGETXIM,5456357
ua,A,1,l3-0b3,mGETXSM,0
ua,A,1,l3-0b3,PUTS,167762246
ua,A,1,l3-0b3,PUTX,91594433
ua,A,1,l3-0b3,INV,0 0
ua,A,1,l3-0b3,INVX,0
ua,A,1,l3-0b3,FWD,0
ua,A,1,l3-0b3,latGETnl,2904061568
ua,A,1,l3-0b3,latGETnet,0
ua,A,1,l3-0b4,hGETS,167443206
ua,A,1,l3-0b4,hGETX,30087985
ua,A,1,l3-0b4,mGETS,56338216
ua,A,1,l3-0b4,mGETXIM,5459896
ua,A,1,l3-0b4,mGETXSM,0
ua,A,1,l3-0b4,PUTS,167746774
ua,A,1,l3-0b4,PUTX,91582060
ua,A,1,l3-0b4,INV,0 0
ua,A,1,l3-0b4,INVX,0
ua,A,1,l3-0b4,FWD,0
ua,A,1,l3-0b4,latGETnl,2904511264
ua,A,1,l3-0b4,latGETnet,0
ua,A,1,l3-0b5,hGETS,167316016
ua,A,1,l3-0b5,hGETX,30065767
ua,A,1,l3-0b5,mGETS,56334479
ua,A,1,l3-0b5,mGETXIM,5453661
ua,A,1,l3-0b5,mGETXSM,0
ua,A,1,l3-0b5,PUTS,167619507
ua,A,1,l3-0b5,PUTX,91549953
ua,A,1,l3-0b5,INV,0 0
ua,A,1,l3-0b5,INVX,0
ua,A,1,l3-0b5,FWD,0
ua,A,1,l3-0b5,latGETnl,2904042580
ua,A,1,l3-0b5,latGETnet,0
ua,A,1,l3-0b6,hGETS,167430367
ua,A,1,l3-0b6,hGETX,30132469
ua,A,1,l3-0b6,mGETS,56343124
ua,A,1,l3-0b6,mGETXIM,5455948
ua,A,1,l3-0b6,mGETXSM,0
ua,A,1,l3-0b6,PUTS,167745775
ua,A,1,l3-0b6,PUTX,91615580
ua,A,1,l3-0b6,INV,0 0
ua,A,1,l3-0b6,INVX,0
ua,A,1,l3-0b6,FWD,0
ua,A,1,l3-0b6,latGETnl,2904556384
ua,A,1,l3-0b6,latGETnet,0
ua,A,1,l3-0b7,hGETS,167388346
ua,A,1,l3-0b7,hGETX,30047310
ua,A,1,l3-0b7,mGETS,56312869
ua,A,1,l3-0b7,mGETXIM,5450366
ua,A,1,l3-0b7,mGETXSM,0
ua,A,1,l3-0b7,PUTS,167581256
ua,A,1,l3-0b7,PUTX,91617067
ua,A,1,l3-0b7,INV,0 0
ua,A,1,l3-0b7,INVX,0
ua,A,1,l3-0b7,FWD,0
ua,A,1,l3-0b7,latGETnl,2902872045
ua,A,1,l3-0b7,latGETnet,0
