lu,A,2,CPU-0,cycles,74818535492
lu,A,2,CPU-0,cCycles,5749351660
lu,A,2,CPU-0,instrs,109946556762
lu,A,2,CPU-0,uops,129546022849
lu,A,2,CPU-0,bbls,4036972506
lu,A,2,CPU-0,approxInstrs,2206055014
lu,A,2,CPU-0,mispredBranches,12502234
lu,A,2,l1i_CPU-0,hGETS,54029597
lu,A,2,l1i_CPU-0,hGETX,0
lu,A,2,l1i_CPU-0,mGETS,2014611
lu,A,2,l1i_CPU-0,mGETXIM,0
lu,A,2,l1i_CPU-0,mGETXSM,0
lu,A,2,l1i_CPU-0,PUTS,0
lu,A,2,l1i_CPU-0,PUTX,0
lu,A,2,l1i_CPU-0,INV,1906546 0
lu,A,2,l1i_CPU-0,INVX,0
lu,A,2,l1i_CPU-0,FWD,0
lu,A,2,l1i_CPU-0,latGETnl,86127093
lu,A,2,l1i_CPU-0,latGETnet,0
lu,A,2,l1d_CPU-0,hGETS,2252101959
lu,A,2,l1d_CPU-0,hGETX,1160803344
lu,A,2,l1d_CPU-0,mGETS,1372482063
lu,A,2,l1d_CPU-0,mGETXIM,803847182
lu,A,2,l1d_CPU-0,mGETXSM,19796
lu,A,2,l1d_CPU-0,PUTS,0
lu,A,2,l1d_CPU-0,PUTX,0
lu,A,2,l1d_CPU-0,INV,23816619 224300
lu,A,2,l1d_CPU-0,INVX,224300
lu,A,2,l1d_CPU-0,FWD,0
lu,A,2,l1d_CPU-0,latGETnl,101760406522
lu,A,2,l1d_CPU-0,latGETnet,0
lu,A,2,l2_CPU-0,hGETS,115528403
lu,A,2,l2_CPU-0,hGETX,1744165
lu,A,2,l2_CPU-0,mGETS,1258968271
lu,A,2,l2_CPU-0,mGETXIM,802103017
lu,A,2,l2_CPU-0,mGETXSM,19796
lu,A,2,l2_CPU-0,PUTS,1163262444
lu,A,2,l2_CPU-0,PUTX,989357673
lu,A,2,l2_CPU-0,INV,38541 1330072
lu,A,2,l2_CPU-0,INVX,1330072
lu,A,2,l2_CPU-0,FWD,0
lu,A,2,l2_CPU-0,latGETnl,75706169787
lu,A,2,l2_CPU-0,latGETnet,0
lu,A,2,CPU-1,cycles,74817500071
lu,A,2,CPU-1,cCycles,5983539522
lu,A,2,CPU-1,instrs,111404472478
lu,A,2,CPU-1,uops,130271804451
lu,A,2,CPU-1,bbls,4377037127
lu,A,2,CPU-1,approxInstrs,2742169645
lu,A,2,CPU-1,mispredBranches,12501232
lu,A,2,l1i_CPU-1,hGETS,53916729
lu,A,2,l1i_CPU-1,hGETX,0
lu,A,2,l1i_CPU-1,mGETS,1377502
lu,A,2,l1i_CPU-1,mGETXIM,0
lu,A,2,l1i_CPU-1,mGETXSM,0
lu,A,2,l1i_CPU-1,PUTS,0
lu,A,2,l1i_CPU-1,PUTX,0
lu,A,2,l1i_CPU-1,INV,1311479 0
lu,A,2,l1i_CPU-1,INVX,0
lu,A,2,l1i_CPU-1,FWD,0
lu,A,2,l1i_CPU-1,latGETnl,59059190
lu,A,2,l1i_CPU-1,latGETnet,0
lu,A,2,l1d_CPU-1,hGETS,2241241902
lu,A,2,l1d_CPU-1,hGETX,1186385121
lu,A,2,l1d_CPU-1,mGETS,1371459142
lu,A,2,l1d_CPU-1,mGETXIM,803388359
lu,A,2,l1d_CPU-1,mGETXSM,30621
lu,A,2,l1d_CPU-1,PUTS,0
lu,A,2,l1d_CPU-1,PUTX,0
lu,A,2,l1d_CPU-1,INV,22014718 360987
lu,A,2,l1d_CPU-1,INVX,360987
lu,A,2,l1d_CPU-1,FWD,0
lu,A,2,l1d_CPU-1,latGETnl,102781668719
lu,A,2,l1d_CPU-1,latGETnet,0
lu,A,2,l2_CPU-1,hGETS,114460483
lu,A,2,l2_CPU-1,hGETX,1273035
lu,A,2,l2_CPU-1,mGETS,1258376161
lu,A,2,l2_CPU-1,mGETXIM,802120480
lu,A,2,l2_CPU-1,mGETXSM,25465
lu,A,2,l2_CPU-1,PUTS,1162244229
lu,A,2,l2_CPU-1,PUTX,990659262
lu,A,2,l2_CPU-1,INV,21126 466853
lu,A,2,l2_CPU-1,INVX,466853
lu,A,2,l2_CPU-1,FWD,0
lu,A,2,l2_CPU-1,latGETnl,76725660421
lu,A,2,l2_CPU-1,latGETnet,0
lu,A,2,l3-0b0,hGETS,248633389
lu,A,2,l3-0b0,hGETX,189947404
lu,A,2,l3-0b0,mGETS,65919667
lu,A,2,l3-0b0,mGETXIM,10553419
lu,A,2,l3-0b0,mGETXSM,0
lu,A,2,l3-0b0,PUTS,267423740
lu,A,2,l3-0b0,PUTX,247625915
lu,A,2,l3-0b0,INV,0 0
lu,A,2,l3-0b0,INVX,0
lu,A,2,l3-0b0,FWD,0
lu,A,2,l3-0b0,latGETnl,3594235042
lu,A,2,l3-0b0,latGETnet,0
lu,A,2,l3-0b1,hGETS,248867576
lu,A,2,l3-0b1,hGETX,189938747
lu,A,2,l3-0b1,mGETS,65918667
lu,A,2,l3-0b1,mGETXIM,10552033
lu,A,2,l3-0b1,mGETXSM,0
lu,A,2,l3-0b1,PUTS,267768020
lu,A,2,l3-0b1,PUTX,247504581
lu,A,2,l3-0b1,INV,0 0
lu,A,2,l3-0b1,INVX,0
lu,A,2,l3-0b1,FWD,0
lu,A,2,l3-0b1,latGETnl,3594122900
lu,A,2,l3-0b1,latGETnet,0
lu,A,2,l3-0b2,hGETS,248784204
lu,A,2,l3-0b2,hGETX,189878516
lu,A,2,l3-0b2,mGETS,65934226
lu,A,2,l3-0b2,mGETXIM,10560710
lu,A,2,l3-0b2,mGETXSM,0
lu,A,2,l3-0b2,PUTS,267641878
lu,A,2,l3-0b2,PUTX,247512544
lu,A,2,l3-0b2,INV,0 0
lu,A,2,l3-0b2,INVX,0
lu,A,2,l3-0b2,FWD,0
lu,A,2,l3-0b2,latGETnl,3595261992
lu,A,2,l3-0b2,latGETnet,0
lu,A,2,l3-0b3,hGETS,248479854
lu,A,2,l3-0b3,hGETX,190027158
lu,A,2,l3-0b3,mGETS,65932432
lu,A,2,l3-0b3,mGETXIM,10556696
lu,A,2,l3-0b3,mGETXSM,0
lu,A,2,l3-0b3,PUTS,267385693
lu,A,2,l3-0b3,PUTX,247602486
lu,A,2,l3-0b3,INV,0 0
lu,A,2,l3-0b3,INVX,0
lu,A,2,l3-0b3,FWD,0
lu,A,2,l3-0b3,latGETnl,3594989016
lu,A,2,l3-0b3,latGETnet,0
lu,A,2,l3-0b4,hGETS,248577801
lu,A,2,l3-0b4,hGETX,190101971
lu,A,2,l3-0b4,mGETS,65919422
lu,A,2,l3-0b4,mGETXIM,10555933
lu,A,2,l3-0b4,mGETXSM,0
lu,A,2,l3-0b4,PUTS,267418254
lu,A,2,l3-0b4,PUTX,247654248
lu,A,2,l3-0b4,INV,0 0
lu,A,2,l3-0b4,INVX,0
lu,A,2,l3-0b4,FWD,0
lu,A,2,l3-0b4,latGETnl,3594341685
lu,A,2,l3-0b4,latGETnet,0
lu,A,2,l3-0b5,hGETS,248788161
lu,A,2,l3-0b5,hGETX,189994214
lu,A,2,l3-0b5,mGETS,65933680
lu,A,2,l3-0b5,mGETXIM,10556776
lu,A,2,l3-0b5,mGETXSM,0
lu,A,2,l3-0b5,PUTS,267651694
lu,A,2,l3-0b5,PUTX,247617381
lu,A,2,l3-0b5,INV,0 0
lu,A,2,l3-0b5,INVX,0
lu,A,2,l3-0b5,FWD,0
lu,A,2,l3-0b5,latGETnl,3595051432
lu,A,2,l3-0b5,latGETnet,0
lu,A,2,l3-0b6,hGETS,249116274
lu,A,2,l3-0b6,hGETX,190018670
lu,A,2,l3-0b6,mGETS,65942196
lu,A,2,l3-0b6,mGETXIM,10554262
lu,A,2,l3-0b6,mGETXSM,0
lu,A,2,l3-0b6,PUTS,268042480
lu,A,2,l3-0b6,PUTX,247586128
lu,A,2,l3-0b6,INV,0 0
lu,A,2,l3-0b6,INVX,0
lu,A,2,l3-0b6,FWD,0
lu,A,2,l3-0b6,latGETnl,3595333526
lu,A,2,l3-0b6,latGETnet,0
lu,A,2,l3-0b7,hGETS,248656487
lu,A,2,l3-0b7,hGETX,189916656
lu,A,2,l3-0b7,mGETS,65940396
lu,A,2,l3-0b7,mGETXIM,10555593
lu,A,2,l3-0b7,mGETXSM,0
lu,A,2,l3-0b7,PUTS,267505010
lu,A,2,l3-0b7,PUTX,247560280
lu,A,2,l3-0b7,INV,0 0
lu,A,2,l3-0b7,INVX,0
lu,A,2,l3-0b7,FWD,0
lu,A,2,l3-0b7,latGETnl,3595311483
lu,A,2,l3-0b7,latGETnet,0
