cg,A,2,CPU-0,cycles,4661491822
cg,A,2,CPU-0,cCycles,1061951840
cg,A,2,CPU-0,instrs,4136350657
cg,A,2,CPU-0,uops,4248943384
cg,A,2,CPU-0,bbls,767692738
cg,A,2,CPU-0,approxInstrs,3809765
cg,A,2,CPU-0,mispredBranches,8040418
cg,A,2,l1i_CPU-0,hGETS,43472
cg,A,2,l1i_CPU-0,hGETX,0
cg,A,2,l1i_CPU-0,mGETS,16725
cg,A,2,l1i_CPU-0,mGETXIM,0
cg,A,2,l1i_CPU-0,mGETXSM,0
cg,A,2,l1i_CPU-0,PUTS,0
cg,A,2,l1i_CPU-0,PUTX,0
cg,A,2,l1i_CPU-0,INV,81 0
cg,A,2,l1i_CPU-0,INVX,0
cg,A,2,l1i_CPU-0,FWD,0
cg,A,2,l1i_CPU-0,latGETnl,826304
cg,A,2,l1i_CPU-0,latGETnet,0
cg,A,2,l1d_CPU-0,hGETS,110356568
cg,A,2,l1d_CPU-0,hGETX,7005698
cg,A,2,l1d_CPU-0,mGETS,371207345
cg,A,2,l1d_CPU-0,mGETXIM,950172
cg,A,2,l1d_CPU-0,mGETXSM,323904
cg,A,2,l1d_CPU-0,PUTS,0
cg,A,2,l1d_CPU-0,PUTX,0
cg,A,2,l1d_CPU-0,INV,2788 110954
cg,A,2,l1d_CPU-0,INVX,110954
cg,A,2,l1d_CPU-0,FWD,0
cg,A,2,l1d_CPU-0,latGETnl,10392580341
cg,A,2,l1d_CPU-0,latGETnet,0
cg,A,2,l2_CPU-0,hGETS,291567055
cg,A,2,l2_CPU-0,hGETX,37019
cg,A,2,l2_CPU-0,mGETS,79657015
cg,A,2,l2_CPU-0,mGETXIM,903787
cg,A,2,l2_CPU-0,mGETXSM,333270
cg,A,2,l2_CPU-0,PUTS,368879872
cg,A,2,l2_CPU-0,PUTX,3290483
cg,A,2,l2_CPU-0,INV,78260 418337
cg,A,2,l2_CPU-0,INVX,418337
cg,A,2,l2_CPU-0,FWD,0
cg,A,2,l2_CPU-0,latGETnl,5923428889
cg,A,2,l2_CPU-0,latGETnet,0
cg,A,2,CPU-1,cycles,4674260621
cg,A,2,CPU-1,cCycles,1078033594
cg,A,2,CPU-1,instrs,4168140130
cg,A,2,CPU-1,uops,4270639623
cg,A,2,CPU-1,bbls,778108006
cg,A,2,CPU-1,approxInstrs,3803115
cg,A,2,CPU-1,mispredBranches,8072223
cg,A,2,l1i_CPU-1,hGETS,1108
cg,A,2,l1i_CPU-1,hGETX,0
cg,A,2,l1i_CPU-1,mGETS,299
cg,A,2,l1i_CPU-1,mGETXIM,0
cg,A,2,l1i_CPU-1,mGETXSM,0
cg,A,2,l1i_CPU-1,PUTS,0
cg,A,2,l1i_CPU-1,PUTX,0
cg,A,2,l1i_CPU-1,INV,0 0
cg,A,2,l1i_CPU-1,INVX,0
cg,A,2,l1i_CPU-1,FWD,0
cg,A,2,l1i_CPU-1,latGETnl,16741
cg,A,2,l1i_CPU-1,latGETnet,0
cg,A,2,l1d_CPU-1,hGETS,110365063
cg,A,2,l1d_CPU-1,hGETX,6948215
cg,A,2,l1d_CPU-1,mGETS,371115785
cg,A,2,l1d_CPU-1,mGETXIM,942548
cg,A,2,l1d_CPU-1,mGETXSM,342426
cg,A,2,l1d_CPU-1,PUTS,0
cg,A,2,l1d_CPU-1,PUTX,0
cg,A,2,l1d_CPU-1,INV,3618 105309
cg,A,2,l1d_CPU-1,INVX,105309
cg,A,2,l1d_CPU-1,FWD,0
cg,A,2,l1d_CPU-1,latGETnl,10327200760
cg,A,2,l1d_CPU-1,latGETnet,0
cg,A,2,l2_CPU-1,hGETS,293626709
cg,A,2,l2_CPU-1,hGETX,37538
cg,A,2,l2_CPU-1,mGETS,77489375
cg,A,2,l2_CPU-1,mGETXIM,894029
cg,A,2,l2_CPU-1,mGETXSM,353407
cg,A,2,l2_CPU-1,PUTS,368778769
cg,A,2,l2_CPU-1,PUTX,3275438
cg,A,2,l2_CPU-1,INV,102940 411798
cg,A,2,l2_CPU-1,INVX,411798
cg,A,2,l2_CPU-1,FWD,0
cg,A,2,l2_CPU-1,latGETnl,5858404805
cg,A,2,l2_CPU-1,latGETnet,0
cg,A,2,l3-0b0,hGETS,1221416
cg,A,2,l3-0b0,hGETX,167398
cg,A,2,l3-0b0,mGETS,18416849
cg,A,2,l3-0b0,mGETXIM,146125
cg,A,2,l3-0b0,mGETXSM,0
cg,A,2,l3-0b0,PUTS,19118979
cg,A,2,l3-0b0,PUTX,719559
cg,A,2,l3-0b0,INV,0 0
cg,A,2,l3-0b0,INVX,0
cg,A,2,l3-0b0,FWD,0
cg,A,2,l3-0b0,latGETnl,872459778
cg,A,2,l3-0b0,latGETnet,0
cg,A,2,l3-0b1,hGETS,1182036
cg,A,2,l3-0b1,hGETX,165696
cg,A,2,l3-0b1,mGETS,18416467
cg,A,2,l3-0b1,mGETXIM,146039
cg,A,2,l3-0b1,mGETXSM,0
cg,A,2,l3-0b1,PUTS,19079718
cg,A,2,l3-0b1,PUTX,717850
cg,A,2,l3-0b1,INV,0 0
cg,A,2,l3-0b1,INVX,0
cg,A,2,l3-0b1,FWD,0
cg,A,2,l3-0b1,latGETnl,872437782
cg,A,2,l3-0b1,latGETnet,0
cg,A,2,l3-0b2,hGETS,1272048
cg,A,2,l3-0b2,hGETX,164461
cg,A,2,l3-0b2,mGETS,18417191
cg,A,2,l3-0b2,mGETXIM,146122
cg,A,2,l3-0b2,mGETXSM,0
cg,A,2,l3-0b2,PUTS,19174313
cg,A,2,l3-0b2,PUTX,717617
cg,A,2,l3-0b2,INV,0 0
cg,A,2,l3-0b2,INVX,0
cg,A,2,l3-0b2,FWD,0
cg,A,2,l3-0b2,latGETnl,872475711
cg,A,2,l3-0b2,latGETnet,0
cg,A,2,l3-0b3,hGETS,1277265
cg,A,2,l3-0b3,hGETX,162463
cg,A,2,l3-0b3,mGETS,18418559
cg,A,2,l3-0b3,mGETXIM,146521
cg,A,2,l3-0b3,mGETXSM,0
cg,A,2,l3-0b3,PUTS,19177060
cg,A,2,l3-0b3,PUTX,720375
cg,A,2,l3-0b3,INV,0 0
cg,A,2,l3-0b3,INVX,0
cg,A,2,l3-0b3,FWD,0
cg,A,2,l3-0b3,latGETnl,872558760
cg,A,2,l3-0b3,latGETnet,0
cg,A,2,l3-0b4,hGETS,1237583
cg,A,2,l3-0b4,hGETX,163670
cg,A,2,l3-0b4,mGETS,18417948
cg,A,2,l3-0b4,mGETXIM,146567
cg,A,2,l3-0b4,mGETXSM,0
cg,A,2,l3-0b4,PUTS,19137876
cg,A,2,l3-0b4,PUTX,719255
cg,A,2,l3-0b4,INV,0 0
cg,A,2,l3-0b4,INVX,0
cg,A,2,l3-0b4,FWD,0
cg,A,2,l3-0b4,latGETnl,872532205
cg,A,2,l3-0b4,latGETnet,0
cg,A,2,l3-0b5,hGETS,1288810
cg,A,2,l3-0b5,hGETX,163517
cg,A,2,l3-0b5,mGETS,18417268
cg,A,2,l3-0b5,mGETXIM,146246
cg,A,2,l3-0b5,mGETXSM,0
cg,A,2,l3-0b5,PUTS,19188167
cg,A,2,l3-0b5,PUTX,720140
cg,A,2,l3-0b5,INV,0 0
cg,A,2,l3-0b5,INVX,0
cg,A,2,l3-0b5,FWD,0
cg,A,2,l3-0b5,latGETnl,872485158
cg,A,2,l3-0b5,latGETnet,0
cg,A,2,l3-0b6,hGETS,1158526
cg,A,2,l3-0b6,hGETX,165292
cg,A,2,l3-0b6,mGETS,18416540
cg,A,2,l3-0b6,mGETXIM,145785
cg,A,2,l3-0b6,mGETXSM,0
cg,A,2,l3-0b6,PUTS,19057063
cg,A,2,l3-0b6,PUTX,718546
cg,A,2,l3-0b6,INV,0 0
cg,A,2,l3-0b6,INVX,0
cg,A,2,l3-0b6,FWD,0
cg,A,2,l3-0b6,latGETnl,872429275
cg,A,2,l3-0b6,latGETnet,0
cg,A,2,l3-0b7,hGETS,1170378
cg,A,2,l3-0b7,hGETX,162228
cg,A,2,l3-0b7,mGETS,18417506
cg,A,2,l3-0b7,mGETXIM,146363
cg,A,2,l3-0b7,mGETXSM,0
cg,A,2,l3-0b7,PUTS,19069070
cg,A,2,l3-0b7,PUTX,719235
cg,A,2,l3-0b7,INV,0 0
cg,A,2,l3-0b7,INVX,0
cg,A,2,l3-0b7,FWD,0
cg,A,2,l3-0b7,latGETnl,872501843
cg,A,2,l3-0b7,latGETnet,0
