ep,A,8,CPU-0,cycles,5941619747
ep,A,8,CPU-0,cCycles,781386
ep,A,8,CPU-0,instrs,6066718584
ep,A,8,CPU-0,uops,7140975417
ep,A,8,CPU-0,bbls,656309613
ep,A,8,CPU-0,approxInstrs,208580753
ep,A,8,CPU-0,mispredBranches,45017906
ep,A,8,l1i_CPU-0,hGETS,87336192
ep,A,8,l1i_CPU-0,hGETX,0
ep,A,8,l1i_CPU-0,mGETS,9597
ep,A,8,l1i_CPU-0,mGETXIM,0
ep,A,8,l1i_CPU-0,mGETXSM,0
ep,A,8,l1i_CPU-0,PUTS,0
ep,A,8,l1i_CPU-0,PUTX,0
ep,A,8,l1i_CPU-0,INV,1 0
ep,A,8,l1i_CPU-0,INVX,0
ep,A,8,l1i_CPU-0,FWD,0
ep,A,8,l1i_CPU-0,latGETnl,434710
ep,A,8,l1i_CPU-0,latGETnet,0
ep,A,8,l1d_CPU-0,hGETS,154527591
ep,A,8,l1d_CPU-0,hGETX,9216656
ep,A,8,l1d_CPU-0,mGETS,8688195
ep,A,8,l1d_CPU-0,mGETXIM,8541575
ep,A,8,l1d_CPU-0,mGETXSM,36
ep,A,8,l1d_CPU-0,PUTS,0
ep,A,8,l1d_CPU-0,PUTX,0
ep,A,8,l1d_CPU-0,INV,97 2748
ep,A,8,l1d_CPU-0,INVX,2748
ep,A,8,l1d_CPU-0,FWD,0
ep,A,8,l1d_CPU-0,latGETnl,725132378
ep,A,8,l1d_CPU-0,latGETnet,0
ep,A,8,l2_CPU-0,hGETS,175748
ep,A,8,l2_CPU-0,hGETX,179
ep,A,8,l2_CPU-0,mGETS,8522044
ep,A,8,l2_CPU-0,mGETXIM,8541381
ep,A,8,l2_CPU-0,mGETXSM,51
ep,A,8,l2_CPU-0,PUTS,8695305
ep,A,8,l2_CPU-0,PUTX,8542940
ep,A,8,l2_CPU-0,INV,103 3079
ep,A,8,l2_CPU-0,INVX,3079
ep,A,8,l2_CPU-0,FWD,0
ep,A,8,l2_CPU-0,latGETnl,518694248
ep,A,8,l2_CPU-0,latGETnet,0
ep,A,8,CPU-1,cycles,5940040758
ep,A,8,CPU-1,cCycles,2114
ep,A,8,CPU-1,instrs,6066466086
ep,A,8,CPU-1,uops,7140650327
ep,A,8,CPU-1,bbls,656380376
ep,A,8,CPU-1,approxInstrs,208585248
ep,A,8,CPU-1,mispredBranches,45004992
ep,A,8,l1i_CPU-1,hGETS,87308072
ep,A,8,l1i_CPU-1,hGETX,0
ep,A,8,l1i_CPU-1,mGETS,242
ep,A,8,l1i_CPU-1,mGETXIM,0
ep,A,8,l1i_CPU-1,mGETXSM,0
ep,A,8,l1i_CPU-1,PUTS,0
ep,A,8,l1i_CPU-1,PUTX,0
ep,A,8,l1i_CPU-1,INV,0 0
ep,A,8,l1i_CPU-1,INVX,0
ep,A,8,l1i_CPU-1,FWD,0
ep,A,8,l1i_CPU-1,latGETnl,11950
ep,A,8,l1i_CPU-1,latGETnet,0
ep,A,8,l1d_CPU-1,hGETS,180624303
ep,A,8,l1d_CPU-1,hGETX,35786926
ep,A,8,l1d_CPU-1,mGETS,8670456
ep,A,8,l1d_CPU-1,mGETXIM,8407079
ep,A,8,l1d_CPU-1,mGETXSM,22
ep,A,8,l1d_CPU-1,PUTS,0
ep,A,8,l1d_CPU-1,PUTX,0
ep,A,8,l1d_CPU-1,INV,39 382
ep,A,8,l1d_CPU-1,INVX,382
ep,A,8,l1d_CPU-1,FWD,0
ep,A,8,l1d_CPU-1,latGETnl,712561032
ep,A,8,l1d_CPU-1,latGETnet,0
ep,A,8,l2_CPU-1,hGETS,159833
ep,A,8,l2_CPU-1,hGETX,0
ep,A,8,l2_CPU-1,mGETS,8510865
ep,A,8,l2_CPU-1,mGETXIM,8407080
ep,A,8,l2_CPU-1,mGETXSM,21
ep,A,8,l2_CPU-1,PUTS,8668894
ep,A,8,l2_CPU-1,PUTX,8408101
ep,A,8,l2_CPU-1,INV,39 601
ep,A,8,l2_CPU-1,INVX,601
ep,A,8,l2_CPU-1,FWD,0
ep,A,8,l2_CPU-1,latGETnl,507639394
ep,A,8,l2_CPU-1,latGETnet,0
ep,A,8,CPU-2,cycles,5939780016
ep,A,8,CPU-2,cCycles,1325
ep,A,8,CPU-2,instrs,6066142795
ep,A,8,CPU-2,uops,7140233452
ep,A,8,CPU-2,bbls,656300424
ep,A,8,CPU-2,approxInstrs,208579251
ep,A,8,CPU-2,mispredBranches,45011807
ep,A,8,l1i_CPU-2,hGETS,87289625
ep,A,8,l1i_CPU-2,hGETX,0
ep,A,8,l1i_CPU-2,mGETS,219
ep,A,8,l1i_CPU-2,mGETXIM,0
ep,A,8,l1i_CPU-2,mGETXSM,0
ep,A,8,l1i_CPU-2,PUTS,0
ep,A,8,l1i_CPU-2,PUTX,0
ep,A,8,l1i_CPU-2,INV,0 0
ep,A,8,l1i_CPU-2,INVX,0
ep,A,8,l1i_CPU-2,FWD,0
ep,A,8,l1i_CPU-2,latGETnl,9339
ep,A,8,l1i_CPU-2,latGETnet,0
ep,A,8,l1d_CPU-2,hGETS,180612834
ep,A,8,l1d_CPU-2,hGETX,35782313
ep,A,8,l1d_CPU-2,mGETS,8670387
ep,A,8,l1d_CPU-2,mGETXIM,8407068
ep,A,8,l1d_CPU-2,mGETXSM,20
ep,A,8,l1d_CPU-2,PUTS,0
ep,A,8,l1d_CPU-2,PUTX,0
ep,A,8,l1d_CPU-2,INV,35 457
ep,A,8,l1d_CPU-2,INVX,457
ep,A,8,l1d_CPU-2,FWD,0
ep,A,8,l1d_CPU-2,latGETnl,712491791
ep,A,8,l1d_CPU-2,latGETnet,0
ep,A,8,l2_CPU-2,hGETS,160172
ep,A,8,l2_CPU-2,hGETX,0
ep,A,8,l2_CPU-2,mGETS,8510434
ep,A,8,l2_CPU-2,mGETXIM,8407068
ep,A,8,l2_CPU-2,mGETXSM,20
ep,A,8,l2_CPU-2,PUTS,8668829
ep,A,8,l2_CPU-2,PUTX,8408088
ep,A,8,l2_CPU-2,INV,35 599
ep,A,8,l2_CPU-2,INVX,599
ep,A,8,l2_CPU-2,FWD,0
ep,A,8,l2_CPU-2,latGETnl,507568802
ep,A,8,l2_CPU-2,latGETnet,0
ep,A,8,CPU-3,cycles,5939520062
ep,A,8,CPU-3,cCycles,1286
ep,A,8,CPU-3,instrs,6065836078
ep,A,8,CPU-3,uops,7139866965
ep,A,8,CPU-3,bbls,656276007
ep,A,8,CPU-3,approxInstrs,208566673
ep,A,8,CPU-3,mispredBranches,45010201
ep,A,8,l1i_CPU-3,hGETS,87313644
ep,A,8,l1i_CPU-3,hGETX,0
ep,A,8,l1i_CPU-3,mGETS,165
ep,A,8,l1i_CPU-3,mGETXIM,0
ep,A,8,l1i_CPU-3,mGETXSM,0
ep,A,8,l1i_CPU-3,PUTS,0
ep,A,8,l1i_CPU-3,PUTX,0
ep,A,8,l1i_CPU-3,INV,0 0
ep,A,8,l1i_CPU-3,INVX,0
ep,A,8,l1i_CPU-3,FWD,0
ep,A,8,l1i_CPU-3,latGETnl,7118
ep,A,8,l1i_CPU-3,latGETnet,0
ep,A,8,l1d_CPU-3,hGETS,180609883
ep,A,8,l1d_CPU-3,hGETX,35781721
ep,A,8,l1d_CPU-3,mGETS,8670354
ep,A,8,l1d_CPU-3,mGETXIM,8407055
ep,A,8,l1d_CPU-3,mGETXSM,17
ep,A,8,l1d_CPU-3,PUTS,0
ep,A,8,l1d_CPU-3,PUTX,0
ep,A,8,l1d_CPU-3,INV,32 585
ep,A,8,l1d_CPU-3,INVX,585
ep,A,8,l1d_CPU-3,FWD,0
ep,A,8,l1d_CPU-3,latGETnl,712633232
ep,A,8,l1d_CPU-3,latGETnet,0
ep,A,8,l2_CPU-3,hGETS,160403
ep,A,8,l2_CPU-3,hGETX,0
ep,A,8,l2_CPU-3,mGETS,8510116
ep,A,8,l2_CPU-3,mGETXIM,8407055
ep,A,8,l2_CPU-3,mGETXSM,17
ep,A,8,l2_CPU-3,PUTS,8668798
ep,A,8,l2_CPU-3,PUTX,8408076
ep,A,8,l2_CPU-3,INV,32 822
ep,A,8,l2_CPU-3,INVX,822
ep,A,8,l2_CPU-3,FWD,0
ep,A,8,l2_CPU-3,latGETnl,507709258
ep,A,8,l2_CPU-3,latGETnet,0
ep,A,8,CPU-4,cycles,5939260681
ep,A,8,CPU-4,cCycles,2110
ep,A,8,CPU-4,instrs,6065382945
ep,A,8,CPU-4,uops,7139325635
ep,A,8,CPU-4,bbls,656246956
ep,A,8,CPU-4,approxInstrs,208542485
ep,A,8,CPU-4,mispredBranches,45014079
ep,A,8,l1i_CPU-4,hGETS,87296270
ep,A,8,l1i_CPU-4,hGETX,0
ep,A,8,l1i_CPU-4,mGETS,235
ep,A,8,l1i_CPU-4,mGETXIM,0
ep,A,8,l1i_CPU-4,mGETXSM,0
ep,A,8,l1i_CPU-4,PUTS,0
ep,A,8,l1i_CPU-4,PUTX,0
ep,A,8,l1i_CPU-4,INV,0 0
ep,A,8,l1i_CPU-4,INVX,0
ep,A,8,l1i_CPU-4,FWD,0
ep,A,8,l1i_CPU-4,latGETnl,11656
ep,A,8,l1i_CPU-4,latGETnet,0
ep,A,8,l1d_CPU-4,hGETS,180588550
ep,A,8,l1d_CPU-4,hGETX,35773965
ep,A,8,l1d_CPU-4,mGETS,8670245
ep,A,8,l1d_CPU-4,mGETXIM,8407066
ep,A,8,l1d_CPU-4,mGETXSM,13
ep,A,8,l1d_CPU-4,PUTS,0
ep,A,8,l1d_CPU-4,PUTX,0
ep,A,8,l1d_CPU-4,INV,37 35191
ep,A,8,l1d_CPU-4,INVX,35191
ep,A,8,l1d_CPU-4,FWD,0
ep,A,8,l1d_CPU-4,latGETnl,712595182
ep,A,8,l1d_CPU-4,latGETnet,0
ep,A,8,l2_CPU-4,hGETS,160283
ep,A,8,l2_CPU-4,hGETX,0
ep,A,8,l2_CPU-4,mGETS,8510197
ep,A,8,l2_CPU-4,mGETXIM,8407066
ep,A,8,l2_CPU-4,mGETXSM,13
ep,A,8,l2_CPU-4,PUTS,8668701
ep,A,8,l2_CPU-4,PUTX,8408075
ep,A,8,l2_CPU-4,INV,37 35990
ep,A,8,l2_CPU-4,INVX,35990
ep,A,8,l2_CPU-4,FWD,0
ep,A,8,l2_CPU-4,latGETnl,507676130
ep,A,8,l2_CPU-4,latGETnet,0
ep,A,8,CPU-5,cycles,5938990712
ep,A,8,CPU-5,cCycles,1559
ep,A,8,CPU-5,instrs,6065274393
ep,A,8,CPU-5,uops,7139166217
ep,A,8,CPU-5,bbls,656160171
ep,A,8,CPU-5,approxInstrs,208552419
ep,A,8,CPU-5,mispredBranches,45013543
ep,A,8,l1i_CPU-5,hGETS,87291046
ep,A,8,l1i_CPU-5,hGETX,0
ep,A,8,l1i_CPU-5,mGETS,166
ep,A,8,l1i_CPU-5,mGETXIM,0
ep,A,8,l1i_CPU-5,mGETXSM,0
ep,A,8,l1i_CPU-5,PUTS,0
ep,A,8,l1i_CPU-5,PUTX,0
ep,A,8,l1i_CPU-5,INV,0 0
ep,A,8,l1i_CPU-5,INVX,0
ep,A,8,l1i_CPU-5,FWD,0
ep,A,8,l1i_CPU-5,latGETnl,7207
ep,A,8,l1i_CPU-5,latGETnet,0
ep,A,8,l1d_CPU-5,hGETS,180598036
ep,A,8,l1d_CPU-5,hGETX,35781349
ep,A,8,l1d_CPU-5,mGETS,8670819
ep,A,8,l1d_CPU-5,mGETXIM,8407055
ep,A,8,l1d_CPU-5,mGETXSM,17
ep,A,8,l1d_CPU-5,PUTS,0
ep,A,8,l1d_CPU-5,PUTX,0
ep,A,8,l1d_CPU-5,INV,33 370
ep,A,8,l1d_CPU-5,INVX,370
ep,A,8,l1d_CPU-5,FWD,0
ep,A,8,l1d_CPU-5,latGETnl,712631298
ep,A,8,l1d_CPU-5,latGETnet,0
ep,A,8,l2_CPU-5,hGETS,161028
ep,A,8,l2_CPU-5,hGETX,0
ep,A,8,l2_CPU-5,mGETS,8509957
ep,A,8,l2_CPU-5,mGETXIM,8407055
ep,A,8,l2_CPU-5,mGETXSM,17
ep,A,8,l2_CPU-5,PUTS,8669263
ep,A,8,l2_CPU-5,PUTX,8408075
ep,A,8,l2_CPU-5,INV,33 705
ep,A,8,l2_CPU-5,INVX,705
ep,A,8,l2_CPU-5,FWD,0
ep,A,8,l2_CPU-5,latGETnl,507701821
ep,A,8,l2_CPU-5,latGETnet,0
ep,A,8,CPU-6,cycles,5938730748
ep,A,8,CPU-6,cCycles,1356
ep,A,8,CPU-6,instrs,6065505912
ep,A,8,CPU-6,uops,7139417749
ep,A,8,CPU-6,bbls,656133507
ep,A,8,CPU-6,approxInstrs,208578898
ep,A,8,CPU-6,mispredBranches,45008511
ep,A,8,l1i_CPU-6,hGETS,87319214
ep,A,8,l1i_CPU-6,hGETX,0
ep,A,8,l1i_CPU-6,mGETS,166
ep,A,8,l1i_CPU-6,mGETXIM,0
ep,A,8,l1i_CPU-6,mGETXSM,0
ep,A,8,l1i_CPU-6,PUTS,0
ep,A,8,l1i_CPU-6,PUTX,0
ep,A,8,l1i_CPU-6,INV,0 0
ep,A,8,l1i_CPU-6,INVX,0
ep,A,8,l1i_CPU-6,FWD,0
ep,A,8,l1i_CPU-6,latGETnl,7912
ep,A,8,l1i_CPU-6,latGETnet,0
ep,A,8,l1d_CPU-6,hGETS,180613965
ep,A,8,l1d_CPU-6,hGETX,35784929
ep,A,8,l1d_CPU-6,mGETS,8670416
ep,A,8,l1d_CPU-6,mGETXIM,8407056
ep,A,8,l1d_CPU-6,mGETXSM,17
ep,A,8,l1d_CPU-6,PUTS,0
ep,A,8,l1d_CPU-6,PUTX,0
ep,A,8,l1d_CPU-6,INV,34 576
ep,A,8,l1d_CPU-6,INVX,576
ep,A,8,l1d_CPU-6,FWD,0
ep,A,8,l1d_CPU-6,latGETnl,712536992
ep,A,8,l1d_CPU-6,latGETnet,0
ep,A,8,l2_CPU-6,hGETS,160555
ep,A,8,l2_CPU-6,hGETX,0
ep,A,8,l2_CPU-6,mGETS,8510027
ep,A,8,l2_CPU-6,mGETXIM,8407056
ep,A,8,l2_CPU-6,mGETXSM,17
ep,A,8,l2_CPU-6,PUTS,8668860
ep,A,8,l2_CPU-6,PUTX,8408075
ep,A,8,l2_CPU-6,INV,34 953
ep,A,8,l2_CPU-6,INVX,953
ep,A,8,l2_CPU-6,FWD,0
ep,A,8,l2_CPU-6,latGETnl,507613044
ep,A,8,l2_CPU-6,latGETnet,0
ep,A,8,CPU-7,cycles,5938470215
ep,A,8,CPU-7,cCycles,1212
ep,A,8,CPU-7,instrs,6065175529
ep,A,8,CPU-7,uops,7138993553
ep,A,8,CPU-7,bbls,656066613
ep,A,8,CPU-7,approxInstrs,208571248
ep,A,8,CPU-7,mispredBranches,45014178
ep,A,8,l1i_CPU-7,hGETS,87314226
ep,A,8,l1i_CPU-7,hGETX,0
ep,A,8,l1i_CPU-7,mGETS,169
ep,A,8,l1i_CPU-7,mGETXIM,0
ep,A,8,l1i_CPU-7,mGETXSM,0
ep,A,8,l1i_CPU-7,PUTS,0
ep,A,8,l1i_CPU-7,PUTX,0
ep,A,8,l1i_CPU-7,INV,0 0
ep,A,8,l1i_CPU-7,INVX,0
ep,A,8,l1i_CPU-7,FWD,0
ep,A,8,l1i_CPU-7,latGETnl,7662
ep,A,8,l1i_CPU-7,latGETnet,0
ep,A,8,l1d_CPU-7,hGETS,180614989
ep,A,8,l1d_CPU-7,hGETX,35786593
ep,A,8,l1d_CPU-7,mGETS,8670727
ep,A,8,l1d_CPU-7,mGETXIM,8407056
ep,A,8,l1d_CPU-7,mGETXSM,20
ep,A,8,l1d_CPU-7,PUTS,0
ep,A,8,l1d_CPU-7,PUTX,0
ep,A,8,l1d_CPU-7,INV,24 24864
ep,A,8,l1d_CPU-7,INVX,24864
ep,A,8,l1d_CPU-7,FWD,0
ep,A,8,l1d_CPU-7,latGETnl,712564684
ep,A,8,l1d_CPU-7,latGETnet,0
ep,A,8,l2_CPU-7,hGETS,160869
ep,A,8,l2_CPU-7,hGETX,0
ep,A,8,l2_CPU-7,mGETS,8510027
ep,A,8,l2_CPU-7,mGETXIM,8407057
ep,A,8,l2_CPU-7,mGETXSM,19
ep,A,8,l2_CPU-7,PUTS,8669176
ep,A,8,l2_CPU-7,PUTX,8408078
ep,A,8,l2_CPU-7,INV,24 26209
ep,A,8,l2_CPU-7,INVX,26209
ep,A,8,l2_CPU-7,FWD,0
ep,A,8,l2_CPU-7,latGETnl,507636682
ep,A,8,l2_CPU-7,latGETnet,0
ep,A,8,l3-0b0,hGETS,8505455
ep,A,8,l3-0b0,hGETX,8406612
ep,A,8,l3-0b0,mGETS,972
ep,A,8,l3-0b0,mGETXIM,16612
ep,A,8,l3-0b0,mGETXSM,0
ep,A,8,l3-0b0,PUTS,8501291
ep,A,8,l3-0b0,PUTX,8424247
ep,A,8,l3-0b0,INV,0 0
ep,A,8,l3-0b0,INVX,0
ep,A,8,l3-0b0,FWD,0
ep,A,8,l3-0b0,latGETnl,826448
ep,A,8,l3-0b0,latGETnet,0
ep,A,8,l3-0b1,hGETS,8517513
ep,A,8,l3-0b1,hGETX,8408141
ep,A,8,l3-0b1,mGETS,937
ep,A,8,l3-0b1,mGETXIM,16612
ep,A,8,l3-0b1,mGETXSM,0
ep,A,8,l3-0b1,PUTS,8513342
ep,A,8,l3-0b1,PUTX,8425756
ep,A,8,l3-0b1,INV,0 0
ep,A,8,l3-0b1,INVX,0
ep,A,8,l3-0b1,FWD,0
ep,A,8,l3-0b1,latGETnl,824803
ep,A,8,l3-0b1,latGETnet,0
ep,A,8,l3-0b2,hGETS,8508513
ep,A,8,l3-0b2,hGETX,8407128
ep,A,8,l3-0b2,mGETS,953
ep,A,8,l3-0b2,mGETXIM,16622
ep,A,8,l3-0b2,mGETXSM,0
ep,A,8,l3-0b2,PUTS,8503771
ep,A,8,l3-0b2,PUTX,8425266
ep,A,8,l3-0b2,INV,0 0
ep,A,8,l3-0b2,INVX,0
ep,A,8,l3-0b2,FWD,0
ep,A,8,l3-0b2,latGETnl,826025
ep,A,8,l3-0b2,latGETnet,0
ep,A,8,l3-0b3,hGETS,8512983
ep,A,8,l3-0b3,hGETX,8406614
ep,A,8,l3-0b3,mGETS,974
ep,A,8,l3-0b3,mGETXIM,16618
ep,A,8,l3-0b3,mGETXSM,0
ep,A,8,l3-0b3,PUTS,8509822
ep,A,8,l3-0b3,PUTX,8423209
ep,A,8,l3-0b3,INV,0 0
ep,A,8,l3-0b3,INVX,0
ep,A,8,l3-0b3,FWD,0
ep,A,8,l3-0b3,latGETnl,826824
ep,A,8,l3-0b3,latGETnet,0
ep,A,8,l3-0b4,hGETS,8511440
ep,A,8,l3-0b4,hGETX,8406629
ep,A,8,l3-0b4,mGETS,944
ep,A,8,l3-0b4,mGETXIM,16616
ep,A,8,l3-0b4,mGETXSM,0
ep,A,8,l3-0b4,PUTS,8507707
ep,A,8,l3-0b4,PUTX,8423741
ep,A,8,l3-0b4,INV,0 0
ep,A,8,l3-0b4,INVX,0
ep,A,8,l3-0b4,FWD,0
ep,A,8,l3-0b4,latGETnl,825320
ep,A,8,l3-0b4,latGETnet,0
ep,A,8,l3-0b5,hGETS,8511800
ep,A,8,l3-0b5,hGETX,8407658
ep,A,8,l3-0b5,mGETS,959
ep,A,8,l3-0b5,mGETXIM,16617
ep,A,8,l3-0b5,mGETXSM,0
ep,A,8,l3-0b5,PUTS,8507065
ep,A,8,l3-0b5,PUTX,8425775
ep,A,8,l3-0b5,INV,0 0
ep,A,8,l3-0b5,INVX,0
ep,A,8,l3-0b5,FWD,0
ep,A,8,l3-0b5,latGETnl,826072
ep,A,8,l3-0b5,latGETnet,0
ep,A,8,l3-0b6,hGETS,8507051
ep,A,8,l3-0b6,hGETX,8408137
ep,A,8,l3-0b6,mGETS,956
ep,A,8,l3-0b6,mGETXIM,16621
ep,A,8,l3-0b6,mGETXSM,0
ep,A,8,l3-0b6,PUTS,8501849
ep,A,8,l3-0b6,PUTX,8426791
ep,A,8,l3-0b6,INV,0 0
ep,A,8,l3-0b6,INVX,0
ep,A,8,l3-0b6,FWD,0
ep,A,8,l3-0b6,latGETnl,826119
ep,A,8,l3-0b6,latGETnet,0
ep,A,8,l3-0b7,hGETS,8511263
ep,A,8,l3-0b7,hGETX,8407142
ep,A,8,l3-0b7,mGETS,954
ep,A,8,l3-0b7,mGETXIM,16614
ep,A,8,l3-0b7,mGETXSM,0
ep,A,8,l3-0b7,PUTS,8507575
ep,A,8,l3-0b7,PUTX,8424242
ep,A,8,l3-0b7,INV,0 0
ep,A,8,l3-0b7,INVX,0
ep,A,8,l3-0b7,FWD,0
ep,A,8,l3-0b7,latGETnl,825696
ep,A,8,l3-0b7,latGETnet,0
