# zsim stats
===
root: # Stats
 contention: # Contention simulation stats
  domain-0: # Domain stats
   time: 5321066281 # Weave simulation time
 time: # Simulator time breakdown
  init: 79424265
  bound: 530052099336
  weave: 30183409038
  ff: 0
 trigger: 20000 # Reason for this stats dump
 phase: 594162 # Simulated phases
 CPU: # Core stats
  CPU-0: # Core stats
   cycles: 5941619747 # Simulated unhalted cycles
   cCycles: 781386 # Cycles due to contention stalls
   instrs: 6066718584 # Simulated instructions
   uops: 7140975417 # Retired micro-ops
   bbls: 656309613 # Basic blocks
   approxInstrs: 208580753 # Instrs with approx uop decoding
   mispredBranches: 45017906 # Mispredicted branches
  CPU-1: # Core stats
   cycles: 5940040758 # Simulated unhalted cycles
   cCycles: 2114 # Cycles due to contention stalls
   instrs: 6066466086 # Simulated instructions
   uops: 7140650327 # Retired micro-ops
   bbls: 656380376 # Basic blocks
   approxInstrs: 208585248 # Instrs with approx uop decoding
   mispredBranches: 45004992 # Mispredicted branches
  CPU-2: # Core stats
   cycles: 5939780016 # Simulated unhalted cycles
   cCycles: 1325 # Cycles due to contention stalls
   instrs: 6066142795 # Simulated instructions
   uops: 7140233452 # Retired micro-ops
   bbls: 656300424 # Basic blocks
   approxInstrs: 208579251 # Instrs with approx uop decoding
   mispredBranches: 45011807 # Mispredicted branches
  CPU-3: # Core stats
   cycles: 5939520062 # Simulated unhalted cycles
   cCycles: 1286 # Cycles due to contention stalls
   instrs: 6065836078 # Simulated instructions
   uops: 7139866965 # Retired micro-ops
   bbls: 656276007 # Basic blocks
   approxInstrs: 208566673 # Instrs with approx uop decoding
   mispredBranches: 45010201 # Mispredicted branches
  CPU-4: # Core stats
   cycles: 5939260681 # Simulated unhalted cycles
   cCycles: 2110 # Cycles due to contention stalls
   instrs: 6065382945 # Simulated instructions
   uops: 7139325635 # Retired micro-ops
   bbls: 656246956 # Basic blocks
   approxInstrs: 208542485 # Instrs with approx uop decoding
   mispredBranches: 45014079 # Mispredicted branches
  CPU-5: # Core stats
   cycles: 5938990712 # Simulated unhalted cycles
   cCycles: 1559 # Cycles due to contention stalls
   instrs: 6065274393 # Simulated instructions
   uops: 7139166217 # Retired micro-ops
   bbls: 656160171 # Basic blocks
   approxInstrs: 208552419 # Instrs with approx uop decoding
   mispredBranches: 45013543 # Mispredicted branches
  CPU-6: # Core stats
   cycles: 5938730748 # Simulated unhalted cycles
   cCycles: 1356 # Cycles due to contention stalls
   instrs: 6065505912 # Simulated instructions
   uops: 7139417749 # Retired micro-ops
   bbls: 656133507 # Basic blocks
   approxInstrs: 208578898 # Instrs with approx uop decoding
   mispredBranches: 45008511 # Mispredicted branches
  CPU-7: # Core stats
   cycles: 5938470215 # Simulated unhalted cycles
   cCycles: 1212 # Cycles due to contention stalls
   instrs: 6065175529 # Simulated instructions
   uops: 7138993553 # Retired micro-ops
   bbls: 656066613 # Basic blocks
   approxInstrs: 208571248 # Instrs with approx uop decoding
   mispredBranches: 45014178 # Mispredicted branches
 l1d_CPU: # Cache stats
  l1d_CPU-0: # Filter cache stats
   fhGETS: 1021999814 # Filtered GETS hits
   fhGETX: 497354914 # Filtered GETX hits
   hGETS: 154527591 # GETS hits
   hGETX: 9216656 # GETX hits
   mGETS: 8688195 # GETS misses
   mGETXIM: 8541575 # GETX I->M misses
   mGETXSM: 36 # GETX S->M misses (upgrade misses)
   PUTS: 0 # Clean evictions (from lower level)
   PUTX: 0 # Dirty evictions (from lower level)
   INV: 97 # Invalidates (from upper level)
   INVX: 2748 # Downgrades (from upper level)
   FWD: 0 # Forwards (from upper level)
   latGETnl: 725132378 # GET request latency on next level
   latGETnet: 0 # GET request latency on network to next level
  l1d_CPU-1: # Filter cache stats
   fhGETS: 995942549 # Filtered GETS hits
   fhGETX: 470330398 # Filtered GETX hits
   hGETS: 180624303 # GETS hits
   hGETX: 35786926 # GETX hits
   mGETS: 8670456 # GETS misses
   mGETXIM: 8407079 # GETX I->M misses
   mGETXSM: 22 # GETX S->M misses (upgrade misses)
   PUTS: 0 # Clean evictions (from lower level)
   PUTX: 0 # Dirty evictions (from lower level)
   INV: 39 # Invalidates (from upper level)
   INVX: 382 # Downgrades (from upper level)
   FWD: 0 # Forwards (from upper level)
   latGETnl: 712561032 # GET request latency on next level
   latGETnet: 0 # GET request latency on network to next level
  l1d_CPU-2: # Filter cache stats
   fhGETS: 995888006 # Filtered GETS hits
   fhGETX: 470322223 # Filtered GETX hits
   hGETS: 180612834 # GETS hits
   hGETX: 35782313 # GETX hits
   mGETS: 8670387 # GETS misses
   mGETXIM: 8407068 # GETX I->M misses
   mGETXSM: 20 # GETX S->M misses (upgrade misses)
   PUTS: 0 # Clean evictions (from lower level)
   PUTX: 0 # Dirty evictions (from lower level)
   INV: 35 # Invalidates (from upper level)
   INVX: 457 # Downgrades (from upper level)
   FWD: 0 # Forwards (from upper level)
   latGETnl: 712491791 # GET request latency on next level
   latGETnet: 0 # GET request latency on network to next level
  l1d_CPU-3: # Filter cache stats
   fhGETS: 995830300 # Filtered GETS hits
   fhGETX: 470297407 # Filtered GETX hits
   hGETS: 180609883 # GETS hits
   hGETX: 35781721 # GETX hits
   mGETS: 8670354 # GETS misses
   mGETXIM: 8407055 # GETX I->M misses
   mGETXSM: 17 # GETX S->M misses (upgrade misses)
   PUTS: 0 # Clean evictions (from lower level)
   PUTX: 0 # Dirty evictions (from lower level)
   INV: 32 # Invalidates (from upper level)
   INVX: 585 # Downgrades (from upper level)
   FWD: 0 # Forwards (from upper level)
   latGETnl: 712633232 # GET request latency on next level
   latGETnet: 0 # GET request latency on network to next level
  l1d_CPU-4: # Filter cache stats
   fhGETS: 995740235 # Filtered GETS hits
   fhGETX: 470256221 # Filtered GETX hits
   hGETS: 180588550 # GETS hits
   hGETX: 35773965 # GETX hits
   mGETS: 8670245 # GETS misses
   mGETXIM: 8407066 # GETX I->M misses
   mGETXSM: 13 # GETX S->M misses (upgrade misses)
   PUTS: 0 # Clean evictions (from lower level)
   PUTX: 0 # Dirty evictions (from lower level)
   INV: 37 # Invalidates (from upper level)
   INVX: 35191 # Downgrades (from upper level)
   FWD: 0 # Forwards (from upper level)
   latGETnl: 712595182 # GET request latency on next level
   latGETnet: 0 # GET request latency on network to next level
  l1d_CPU-5: # Filter cache stats
   fhGETS: 995735023 # Filtered GETS hits
   fhGETX: 470275594 # Filtered GETX hits
   hGETS: 180598036 # GETS hits
   hGETX: 35781349 # GETX hits
   mGETS: 8670819 # GETS misses
   mGETXIM: 8407055 # GETX I->M misses
   mGETXSM: 17 # GETX S->M misses (upgrade misses)
   PUTS: 0 # Clean evictions (from lower level)
   PUTX: 0 # Dirty evictions (from lower level)
   INV: 33 # Invalidates (from upper level)
   INVX: 370 # Downgrades (from upper level)
   FWD: 0 # Forwards (from upper level)
   latGETnl: 712631298 # GET request latency on next level
   latGETnet: 0 # GET request latency on network to next level
  l1d_CPU-6: # Filter cache stats
   fhGETS: 995795036 # Filtered GETS hits
   fhGETX: 470315194 # Filtered GETX hits
   hGETS: 180613965 # GETS hits
   hGETX: 35784929 # GETX hits
   mGETS: 8670416 # GETS misses
   mGETXIM: 8407056 # GETX I->M misses
   mGETXSM: 17 # GETX S->M misses (upgrade misses)
   PUTS: 0 # Clean evictions (from lower level)
   PUTX: 0 # Dirty evictions (from lower level)
   INV: 34 # Invalidates (from upper level)
   INVX: 576 # Downgrades (from upper level)
   FWD: 0 # Forwards (from upper level)
   latGETnl: 712536992 # GET request latency on next level
   latGETnet: 0 # GET request latency on network to next level
  l1d_CPU-7: # Filter cache stats
   fhGETS: 995719607 # Filtered GETS hits
   fhGETX: 470291383 # Filtered GETX hits
   hGETS: 180614989 # GETS hits
   hGETX: 35786593 # GETX hits
   mGETS: 8670727 # GETS misses
   mGETXIM: 8407056 # GETX I->M misses
   mGETXSM: 20 # GETX S->M misses (upgrade misses)
   PUTS: 0 # Clean evictions (from lower level)
   PUTX: 0 # Dirty evictions (from lower level)
   INV: 24 # Invalidates (from upper level)
   INVX: 24864 # Downgrades (from upper level)
   FWD: 0 # Forwards (from upper level)
   latGETnl: 712564684 # GET request latency on next level
   latGETnet: 0 # GET request latency on network to next level
 l1i_CPU: # Cache stats
  l1i_CPU-0: # Filter cache stats
   fhGETS: 977877764 # Filtered GETS hits
   fhGETX: 0 # Filtered GETX hits
   hGETS: 87336192 # GETS hits
   hGETX: 0 # GETX hits
   mGETS: 9597 # GETS misses
   mGETXIM: 0 # GETX I->M misses
   mGETXSM: 0 # GETX S->M misses (upgrade misses)
   PUTS: 0 # Clean evictions (from lower level)
   PUTX: 0 # Dirty evictions (from lower level)
   INV: 1 # Invalidates (from upper level)
   INVX: 0 # Downgrades (from upper level)
   FWD: 0 # Forwards (from upper level)
   latGETnl: 434710 # GET request latency on next level
   latGETnet: 0 # GET request latency on network to next level
  l1i_CPU-1: # Filter cache stats
   fhGETS: 977935625 # Filtered GETS hits
   fhGETX: 0 # Filtered GETX hits
   hGETS: 87308072 # GETS hits
   hGETX: 0 # GETX hits
   mGETS: 242 # GETS misses
   mGETXIM: 0 # GETX I->M misses
   mGETXSM: 0 # GETX S->M misses (upgrade misses)
   PUTS: 0 # Clean evictions (from lower level)
   PUTX: 0 # Dirty evictions (from lower level)
   INV: 0 # Invalidates (from upper level)
   INVX: 0 # Downgrades (from upper level)
   FWD: 0 # Forwards (from upper level)
   latGETnl: 11950 # GET request latency on next level
   latGETnet: 0 # GET request latency on network to next level
  l1i_CPU-2: # Filter cache stats
   fhGETS: 977905139 # Filtered GETS hits
   fhGETX: 0 # Filtered GETX hits
   hGETS: 87289625 # GETS hits
   hGETX: 0 # GETX hits
   mGETS: 219 # GETS misses
   mGETXIM: 0 # GETX I->M misses
   mGETXSM: 0 # GETX S->M misses (upgrade misses)
   PUTS: 0 # Clean evictions (from lower level)
   PUTX: 0 # Dirty evictions (from lower level)
   INV: 0 # Invalidates (from upper level)
   INVX: 0 # Downgrades (from upper level)
   FWD: 0 # Forwards (from upper level)
   latGETnl: 9339 # GET request latency on next level
   latGETnet: 0 # GET request latency on network to next level
  l1i_CPU-3: # Filter cache stats
   fhGETS: 977838033 # Filtered GETS hits
   fhGETX: 0 # Filtered GETX hits
   hGETS: 87313644 # GETS hits
   hGETX: 0 # GETX hits
   mGETS: 165 # GETS misses
   mGETXIM: 0 # GETX I->M misses
   mGETXSM: 0 # GETX S->M misses (upgrade misses)
   PUTS: 0 # Clean evictions (from lower level)
   PUTX: 0 # Dirty evictions (from lower level)
   INV: 0 # Invalidates (from upper level)
   INVX: 0 # Downgrades (from upper level)
   FWD: 0 # Forwards (from upper level)
   latGETnl: 7118 # GET request latency on next level
   latGETnet: 0 # GET request latency on network to next level
  l1i_CPU-4: # Filter cache stats
   fhGETS: 977824147 # Filtered GETS hits
   fhGETX: 0 # Filtered GETX hits
   hGETS: 87296270 # GETS hits
   hGETX: 0 # GETX hits
   mGETS: 235 # GETS misses
   mGETXIM: 0 # GETX I->M misses
   mGETXSM: 0 # GETX S->M misses (upgrade misses)
   PUTS: 0 # Clean evictions (from lower level)
   PUTX: 0 # Dirty evictions (from lower level)
   INV: 0 # Invalidates (from upper level)
   INVX: 0 # Downgrades (from upper level)
   FWD: 0 # Forwards (from upper level)
   latGETnl: 11656 # GET request latency on next level
   latGETnet: 0 # GET request latency on network to next level
  l1i_CPU-5: # Filter cache stats
   fhGETS: 977750695 # Filtered GETS hits
   fhGETX: 0 # Filtered GETX hits
   hGETS: 87291046 # GETS hits
   hGETX: 0 # GETX hits
   mGETS: 166 # GETS misses
   mGETXIM: 0 # GETX I->M misses
   mGETXSM: 0 # GETX S->M misses (upgrade misses)
   PUTS: 0 # Clean evictions (from lower level)
   PUTX: 0 # Dirty evictions (from lower level)
   INV: 0 # Invalidates (from upper level)
   INVX: 0 # Downgrades (from upper level)
   FWD: 0 # Forwards (from upper level)
   latGETnl: 7207 # GET request latency on next level
   latGETnet: 0 # GET request latency on network to next level
  l1i_CPU-6: # Filter cache stats
   fhGETS: 977689911 # Filtered GETS hits
   fhGETX: 0 # Filtered GETX hits
   hGETS: 87319214 # GETS hits
   hGETX: 0 # GETX hits
   mGETS: 166 # GETS misses
   mGETXIM: 0 # GETX I->M misses
   mGETXSM: 0 # GETX S->M misses (upgrade misses)
   PUTS: 0 # Clean evictions (from lower level)
   PUTX: 0 # Dirty evictions (from lower level)
   INV: 0 # Invalidates (from upper level)
   INVX: 0 # Downgrades (from upper level)
   FWD: 0 # Forwards (from upper level)
   latGETnl: 7912 # GET request latency on next level
   latGETnet: 0 # GET request latency on network to next level
  l1i_CPU-7: # Filter cache stats
   fhGETS: 977651321 # Filtered GETS hits
   fhGETX: 0 # Filtered GETX hits
   hGETS: 87314226 # GETS hits
   hGETX: 0 # GETX hits
   mGETS: 169 # GETS misses
   mGETXIM: 0 # GETX I->M misses
   mGETXSM: 0 # GETX S->M misses (upgrade misses)
   PUTS: 0 # Clean evictions (from lower level)
   PUTX: 0 # Dirty evictions (from lower level)
   INV: 0 # Invalidates (from upper level)
   INVX: 0 # Downgrades (from upper level)
   FWD: 0 # Forwards (from upper level)
   latGETnl: 7662 # GET request latency on next level
   latGETnet: 0 # GET request latency on network to next level
 l2_CPU: # Cache stats
  l2_CPU-0: # Cache stats
   hGETS: 175748 # GETS hits
   hGETX: 179 # GETX hits
   mGETS: 8522044 # GETS misses
   mGETXIM: 8541381 # GETX I->M misses
   mGETXSM: 51 # GETX S->M misses (upgrade misses)
   PUTS: 8695305 # Clean evictions (from lower level)
   PUTX: 8542940 # Dirty evictions (from lower level)
   INV: 103 # Invalidates (from upper level)
   INVX: 3079 # Downgrades (from upper level)
   FWD: 0 # Forwards (from upper level)
   latGETnl: 518694248 # GET request latency on next level
   latGETnet: 0 # GET request latency on network to next level
  l2_CPU-1: # Cache stats
   hGETS: 159833 # GETS hits
   hGETX: 0 # GETX hits
   mGETS: 8510865 # GETS misses
   mGETXIM: 8407080 # GETX I->M misses
   mGETXSM: 21 # GETX S->M misses (upgrade misses)
   PUTS: 8668894 # Clean evictions (from lower level)
   PUTX: 8408101 # Dirty evictions (from lower level)
   INV: 39 # Invalidates (from upper level)
   INVX: 601 # Downgrades (from upper level)
   FWD: 0 # Forwards (from upper level)
   latGETnl: 507639394 # GET request latency on next level
   latGETnet: 0 # GET request latency on network to next level
  l2_CPU-2: # Cache stats
   hGETS: 160172 # GETS hits
   hGETX: 0 # GETX hits
   mGETS: 8510434 # GETS misses
   mGETXIM: 8407068 # GETX I->M misses
   mGETXSM: 20 # GETX S->M misses (upgrade misses)
   PUTS: 8668829 # Clean evictions (from lower level)
   PUTX: 8408088 # Dirty evictions (from lower level)
   INV: 35 # Invalidates (from upper level)
   INVX: 599 # Downgrades (from upper level)
   FWD: 0 # Forwards (from upper level)
   latGETnl: 507568802 # GET request latency on next level
   latGETnet: 0 # GET request latency on network to next level
  l2_CPU-3: # Cache stats
   hGETS: 160403 # GETS hits
   hGETX: 0 # GETX hits
   mGETS: 8510116 # GETS misses
   mGETXIM: 8407055 # GETX I->M misses
   mGETXSM: 17 # GETX S->M misses (upgrade misses)
   PUTS: 8668798 # Clean evictions (from lower level)
   PUTX: 8408076 # Dirty evictions (from lower level)
   INV: 32 # Invalidates (from upper level)
   INVX: 822 # Downgrades (from upper level)
   FWD: 0 # Forwards (from upper level)
   latGETnl: 507709258 # GET request latency on next level
   latGETnet: 0 # GET request latency on network to next level
  l2_CPU-4: # Cache stats
   hGETS: 160283 # GETS hits
   hGETX: 0 # GETX hits
   mGETS: 8510197 # GETS misses
   mGETXIM: 8407066 # GETX I->M misses
   mGETXSM: 13 # GETX S->M misses (upgrade misses)
   PUTS: 8668701 # Clean evictions (from lower level)
   PUTX: 8408075 # Dirty evictions (from lower level)
   INV: 37 # Invalidates (from upper level)
   INVX: 35990 # Downgrades (from upper level)
   FWD: 0 # Forwards (from upper level)
   latGETnl: 507676130 # GET request latency on next level
   latGETnet: 0 # GET request latency on network to next level
  l2_CPU-5: # Cache stats
   hGETS: 161028 # GETS hits
   hGETX: 0 # GETX hits
   mGETS: 8509957 # GETS misses
   mGETXIM: 8407055 # GETX I->M misses
   mGETXSM: 17 # GETX S->M misses (upgrade misses)
   PUTS: 8669263 # Clean evictions (from lower level)
   PUTX: 8408075 # Dirty evictions (from lower level)
   INV: 33 # Invalidates (from upper level)
   INVX: 705 # Downgrades (from upper level)
   FWD: 0 # Forwards (from upper level)
   latGETnl: 507701821 # GET request latency on next level
   latGETnet: 0 # GET request latency on network to next level
  l2_CPU-6: # Cache stats
   hGETS: 160555 # GETS hits
   hGETX: 0 # GETX hits
   mGETS: 8510027 # GETS misses
   mGETXIM: 8407056 # GETX I->M misses
   mGETXSM: 17 # GETX S->M misses (upgrade misses)
   PUTS: 8668860 # Clean evictions (from lower level)
   PUTX: 8408075 # Dirty evictions (from lower level)
   INV: 34 # Invalidates (from upper level)
   INVX: 953 # Downgrades (from upper level)
   FWD: 0 # Forwards (from upper level)
   latGETnl: 507613044 # GET request latency on next level
   latGETnet: 0 # GET request latency on network to next level
  l2_CPU-7: # Cache stats
   hGETS: 160869 # GETS hits
   hGETX: 0 # GETX hits
   mGETS: 8510027 # GETS misses
   mGETXIM: 8407057 # GETX I->M misses
   mGETXSM: 19 # GETX S->M misses (upgrade misses)
   PUTS: 8669176 # Clean evictions (from lower level)
   PUTX: 8408078 # Dirty evictions (from lower level)
   INV: 24 # Invalidates (from upper level)
   INVX: 26209 # Downgrades (from upper level)
   FWD: 0 # Forwards (from upper level)
   latGETnl: 507636682 # GET request latency on next level
   latGETnet: 0 # GET request latency on network to next level
 l3: # Cache stats
  l3-0b0: # Cache stats
   hGETS: 8505455 # GETS hits
   hGETX: 8406612 # GETX hits
   mGETS: 972 # GETS misses
   mGETXIM: 16612 # GETX I->M misses
   mGETXSM: 0 # GETX S->M misses (upgrade misses)
   PUTS: 8501291 # Clean evictions (from lower level)
   PUTX: 8424247 # Dirty evictions (from lower level)
   INV: 0 # Invalidates (from upper level)
   INVX: 0 # Downgrades (from upper level)
   FWD: 0 # Forwards (from upper level)
   latGETnl: 826448 # GET request latency on next level
   latGETnet: 0 # GET request latency on network to next level
  l3-0b1: # Cache stats
   hGETS: 8517513 # GETS hits
   hGETX: 8408141 # GETX hits
   mGETS: 937 # GETS misses
   mGETXIM: 16612 # GETX I->M misses
   mGETXSM: 0 # GETX S->M misses (upgrade misses)
   PUTS: 8513342 # Clean evictions (from lower level)
   PUTX: 8425756 # Dirty evictions (from lower level)
   INV: 0 # Invalidates (from upper level)
   INVX: 0 # Downgrades (from upper level)
   FWD: 0 # Forwards (from upper level)
   latGETnl: 824803 # GET request latency on next level
   latGETnet: 0 # GET request latency on network to next level
  l3-0b2: # Cache stats
   hGETS: 8508513 # GETS hits
   hGETX: 8407128 # GETX hits
   mGETS: 953 # GETS misses
   mGETXIM: 16622 # GETX I->M misses
   mGETXSM: 0 # GETX S->M misses (upgrade misses)
   PUTS: 8503771 # Clean evictions (from lower level)
   PUTX: 8425266 # Dirty evictions (from lower level)
   INV: 0 # Invalidates (from upper level)
   INVX: 0 # Downgrades (from upper level)
   FWD: 0 # Forwards (from upper level)
   latGETnl: 826025 # GET request latency on next level
   latGETnet: 0 # GET request latency on network to next level
  l3-0b3: # Cache stats
   hGETS: 8512983 # GETS hits
   hGETX: 8406614 # GETX hits
   mGETS: 974 # GETS misses
   mGETXIM: 16618 # GETX I->M misses
   mGETXSM: 0 # GETX S->M misses (upgrade misses)
   PUTS: 8509822 # Clean evictions (from lower level)
   PUTX: 8423209 # Dirty evictions (from lower level)
   INV: 0 # Invalidates (from upper level)
   INVX: 0 # Downgrades (from upper level)
   FWD: 0 # Forwards (from upper level)
   latGETnl: 826824 # GET request latency on next level
   latGETnet: 0 # GET request latency on network to next level
  l3-0b4: # Cache stats
   hGETS: 8511440 # GETS hits
   hGETX: 8406629 # GETX hits
   mGETS: 944 # GETS misses
   mGETXIM: 16616 # GETX I->M misses
   mGETXSM: 0 # GETX S->M misses (upgrade misses)
   PUTS: 8507707 # Clean evictions (from lower level)
   PUTX: 8423741 # Dirty evictions (from lower level)
   INV: 0 # Invalidates (from upper level)
   INVX: 0 # Downgrades (from upper level)
   FWD: 0 # Forwards (from upper level)
   latGETnl: 825320 # GET request latency on next level
   latGETnet: 0 # GET request latency on network to next level
  l3-0b5: # Cache stats
   hGETS: 8511800 # GETS hits
   hGETX: 8407658 # GETX hits
   mGETS: 959 # GETS misses
   mGETXIM: 16617 # GETX I->M misses
   mGETXSM: 0 # GETX S->M misses (upgrade misses)
   PUTS: 8507065 # Clean evictions (from lower level)
   PUTX: 8425775 # Dirty evictions (from lower level)
   INV: 0 # Invalidates (from upper level)
   INVX: 0 # Downgrades (from upper level)
   FWD: 0 # Forwards (from upper level)
   latGETnl: 826072 # GET request latency on next level
   latGETnet: 0 # GET request latency on network to next level
  l3-0b6: # Cache stats
   hGETS: 8507051 # GETS hits
   hGETX: 8408137 # GETX hits
   mGETS: 956 # GETS misses
   mGETXIM: 16621 # GETX I->M misses
   mGETXSM: 0 # GETX S->M misses (upgrade misses)
   PUTS: 8501849 # Clean evictions (from lower level)
   PUTX: 8426791 # Dirty evictions (from lower level)
   INV: 0 # Invalidates (from upper level)
   INVX: 0 # Downgrades (from upper level)
   FWD: 0 # Forwards (from upper level)
   latGETnl: 826119 # GET request latency on next level
   latGETnet: 0 # GET request latency on network to next level
  l3-0b7: # Cache stats
   hGETS: 8511263 # GETS hits
   hGETX: 8407142 # GETX hits
   mGETS: 954 # GETS misses
   mGETXIM: 16614 # GETX I->M misses
   mGETXSM: 0 # GETX S->M misses (upgrade misses)
   PUTS: 8507575 # Clean evictions (from lower level)
   PUTX: 8424242 # Dirty evictions (from lower level)
   INV: 0 # Invalidates (from upper level)
   INVX: 0 # Downgrades (from upper level)
   FWD: 0 # Forwards (from upper level)
   latGETnl: 825696 # GET request latency on next level
   latGETnet: 0 # GET request latency on network to next level
 mem: # Memory controller stats
  mem-0: # Memory controller stats
   rd: 35150 # Read requests
   wr: 0 # Write requests
   rdlat: 3008345 # Total latency experienced by read requests
   wrlat: 0 # Total latency experienced by write requests
   rdhits: 5 # Read row hits
   wrhits: 0 # Write row hits
   mlh: # latency histogram for memory requests
    0: 0
    1: 0
    2: 0
    3: 0
    4: 0
    5: 0
    6: 1
    7: 1
    8: 34441
    9: 238
    10: 3
    11: 3
    12: 2
    13: 22
    14: 90
    15: 102
    16: 88
    17: 61
    18: 54
    19: 19
    20: 13
    21: 10
    22: 2
    23: 0
    24: 0
    25: 0
    26: 0
    27: 0
    28: 0
    29: 0
    30: 0
    31: 0
    32: 0
    33: 0
    34: 0
    35: 0
    36: 0
    37: 0
    38: 0
    39: 0
    40: 0
    41: 0
    42: 0
    43: 0
    44: 0
    45: 0
    46: 0
    47: 0
    48: 0
    49: 0
    50: 0
    51: 0
    52: 0
    53: 0
    54: 0
    55: 0
    56: 0
    57: 0
    58: 0
    59: 0
    60: 0
    61: 0
    62: 0
    63: 0
    64: 0
    65: 0
    66: 0
    67: 0
    68: 0
    69: 0
    70: 0
    71: 0
    72: 0
    73: 0
    74: 0
    75: 0
    76: 0
    77: 0
    78: 0
    79: 0
    80: 0
    81: 0
    82: 0
    83: 0
    84: 0
    85: 0
    86: 0
    87: 0
    88: 0
    89: 0
    90: 0
    91: 0
    92: 0
    93: 0
    94: 0
    95: 0
    96: 0
    97: 0
    98: 0
    99: 0
  mem-1: # Memory controller stats
   rd: 35148 # Read requests
   wr: 0 # Write requests
   rdlat: 3010520 # Total latency experienced by read requests
   wrlat: 0 # Total latency experienced by write requests
   rdhits: 11 # Read row hits
   wrhits: 0 # Write row hits
   mlh: # latency histogram for memory requests
    0: 0
    1: 0
    2: 0
    3: 0
    4: 0
    5: 0
    6: 0
    7: 2
    8: 34449
    9: 205
    10: 12
    11: 4
    12: 7
    13: 18
    14: 95
    15: 85
    16: 79
    17: 74
    18: 67
    19: 27
    20: 15
    21: 4
    22: 1
    23: 1
    24: 0
    25: 0
    26: 0
    27: 0
    28: 0
    29: 0
    30: 0
    31: 0
    32: 1
    33: 0
    34: 0
    35: 0
    36: 0
    37: 0
    38: 0
    39: 0
    40: 0
    41: 0
    42: 0
    43: 0
    44: 1
    45: 0
    46: 0
    47: 0
    48: 0
    49: 0
    50: 0
    51: 0
    52: 0
    53: 0
    54: 0
    55: 0
    56: 1
    57: 0
    58: 0
    59: 0
    60: 0
    61: 0
    62: 0
    63: 0
    64: 0
    65: 0
    66: 0
    67: 0
    68: 0
    69: 0
    70: 0
    71: 0
    72: 0
    73: 0
    74: 0
    75: 0
    76: 0
    77: 0
    78: 0
    79: 0
    80: 0
    81: 0
    82: 0
    83: 0
    84: 0
    85: 0
    86: 0
    87: 0
    88: 0
    89: 0
    90: 0
    91: 0
    92: 0
    93: 0
    94: 0
    95: 0
    96: 0
    97: 0
    98: 0
    99: 0
  mem-2: # Memory controller stats
   rd: 35134 # Read requests
   wr: 0 # Write requests
   rdlat: 3007880 # Total latency experienced by read requests
   wrlat: 0 # Total latency experienced by write requests
   rdhits: 9 # Read row hits
   wrhits: 0 # Write row hits
   mlh: # latency histogram for memory requests
    0: 0
    1: 0
    2: 0
    3: 0
    4: 0
    5: 0
    6: 0
    7: 0
    8: 34444
    9: 213
    10: 2
    11: 5
    12: 6
    13: 17
    14: 92
    15: 96
    16: 104
    17: 62
    18: 57
    19: 17
    20: 3
    21: 9
    22: 2
    23: 1
    24: 1
    25: 0
    26: 0
    27: 0
    28: 0
    29: 0
    30: 0
    31: 0
    32: 1
    33: 0
    34: 0
    35: 0
    36: 0
    37: 0
    38: 0
    39: 0
    40: 0
    41: 0
    42: 0
    43: 0
    44: 1
    45: 0
    46: 0
    47: 0
    48: 0
    49: 0
    50: 0
    51: 0
    52: 0
    53: 0
    54: 0
    55: 1
    56: 0
    57: 0
    58: 0
    59: 0
    60: 0
    61: 0
    62: 0
    63: 0
    64: 0
    65: 0
    66: 0
    67: 0
    68: 0
    69: 0
    70: 0
    71: 0
    72: 0
    73: 0
    74: 0
    75: 0
    76: 0
    77: 0
    78: 0
    79: 0
    80: 0
    81: 0
    82: 0
    83: 0
    84: 0
    85: 0
    86: 0
    87: 0
    88: 0
    89: 0
    90: 0
    91: 0
    92: 0
    93: 0
    94: 0
    95: 0
    96: 0
    97: 0
    98: 0
    99: 0
  mem-3: # Memory controller stats
   rd: 35149 # Read requests
   wr: 0 # Write requests
   rdlat: 3007932 # Total latency experienced by read requests
   wrlat: 0 # Total latency experienced by write requests
   rdhits: 9 # Read row hits
   wrhits: 0 # Write row hits
   mlh: # latency histogram for memory requests
    0: 0
    1: 0
    2: 0
    3: 0
    4: 0
    5: 0
    6: 0
    7: 3
    8: 34464
    9: 203
    10: 9
    11: 5
    12: 7
    13: 18
    14: 89
    15: 125
    16: 86
    17: 52
    18: 46
    19: 20
    20: 6
    21: 12
    22: 2
    23: 2
    24: 0
    25: 0
    26: 0
    27: 0
    28: 0
    29: 0
    30: 0
    31: 0
    32: 0
    33: 0
    34: 0
    35: 0
    36: 0
    37: 0
    38: 0
    39: 0
    40: 0
    41: 0
    42: 0
    43: 0
    44: 0
    45: 0
    46: 0
    47: 0
    48: 0
    49: 0
    50: 0
    51: 0
    52: 0
    53: 0
    54: 0
    55: 0
    56: 0
    57: 0
    58: 0
    59: 0
    60: 0
    61: 0
    62: 0
    63: 0
    64: 0
    65: 0
    66: 0
    67: 0
    68: 0
    69: 0
    70: 0
    71: 0
    72: 0
    73: 0
    74: 0
    75: 0
    76: 0
    77: 0
    78: 0
    79: 0
    80: 0
    81: 0
    82: 0
    83: 0
    84: 0
    85: 0
    86: 0
    87: 0
    88: 0
    89: 0
    90: 0
    91: 0
    92: 0
    93: 0
    94: 0
    95: 0
    96: 0
    97: 0
    98: 0
    99: 0
 sched: # Scheduler stats
  thCr: 8 # Threads created
  thFn: 8 # Threads finished
  schedEvs: 8 # Schedule events
  waitEvs: 0 # Wait events
  handoffEvs: 0 # Handoff events
  sleepEvs: 0 # Sleep events
  idlePhases: 0 # Phases with no thread active
  idlePeriods: 0 # Periods with no thread active
  occHist: # Occupancy histogram
   0: 0
   1: 158
   2: 26
   3: 26
   4: 26
   5: 27
   6: 26
   7: 26
   8: 593847
  rqSzHist: # Run queue size histogram
   0: 594162
   1: 0
   2: 0
   3: 0
   4: 0
   5: 0
   6: 0
   7: 0
   8: 0
   9: 0
   10: 0
   11: 0
   12: 0
   13: 0
   14: 0
   15: 0
   16: 0
 procCycles: # Per-process unhalted core cycles
  0: 47516412939
  1: 0
  2: 0
  3: 0
  4: 0
  5: 0
  6: 0
  7: 0
  8: 0
  9: 0
  10: 0
  11: 0
  12: 0
  13: 0
  14: 0
  15: 0
  16: 0
  17: 0
  18: 0
  19: 0
  20: 0
  21: 0
  22: 0
  23: 0
  24: 0
  25: 0
  26: 0
  27: 0
  28: 0
  29: 0
  30: 0
  31: 0
  32: 0
  33: 0
  34: 0
  35: 0
  36: 0
  37: 0
  38: 0
  39: 0
  40: 0
  41: 0
  42: 0
  43: 0
  44: 0
  45: 0
  46: 0
  47: 0
  48: 0
  49: 0
  50: 0
  51: 0
  52: 0
  53: 0
  54: 0
  55: 0
  56: 0
  57: 0
  58: 0
  59: 0
  60: 0
  61: 0
  62: 0
  63: 0
 procInstrs: # Per-process instructions
  0: 48526502322
  1: 0
  2: 0
  3: 0
  4: 0
  5: 0
  6: 0
  7: 0
  8: 0
  9: 0
  10: 0
  11: 0
  12: 0
  13: 0
  14: 0
  15: 0
  16: 0
  17: 0
  18: 0
  19: 0
  20: 0
  21: 0
  22: 0
  23: 0
  24: 0
  25: 0
  26: 0
  27: 0
  28: 0
  29: 0
  30: 0
  31: 0
  32: 0
  33: 0
  34: 0
  35: 0
  36: 0
  37: 0
  38: 0
  39: 0
  40: 0
  41: 0
  42: 0
  43: 0
  44: 0
  45: 0
  46: 0
  47: 0
  48: 0
  49: 0
  50: 0
  51: 0
  52: 0
  53: 0
  54: 0
  55: 0
  56: 0
  57: 0
  58: 0
  59: 0
  60: 0
  61: 0
  62: 0
  63: 0
 heartbeats: # Per-process heartbeats
  0: 0
  1: 0
  2: 0
  3: 0
  4: 0
  5: 0
  6: 0
  7: 0
  8: 0
  9: 0
  10: 0
  11: 0
  12: 0
  13: 0
  14: 0
  15: 0
  16: 0
  17: 0
  18: 0
  19: 0
  20: 0
  21: 0
  22: 0
  23: 0
  24: 0
  25: 0
  26: 0
  27: 0
  28: 0
  29: 0
  30: 0
  31: 0
  32: 0
  33: 0
  34: 0
  35: 0
  36: 0
  37: 0
  38: 0
  39: 0
  40: 0
  41: 0
  42: 0
  43: 0
  44: 0
  45: 0
  46: 0
  47: 0
  48: 0
  49: 0
  50: 0
  51: 0
  52: 0
  53: 0
  54: 0
  55: 0
  56: 0
  57: 0
  58: 0
  59: 0
  60: 0
  61: 0
  62: 0
  63: 0
===
