bt,A,2,CPU-0,cycles,121488678766
bt,A,2,CPU-0,cCycles,8096243638
bt,A,2,CPU-0,instrs,193498379701
bt,A,2,CPU-0,uops,227801562514
bt,A,2,CPU-0,bbls,6073142419
bt,A,2,CPU-0,approxInstrs,2538741294
bt,A,2,CPU-0,mispredBranches,8795769
bt,A,2,l1i_CPU-0,hGETS,8152961682
bt,A,2,l1i_CPU-0,hGETX,0
bt,A,2,l1i_CPU-0,mGETS,112277103
bt,A,2,l1i_CPU-0,mGETXIM,0
bt,A,2,l1i_CPU-0,mGETXSM,0
bt,A,2,l1i_CPU-0,PUTS,0
bt,A,2,l1i_CPU-0,PUTX,0
bt,A,2,l1i_CPU-0,INV,112219192 0
bt,A,2,l1i_CPU-0,INVX,0
bt,A,2,l1i_CPU-0,FWD,0
bt,A,2,l1i_CPU-0,latGETnl,4718272889
bt,A,2,l1i_CPU-0,latGETnet,0
bt,A,2,l1d_CPU-0,hGETS,3347998590
bt,A,2,l1d_CPU-0,hGETX,2552584872
bt,A,2,l1d_CPU-0,mGETS,2233132549
bt,A,2,l1d_CPU-0,mGETXIM,1219488477
bt,A,2,l1d_CPU-0,mGETXSM,8142
bt,A,2,l1d_CPU-0,PUTS,0
bt,A,2,l1d_CPU-0,PUTX,0
bt,A,2,l1d_CPU-0,INV,554886933 131545
bt,A,2,l1d_CPU-0,INVX,131545
bt,A,2,l1d_CPU-0,FWD,0
bt,A,2,l1d_CPU-0,latGETnl,89945433006
bt,A,2,l1d_CPU-0,latGETnet,0
bt,A,2,l2_CPU-0,hGETS,1362837956
bt,A,2,l2_CPU-0,hGETX,1062769527
bt,A,2,l2_CPU-0,mGETS,982571696
bt,A,2,l2_CPU-0,mGETXIM,156718950
bt,A,2,l2_CPU-0,mGETXSM,8142
bt,A,2,l2_CPU-0,PUTS,1064802149
bt,A,2,l2_CPU-0,PUTX,1832989321
bt,A,2,l2_CPU-0,INV,4777 303516
bt,A,2,l2_CPU-0,INVX,303516
bt,A,2,l2_CPU-0,FWD,0
bt,A,2,l2_CPU-0,latGETnl,51884830639
bt,A,2,l2_CPU-0,latGETnet,0
bt,A,2,CPU-1,cycles,120169685914
bt,A,2,CPU-1,cCycles,7856414238
bt,A,2,CPU-1,instrs,194082172188
bt,A,2,CPU-1,uops,228552249611
bt,A,2,CPU-1,bbls,6240079795
bt,A,2,CPU-1,approxInstrs,2538732130
bt,A,2,CPU-1,mispredBranches,8781294
bt,A,2,l1i_CPU-1,hGETS,8195021570
bt,A,2,l1i_CPU-1,hGETX,0
bt,A,2,l1i_CPU-1,mGETS,68791470
bt,A,2,l1i_CPU-1,mGETXIM,0
bt,A,2,l1i_CPU-1,mGETXSM,0
bt,A,2,l1i_CPU-1,PUTS,0
bt,A,2,l1i_CPU-1,PUTX,0
bt,A,2,l1i_CPU-1,INV,68748712 0
bt,A,2,l1i_CPU-1,INVX,0
bt,A,2,l1i_CPU-1,FWD,0
bt,A,2,l1i_CPU-1,latGETnl,2891472256
bt,A,2,l1i_CPU-1,latGETnet,0
bt,A,2,l1d_CPU-1,hGETS,2730832856
bt,A,2,l1d_CPU-1,hGETX,2146382342
bt,A,2,l1d_CPU-1,mGETS,2228074968
bt,A,2,l1d_CPU-1,mGETXIM,1224964509
bt,A,2,l1d_CPU-1,mGETXSM,4675
bt,A,2,l1d_CPU-1,PUTS,0
bt,A,2,l1d_CPU-1,PUTX,0
bt,A,2,l1d_CPU-1,INV,498903961 133602
bt,A,2,l1d_CPU-1,INVX,133602
bt,A,2,l1d_CPU-1,FWD,0
bt,A,2,l1d_CPU-1,latGETnl,88210322110
bt,A,2,l1d_CPU-1,latGETnet,0
bt,A,2,l2_CPU-1,hGETS,1378604014
bt,A,2,l2_CPU-1,hGETX,1100602686
bt,A,2,l2_CPU-1,mGETS,918262424
bt,A,2,l2_CPU-1,mGETXIM,124361825
bt,A,2,l2_CPU-1,mGETXSM,4673
bt,A,2,l2_CPU-1,PUTS,1097456533
bt,A,2,l2_CPU-1,PUTX,1856721118
bt,A,2,l2_CPU-1,INV,9396 336322
bt,A,2,l2_CPU-1,INVX,336322
bt,A,2,l2_CPU-1,FWD,0
bt,A,2,l2_CPU-1,latGETnl,48839766902
bt,A,2,l2_CPU-1,latGETnet,0
bt,A,2,l3-0b0,hGETS,159112882
bt,A,2,l3-0b0,hGETX,37885550
bt,A,2,l3-0b0,mGETS,84435941
bt,A,2,l3-0b0,mGETXIM,9354894
bt,A,2,l3-0b0,mGETXSM,0
bt,A,2,l3-0b0,PUTS,186659836
bt,A,2,l3-0b0,PUTX,104125865
bt,A,2,l3-0b0,INV,0 0
bt,A,2,l3-0b0,INVX,0
bt,A,2,l3-0b0,FWD,0
bt,A,2,l3-0b0,latGETnl,4408169245
bt,A,2,l3-0b0,latGETnet,0
bt,A,2,l3-0b1,hGETS,151862484
bt,A,2,l3-0b1,hGETX,26766640
bt,A,2,l3-0b1,mGETS,84423587
bt,A,2,l3-0b1,mGETXIM,9352049
bt,A,2,l3-0b1,mGETXSM,0
bt,A,2,l3-0b1,PUTS,182668632
bt,A,2,l3-0b1,PUTX,89732370
bt,A,2,l3-0b1,INV,0 0
bt,A,2,l3-0b1,INVX,0
bt,A,2,l3-0b1,FWD,0
bt,A,2,l3-0b1,latGETnl,4407454892
bt,A,2,l3-0b1,latGETnet,0
bt,A,2,l3-0b2,hGETS,148367545
bt,A,2,l3-0b2,hGETX,21621776
bt,A,2,l3-0b2,mGETS,84419860
bt,A,2,l3-0b2,mGETXIM,9354354
bt,A,2,l3-0b2,mGETXSM,0
bt,A,2,l3-0b2,PUTS,178859160
bt,A,2,l3-0b2,PUTX,84900218
bt,A,2,l3-0b2,INV,0 0
bt,A,2,l3-0b2,INVX,0
bt,A,2,l3-0b2,FWD,0
bt,A,2,l3-0b2,latGETnl,4407388058
bt,A,2,l3-0b2,latGETnet,0
bt,A,2,l3-0b3,hGETS,156772194
bt,A,2,l3-0b3,hGETX,22400746
bt,A,2,l3-0b3,mGETS,84407032
bt,A,2,l3-0b3,mGETXIM,9352310
bt,A,2,l3-0b3,mGETXSM,0
bt,A,2,l3-0b3,PUTS,187484835
bt,A,2,l3-0b3,PUTX,85444384
bt,A,2,l3-0b3,INV,0 0
bt,A,2,l3-0b3,INVX,0
bt,A,2,l3-0b3,FWD,0
bt,A,2,l3-0b3,latGETnl,4406689074
bt,A,2,l3-0b3,latGETnet,0
bt,A,2,l3-0b4,hGETS,153751044
bt,A,2,l3-0b4,hGETX,21265754
bt,A,2,l3-0b4,mGETS,84430519
bt,A,2,l3-0b4,mGETXIM,9353259
bt,A,2,l3-0b4,mGETXSM,0
bt,A,2,l3-0b4,PUTS,185459256
bt,A,2,l3-0b4,PUTX,83334338
bt,A,2,l3-0b4,INV,0 0
bt,A,2,l3-0b4,INVX,0
bt,A,2,l3-0b4,FWD,0
bt,A,2,l3-0b4,latGETnl,4407837566
bt,A,2,l3-0b4,latGETnet,0
bt,A,2,l3-0b5,hGETS,150540803
bt,A,2,l3-0b5,hGETX,23705951
bt,A,2,l3-0b5,mGETS,84407756
bt,A,2,l3-0b5,mGETXIM,9352061
bt,A,2,l3-0b5,mGETXSM,0
bt,A,2,l3-0b5,PUTS,181863142
bt,A,2,l3-0b5,PUTX,86135276
bt,A,2,l3-0b5,INV,0 0
bt,A,2,l3-0b5,INVX,0
bt,A,2,l3-0b5,FWD,0
bt,A,2,l3-0b5,latGETnl,4406711399
bt,A,2,l3-0b5,latGETnet,0
bt,A,2,l3-0b6,hGETS,146161596
bt,A,2,l3-0b6,hGETX,21996520
bt,A,2,l3-0b6,mGETS,84393501
bt,A,2,l3-0b6,mGETXIM,9355256
bt,A,2,l3-0b6,mGETXSM,0
bt,A,2,l3-0b6,PUTS,178540854
bt,A,2,l3-0b6,PUTX,83363692
bt,A,2,l3-0b6,INV,0 0
bt,A,2,l3-0b6,INVX,0
bt,A,2,l3-0b6,FWD,0
bt,A,2,l3-0b6,latGETnl,4406191579
bt,A,2,l3-0b6,latGETnet,0
bt,A,2,l3-0b7,hGETS,158927778
bt,A,2,l3-0b7,hGETX,30622060
bt,A,2,l3-0b7,mGETS,84419598
bt,A,2,l3-0b7,mGETXIM,9354410
bt,A,2,l3-0b7,mGETXSM,0
bt,A,2,l3-0b7,PUTS,187905629
bt,A,2,l3-0b7,PUTX,95415055
bt,A,2,l3-0b7,INV,0 0
bt,A,2,l3-0b7,INVX,0
bt,A,2,l3-0b7,FWD,0
bt,A,2,l3-0b7,latGETnl,4407378376
bt,A,2,l3-0b7,latGETnet,0
