ep,A,1,CPU-0,cycles,47502243666
ep,A,1,CPU-0,cCycles,283082
ep,A,1,CPU-0,instrs,48514445467
ep,A,1,CPU-0,uops,57104323850
ep,A,1,CPU-0,bbls,5246939221
ep,A,1,CPU-0,approxInstrs,1668556811
ep,A,1,CPU-0,mispredBranches,360100806
ep,A,1,l1i_CPU-0,hGETS,698458691
ep,A,1,l1i_CPU-0,hGETX,0
ep,A,1,l1i_CPU-0,mGETS,9351
ep,A,1,l1i_CPU-0,mGETXIM,0
ep,A,1,l1i_CPU-0,mGETXSM,0
ep,A,1,l1i_CPU-0,PUTS,0
ep,A,1,l1i_CPU-0,PUTX,0
ep,A,1,l1i_CPU-0,INV,0 0
ep,A,1,l1i_CPU-0,INVX,0
ep,A,1,l1i_CPU-0,FWD,0
ep,A,1,l1i_CPU-0,latGETnl,422956
ep,A,1,l1i_CPU-0,latGETnet,0
ep,A,1,l1d_CPU-0,hGETS,1235925055
ep,A,1,l1d_CPU-0,hGETX,73649440
ep,A,1,l1d_CPU-0,mGETS,69452325
ep,A,1,l1d_CPU-0,mGETXIM,67168100
ep,A,1,l1d_CPU-0,mGETXSM,0
ep,A,1,l1d_CPU-0,PUTS,0
ep,A,1,l1d_CPU-0,PUTX,0
ep,A,1,l1d_CPU-0,INV,0 1
ep,A,1,l1d_CPU-0,INVX,1
ep,A,1,l1d_CPU-0,FWD,0
ep,A,1,l1d_CPU-0,latGETnl,5698166739
ep,A,1,l1d_CPU-0,latGETnet,0
ep,A,1,l2_CPU-0,hGETS,1368254
ep,A,1,l2_CPU-0,hGETX,153
ep,A,1,l2_CPU-0,mGETS,68093422
ep,A,1,l2_CPU-0,mGETXIM,67167947
ep,A,1,l2_CPU-0,mGETXSM,0
ep,A,1,l2_CPU-0,PUTS,69452089
ep,A,1,l2_CPU-0,PUTX,67176663
ep,A,1,l2_CPU-0,INV,0 0
ep,A,1,l2_CPU-0,INVX,0
ep,A,1,l2_CPU-0,FWD,0
ep,A,1,l2_CPU-0,latGETnl,4059032379
ep,A,1,l2_CPU-0,latGETnet,0
ep,A,1,l3-0b0,hGETS,8508149
ep,A,1,l3-0b0,hGETX,8394791
ep,A,1,l3-0b0,mGETS,950
ep,A,1,l3-0b0,mGETXIM,2229
ep,A,1,l3-0b0,mGETXSM,0
ep,A,1,l3-0b0,PUTS,8508579
ep,A,1,l3-0b0,PUTX,8397030
ep,A,1,l3-0b0,INV,0 0
ep,A,1,l3-0b0,INVX,0
ep,A,1,l3-0b0,FWD,0
ep,A,1,l3-0b0,latGETnl,149413
ep,A,1,l3-0b0,latGETnet,0
ep,A,1,l3-0b1,hGETS,8517184
ep,A,1,l3-0b1,hGETX,8394780
ep,A,1,l3-0b1,mGETS,922
ep,A,1,l3-0b1,mGETXIM,2231
ep,A,1,l3-0b1,mGETXSM,0
ep,A,1,l3-0b1,PUTS,8517602
ep,A,1,l3-0b1,PUTX,8397022
ep,A,1,l3-0b1,INV,0 0
ep,A,1,l3-0b1,INVX,0
ep,A,1,l3-0b1,FWD,0
ep,A,1,l3-0b1,latGETnl,148191
ep,A,1,l3-0b1,latGETnet,0
ep,A,1,l3-0b2,hGETS,8506012
ep,A,1,l3-0b2,hGETX,8390688
ep,A,1,l3-0b2,mGETS,933
ep,A,1,l3-0b2,mGETXIM,2233
ep,A,1,l3-0b2,mGETXSM,0
ep,A,1,l3-0b2,PUTS,8506416
ep,A,1,l3-0b2,PUTX,8392942
ep,A,1,l3-0b2,INV,0 0
ep,A,1,l3-0b2,INVX,0
ep,A,1,l3-0b2,FWD,0
ep,A,1,l3-0b2,latGETnl,148802
ep,A,1,l3-0b2,latGETnet,0
ep,A,1,l3-0b3,hGETS,8512183
ep,A,1,l3-0b3,hGETX,8390695
ep,A,1,l3-0b3,mGETS,953
ep,A,1,l3-0b3,mGETXIM,2231
ep,A,1,l3-0b3,mGETXSM,0
ep,A,1,l3-0b3,PUTS,8512620
ep,A,1,l3-0b3,PUTX,8392935
ep,A,1,l3-0b3,INV,0 0
ep,A,1,l3-0b3,INVX,0
ep,A,1,l3-0b3,FWD,0
ep,A,1,l3-0b3,latGETnl,149648
ep,A,1,l3-0b3,latGETnet,0
ep,A,1,l3-0b4,hGETS,8511147
ep,A,1,l3-0b4,hGETX,8394787
ep,A,1,l3-0b4,mGETS,929
ep,A,1,l3-0b4,mGETXIM,2233
ep,A,1,l3-0b4,mGETXSM,0
ep,A,1,l3-0b4,PUTS,8511520
ep,A,1,l3-0b4,PUTX,8397036
ep,A,1,l3-0b4,INV,0 0
ep,A,1,l3-0b4,INVX,0
ep,A,1,l3-0b4,FWD,0
ep,A,1,l3-0b4,latGETnl,148614
ep,A,1,l3-0b4,latGETnet,0
ep,A,1,l3-0b5,hGETS,8514211
ep,A,1,l3-0b5,hGETX,8390687
ep,A,1,l3-0b5,mGETS,933
ep,A,1,l3-0b5,mGETXIM,2237
ep,A,1,l3-0b5,mGETXSM,0
ep,A,1,l3-0b5,PUTS,8510539
ep,A,1,l3-0b5,PUTX,8397030
ep,A,1,l3-0b5,INV,0 0
ep,A,1,l3-0b5,INVX,0
ep,A,1,l3-0b5,FWD,0
ep,A,1,l3-0b5,latGETnl,148990
ep,A,1,l3-0b5,latGETnet,0
ep,A,1,l3-0b6,hGETS,8503501
ep,A,1,l3-0b6,hGETX,8402973
ep,A,1,l3-0b6,mGETS,939
ep,A,1,l3-0b6,mGETXIM,2233
ep,A,1,l3-0b6,mGETXSM,0
ep,A,1,l3-0b6,PUTS,8503893
ep,A,1,l3-0b6,PUTX,8405224
ep,A,1,l3-0b6,INV,0 0
ep,A,1,l3-0b6,INVX,0
ep,A,1,l3-0b6,FWD,0
ep,A,1,l3-0b6,latGETnl,149084
ep,A,1,l3-0b6,latGETnet,0
ep,A,1,l3-0b7,hGETS,8513547
ep,A,1,l3-0b7,hGETX,8390687
ep,A,1,l3-0b7,mGETS,929
ep,A,1,l3-0b7,mGETXIM,2232
ep,A,1,l3-0b7,mGETXSM,0
ep,A,1,l3-0b7,PUTS,8509847
ep,A,1,l3-0b7,PUTX,8397038
ep,A,1,l3-0b7,INV,0 0
ep,A,1,l3-0b7,INVX,0
ep,A,1,l3-0b7,FWD,0
ep,A,1,l3-0b7,latGETnl,148567
ep,A,1,l3-0b7,latGETnet,0
