bt,A,1,CPU-0,cycles,239784578458
bt,A,1,CPU-0,cCycles,15785523664
bt,A,1,CPU-0,instrs,386907897209
bt,A,1,CPU-0,uops,455488877940
bt,A,1,CPU-0,bbls,12121077073
bt,A,1,CPU-0,approxInstrs,5077475122
bt,A,1,CPU-0,mispredBranches,17566455
bt,A,1,l1i_CPU-0,hGETS,16342274288
bt,A,1,l1i_CPU-0,hGETX,0
bt,A,1,l1i_CPU-0,mGETS,163490459
bt,A,1,l1i_CPU-0,mGETXIM,0
bt,A,1,l1i_CPU-0,mGETXSM,0
bt,A,1,l1i_CPU-0,PUTS,0
bt,A,1,l1i_CPU-0,PUTX,0
bt,A,1,l1i_CPU-0,INV,163412325 0
bt,A,1,l1i_CPU-0,INVX,0
bt,A,1,l1i_CPU-0,FWD,0
bt,A,1,l1i_CPU-0,latGETnl,6872226495
bt,A,1,l1i_CPU-0,latGETnet,0
bt,A,1,l1d_CPU-0,hGETS,6693418608
bt,A,1,l1d_CPU-0,hGETX,5102241154
bt,A,1,l1d_CPU-0,mGETS,4451488013
bt,A,1,l1d_CPU-0,mGETXIM,2439531688
bt,A,1,l1d_CPU-0,mGETXSM,0
bt,A,1,l1d_CPU-0,PUTS,0
bt,A,1,l1d_CPU-0,PUTX,0
bt,A,1,l1d_CPU-0,INV,1000934734 1
bt,A,1,l1d_CPU-0,INVX,1
bt,A,1,l1d_CPU-0,FWD,0
bt,A,1,l1d_CPU-0,latGETnl,176681622512
bt,A,1,l1d_CPU-0,latGETnet,0
bt,A,1,l2_CPU-0,hGETS,2756994856
bt,A,1,l2_CPU-0,hGETX,2181919229
bt,A,1,l2_CPU-0,mGETS,1857983616
bt,A,1,l2_CPU-0,mGETXIM,257612459
bt,A,1,l2_CPU-0,mGETXSM,0
bt,A,1,l2_CPU-0,PUTS,2187910477
bt,A,1,l2_CPU-0,PUTX,3702252057
bt,A,1,l2_CPU-0,INV,0 0
bt,A,1,l2_CPU-0,INVX,0
bt,A,1,l2_CPU-0,FWD,0
bt,A,1,l2_CPU-0,latGETnl,98899727083
bt,A,1,l2_CPU-0,latGETnet,0
bt,A,1,l3-0b0,hGETS,155750200
bt,A,1,l3-0b0,hGETX,26468189
bt,A,1,l3-0b0,mGETS,84917619
bt,A,1,l3-0b0,mGETXIM,9327908
bt,A,1,l3-0b0,mGETXSM,0
bt,A,1,l3-0b0,PUTS,182495791
bt,A,1,l3-0b0,PUTX,93967585
bt,A,1,l3-0b0,INV,0 0
bt,A,1,l3-0b0,INVX,0
bt,A,1,l3-0b0,FWD,0
bt,A,1,l3-0b0,latGETnl,4429539769
bt,A,1,l3-0b0,latGETnet,0
bt,A,1,l3-0b1,hGETS,147949750
bt,A,1,l3-0b1,hGETX,28505554
bt,A,1,l3-0b1,mGETS,84905726
bt,A,1,l3-0b1,mGETXIM,9326639
bt,A,1,l3-0b1,mGETXSM,0
bt,A,1,l3-0b1,PUTS,177111684
bt,A,1,l3-0b1,PUTX,93575483
bt,A,1,l3-0b1,INV,0 0
bt,A,1,l3-0b1,INVX,0
bt,A,1,l3-0b1,FWD,0
bt,A,1,l3-0b1,latGETnl,4428921155
bt,A,1,l3-0b1,latGETnet,0
bt,A,1,l3-0b2,hGETS,144494512
bt,A,1,l3-0b2,hGETX,19381492
bt,A,1,l3-0b2,mGETS,84913367
bt,A,1,l3-0b2,mGETXIM,9327049
bt,A,1,l3-0b2,mGETXSM,0
bt,A,1,l3-0b2,PUTS,175598712
bt,A,1,l3-0b2,PUTX,82517180
bt,A,1,l3-0b2,INV,0 0
bt,A,1,l3-0b2,INVX,0
bt,A,1,l3-0b2,FWD,0
bt,A,1,l3-0b2,latGETnl,4429299552
bt,A,1,l3-0b2,latGETnet,0
bt,A,1,l3-0b3,hGETS,141836762
bt,A,1,l3-0b3,hGETX,19766674
bt,A,1,l3-0b3,mGETS,84907322
bt,A,1,l3-0b3,mGETXIM,9325019
bt,A,1,l3-0b3,mGETXSM,0
bt,A,1,l3-0b3,PUTS,173909051
bt,A,1,l3-0b3,PUTX,81926211
bt,A,1,l3-0b3,INV,0 0
bt,A,1,l3-0b3,INVX,0
bt,A,1,l3-0b3,FWD,0
bt,A,1,l3-0b3,latGETnl,4428920027
bt,A,1,l3-0b3,latGETnet,0
bt,A,1,l3-0b4,hGETS,145037695
bt,A,1,l3-0b4,hGETX,22373513
bt,A,1,l3-0b4,mGETS,84909072
bt,A,1,l3-0b4,mGETXIM,9326503
bt,A,1,l3-0b4,mGETXSM,0
bt,A,1,l3-0b4,PUTS,177695042
bt,A,1,l3-0b4,PUTX,83951275
bt,A,1,l3-0b4,INV,0 0
bt,A,1,l3-0b4,INVX,0
bt,A,1,l3-0b4,FWD,0
bt,A,1,l3-0b4,latGETnl,4429072025
bt,A,1,l3-0b4,latGETnet,0
bt,A,1,l3-0b5,hGETS,144438792
bt,A,1,l3-0b5,hGETX,19291033
bt,A,1,l3-0b5,mGETS,84895949
bt,A,1,l3-0b5,mGETXIM,9325259
bt,A,1,l3-0b5,mGETXSM,0
bt,A,1,l3-0b5,PUTS,176805476
bt,A,1,l3-0b5,PUTX,81145067
bt,A,1,l3-0b5,INV,0 0
bt,A,1,l3-0b5,INVX,0
bt,A,1,l3-0b5,FWD,0
bt,A,1,l3-0b5,latGETnl,4428396776
bt,A,1,l3-0b5,latGETnet,0
bt,A,1,l3-0b6,hGETS,141361098
bt,A,1,l3-0b6,hGETX,19823311
bt,A,1,l3-0b6,mGETS,84900286
bt,A,1,l3-0b6,mGETXIM,9328653
bt,A,1,l3-0b6,mGETXSM,0
bt,A,1,l3-0b6,PUTS,172759580
bt,A,1,l3-0b6,PUTX,82653240
bt,A,1,l3-0b6,INV,0 0
bt,A,1,l3-0b6,INVX,0
bt,A,1,l3-0b6,FWD,0
bt,A,1,l3-0b6,latGETnl,4428760133
bt,A,1,l3-0b6,latGETnet,0
bt,A,1,l3-0b7,hGETS,157861412
bt,A,1,l3-0b7,hGETX,27387049
bt,A,1,l3-0b7,mGETS,84904054
bt,A,1,l3-0b7,mGETXIM,9328614
bt,A,1,l3-0b7,mGETXSM,0
bt,A,1,l3-0b7,PUTS,186151599
bt,A,1,l3-0b7,PUTX,93329003
bt,A,1,l3-0b7,INV,0 0
bt,A,1,l3-0b7,INVX,0
bt,A,1,l3-0b7,FWD,0
bt,A,1,l3-0b7,latGETnl,4428935396
bt,A,1,l3-0b7,latGETnet,0
