# zsim stats
===
root: # Stats
 contention: # Contention simulation stats
  domain-0: # Domain stats
   time: 854965048321 # Weave simulation time
 time: # Simulator time breakdown
  init: 73679962
  bound: 20156212474822
  weave: 1932812057893
  ff: 0
 trigger: 20000 # Reason for this stats dump
 phase: 15908062 # Simulated phases
 CPU: # Core stats
  CPU-0: # Core stats
   cycles: 159080624177 # Simulated unhalted cycles
   cCycles: 11594448321 # Cycles due to contention stalls
   instrs: 218497369195 # Simulated instructions
   uops: 257297225837 # Retired micro-ops
   bbls: 7677759825 # Basic blocks
   approxInstrs: 4411964082 # Instrs with approx uop decoding
   mispredBranches: 24794288 # Mispredicted branches
 l1d_CPU: # Cache stats
  l1d_CPU-0: # Filter cache stats
   fhGETS: 52276901552 # Filtered GETS hits
   fhGETX: 22807364063 # Filtered GETX hits
   hGETS: 4077319301 # GETS hits
   hGETX: 2258234284 # GETX hits
   mGETS: 3234051663 # GETS misses
   mGETXIM: 1707110251 # GETX I->M misses
   mGETXSM: 0 # GETX S->M misses (upgrade misses)
   PUTS: 0 # Clean evictions (from lower level)
   PUTX: 0 # Dirty evictions (from lower level)
   INV: 1661116223 # Invalidates (from upper level)
   INVX: 1 # Downgrades (from upper level)
   FWD: 0 # Forwards (from upper level)
   latGETnl: 230495234204 # GET request latency on next level
   latGETnet: 0 # GET request latency on network to next level
 l1i_CPU: # Cache stats
  l1i_CPU-0: # Filter cache stats
   fhGETS: 22381301161 # Filtered GETS hits
   fhGETX: 0 # Filtered GETX hits
   hGETS: 86947082 # GETS hits
   hGETX: 0 # GETX hits
   mGETS: 224566034 # GETS misses
   mGETXIM: 0 # GETX I->M misses
   mGETXSM: 0 # GETX S->M misses (upgrade misses)
   PUTS: 0 # Clean evictions (from lower level)
   PUTX: 0 # Dirty evictions (from lower level)
   INV: 224471896 # Invalidates (from upper level)
   INVX: 0 # Downgrades (from upper level)
   FWD: 0 # Forwards (from upper level)
   latGETnl: 9437417004 # GET request latency on next level
   latGETnet: 0 # GET request latency on network to next level
 l2_CPU: # Cache stats
  l2_CPU-0: # Cache stats
   hGETS: 174365954 # GETS hits
   hGETX: 13015902 # GETX hits
   mGETS: 3284251743 # GETS misses
   mGETXIM: 1694094349 # GETX I->M misses
   mGETXSM: 0 # GETX S->M misses (upgrade misses)
   PUTS: 1809090684 # Clean evictions (from lower level)
   PUTX: 1471048121 # Dirty evictions (from lower level)
   INV: 0 # Invalidates (from upper level)
   INVX: 0 # Downgrades (from upper level)
   FWD: 0 # Forwards (from upper level)
   latGETnl: 177943915828 # GET request latency on next level
   latGETnet: 0 # GET request latency on network to next level
 l3: # Cache stats
  l3-0b0: # Cache stats
   hGETS: 336565731 # GETS hits
   hGETX: 200087406 # GETX hits
   mGETS: 65478548 # GETS misses
   mGETXIM: 10565684 # GETX I->M misses
   mGETXSM: 0 # GETX S->M misses (upgrade misses)
   PUTS: 345320049 # Clean evictions (from lower level)
   PUTX: 267376830 # Dirty evictions (from lower level)
   INV: 0 # Invalidates (from upper level)
   INVX: 0 # Downgrades (from upper level)
   FWD: 0 # Forwards (from upper level)
   latGETnl: 3574078904 # GET request latency on next level
   latGETnet: 0 # GET request latency on network to next level
  l3-0b1: # Cache stats
   hGETS: 339641657 # GETS hits
   hGETX: 199033780 # GETX hits
   mGETS: 65447446 # GETS misses
   mGETXIM: 10564842 # GETX I->M misses
   mGETXSM: 0 # GETX S->M misses (upgrade misses)
   PUTS: 348802387 # Clean evictions (from lower level)
   PUTX: 265884836 # Dirty evictions (from lower level)
   INV: 0 # Invalidates (from upper level)
   INVX: 0 # Downgrades (from upper level)
   FWD: 0 # Forwards (from upper level)
   latGETnl: 3572577536 # GET request latency on next level
   latGETnet: 0 # GET request latency on network to next level
  l3-0b2: # Cache stats
   hGETS: 348435458 # GETS hits
   hGETX: 201401817 # GETX hits
   mGETS: 65494420 # GETS misses
   mGETXIM: 10568683 # GETX I->M misses
   mGETXSM: 0 # GETX S->M misses (upgrade misses)
   PUTS: 357622252 # Clean evictions (from lower level)
   PUTX: 268277610 # Dirty evictions (from lower level)
   INV: 0 # Invalidates (from upper level)
   INVX: 0 # Downgrades (from upper level)
   FWD: 0 # Forwards (from upper level)
   latGETnl: 3574965841 # GET request latency on next level
   latGETnet: 0 # GET request latency on network to next level
  l3-0b3: # Cache stats
   hGETS: 346917708 # GETS hits
   hGETX: 203362093 # GETX hits
   mGETS: 65473297 # GETS misses
   mGETXIM: 10568207 # GETX I->M misses
   mGETXSM: 0 # GETX S->M misses (upgrade misses)
   PUTS: 342959349 # Clean evictions (from lower level)
   PUTX: 283361438 # Dirty evictions (from lower level)
   INV: 0 # Invalidates (from upper level)
   INVX: 0 # Downgrades (from upper level)
   FWD: 0 # Forwards (from upper level)
   latGETnl: 3573950688 # GET request latency on next level
   latGETnet: 0 # GET request latency on network to next level
  l3-0b4: # Cache stats
   hGETS: 354715617 # GETS hits
   hGETX: 202483225 # GETX hits
   mGETS: 65466646 # GETS misses
   mGETXIM: 10567196 # GETX I->M misses
   mGETXSM: 0 # GETX S->M misses (upgrade misses)
   PUTS: 363467767 # Clean evictions (from lower level)
   PUTX: 269764399 # Dirty evictions (from lower level)
   INV: 0 # Invalidates (from upper level)
   INVX: 0 # Downgrades (from upper level)
   FWD: 0 # Forwards (from upper level)
   latGETnl: 3573590574 # GET request latency on next level
   latGETnet: 0 # GET request latency on network to next level
  l3-0b5: # Cache stats
   hGETS: 358880784 # GETS hits
   hGETX: 201807072 # GETX hits
   mGETS: 65515901 # GETS misses
   mGETXIM: 10568165 # GETX I->M misses
   mGETXSM: 0 # GETX S->M misses (upgrade misses)
   PUTS: 367780782 # Clean evictions (from lower level)
   PUTX: 268990615 # Dirty evictions (from lower level)
   INV: 0 # Invalidates (from upper level)
   INVX: 0 # Downgrades (from upper level)
   FWD: 0 # Forwards (from upper level)
   latGETnl: 3575951102 # GET request latency on next level
   latGETnet: 0 # GET request latency on network to next level
  l3-0b6: # Cache stats
   hGETS: 341314944 # GETS hits
   hGETX: 201374712 # GETX hits
   mGETS: 65472558 # GETS misses
   mGETXIM: 10565228 # GETX I->M misses
   mGETXSM: 0 # GETX S->M misses (upgrade misses)
   PUTS: 350509567 # Clean evictions (from lower level)
   PUTX: 268217365 # Dirty evictions (from lower level)
   INV: 0 # Invalidates (from upper level)
   INVX: 0 # Downgrades (from upper level)
   FWD: 0 # Forwards (from upper level)
   latGETnl: 3573775942 # GET request latency on next level
   latGETnet: 0 # GET request latency on network to next level
  l3-0b7: # Cache stats
   hGETS: 333942071 # GETS hits
   hGETX: 200008973 # GETX hits
   mGETS: 65488957 # GETS misses
   mGETXIM: 10567266 # GETX I->M misses
   mGETXSM: 0 # GETX S->M misses (upgrade misses)
   PUTS: 342649796 # Clean evictions (from lower level)
   PUTX: 267356954 # Dirty evictions (from lower level)
   INV: 0 # Invalidates (from upper level)
   INVX: 0 # Downgrades (from upper level)
   FWD: 0 # Forwards (from upper level)
   latGETnl: 3574642481 # GET request latency on next level
   latGETnet: 0 # GET request latency on network to next level
 mem: # Memory controller stats
  mem-0: # Memory controller stats
   rd: 152106157 # Read requests
   wr: 72364465 # Write requests
   rdlat: 12982058782 # Total latency experienced by read requests
   wrlat: 6759343126 # Total latency experienced by write requests
   rdhits: 61827 # Read row hits
   wrhits: 363144 # Write row hits
   mlh: # latency histogram for memory requests
    0: 0
    1: 0
    2: 0
    3: 0
    4: 0
    5: 0
    6: 10776
    7: 17185
    8: 142912951
    9: 6713650
    10: 348101
    11: 267478
    12: 270562
    13: 205174
    14: 206534
    15: 241751
    16: 219783
    17: 205779
    18: 183039
    19: 170494
    20: 65619
    21: 10129
    22: 12817
    23: 19671
    24: 10789
    25: 12861
    26: 525
    27: 235
    28: 124
    29: 54
    30: 39
    31: 14
    32: 9
    33: 4
    34: 6
    35: 1
    36: 3
    37: 0
    38: 0
    39: 0
    40: 0
    41: 0
    42: 0
    43: 0
    44: 0
    45: 0
    46: 0
    47: 0
    48: 0
    49: 0
    50: 0
    51: 0
    52: 0
    53: 0
    54: 0
    55: 0
    56: 0
    57: 0
    58: 0
    59: 0
    60: 0
    61: 0
    62: 0
    63: 0
    64: 0
    65: 0
    66: 0
    67: 0
    68: 0
    69: 0
    70: 0
    71: 0
    72: 0
    73: 0
    74: 0
    75: 0
    76: 0
    77: 0
    78: 0
    79: 0
    80: 0
    81: 0
    82: 0
    83: 0
    84: 0
    85: 0
    86: 0
    87: 0
    88: 0
    89: 0
    90: 0
    91: 0
    92: 0
    93: 0
    94: 0
    95: 0
    96: 0
    97: 0
    98: 0
    99: 0
  mem-1: # Memory controller stats
   rd: 152075117 # Read requests
   wr: 72356679 # Write requests
   rdlat: 12990844232 # Total latency experienced by read requests
   wrlat: 6834859117 # Total latency experienced by write requests
   rdhits: 57618 # Read row hits
   wrhits: 372588 # Write row hits
   mlh: # latency histogram for memory requests
    0: 0
    1: 0
    2: 0
    3: 0
    4: 0
    5: 0
    6: 10940
    7: 16439
    8: 142621945
    9: 6808046
    10: 350505
    11: 331929
    12: 253274
    13: 234035
    14: 220265
    15: 223326
    16: 216982
    17: 226982
    18: 207569
    19: 207604
    20: 73078
    21: 10690
    22: 14769
    23: 19578
    24: 11233
    25: 13461
    26: 1093
    27: 384
    28: 312
    29: 400
    30: 133
    31: 44
    32: 33
    33: 9
    34: 19
    35: 28
    36: 3
    37: 8
    38: 1
    39: 0
    40: 0
    41: 0
    42: 0
    43: 0
    44: 0
    45: 0
    46: 0
    47: 0
    48: 0
    49: 0
    50: 0
    51: 0
    52: 0
    53: 0
    54: 0
    55: 0
    56: 0
    57: 0
    58: 0
    59: 0
    60: 0
    61: 0
    62: 0
    63: 0
    64: 0
    65: 0
    66: 0
    67: 0
    68: 0
    69: 0
    70: 0
    71: 0
    72: 0
    73: 0
    74: 0
    75: 0
    76: 0
    77: 0
    78: 0
    79: 0
    80: 0
    81: 0
    82: 0
    83: 0
    84: 0
    85: 0
    86: 0
    87: 0
    88: 0
    89: 0
    90: 0
    91: 0
    92: 0
    93: 0
    94: 0
    95: 0
    96: 0
    97: 0
    98: 0
    99: 0
  mem-2: # Memory controller stats
   rd: 152095339 # Read requests
   wr: 72366277 # Write requests
   rdlat: 12970839544 # Total latency experienced by read requests
   wrlat: 6772753697 # Total latency experienced by write requests
   rdhits: 62662 # Read row hits
   wrhits: 378929 # Write row hits
   mlh: # latency histogram for memory requests
    0: 0
    1: 0
    2: 0
    3: 0
    4: 0
    5: 0
    6: 11338
    7: 18927
    8: 143078090
    9: 6698724
    10: 322778
    11: 273301
    12: 225594
    13: 193429
    14: 191990
    15: 201527
    16: 198697
    17: 197599
    18: 181532
    19: 169602
    20: 65771
    21: 9876
    22: 13306
    23: 18657
    24: 10916
    25: 12883
    26: 362
    27: 163
    28: 110
    29: 57
    30: 54
    31: 22
    32: 12
    33: 8
    34: 2
    35: 0
    36: 6
    37: 4
    38: 2
    39: 0
    40: 0
    41: 0
    42: 0
    43: 0
    44: 0
    45: 0
    46: 0
    47: 0
    48: 0
    49: 0
    50: 0
    51: 0
    52: 0
    53: 0
    54: 0
    55: 0
    56: 0
    57: 0
    58: 0
    59: 0
    60: 0
    61: 0
    62: 0
    63: 0
    64: 0
    65: 0
    66: 0
    67: 0
    68: 0
    69: 0
    70: 0
    71: 0
    72: 0
    73: 0
    74: 0
    75: 0
    76: 0
    77: 0
    78: 0
    79: 0
    80: 0
    81: 0
    82: 0
    83: 0
    84: 0
    85: 0
    86: 0
    87: 0
    88: 0
    89: 0
    90: 0
    91: 0
    92: 0
    93: 0
    94: 0
    95: 0
    96: 0
    97: 0
    98: 0
    99: 0
  mem-3: # Memory controller stats
   rd: 152096353 # Read requests
   wr: 72356500 # Write requests
   rdlat: 12997033281 # Total latency experienced by read requests
   wrlat: 6863292245 # Total latency experienced by write requests
   rdhits: 64984 # Read row hits
   wrhits: 337427 # Write row hits
   mlh: # latency histogram for memory requests
    0: 0
    1: 0
    2: 0
    3: 0
    4: 0
    5: 0
    6: 12005
    7: 18617
    8: 142617537
    9: 6808534
    10: 359387
    11: 300753
    12: 248372
    13: 216234
    14: 217115
    15: 217817
    16: 213091
    17: 291229
    18: 210965
    19: 209153
    20: 76552
    21: 12248
    22: 16402
    23: 20327
    24: 11507
    25: 13790
    26: 1215
    27: 1290
    28: 1327
    29: 348
    30: 197
    31: 146
    32: 68
    33: 31
    34: 22
    35: 40
    36: 16
    37: 2
    38: 9
    39: 4
    40: 0
    41: 1
    42: 2
    43: 0
    44: 0
    45: 0
    46: 0
    47: 0
    48: 0
    49: 0
    50: 0
    51: 0
    52: 0
    53: 0
    54: 0
    55: 0
    56: 0
    57: 0
    58: 0
    59: 0
    60: 0
    61: 0
    62: 0
    63: 0
    64: 0
    65: 0
    66: 0
    67: 0
    68: 0
    69: 0
    70: 0
    71: 0
    72: 0
    73: 0
    74: 0
    75: 0
    76: 0
    77: 0
    78: 0
    79: 0
    80: 0
    81: 0
    82: 0
    83: 0
    84: 0
    85: 0
    86: 0
    87: 0
    88: 0
    89: 0
    90: 0
    91: 0
    92: 0
    93: 0
    94: 0
    95: 0
    96: 0
    97: 0
    98: 0
    99: 0
 sched: # Scheduler stats
  thCr: 1 # Threads created
  thFn: 1 # Threads finished
  schedEvs: 1 # Schedule events
  waitEvs: 0 # Wait events
  handoffEvs: 0 # Handoff events
  sleepEvs: 0 # Sleep events
  idlePhases: 0 # Phases with no thread active
  idlePeriods: 0 # Periods with no thread active
  occHist: # Occupancy histogram
   0: 0
   1: 15908062
  rqSzHist: # Run queue size histogram
   0: 15908062
   1: 0
   2: 0
   3: 0
   4: 0
   5: 0
   6: 0
   7: 0
   8: 0
   9: 0
   10: 0
   11: 0
   12: 0
   13: 0
   14: 0
   15: 0
   16: 0
 procCycles: # Per-process unhalted core cycles
  0: 159080624177
  1: 0
  2: 0
  3: 0
  4: 0
  5: 0
  6: 0
  7: 0
  8: 0
  9: 0
  10: 0
  11: 0
  12: 0
  13: 0
  14: 0
  15: 0
  16: 0
  17: 0
  18: 0
  19: 0
  20: 0
  21: 0
  22: 0
  23: 0
  24: 0
  25: 0
  26: 0
  27: 0
  28: 0
  29: 0
  30: 0
  31: 0
  32: 0
  33: 0
  34: 0
  35: 0
  36: 0
  37: 0
  38: 0
  39: 0
  40: 0
  41: 0
  42: 0
  43: 0
  44: 0
  45: 0
  46: 0
  47: 0
  48: 0
  49: 0
  50: 0
  51: 0
  52: 0
  53: 0
  54: 0
  55: 0
  56: 0
  57: 0
  58: 0
  59: 0
  60: 0
  61: 0
  62: 0
  63: 0
 procInstrs: # Per-process instructions
  0: 218497369195
  1: 0
  2: 0
  3: 0
  4: 0
  5: 0
  6: 0
  7: 0
  8: 0
  9: 0
  10: 0
  11: 0
  12: 0
  13: 0
  14: 0
  15: 0
  16: 0
  17: 0
  18: 0
  19: 0
  20: 0
  21: 0
  22: 0
  23: 0
  24: 0
  25: 0
  26: 0
  27: 0
  28: 0
  29: 0
  30: 0
  31: 0
  32: 0
  33: 0
  34: 0
  35: 0
  36: 0
  37: 0
  38: 0
  39: 0
  40: 0
  41: 0
  42: 0
  43: 0
  44: 0
  45: 0
  46: 0
  47: 0
  48: 0
  49: 0
  50: 0
  51: 0
  52: 0
  53: 0
  54: 0
  55: 0
  56: 0
  57: 0
  58: 0
  59: 0
  60: 0
  61: 0
  62: 0
  63: 0
 heartbeats: # Per-process heartbeats
  0: 0
  1: 0
  2: 0
  3: 0
  4: 0
  5: 0
  6: 0
  7: 0
  8: 0
  9: 0
  10: 0
  11: 0
  12: 0
  13: 0
  14: 0
  15: 0
  16: 0
  17: 0
  18: 0
  19: 0
  20: 0
  21: 0
  22: 0
  23: 0
  24: 0
  25: 0
  26: 0
  27: 0
  28: 0
  29: 0
  30: 0
  31: 0
  32: 0
  33: 0
  34: 0
  35: 0
  36: 0
  37: 0
  38: 0
  39: 0
  40: 0
  41: 0
  42: 0
  43: 0
  44: 0
  45: 0
  46: 0
  47: 0
  48: 0
  49: 0
  50: 0
  51: 0
  52: 0
  53: 0
  54: 0
  55: 0
  56: 0
  57: 0
  58: 0
  59: 0
  60: 0
  61: 0
  62: 0
  63: 0
===
