bt,A,8,0,LLC-stores,12224354
bt,A,8,2,LLC-stores,12005596
bt,A,8,4,LLC-stores,11582665
bt,A,8,6,LLC-stores,11846248
bt,A,8,8,LLC-stores,11993886
bt,A,8,10,LLC-stores,11988721
bt,A,8,12,LLC-stores,11636811
bt,A,8,14,LLC-stores,12060017
bt,A,8,0,LLC-stores,12335935
bt,A,8,2,LLC-stores,12020839
bt,A,8,4,LLC-stores,20686283
bt,A,8,6,LLC-stores,11875964
bt,A,8,8,LLC-stores,12215931
bt,A,8,10,LLC-stores,11947578
bt,A,8,12,LLC-stores,13214881
bt,A,8,14,LLC-stores,11956308
bt,A,8,0,LLC-stores,12866707
bt,A,8,2,LLC-stores,11881559
bt,A,8,4,LLC-stores,11829771
bt,A,8,6,LLC-stores,11888821
bt,A,8,8,LLC-stores,11954019
bt,A,8,10,LLC-stores,11813710
bt,A,8,12,LLC-stores,11522680
bt,A,8,14,LLC-stores,12051948
bt,A,8,0,LLC-stores,11890946
bt,A,8,2,LLC-stores,11964280
bt,A,8,4,LLC-stores,12027581
bt,A,8,6,LLC-stores,11880475
bt,A,8,8,LLC-stores,11940435
bt,A,8,10,LLC-stores,11900610
bt,A,8,12,LLC-stores,11807300
bt,A,8,14,LLC-stores,11772556
bt,A,8,0,LLC-stores,12204451
bt,A,8,2,LLC-stores,11878668
bt,A,8,4,LLC-stores,11699978
bt,A,8,6,LLC-stores,11669631
bt,A,8,8,LLC-stores,11919700
bt,A,8,10,LLC-stores,11893049
bt,A,8,12,LLC-stores,12021345
bt,A,8,14,LLC-stores,11705402
bt,A,8,0,LLC-stores,12048160
bt,A,8,2,LLC-stores,12488482
bt,A,8,4,LLC-stores,14721666
bt,A,8,6,LLC-stores,11852588
bt,A,8,8,LLC-stores,11965658
bt,A,8,10,LLC-stores,11964348
bt,A,8,12,LLC-stores,14650975
bt,A,8,14,LLC-stores,12039257
bt,A,8,0,LLC-stores,12154947
bt,A,8,2,LLC-stores,12201850
bt,A,8,4,LLC-stores,11922826
bt,A,8,6,LLC-stores,12038947
bt,A,8,8,LLC-stores,12061311
bt,A,8,10,LLC-stores,12075837
bt,A,8,12,LLC-stores,12151777
bt,A,8,14,LLC-stores,11751482
bt,A,8,0,LLC-stores,12249530
bt,A,8,2,LLC-stores,11774001
bt,A,8,4,LLC-stores,12453533
bt,A,8,6,LLC-stores,11673848
bt,A,8,8,LLC-stores,13164125
bt,A,8,10,LLC-stores,11804235
bt,A,8,12,LLC-stores,11917542
bt,A,8,14,LLC-stores,11909969
bt,A,8,0,LLC-stores,12154601
bt,A,8,2,LLC-stores,11988734
bt,A,8,4,LLC-stores,11928405
bt,A,8,6,LLC-stores,12129755
bt,A,8,8,LLC-stores,12059466
bt,A,8,10,LLC-stores,11880915
bt,A,8,12,LLC-stores,11905834
bt,A,8,14,LLC-stores,14278573
bt,A,8,0,LLC-stores,13118581
bt,A,8,2,LLC-stores,11805528
bt,A,8,4,LLC-stores,11788929
bt,A,8,6,LLC-stores,13250484
bt,A,8,8,LLC-stores,11827673
bt,A,8,10,LLC-stores,11996668
bt,A,8,12,LLC-stores,12123741
bt,A,8,14,LLC-stores,11837473
