bt,A,4,0,LLC-stores,23416870
bt,A,4,2,LLC-stores,22823181
bt,A,4,4,LLC-stores,23094799
bt,A,4,6,LLC-stores,22818786
bt,A,4,0,LLC-stores,35868307
bt,A,4,2,LLC-stores,22870351
bt,A,4,4,LLC-stores,22998989
bt,A,4,6,LLC-stores,22691736
bt,A,4,0,LLC-stores,23230398
bt,A,4,2,LLC-stores,23939300
bt,A,4,4,LLC-stores,23358930
bt,A,4,6,LLC-stores,23296617
bt,A,4,0,LLC-stores,22912791
bt,A,4,2,LLC-stores,22996801
bt,A,4,4,LLC-stores,22618695
bt,A,4,6,LLC-stores,23685473
bt,A,4,0,LLC-stores,23077463
bt,A,4,2,LLC-stores,23131964
bt,A,4,4,LLC-stores,23318643
bt,A,4,6,LLC-stores,22664272
bt,A,4,0,LLC-stores,23256119
bt,A,4,2,LLC-stores,22764587
bt,A,4,4,LLC-stores,23052260
bt,A,4,6,LLC-stores,22963614
bt,A,4,0,LLC-stores,22858753
bt,A,4,2,LLC-stores,22906065
bt,A,4,4,LLC-stores,23094348
bt,A,4,6,LLC-stores,23246196
bt,A,4,0,LLC-stores,23516249
bt,A,4,2,LLC-stores,22963024
bt,A,4,4,LLC-stores,22865616
bt,A,4,6,LLC-stores,25723994
bt,A,4,0,LLC-stores,23288887
bt,A,4,2,LLC-stores,23452642
bt,A,4,4,LLC-stores,23872725
bt,A,4,6,LLC-stores,23074337
bt,A,4,0,LLC-stores,24274237
bt,A,4,2,LLC-stores,23069929
bt,A,4,4,LLC-stores,22986293
bt,A,4,6,LLC-stores,23336563
