bt,A,2,0,L1-dcache-loads,51497117178
bt,A,2,2,L1-dcache-loads,51516114148
bt,A,2,0,L1-dcache-loads,51510388934
bt,A,2,2,L1-dcache-loads,51497649761
bt,A,2,0,L1-dcache-loads,51507636292
bt,A,2,2,L1-dcache-loads,51512896838
bt,A,2,0,L1-dcache-loads,51510658405
bt,A,2,2,L1-dcache-loads,51506053639
bt,A,2,0,L1-dcache-loads,51499615190
bt,A,2,2,L1-dcache-loads,51524555808
bt,A,2,0,L1-dcache-loads,51506167397
bt,A,2,2,L1-dcache-loads,51514137152
bt,A,2,0,L1-dcache-loads,51499402145
bt,A,2,2,L1-dcache-loads,51561381969
bt,A,2,0,L1-dcache-loads,51503335019
bt,A,2,2,L1-dcache-loads,51511951120
bt,A,2,0,L1-dcache-loads,51498676945
bt,A,2,2,L1-dcache-loads,51517499465
bt,A,2,0,L1-dcache-loads,51498926316
bt,A,2,2,L1-dcache-loads,51530817772
