bt,A,8,0,cycles,27223957755
bt,A,8,2,cycles,27199404983
bt,A,8,4,cycles,27199245496
bt,A,8,6,cycles,27198850070
bt,A,8,8,cycles,27198479237
bt,A,8,10,cycles,27200502701
bt,A,8,12,cycles,27194059508
bt,A,8,14,cycles,27194293172
bt,A,8,0,cycles,27288526136
bt,A,8,2,cycles,27279221557
bt,A,8,4,cycles,27279159206
bt,A,8,6,cycles,27278992988
bt,A,8,8,cycles,27278837612
bt,A,8,10,cycles,27279706973
bt,A,8,12,cycles,27279959219
bt,A,8,14,cycles,27277884869
bt,A,8,0,cycles,27345738625
bt,A,8,2,cycles,27336572962
bt,A,8,4,cycles,27336422126
bt,A,8,6,cycles,27336219280
bt,A,8,8,cycles,27337091551
bt,A,8,10,cycles,27338146479
bt,A,8,12,cycles,27332725819
bt,A,8,14,cycles,27335563454
bt,A,8,0,cycles,27325413361
bt,A,8,2,cycles,27301908121
bt,A,8,4,cycles,27304109429
bt,A,8,6,cycles,27301235950
bt,A,8,8,cycles,27301279352
bt,A,8,10,cycles,27301096926
bt,A,8,12,cycles,27296379915
bt,A,8,14,cycles,27295870192
bt,A,8,0,cycles,27431368541
bt,A,8,2,cycles,27424514394
bt,A,8,4,cycles,27421402467
bt,A,8,6,cycles,27421263573
bt,A,8,8,cycles,27421036374
bt,A,8,10,cycles,27420919017
bt,A,8,12,cycles,27420698944
bt,A,8,14,cycles,27420527145
bt,A,8,0,cycles,27295074570
bt,A,8,2,cycles,27285906262
bt,A,8,4,cycles,27286821402
bt,A,8,6,cycles,27285661504
bt,A,8,8,cycles,27285518896
bt,A,8,10,cycles,27285350903
bt,A,8,12,cycles,27287139631
bt,A,8,14,cycles,27284962672
bt,A,8,0,cycles,27198074435
bt,A,8,2,cycles,27188024253
bt,A,8,4,cycles,27187793069
bt,A,8,6,cycles,27187551301
bt,A,8,8,cycles,27189668688
bt,A,8,10,cycles,27187199230
bt,A,8,12,cycles,27186642843
bt,A,8,14,cycles,27186028245
bt,A,8,0,cycles,27247780936
bt,A,8,2,cycles,27237982685
bt,A,8,4,cycles,27240414343
bt,A,8,6,cycles,27237500853
bt,A,8,8,cycles,27237342908
bt,A,8,10,cycles,27237144653
bt,A,8,12,cycles,27234993323
bt,A,8,14,cycles,27235051486
bt,A,8,0,cycles,27304782086
bt,A,8,2,cycles,27296784736
bt,A,8,4,cycles,27295609159
bt,A,8,6,cycles,27295461493
bt,A,8,8,cycles,27297564001
bt,A,8,10,cycles,27295089898
bt,A,8,12,cycles,27294485263
bt,A,8,14,cycles,27294358951
bt,A,8,0,cycles,27371920771
bt,A,8,2,cycles,27346658917
bt,A,8,4,cycles,27349088234
bt,A,8,6,cycles,27345926201
bt,A,8,8,cycles,27346186973
bt,A,8,10,cycles,27345936369
bt,A,8,12,cycles,27341239313
bt,A,8,14,cycles,27341488668
