bt,A,2,0,LLC-loads,574696499
bt,A,2,2,LLC-loads,575156056
bt,A,2,0,LLC-loads,575713559
bt,A,2,2,LLC-loads,575864822
bt,A,2,0,LLC-loads,577310382
bt,A,2,2,LLC-loads,577766010
bt,A,2,0,LLC-loads,580727801
bt,A,2,2,LLC-loads,575393114
bt,A,2,0,LLC-loads,575244084
bt,A,2,2,LLC-loads,575589094
bt,A,2,0,LLC-loads,572664021
bt,A,2,2,LLC-loads,571991221
bt,A,2,0,LLC-loads,583078893
bt,A,2,2,LLC-loads,574018872
bt,A,2,0,LLC-loads,572085100
bt,A,2,2,LLC-loads,571758157
bt,A,2,0,LLC-loads,573617732
bt,A,2,2,LLC-loads,573208837
bt,A,2,0,LLC-loads,574531342
bt,A,2,2,LLC-loads,575675869
