cg,A,8,0,L1-dcache-stores,24251935
cg,A,8,2,L1-dcache-stores,22995443
cg,A,8,4,L1-dcache-stores,22165518
cg,A,8,6,L1-dcache-stores,22786306
cg,A,8,8,L1-dcache-stores,23103542
cg,A,8,10,L1-dcache-stores,23329175
cg,A,8,12,L1-dcache-stores,23277447
cg,A,8,14,L1-dcache-stores,23634541
cg,A,8,0,L1-dcache-stores,24258312
cg,A,8,2,L1-dcache-stores,22725655
cg,A,8,4,L1-dcache-stores,22173334
cg,A,8,6,L1-dcache-stores,22975272
cg,A,8,8,L1-dcache-stores,23115203
cg,A,8,10,L1-dcache-stores,23337842
cg,A,8,12,L1-dcache-stores,23347542
cg,A,8,14,L1-dcache-stores,23683445
cg,A,8,0,L1-dcache-stores,24150712
cg,A,8,2,L1-dcache-stores,22587135
cg,A,8,4,L1-dcache-stores,22301955
cg,A,8,6,L1-dcache-stores,22745430
cg,A,8,8,L1-dcache-stores,23324855
cg,A,8,10,L1-dcache-stores,23324215
cg,A,8,12,L1-dcache-stores,23362528
cg,A,8,14,L1-dcache-stores,23627723
cg,A,8,0,L1-dcache-stores,24208248
cg,A,8,2,L1-dcache-stores,22608665
cg,A,8,4,L1-dcache-stores,22588035
cg,A,8,6,L1-dcache-stores,22655084
cg,A,8,8,L1-dcache-stores,23106097
cg,A,8,10,L1-dcache-stores,23361341
cg,A,8,12,L1-dcache-stores,23307173
cg,A,8,14,L1-dcache-stores,23703925
cg,A,8,0,L1-dcache-stores,24418848
cg,A,8,2,L1-dcache-stores,22602169
cg,A,8,4,L1-dcache-stores,22458860
cg,A,8,6,L1-dcache-stores,22657658
cg,A,8,8,L1-dcache-stores,23154153
cg,A,8,10,L1-dcache-stores,23337753
cg,A,8,12,L1-dcache-stores,23342463
cg,A,8,14,L1-dcache-stores,23650201
cg,A,8,0,L1-dcache-stores,24262391
cg,A,8,2,L1-dcache-stores,22722179
cg,A,8,4,L1-dcache-stores,22437865
cg,A,8,6,L1-dcache-stores,22658478
cg,A,8,8,L1-dcache-stores,23114925
cg,A,8,10,L1-dcache-stores,23390503
cg,A,8,12,L1-dcache-stores,23285087
cg,A,8,14,L1-dcache-stores,23665873
cg,A,8,0,L1-dcache-stores,24224650
cg,A,8,2,L1-dcache-stores,22597503
cg,A,8,4,L1-dcache-stores,22415827
cg,A,8,6,L1-dcache-stores,22671418
cg,A,8,8,L1-dcache-stores,23150871
cg,A,8,10,L1-dcache-stores,23551883
cg,A,8,12,L1-dcache-stores,23289777
cg,A,8,14,L1-dcache-stores,23634875
cg,A,8,0,L1-dcache-stores,24292357
cg,A,8,2,L1-dcache-stores,22730737
cg,A,8,4,L1-dcache-stores,22190778
cg,A,8,6,L1-dcache-stores,22693937
cg,A,8,8,L1-dcache-stores,23108724
cg,A,8,10,L1-dcache-stores,23638427
cg,A,8,12,L1-dcache-stores,23288458
cg,A,8,14,L1-dcache-stores,23639551
cg,A,8,0,L1-dcache-stores,24119356
cg,A,8,2,L1-dcache-stores,22666192
cg,A,8,4,L1-dcache-stores,22318543
cg,A,8,6,L1-dcache-stores,22671986
cg,A,8,8,L1-dcache-stores,23590076
cg,A,8,10,L1-dcache-stores,23335136
cg,A,8,12,L1-dcache-stores,23551939
cg,A,8,14,L1-dcache-stores,23640236
cg,A,8,0,L1-dcache-stores,24479640
cg,A,8,2,L1-dcache-stores,22677564
cg,A,8,4,L1-dcache-stores,22174640
cg,A,8,6,L1-dcache-stores,22904117
cg,A,8,8,L1-dcache-stores,23161290
cg,A,8,10,L1-dcache-stores,23336416
cg,A,8,12,L1-dcache-stores,23290312
cg,A,8,14,L1-dcache-stores,23697944
