cg,A,2,0,L1-dcache-stores,89945363
cg,A,2,2,L1-dcache-stores,89788511
cg,A,2,0,L1-dcache-stores,89925152
cg,A,2,2,L1-dcache-stores,89490841
cg,A,2,0,L1-dcache-stores,89842490
cg,A,2,2,L1-dcache-stores,89885260
cg,A,2,0,L1-dcache-stores,89817077
cg,A,2,2,L1-dcache-stores,89545190
cg,A,2,0,L1-dcache-stores,89659208
cg,A,2,2,L1-dcache-stores,89763774
cg,A,2,0,L1-dcache-stores,89734683
cg,A,2,2,L1-dcache-stores,89493347
cg,A,2,0,L1-dcache-stores,89683905
cg,A,2,2,L1-dcache-stores,89480409
cg,A,2,0,L1-dcache-stores,89700216
cg,A,2,2,L1-dcache-stores,90061273
cg,A,2,0,L1-dcache-stores,89918806
cg,A,2,2,L1-dcache-stores,89759791
cg,A,2,0,L1-dcache-stores,89754481
cg,A,2,2,L1-dcache-stores,89488422
