cg,A,2,0,cycles,5051798034
cg,A,2,2,cycles,5048464368
cg,A,2,0,cycles,4899776448
cg,A,2,2,cycles,4897133671
cg,A,2,0,cycles,5041112201
cg,A,2,2,cycles,5039011834
cg,A,2,0,cycles,4960608757
cg,A,2,2,cycles,4959642473
cg,A,2,0,cycles,5131076298
cg,A,2,2,cycles,5129900181
cg,A,2,0,cycles,5045772179
cg,A,2,2,cycles,5045189268
cg,A,2,0,cycles,5020196550
cg,A,2,2,cycles,5018750586
cg,A,2,0,cycles,4973577009
cg,A,2,2,cycles,4969271398
cg,A,2,0,cycles,5032454257
cg,A,2,2,cycles,5031239238
cg,A,2,0,cycles,4827988963
cg,A,2,2,cycles,4825813892
