cg,A,1,0,cycles,10122757339
cg,A,1,0,cycles,9842595633
cg,A,1,0,cycles,9806543805
cg,A,1,0,cycles,9739118222
cg,A,1,0,cycles,10203773196
cg,A,1,0,cycles,9941299699
cg,A,1,0,cycles,9967347576
cg,A,1,0,cycles,10184511661
cg,A,1,0,cycles,9993384292
cg,A,1,0,cycles,9922543647
