ep,A,1,0,L1-dcache-loads,9486245550
ep,A,1,0,L1-dcache-loads,9487805235
ep,A,1,0,L1-dcache-loads,9488494717
ep,A,1,0,L1-dcache-loads,9487666967
ep,A,1,0,L1-dcache-loads,9488064895
ep,A,1,0,L1-dcache-loads,9488108174
ep,A,1,0,L1-dcache-loads,9487725262
ep,A,1,0,L1-dcache-loads,9486902348
ep,A,1,0,L1-dcache-loads,9487806403
ep,A,1,0,L1-dcache-loads,9487880918
