ep,A,2,0,LLC-stores,33644915
ep,A,2,2,LLC-stores,33625258
ep,A,2,0,LLC-stores,33627656
ep,A,2,2,LLC-stores,33622744
ep,A,2,0,LLC-stores,33667725
ep,A,2,2,LLC-stores,33596162
ep,A,2,0,LLC-stores,33674294
ep,A,2,2,LLC-stores,33621652
ep,A,2,0,LLC-stores,33669136
ep,A,2,2,LLC-stores,33598692
ep,A,2,0,LLC-stores,33657339
ep,A,2,2,LLC-stores,33599162
ep,A,2,0,LLC-stores,33658177
ep,A,2,2,LLC-stores,33599809
ep,A,2,0,LLC-stores,33634101
ep,A,2,2,LLC-stores,33625139
ep,A,2,0,LLC-stores,33641585
ep,A,2,2,LLC-stores,33627458
ep,A,2,0,LLC-stores,33667143
ep,A,2,2,LLC-stores,33597109
