ep,A,2,0,LLC-loads,34695688
ep,A,2,2,LLC-loads,34647538
ep,A,2,0,LLC-loads,34751293
ep,A,2,2,LLC-loads,34670429
ep,A,2,0,LLC-loads,34704199
ep,A,2,2,LLC-loads,34687262
ep,A,2,0,LLC-loads,34720935
ep,A,2,2,LLC-loads,34669291
ep,A,2,0,LLC-loads,34735213
ep,A,2,2,LLC-loads,34665608
ep,A,2,0,LLC-loads,34702890
ep,A,2,2,LLC-loads,34632929
ep,A,2,0,LLC-loads,34687542
ep,A,2,2,LLC-loads,34693948
ep,A,2,0,LLC-loads,34703435
ep,A,2,2,LLC-loads,34642294
ep,A,2,0,LLC-loads,34727893
ep,A,2,2,LLC-loads,34681247
ep,A,2,0,LLC-loads,34688893
ep,A,2,2,LLC-loads,34641194
