ep,A,2,0,L1-dcache-stores,2061643449
ep,A,2,2,L1-dcache-stores,2059497329
ep,A,2,0,L1-dcache-stores,2061631472
ep,A,2,2,L1-dcache-stores,2059517897
ep,A,2,0,L1-dcache-stores,2060249597
ep,A,2,2,L1-dcache-stores,2059926630
ep,A,2,0,L1-dcache-stores,2060994050
ep,A,2,2,L1-dcache-stores,2059912585
ep,A,2,0,L1-dcache-stores,2061637193
ep,A,2,2,L1-dcache-stores,2060031516
ep,A,2,0,L1-dcache-stores,2061179343
ep,A,2,2,L1-dcache-stores,2059908506
ep,A,2,0,L1-dcache-stores,2060136945
ep,A,2,2,L1-dcache-stores,2059924650
ep,A,2,0,L1-dcache-stores,2061658526
ep,A,2,2,L1-dcache-stores,2059490110
ep,A,2,0,L1-dcache-stores,2061600786
ep,A,2,2,L1-dcache-stores,2059491443
ep,A,2,0,L1-dcache-stores,2061000277
ep,A,2,2,L1-dcache-stores,2059921247
