ep,A,1,0,LLC-stores,67201978
ep,A,1,0,LLC-stores,67212216
ep,A,1,0,LLC-stores,67223243
ep,A,1,0,LLC-stores,67223150
ep,A,1,0,LLC-stores,67217078
ep,A,1,0,LLC-stores,67218311
ep,A,1,0,LLC-stores,67221022
ep,A,1,0,LLC-stores,67202307
ep,A,1,0,LLC-stores,67206515
ep,A,1,0,LLC-stores,67217499
