ep,A,8,0,L1-dcache-stores,519928495
ep,A,8,2,L1-dcache-stores,515274846
ep,A,8,4,L1-dcache-stores,515059606
ep,A,8,6,L1-dcache-stores,515535668
ep,A,8,8,L1-dcache-stores,515261156
ep,A,8,10,L1-dcache-stores,515003120
ep,A,8,12,L1-dcache-stores,515050484
ep,A,8,14,L1-dcache-stores,515032152
ep,A,8,0,L1-dcache-stores,517577587
ep,A,8,2,L1-dcache-stores,515623301
ep,A,8,4,L1-dcache-stores,515057616
ep,A,8,6,L1-dcache-stores,515035370
ep,A,8,8,L1-dcache-stores,514976468
ep,A,8,10,L1-dcache-stores,514997545
ep,A,8,12,L1-dcache-stores,515043695
ep,A,8,14,L1-dcache-stores,515023750
ep,A,8,0,L1-dcache-stores,517580459
ep,A,8,2,L1-dcache-stores,515072021
ep,A,8,4,L1-dcache-stores,515046937
ep,A,8,6,L1-dcache-stores,515024036
ep,A,8,8,L1-dcache-stores,515450896
ep,A,8,10,L1-dcache-stores,515001383
ep,A,8,12,L1-dcache-stores,515034381
ep,A,8,14,L1-dcache-stores,515014719
ep,A,8,0,L1-dcache-stores,517272930
ep,A,8,2,L1-dcache-stores,515083804
ep,A,8,4,L1-dcache-stores,515062138
ep,A,8,6,L1-dcache-stores,515276925
ep,A,8,8,L1-dcache-stores,514985980
ep,A,8,10,L1-dcache-stores,515007071
ep,A,8,12,L1-dcache-stores,515496413
ep,A,8,14,L1-dcache-stores,515058628
ep,A,8,0,L1-dcache-stores,517295203
ep,A,8,2,L1-dcache-stores,515075467
ep,A,8,4,L1-dcache-stores,515074098
ep,A,8,6,L1-dcache-stores,515543320
ep,A,8,8,L1-dcache-stores,514984865
ep,A,8,10,L1-dcache-stores,515274368
ep,A,8,12,L1-dcache-stores,515135493
ep,A,8,14,L1-dcache-stores,515050403
ep,A,8,0,L1-dcache-stores,518092399
ep,A,8,2,L1-dcache-stores,515384875
ep,A,8,4,L1-dcache-stores,515067094
ep,A,8,6,L1-dcache-stores,517107894
ep,A,8,8,L1-dcache-stores,515477572
ep,A,8,10,L1-dcache-stores,515011821
ep,A,8,12,L1-dcache-stores,515054500
ep,A,8,14,L1-dcache-stores,515048186
ep,A,8,0,L1-dcache-stores,517553774
ep,A,8,2,L1-dcache-stores,515069454
ep,A,8,4,L1-dcache-stores,515054142
ep,A,8,6,L1-dcache-stores,515033981
ep,A,8,8,L1-dcache-stores,515463379
ep,A,8,10,L1-dcache-stores,515003804
ep,A,8,12,L1-dcache-stores,515048166
ep,A,8,14,L1-dcache-stores,515023766
ep,A,8,0,L1-dcache-stores,517592274
ep,A,8,2,L1-dcache-stores,515075203
ep,A,8,4,L1-dcache-stores,515575969
ep,A,8,6,L1-dcache-stores,515076472
ep,A,8,8,L1-dcache-stores,514978597
ep,A,8,10,L1-dcache-stores,514999630
ep,A,8,12,L1-dcache-stores,515053341
ep,A,8,14,L1-dcache-stores,515036884
ep,A,8,0,L1-dcache-stores,519965984
ep,A,8,2,L1-dcache-stores,515251103
ep,A,8,4,L1-dcache-stores,515275277
ep,A,8,6,L1-dcache-stores,515161909
ep,A,8,8,L1-dcache-stores,514986461
ep,A,8,10,L1-dcache-stores,515007501
ep,A,8,12,L1-dcache-stores,515506197
ep,A,8,14,L1-dcache-stores,515031134
ep,A,8,0,L1-dcache-stores,517328690
ep,A,8,2,L1-dcache-stores,515078103
ep,A,8,4,L1-dcache-stores,515570489
ep,A,8,6,L1-dcache-stores,515168926
ep,A,8,8,L1-dcache-stores,515002238
ep,A,8,10,L1-dcache-stores,515002358
ep,A,8,12,L1-dcache-stores,515200290
ep,A,8,14,L1-dcache-stores,515038574
