ep,A,8,0,LLC-loads,8719467
ep,A,8,2,LLC-loads,8699564
ep,A,8,4,LLC-loads,8675458
ep,A,8,6,LLC-loads,8666138
ep,A,8,8,LLC-loads,8672566
ep,A,8,10,LLC-loads,8671058
ep,A,8,12,LLC-loads,8667575
ep,A,8,14,LLC-loads,8662257
ep,A,8,0,LLC-loads,8713138
ep,A,8,2,LLC-loads,8671580
ep,A,8,4,LLC-loads,8665672
ep,A,8,6,LLC-loads,8665586
ep,A,8,8,LLC-loads,8662096
ep,A,8,10,LLC-loads,8680205
ep,A,8,12,LLC-loads,8660958
ep,A,8,14,LLC-loads,8662501
ep,A,8,0,LLC-loads,8705629
ep,A,8,2,LLC-loads,8666264
ep,A,8,4,LLC-loads,8680993
ep,A,8,6,LLC-loads,8663548
ep,A,8,8,LLC-loads,8679352
ep,A,8,10,LLC-loads,8660284
ep,A,8,12,LLC-loads,8664550
ep,A,8,14,LLC-loads,8663357
ep,A,8,0,LLC-loads,8735327
ep,A,8,2,LLC-loads,8655924
ep,A,8,4,LLC-loads,8667849
ep,A,8,6,LLC-loads,8683831
ep,A,8,8,LLC-loads,8671316
ep,A,8,10,LLC-loads,8660915
ep,A,8,12,LLC-loads,8660414
ep,A,8,14,LLC-loads,8697250
ep,A,8,0,LLC-loads,8701525
ep,A,8,2,LLC-loads,8661297
ep,A,8,4,LLC-loads,8659190
ep,A,8,6,LLC-loads,8672556
ep,A,8,8,LLC-loads,8657741
ep,A,8,10,LLC-loads,8659567
ep,A,8,12,LLC-loads,8662424
ep,A,8,14,LLC-loads,8659000
ep,A,8,0,LLC-loads,8715210
ep,A,8,2,LLC-loads,8660206
ep,A,8,4,LLC-loads,8711438
ep,A,8,6,LLC-loads,8660272
ep,A,8,8,LLC-loads,8663263
ep,A,8,10,LLC-loads,8662424
ep,A,8,12,LLC-loads,8682758
ep,A,8,14,LLC-loads,8663054
ep,A,8,0,LLC-loads,8713434
ep,A,8,2,LLC-loads,8670120
ep,A,8,4,LLC-loads,8684615
ep,A,8,6,LLC-loads,8664885
ep,A,8,8,LLC-loads,8662812
ep,A,8,10,LLC-loads,8659265
ep,A,8,12,LLC-loads,8665191
ep,A,8,14,LLC-loads,8654628
ep,A,8,0,LLC-loads,8697219
ep,A,8,2,LLC-loads,8667982
ep,A,8,4,LLC-loads,8666461
ep,A,8,6,LLC-loads,8670978
ep,A,8,8,LLC-loads,8683223
ep,A,8,10,LLC-loads,8674310
ep,A,8,12,LLC-loads,8665457
ep,A,8,14,LLC-loads,8680565
ep,A,8,0,LLC-loads,8691382
ep,A,8,2,LLC-loads,8655694
ep,A,8,4,LLC-loads,8688487
ep,A,8,6,LLC-loads,8664272
ep,A,8,8,LLC-loads,8661476
ep,A,8,10,LLC-loads,8663922
ep,A,8,12,LLC-loads,8659069
ep,A,8,14,LLC-loads,8659835
ep,A,8,0,LLC-loads,8693848
ep,A,8,2,LLC-loads,8672576
ep,A,8,4,LLC-loads,8673569
ep,A,8,6,LLC-loads,8665317
ep,A,8,8,LLC-loads,8672944
ep,A,8,10,LLC-loads,8661882
ep,A,8,12,LLC-loads,8672756
ep,A,8,14,LLC-loads,8664356
