ep,A,2,0,L1-dcache-loads,4743765685
ep,A,2,2,L1-dcache-loads,4742931510
ep,A,2,0,L1-dcache-loads,4745516254
ep,A,2,2,L1-dcache-loads,4742944093
ep,A,2,0,L1-dcache-loads,4746090736
ep,A,2,2,L1-dcache-loads,4742423172
ep,A,2,0,L1-dcache-loads,4746084985
ep,A,2,2,L1-dcache-loads,4742428561
ep,A,2,0,L1-dcache-loads,4746130416
ep,A,2,2,L1-dcache-loads,4742429073
ep,A,2,0,L1-dcache-loads,4743553384
ep,A,2,2,L1-dcache-loads,4743241223
ep,A,2,0,L1-dcache-loads,4743710865
ep,A,2,2,L1-dcache-loads,4743318960
ep,A,2,0,L1-dcache-loads,4746347065
ep,A,2,2,L1-dcache-loads,4742413223
ep,A,2,0,L1-dcache-loads,4745994993
ep,A,2,2,L1-dcache-loads,4743113594
ep,A,2,0,L1-dcache-loads,4744727298
ep,A,2,2,L1-dcache-loads,4743121086
