ft,A,2,0,cycles,9274035237
ft,A,2,2,cycles,9252662478
ft,A,2,0,cycles,9265662801
ft,A,2,2,cycles,9215366919
ft,A,2,0,cycles,9338846940
ft,A,2,2,cycles,9260903529
ft,A,2,0,cycles,9273689899
ft,A,2,2,cycles,9223591573
ft,A,2,0,cycles,9296720051
ft,A,2,2,cycles,9307363185
ft,A,2,0,cycles,9301568610
ft,A,2,2,cycles,9254289539
ft,A,2,0,cycles,9278369659
ft,A,2,2,cycles,9175605424
ft,A,2,0,cycles,9229723238
ft,A,2,2,cycles,9217781193
ft,A,2,0,cycles,9309850055
ft,A,2,2,cycles,9256184793
ft,A,2,0,cycles,9343978999
ft,A,2,2,cycles,9290737719
