ft,A,8,0,cycles,2671645492
ft,A,8,2,cycles,2621085945
ft,A,8,4,cycles,2623383806
ft,A,8,6,cycles,2620773748
ft,A,8,8,cycles,2620611291
ft,A,8,10,cycles,2620639206
ft,A,8,12,cycles,2620556284
ft,A,8,14,cycles,2620554787
ft,A,8,0,cycles,2693580993
ft,A,8,2,cycles,2640809575
ft,A,8,4,cycles,2615389925
ft,A,8,6,cycles,2639249524
ft,A,8,8,cycles,2650266740
ft,A,8,10,cycles,2637907199
ft,A,8,12,cycles,2639980524
ft,A,8,14,cycles,2640773174
ft,A,8,0,cycles,2677116185
ft,A,8,2,cycles,2620177400
ft,A,8,4,cycles,2626932810
ft,A,8,6,cycles,2628318641
ft,A,8,8,cycles,2625860018
ft,A,8,10,cycles,2625772343
ft,A,8,12,cycles,2625727428
ft,A,8,14,cycles,2625643589
ft,A,8,0,cycles,2725641751
ft,A,8,2,cycles,2652284328
ft,A,8,4,cycles,2675355096
ft,A,8,6,cycles,2675249653
ft,A,8,8,cycles,2673074461
ft,A,8,10,cycles,2676963068
ft,A,8,12,cycles,2675033765
ft,A,8,14,cycles,2636456521
ft,A,8,0,cycles,2677732323
ft,A,8,2,cycles,2630775492
ft,A,8,4,cycles,2633151896
ft,A,8,6,cycles,2630589974
ft,A,8,8,cycles,2630567600
ft,A,8,10,cycles,2630480296
ft,A,8,12,cycles,2631491058
ft,A,8,14,cycles,2630383664
ft,A,8,0,cycles,2696944991
ft,A,8,2,cycles,2638449688
ft,A,8,4,cycles,2645834944
ft,A,8,6,cycles,2645764078
ft,A,8,8,cycles,2638755651
ft,A,8,10,cycles,2645661466
ft,A,8,12,cycles,2645584961
ft,A,8,14,cycles,2645558076
ft,A,8,0,cycles,2676723319
ft,A,8,2,cycles,2648132074
ft,A,8,4,cycles,2633258647
ft,A,8,6,cycles,2616388031
ft,A,8,8,cycles,2647878133
ft,A,8,10,cycles,2647785107
ft,A,8,12,cycles,2648728222
ft,A,8,14,cycles,2647529773
ft,A,8,0,cycles,2686169637
ft,A,8,2,cycles,2631968565
ft,A,8,4,cycles,2632891964
ft,A,8,6,cycles,2636154714
ft,A,8,8,cycles,2636110786
ft,A,8,10,cycles,2636043407
ft,A,8,12,cycles,2636932876
ft,A,8,14,cycles,2637616811
ft,A,8,0,cycles,2725728986
ft,A,8,2,cycles,2678840296
ft,A,8,4,cycles,2676095684
ft,A,8,6,cycles,2644620703
ft,A,8,8,cycles,2659194550
ft,A,8,10,cycles,2675949856
ft,A,8,12,cycles,2675795135
ft,A,8,14,cycles,2625569507
ft,A,8,0,cycles,2678599787
ft,A,8,2,cycles,2629116725
ft,A,8,4,cycles,2629089537
ft,A,8,6,cycles,2631410970
ft,A,8,8,cycles,2628901268
ft,A,8,10,cycles,2629947294
ft,A,8,12,cycles,2628852831
ft,A,8,14,cycles,2628788642
