ft,A,2,0,L1-dcache-stores,2285921293
ft,A,2,2,L1-dcache-stores,2276147832
ft,A,2,0,L1-dcache-stores,2286515984
ft,A,2,2,L1-dcache-stores,2276320610
ft,A,2,0,L1-dcache-stores,2285948425
ft,A,2,2,L1-dcache-stores,2276431000
ft,A,2,0,L1-dcache-stores,2286018778
ft,A,2,2,L1-dcache-stores,2276289494
ft,A,2,0,L1-dcache-stores,2285982013
ft,A,2,2,L1-dcache-stores,2276144739
ft,A,2,0,L1-dcache-stores,2285942433
ft,A,2,2,L1-dcache-stores,2276533167
ft,A,2,0,L1-dcache-stores,2285822857
ft,A,2,2,L1-dcache-stores,2276531938
ft,A,2,0,L1-dcache-stores,2285840871
ft,A,2,2,L1-dcache-stores,2276328107
ft,A,2,0,L1-dcache-stores,2286809089
ft,A,2,2,L1-dcache-stores,2276619904
ft,A,2,0,L1-dcache-stores,2285705999
ft,A,2,2,L1-dcache-stores,2276295773
