is,A,8,0,L1-dcache-loads,143231779
is,A,8,2,L1-dcache-loads,140021792
is,A,8,4,L1-dcache-loads,140098936
is,A,8,6,L1-dcache-loads,140217165
is,A,8,8,L1-dcache-loads,140443773
is,A,8,10,L1-dcache-loads,140368776
is,A,8,12,L1-dcache-loads,140087468
is,A,8,14,L1-dcache-loads,139792127
is,A,8,0,L1-dcache-loads,143567037
is,A,8,2,L1-dcache-loads,139915213
is,A,8,4,L1-dcache-loads,140070651
is,A,8,6,L1-dcache-loads,140019011
is,A,8,8,L1-dcache-loads,140192904
is,A,8,10,L1-dcache-loads,140062746
is,A,8,12,L1-dcache-loads,139973781
is,A,8,14,L1-dcache-loads,139863017
is,A,8,0,L1-dcache-loads,143702435
is,A,8,2,L1-dcache-loads,139762423
is,A,8,4,L1-dcache-loads,140224130
is,A,8,6,L1-dcache-loads,140185901
is,A,8,8,L1-dcache-loads,140451213
is,A,8,10,L1-dcache-loads,140183723
is,A,8,12,L1-dcache-loads,140110028
is,A,8,14,L1-dcache-loads,140074788
is,A,8,0,L1-dcache-loads,143130524
is,A,8,2,L1-dcache-loads,139820581
is,A,8,4,L1-dcache-loads,140353177
is,A,8,6,L1-dcache-loads,140061126
is,A,8,8,L1-dcache-loads,140197811
is,A,8,10,L1-dcache-loads,140179551
is,A,8,12,L1-dcache-loads,139801049
is,A,8,14,L1-dcache-loads,139957813
is,A,8,0,L1-dcache-loads,143430072
is,A,8,2,L1-dcache-loads,140278506
is,A,8,4,L1-dcache-loads,139942750
is,A,8,6,L1-dcache-loads,140093522
is,A,8,8,L1-dcache-loads,140185427
is,A,8,10,L1-dcache-loads,139922715
is,A,8,12,L1-dcache-loads,140025540
is,A,8,14,L1-dcache-loads,139945419
is,A,8,0,L1-dcache-loads,143449863
is,A,8,2,L1-dcache-loads,139892503
is,A,8,4,L1-dcache-loads,140259631
is,A,8,6,L1-dcache-loads,140048415
is,A,8,8,L1-dcache-loads,140284353
is,A,8,10,L1-dcache-loads,140011596
is,A,8,12,L1-dcache-loads,139966389
is,A,8,14,L1-dcache-loads,139950436
is,A,8,0,L1-dcache-loads,143576061
is,A,8,2,L1-dcache-loads,139880953
is,A,8,4,L1-dcache-loads,140113027
is,A,8,6,L1-dcache-loads,140199726
is,A,8,8,L1-dcache-loads,140206105
is,A,8,10,L1-dcache-loads,140289757
is,A,8,12,L1-dcache-loads,139843914
is,A,8,14,L1-dcache-loads,139906706
is,A,8,0,L1-dcache-loads,143456748
is,A,8,2,L1-dcache-loads,140462679
is,A,8,4,L1-dcache-loads,140042368
is,A,8,6,L1-dcache-loads,140095778
is,A,8,8,L1-dcache-loads,140336909
is,A,8,10,L1-dcache-loads,140004028
is,A,8,12,L1-dcache-loads,139864455
is,A,8,14,L1-dcache-loads,139856631
is,A,8,0,L1-dcache-loads,143462140
is,A,8,2,L1-dcache-loads,140193724
is,A,8,4,L1-dcache-loads,140052050
is,A,8,6,L1-dcache-loads,140148526
is,A,8,8,L1-dcache-loads,140102014
is,A,8,10,L1-dcache-loads,139983348
is,A,8,12,L1-dcache-loads,139884470
is,A,8,14,L1-dcache-loads,139962113
is,A,8,0,L1-dcache-loads,143397283
is,A,8,2,L1-dcache-loads,140326254
is,A,8,4,L1-dcache-loads,140172157
is,A,8,6,L1-dcache-loads,140124528
is,A,8,8,L1-dcache-loads,140173414
is,A,8,10,L1-dcache-loads,140206607
is,A,8,12,L1-dcache-loads,140023581
is,A,8,14,L1-dcache-loads,139931851
