is,A,4,0,LLC-loads,5121822
is,A,4,2,LLC-loads,5062741
is,A,4,4,LLC-loads,5085539
is,A,4,6,LLC-loads,5087338
is,A,4,0,LLC-loads,5116936
is,A,4,2,LLC-loads,5043136
is,A,4,4,LLC-loads,5063144
is,A,4,6,LLC-loads,5071575
is,A,4,0,LLC-loads,5146017
is,A,4,2,LLC-loads,5080913
is,A,4,4,LLC-loads,5067250
is,A,4,6,LLC-loads,5099668
is,A,4,0,LLC-loads,5104320
is,A,4,2,LLC-loads,5074583
is,A,4,4,LLC-loads,5074287
is,A,4,6,LLC-loads,5058633
is,A,4,0,LLC-loads,5118529
is,A,4,2,LLC-loads,5055386
is,A,4,4,LLC-loads,5085780
is,A,4,6,LLC-loads,5076997
is,A,4,0,LLC-loads,5257898
is,A,4,2,LLC-loads,5199377
is,A,4,4,LLC-loads,5176426
is,A,4,6,LLC-loads,5187080
is,A,4,0,LLC-loads,5096714
is,A,4,2,LLC-loads,5065659
is,A,4,4,LLC-loads,5058984
is,A,4,6,LLC-loads,5071652
is,A,4,0,LLC-loads,5176916
is,A,4,2,LLC-loads,5083495
is,A,4,4,LLC-loads,5100811
is,A,4,6,LLC-loads,5103671
is,A,4,0,LLC-loads,5106801
is,A,4,2,LLC-loads,5086446
is,A,4,4,LLC-loads,5087337
is,A,4,6,LLC-loads,5083910
is,A,4,0,LLC-loads,5180757
is,A,4,2,LLC-loads,5104673
is,A,4,4,LLC-loads,5113791
is,A,4,6,LLC-loads,5150841
