is,A,2,0,LLC-loads,10010713
is,A,2,2,LLC-loads,9949816
is,A,2,0,LLC-loads,10036926
is,A,2,2,LLC-loads,10001504
is,A,2,0,LLC-loads,10027456
is,A,2,2,LLC-loads,9967071
is,A,2,0,LLC-loads,10021590
is,A,2,2,LLC-loads,9981744
is,A,2,0,LLC-loads,9944150
is,A,2,2,LLC-loads,9901631
is,A,2,0,LLC-loads,9980334
is,A,2,2,LLC-loads,9960432
is,A,2,0,LLC-loads,9978869
is,A,2,2,LLC-loads,9922673
is,A,2,0,LLC-loads,10002447
is,A,2,2,LLC-loads,9939081
is,A,2,0,LLC-loads,10114060
is,A,2,2,LLC-loads,10037517
is,A,2,0,LLC-loads,10010134
is,A,2,2,LLC-loads,9948266
