is,A,8,0,L1-dcache-stores,67281475
is,A,8,2,L1-dcache-stores,65126341
is,A,8,4,L1-dcache-stores,65351515
is,A,8,6,L1-dcache-stores,65202028
is,A,8,8,L1-dcache-stores,65213522
is,A,8,10,L1-dcache-stores,65150487
is,A,8,12,L1-dcache-stores,65069397
is,A,8,14,L1-dcache-stores,65086790
is,A,8,0,L1-dcache-stores,67254327
is,A,8,2,L1-dcache-stores,65171577
is,A,8,4,L1-dcache-stores,65371265
is,A,8,6,L1-dcache-stores,65151932
is,A,8,8,L1-dcache-stores,65182985
is,A,8,10,L1-dcache-stores,65127617
is,A,8,12,L1-dcache-stores,65109577
is,A,8,14,L1-dcache-stores,65124514
is,A,8,0,L1-dcache-stores,67079359
is,A,8,2,L1-dcache-stores,65123725
is,A,8,4,L1-dcache-stores,65177576
is,A,8,6,L1-dcache-stores,65224579
is,A,8,8,L1-dcache-stores,65201925
is,A,8,10,L1-dcache-stores,65319640
is,A,8,12,L1-dcache-stores,65058857
is,A,8,14,L1-dcache-stores,65185626
is,A,8,0,L1-dcache-stores,67289887
is,A,8,2,L1-dcache-stores,65115225
is,A,8,4,L1-dcache-stores,65339585
is,A,8,6,L1-dcache-stores,65186012
is,A,8,8,L1-dcache-stores,65221509
is,A,8,10,L1-dcache-stores,65172067
is,A,8,12,L1-dcache-stores,65088114
is,A,8,14,L1-dcache-stores,65126925
is,A,8,0,L1-dcache-stores,67297372
is,A,8,2,L1-dcache-stores,65135383
is,A,8,4,L1-dcache-stores,65166063
is,A,8,6,L1-dcache-stores,65206359
is,A,8,8,L1-dcache-stores,65351375
is,A,8,10,L1-dcache-stores,65132537
is,A,8,12,L1-dcache-stores,65100146
is,A,8,14,L1-dcache-stores,65074443
is,A,8,0,L1-dcache-stores,67245446
is,A,8,2,L1-dcache-stores,65148449
is,A,8,4,L1-dcache-stores,65160167
is,A,8,6,L1-dcache-stores,65196865
is,A,8,8,L1-dcache-stores,65216123
is,A,8,10,L1-dcache-stores,65308581
is,A,8,12,L1-dcache-stores,65123724
is,A,8,14,L1-dcache-stores,65057998
is,A,8,0,L1-dcache-stores,67320037
is,A,8,2,L1-dcache-stores,65121330
is,A,8,4,L1-dcache-stores,65427901
is,A,8,6,L1-dcache-stores,65209745
is,A,8,8,L1-dcache-stores,65222802
is,A,8,10,L1-dcache-stores,65175977
is,A,8,12,L1-dcache-stores,65135061
is,A,8,14,L1-dcache-stores,65079132
is,A,8,0,L1-dcache-stores,67272340
is,A,8,2,L1-dcache-stores,65144421
is,A,8,4,L1-dcache-stores,65364939
is,A,8,6,L1-dcache-stores,65173344
is,A,8,8,L1-dcache-stores,65191085
is,A,8,10,L1-dcache-stores,65174742
is,A,8,12,L1-dcache-stores,65107447
is,A,8,14,L1-dcache-stores,65102968
is,A,8,0,L1-dcache-stores,67547276
is,A,8,2,L1-dcache-stores,65147899
is,A,8,4,L1-dcache-stores,65182525
is,A,8,6,L1-dcache-stores,65190832
is,A,8,8,L1-dcache-stores,65232529
is,A,8,10,L1-dcache-stores,65310156
is,A,8,12,L1-dcache-stores,65075464
is,A,8,14,L1-dcache-stores,65125802
is,A,8,0,L1-dcache-stores,67286572
is,A,8,2,L1-dcache-stores,65351379
is,A,8,4,L1-dcache-stores,65170161
is,A,8,6,L1-dcache-stores,65226840
is,A,8,8,L1-dcache-stores,65214641
is,A,8,10,L1-dcache-stores,65176433
is,A,8,12,L1-dcache-stores,65116826
is,A,8,14,L1-dcache-stores,65090278
