is,A,8,0,LLC-loads,2662793
is,A,8,2,LLC-loads,2582812
is,A,8,4,LLC-loads,2584769
is,A,8,6,LLC-loads,2587656
is,A,8,8,LLC-loads,2586698
is,A,8,10,LLC-loads,2578449
is,A,8,12,LLC-loads,2579548
is,A,8,14,LLC-loads,2566364
is,A,8,0,LLC-loads,2637548
is,A,8,2,LLC-loads,2570173
is,A,8,4,LLC-loads,2569836
is,A,8,6,LLC-loads,2576192
is,A,8,8,LLC-loads,2571708
is,A,8,10,LLC-loads,2574660
is,A,8,12,LLC-loads,2569495
is,A,8,14,LLC-loads,2569777
is,A,8,0,LLC-loads,2616352
is,A,8,2,LLC-loads,2570624
is,A,8,4,LLC-loads,2579003
is,A,8,6,LLC-loads,2558145
is,A,8,8,LLC-loads,2556592
is,A,8,10,LLC-loads,2565020
is,A,8,12,LLC-loads,2556975
is,A,8,14,LLC-loads,2554657
is,A,8,0,LLC-loads,2633729
is,A,8,2,LLC-loads,2584328
is,A,8,4,LLC-loads,2576713
is,A,8,6,LLC-loads,2573181
is,A,8,8,LLC-loads,2580139
is,A,8,10,LLC-loads,2577712
is,A,8,12,LLC-loads,2563001
is,A,8,14,LLC-loads,2561501
is,A,8,0,LLC-loads,2621297
is,A,8,2,LLC-loads,2586282
is,A,8,4,LLC-loads,2579665
is,A,8,6,LLC-loads,2599328
is,A,8,8,LLC-loads,2575972
is,A,8,10,LLC-loads,2571293
is,A,8,12,LLC-loads,2573742
is,A,8,14,LLC-loads,2559744
is,A,8,0,LLC-loads,2631556
is,A,8,2,LLC-loads,2580626
is,A,8,4,LLC-loads,2567007
is,A,8,6,LLC-loads,2570085
is,A,8,8,LLC-loads,2563469
is,A,8,10,LLC-loads,2564035
is,A,8,12,LLC-loads,2564900
is,A,8,14,LLC-loads,2571939
is,A,8,0,LLC-loads,2623229
is,A,8,2,LLC-loads,2575847
is,A,8,4,LLC-loads,2572597
is,A,8,6,LLC-loads,2569307
is,A,8,8,LLC-loads,2567781
is,A,8,10,LLC-loads,2574394
is,A,8,12,LLC-loads,2563240
is,A,8,14,LLC-loads,2560690
is,A,8,0,LLC-loads,2673750
is,A,8,2,LLC-loads,2584973
is,A,8,4,LLC-loads,2588829
is,A,8,6,LLC-loads,2603614
is,A,8,8,LLC-loads,2596122
is,A,8,10,LLC-loads,2596181
is,A,8,12,LLC-loads,2578816
is,A,8,14,LLC-loads,2590298
is,A,8,0,LLC-loads,2624887
is,A,8,2,LLC-loads,2570783
is,A,8,4,LLC-loads,2565241
is,A,8,6,LLC-loads,2572173
is,A,8,8,LLC-loads,2572343
is,A,8,10,LLC-loads,2567469
is,A,8,12,LLC-loads,2562120
is,A,8,14,LLC-loads,2562837
is,A,8,0,LLC-loads,2632271
is,A,8,2,LLC-loads,2586873
is,A,8,4,LLC-loads,2572825
is,A,8,6,LLC-loads,2575527
is,A,8,8,LLC-loads,2577772
is,A,8,10,LLC-loads,2570041
is,A,8,12,LLC-loads,2559242
is,A,8,14,LLC-loads,2572751
