lu,A,1,0,LLC-loads,2499945835
lu,A,1,0,LLC-loads,2500498917
lu,A,1,0,LLC-loads,2500294389
lu,A,1,0,LLC-loads,2501344050
lu,A,1,0,LLC-loads,2500786246
lu,A,1,0,LLC-loads,2500657596
lu,A,1,0,LLC-loads,2500376675
lu,A,1,0,LLC-loads,2500456977
lu,A,1,0,LLC-loads,2500847027
lu,A,1,0,LLC-loads,2500218709
