lu,A,4,0,cycles,44824795395
lu,A,4,2,cycles,44815859747
lu,A,4,4,cycles,44815507798
lu,A,4,6,cycles,44817826446
lu,A,4,0,cycles,45075504073
lu,A,4,2,cycles,45068904298
lu,A,4,4,cycles,45066084010
lu,A,4,6,cycles,45066080530
lu,A,4,0,cycles,44755462954
lu,A,4,2,cycles,44747315936
lu,A,4,4,cycles,44747193091
lu,A,4,6,cycles,44748140274
lu,A,4,0,cycles,44705731649
lu,A,4,2,cycles,44700253996
lu,A,4,4,cycles,44697519771
lu,A,4,6,cycles,44697490122
lu,A,4,0,cycles,45033318029
lu,A,4,2,cycles,45023716008
lu,A,4,4,cycles,45025935491
lu,A,4,6,cycles,45023351238
lu,A,4,0,cycles,44938615073
lu,A,4,2,cycles,44927619685
lu,A,4,4,cycles,44927500273
lu,A,4,6,cycles,44927475934
lu,A,4,0,cycles,45063522923
lu,A,4,2,cycles,45056753043
lu,A,4,4,cycles,45055195344
lu,A,4,6,cycles,45057332267
lu,A,4,0,cycles,44948148012
lu,A,4,2,cycles,44939069587
lu,A,4,4,cycles,44938819448
lu,A,4,6,cycles,44941143886
lu,A,4,0,cycles,44846894212
lu,A,4,2,cycles,44838569191
lu,A,4,4,cycles,44838447304
lu,A,4,6,cycles,44839445502
lu,A,4,0,cycles,44932190341
lu,A,4,2,cycles,44923686816
lu,A,4,4,cycles,44924922735
lu,A,4,6,cycles,44925926152
