lu,A,1,0,L1-dcache-stores,26800452310
lu,A,1,0,L1-dcache-stores,26801697618
lu,A,1,0,L1-dcache-stores,26800644438
lu,A,1,0,L1-dcache-stores,26800606578
lu,A,1,0,L1-dcache-stores,26801100691
lu,A,1,0,L1-dcache-stores,26800563905
lu,A,1,0,L1-dcache-stores,26801435213
lu,A,1,0,L1-dcache-stores,26801429188
lu,A,1,0,L1-dcache-stores,26801479207
lu,A,1,0,L1-dcache-stores,26800290359
