lu,A,1,0,cycles,166311189361
lu,A,1,0,cycles,166700548861
lu,A,1,0,cycles,165533004286
lu,A,1,0,cycles,166115759666
lu,A,1,0,cycles,166210443914
lu,A,1,0,cycles,166324367765
lu,A,1,0,cycles,166270083299
lu,A,1,0,cycles,166305554464
lu,A,1,0,cycles,166304574315
lu,A,1,0,cycles,166144199289
