lu,A,2,0,cycles,85102677406
lu,A,2,2,cycles,85096521813
lu,A,2,0,cycles,84705539055
lu,A,2,2,cycles,84698364746
lu,A,2,0,cycles,85146099929
lu,A,2,2,cycles,85135584736
lu,A,2,0,cycles,85042404249
lu,A,2,2,cycles,85033813374
lu,A,2,0,cycles,84876399427
lu,A,2,2,cycles,84865866629
lu,A,2,0,cycles,85103519440
lu,A,2,2,cycles,85092633227
lu,A,2,0,cycles,85107784477
lu,A,2,2,cycles,85099527883
lu,A,2,0,cycles,85238150898
lu,A,2,2,cycles,85229110591
lu,A,2,0,cycles,85077567157
lu,A,2,2,cycles,85067121815
lu,A,2,0,cycles,84993175199
lu,A,2,2,cycles,84984556078
