mg,A,1,0,LLC-loads,206807239
mg,A,1,0,LLC-loads,206766399
mg,A,1,0,LLC-loads,206789508
mg,A,1,0,LLC-loads,206794618
mg,A,1,0,LLC-loads,206802824
mg,A,1,0,LLC-loads,206780169
mg,A,1,0,LLC-loads,206798271
mg,A,1,0,LLC-loads,206781865
mg,A,1,0,LLC-loads,206864628
mg,A,1,0,LLC-loads,206783595
