mg,A,2,0,LLC-loads,103671817
mg,A,2,2,LLC-loads,103261014
mg,A,2,0,LLC-loads,103679417
mg,A,2,2,LLC-loads,103244226
mg,A,2,0,LLC-loads,103703951
mg,A,2,2,LLC-loads,103252500
mg,A,2,0,LLC-loads,103667422
mg,A,2,2,LLC-loads,103245426
mg,A,2,0,LLC-loads,103674094
mg,A,2,2,LLC-loads,103241780
mg,A,2,0,LLC-loads,103704964
mg,A,2,2,LLC-loads,103244960
mg,A,2,0,LLC-loads,103672150
mg,A,2,2,LLC-loads,103254800
mg,A,2,0,LLC-loads,103669737
mg,A,2,2,LLC-loads,103246579
mg,A,2,0,LLC-loads,103671109
mg,A,2,2,LLC-loads,103236104
mg,A,2,0,LLC-loads,103711205
mg,A,2,2,LLC-loads,103245840
