mg,A,4,0,cycles,5821988853
mg,A,4,2,cycles,5758937403
mg,A,4,4,cycles,5757161737
mg,A,4,6,cycles,5759956583
mg,A,4,0,cycles,5791695071
mg,A,4,2,cycles,5731755265
mg,A,4,4,cycles,5729215992
mg,A,4,6,cycles,5728017527
mg,A,4,0,cycles,5838933056
mg,A,4,2,cycles,5775223955
mg,A,4,4,cycles,5771681277
mg,A,4,6,cycles,5774927316
mg,A,4,0,cycles,5845076141
mg,A,4,2,cycles,5781433757
mg,A,4,4,cycles,5756193768
mg,A,4,6,cycles,5748069260
mg,A,4,0,cycles,5830120918
mg,A,4,2,cycles,5747573966
mg,A,4,4,cycles,5769590511
mg,A,4,6,cycles,5767242940
mg,A,4,0,cycles,5847197572
mg,A,4,2,cycles,5786894637
mg,A,4,4,cycles,5784019747
mg,A,4,6,cycles,5761677977
mg,A,4,0,cycles,5826986762
mg,A,4,2,cycles,5766303816
mg,A,4,4,cycles,5743259366
mg,A,4,6,cycles,5742316713
mg,A,4,0,cycles,5822341948
mg,A,4,2,cycles,5740675929
mg,A,4,4,cycles,5738823579
mg,A,4,6,cycles,5737581947
mg,A,4,0,cycles,5810110653
mg,A,4,2,cycles,5748694332
mg,A,4,4,cycles,5749898449
mg,A,4,6,cycles,5746656061
mg,A,4,0,cycles,5863829870
mg,A,4,2,cycles,5797923732
mg,A,4,4,cycles,5800935413
mg,A,4,6,cycles,5800729430
