mg,A,2,0,cycles,10638579868
mg,A,2,2,cycles,10550955333
mg,A,2,0,cycles,10818063060
mg,A,2,2,cycles,10794123789
mg,A,2,0,cycles,10556890612
mg,A,2,2,cycles,10490436750
mg,A,2,0,cycles,10515194745
mg,A,2,2,cycles,10452196498
mg,A,2,0,cycles,10568969571
mg,A,2,2,cycles,10502507604
mg,A,2,0,cycles,10539790339
mg,A,2,2,cycles,10473662699
mg,A,2,0,cycles,10503619491
mg,A,2,2,cycles,10443156418
mg,A,2,0,cycles,10515450821
mg,A,2,2,cycles,10451822604
mg,A,2,0,cycles,10528206497
mg,A,2,2,cycles,10463627987
mg,A,2,0,cycles,10517032315
mg,A,2,2,cycles,10453725927
