mg,A,2,0,L1-dcache-stores,692322831
mg,A,2,2,L1-dcache-stores,678442225
mg,A,2,0,L1-dcache-stores,692281456
mg,A,2,2,L1-dcache-stores,678161954
mg,A,2,0,L1-dcache-stores,692111726
mg,A,2,2,L1-dcache-stores,678407118
mg,A,2,0,L1-dcache-stores,692572466
mg,A,2,2,L1-dcache-stores,678175426
mg,A,2,0,L1-dcache-stores,692091833
mg,A,2,2,L1-dcache-stores,678127725
mg,A,2,0,L1-dcache-stores,692269055
mg,A,2,2,L1-dcache-stores,678134143
mg,A,2,0,L1-dcache-stores,692254451
mg,A,2,2,L1-dcache-stores,678130803
mg,A,2,0,L1-dcache-stores,692325081
mg,A,2,2,L1-dcache-stores,678152099
mg,A,2,0,L1-dcache-stores,692052008
mg,A,2,2,L1-dcache-stores,678394002
mg,A,2,0,L1-dcache-stores,692309921
mg,A,2,2,L1-dcache-stores,678418224
