sp,A,4,0,LLC-loads,1037906742
sp,A,4,2,LLC-loads,1019456259
sp,A,4,4,LLC-loads,977039240
sp,A,4,6,LLC-loads,967316420
sp,A,4,0,LLC-loads,1034901608
sp,A,4,2,LLC-loads,1042145021
sp,A,4,4,LLC-loads,971370685
sp,A,4,6,LLC-loads,974018243
sp,A,4,0,LLC-loads,1035005546
sp,A,4,2,LLC-loads,1036963813
sp,A,4,4,LLC-loads,976102185
sp,A,4,6,LLC-loads,967254353
sp,A,4,0,LLC-loads,1034110588
sp,A,4,2,LLC-loads,1042233648
sp,A,4,4,LLC-loads,974449390
sp,A,4,6,LLC-loads,964090313
sp,A,4,0,LLC-loads,1037241562
sp,A,4,2,LLC-loads,1036465501
sp,A,4,4,LLC-loads,965698447
sp,A,4,6,LLC-loads,977698895
sp,A,4,0,LLC-loads,1045255837
sp,A,4,2,LLC-loads,1032498956
sp,A,4,4,LLC-loads,974979244
sp,A,4,6,LLC-loads,964643910
sp,A,4,0,LLC-loads,1041043363
sp,A,4,2,LLC-loads,1031179616
sp,A,4,4,LLC-loads,980220321
sp,A,4,6,LLC-loads,965938357
sp,A,4,0,LLC-loads,1035428415
sp,A,4,2,LLC-loads,1026175624
sp,A,4,4,LLC-loads,975214073
sp,A,4,6,LLC-loads,963723049
sp,A,4,0,LLC-loads,1038441402
sp,A,4,2,LLC-loads,1034585566
sp,A,4,4,LLC-loads,973174440
sp,A,4,6,LLC-loads,972402404
sp,A,4,0,LLC-loads,1039491715
sp,A,4,2,LLC-loads,1040615306
sp,A,4,4,LLC-loads,968891587
sp,A,4,6,LLC-loads,969094997
