ua,A,1,0,L1-dcache-stores,23244876017
ua,A,1,0,L1-dcache-stores,23245380846
ua,A,1,0,L1-dcache-stores,23245490915
ua,A,1,0,L1-dcache-stores,23245571265
ua,A,1,0,L1-dcache-stores,23244571294
ua,A,1,0,L1-dcache-stores,23244791955
ua,A,1,0,L1-dcache-stores,23245390788
ua,A,1,0,L1-dcache-stores,23245681280
ua,A,1,0,L1-dcache-stores,23245284472
ua,A,1,0,L1-dcache-stores,23245514539
