# zsim stats
===
root: # Stats
 contention: # Contention simulation stats
  domain-0: # Domain stats
   time: 719906433202 # Weave simulation time
 time: # Simulator time breakdown
  init: 75503134
  bound: 6891008684171
  weave: 1000337614825
  ff: 0
 trigger: 20000 # Reason for this stats dump
 phase: 3915086 # Simulated phases
 CPU: # Core stats
  CPU-0: # Core stats
   cycles: 39150857237 # Simulated unhalted cycles
   cCycles: 3148412155 # Cycles due to contention stalls
   instrs: 57004710432 # Simulated instructions
   uops: 67199107987 # Retired micro-ops
   bbls: 2161323300 # Basic blocks
   approxInstrs: 1135976847 # Instrs with approx uop decoding
   mispredBranches: 6452494 # Mispredicted branches
  CPU-1: # Core stats
   cycles: 39149810189 # Simulated unhalted cycles
   cCycles: 3128909161 # Cycles due to contention stalls
   instrs: 58139916688 # Simulated instructions
   uops: 67938171562 # Retired micro-ops
   bbls: 2437727895 # Basic blocks
   approxInstrs: 1472319690 # Instrs with approx uop decoding
   mispredBranches: 6457822 # Mispredicted branches
  CPU-2: # Core stats
   cycles: 39149138750 # Simulated unhalted cycles
   cCycles: 3096017674 # Cycles due to contention stalls
   instrs: 61816383057 # Simulated instructions
   uops: 69327513667 # Retired micro-ops
   bbls: 4113319002 # Basic blocks
   approxInstrs: 3137500817 # Instrs with approx uop decoding
   mispredBranches: 6086349 # Mispredicted branches
  CPU-3: # Core stats
   cycles: 39149123206 # Simulated unhalted cycles
   cCycles: 3099385191 # Cycles due to contention stalls
   instrs: 62524515928 # Simulated instructions
   uops: 69769090323 # Retired micro-ops
   bbls: 4284405007 # Basic blocks
   approxInstrs: 3356247989 # Instrs with approx uop decoding
   mispredBranches: 6086115 # Mispredicted branches
 l1d_CPU: # Cache stats
  l1d_CPU-0: # Filter cache stats
   fhGETS: 13597154753 # Filtered GETS hits
   fhGETX: 5894507094 # Filtered GETX hits
   hGETS: 1165400465 # GETS hits
   hGETX: 599576187 # GETX hits
   mGETS: 704258095 # GETS misses
   mGETXIM: 413815276 # GETX I->M misses
   mGETXSM: 42580 # GETX S->M misses (upgrade misses)
   PUTS: 0 # Clean evictions (from lower level)
   PUTX: 0 # Dirty evictions (from lower level)
   INV: 30295 # Invalidates (from upper level)
   INVX: 287594 # Downgrades (from upper level)
   FWD: 0 # Forwards (from upper level)
   latGETnl: 52290751052 # GET request latency on next level
   latGETnet: 0 # GET request latency on network to next level
  l1d_CPU-1: # Filter cache stats
   fhGETS: 13909212703 # Filtered GETS hits
   fhGETX: 5881324703 # Filtered GETX hits
   hGETS: 1159868126 # GETS hits
   hGETX: 612715435 # GETX hits
   mGETS: 703824823 # GETS misses
   mGETXIM: 413618191 # GETX I->M misses
   mGETXSM: 70032 # GETX S->M misses (upgrade misses)
   PUTS: 0 # Clean evictions (from lower level)
   PUTX: 0 # Dirty evictions (from lower level)
   INV: 58251 # Invalidates (from upper level)
   INVX: 816846 # Downgrades (from upper level)
   FWD: 0 # Forwards (from upper level)
   latGETnl: 52358310005 # GET request latency on next level
   latGETnet: 0 # GET request latency on network to next level
  l1d_CPU-2: # Filter cache stats
   fhGETS: 14834129485 # Filtered GETS hits
   fhGETX: 5519636681 # Filtered GETX hits
   hGETS: 1088550015 # GETS hits
   hGETX: 575126249 # GETX hits
   mGETS: 661154974 # GETS misses
   mGETXIM: 388678459 # GETX I->M misses
   mGETXSM: 63001 # GETX S->M misses (upgrade misses)
   PUTS: 0 # Clean evictions (from lower level)
   PUTX: 0 # Dirty evictions (from lower level)
   INV: 67642 # Invalidates (from upper level)
   INVX: 1421954 # Downgrades (from upper level)
   FWD: 0 # Forwards (from upper level)
   latGETnl: 49645953760 # GET request latency on next level
   latGETnet: 0 # GET request latency on network to next level
  l1d_CPU-3: # Filter cache stats
   fhGETS: 15030420742 # Filtered GETS hits
   fhGETX: 5520029662 # Filtered GETX hits
   hGETS: 1087161934 # GETS hits
   hGETX: 574717510 # GETX hits
   mGETS: 661154234 # GETS misses
   mGETXIM: 388687840 # GETX I->M misses
   mGETXSM: 40958 # GETX S->M misses (upgrade misses)
   PUTS: 0 # Clean evictions (from lower level)
   PUTX: 0 # Dirty evictions (from lower level)
   INV: 49615 # Invalidates (from upper level)
   INVX: 131888 # Downgrades (from upper level)
   FWD: 0 # Forwards (from upper level)
   latGETnl: 49787781006 # GET request latency on next level
   latGETnet: 0 # GET request latency on network to next level
 l1i_CPU: # Cache stats
  l1i_CPU-0: # Filter cache stats
   fhGETS: 6007009876 # Filtered GETS hits
   fhGETX: 0 # Filtered GETX hits
   hGETS: 29696048 # GETS hits
   hGETX: 0 # GETX hits
   mGETS: 113612 # GETS misses
   mGETXIM: 0 # GETX I->M misses
   mGETXSM: 0 # GETX S->M misses (upgrade misses)
   PUTS: 0 # Clean evictions (from lower level)
   PUTX: 0 # Dirty evictions (from lower level)
   INV: 264 # Invalidates (from upper level)
   INVX: 0 # Downgrades (from upper level)
   FWD: 0 # Forwards (from upper level)
   latGETnl: 5701288 # GET request latency on next level
   latGETnet: 0 # GET request latency on network to next level
  l1i_CPU-1: # Filter cache stats
   fhGETS: 6283520069 # Filtered GETS hits
   fhGETX: 0 # Filtered GETX hits
   hGETS: 29691106 # GETS hits
   hGETX: 0 # GETX hits
   mGETS: 58095 # GETS misses
   mGETXIM: 0 # GETX I->M misses
   mGETXSM: 0 # GETX S->M misses (upgrade misses)
   PUTS: 0 # Clean evictions (from lower level)
   PUTX: 0 # Dirty evictions (from lower level)
   INV: 0 # Invalidates (from upper level)
   INVX: 0 # Downgrades (from upper level)
   FWD: 0 # Forwards (from upper level)
   latGETnl: 2620387 # GET request latency on next level
   latGETnet: 0 # GET request latency on network to next level
  l1i_CPU-2: # Filter cache stats
   fhGETS: 7719748537 # Filtered GETS hits
   fhGETX: 0 # Filtered GETX hits
   hGETS: 28126016 # GETS hits
   hGETX: 0 # GETX hits
   mGETS: 60329 # GETS misses
   mGETXIM: 0 # GETX I->M misses
   mGETXSM: 0 # GETX S->M misses (upgrade misses)
   PUTS: 0 # Clean evictions (from lower level)
   PUTX: 0 # Dirty evictions (from lower level)
   INV: 2 # Invalidates (from upper level)
   INVX: 0 # Downgrades (from upper level)
   FWD: 0 # Forwards (from upper level)
   latGETnl: 2826012 # GET request latency on next level
   latGETnet: 0 # GET request latency on network to next level
  l1i_CPU-3: # Filter cache stats
   fhGETS: 7890834321 # Filtered GETS hits
   fhGETX: 0 # Filtered GETX hits
   hGETS: 28123724 # GETS hits
   hGETX: 0 # GETX hits
   mGETS: 60401 # GETS misses
   mGETXIM: 0 # GETX I->M misses
   mGETXSM: 0 # GETX S->M misses (upgrade misses)
   PUTS: 0 # Clean evictions (from lower level)
   PUTX: 0 # Dirty evictions (from lower level)
   INV: 1 # Invalidates (from upper level)
   INVX: 0 # Downgrades (from upper level)
   FWD: 0 # Forwards (from upper level)
   latGETnl: 2879935 # GET request latency on next level
   latGETnet: 0 # GET request latency on network to next level
 l2_CPU: # Cache stats
  l2_CPU-0: # Cache stats
   hGETS: 58882067 # GETS hits
   hGETX: 784688 # GETX hits
   mGETS: 645489640 # GETS misses
   mGETXIM: 413030569 # GETX I->M misses
   mGETXSM: 42599 # GETX S->M misses (upgrade misses)
   PUTS: 604107703 # Clean evictions (from lower level)
   PUTX: 514047961 # Dirty evictions (from lower level)
   INV: 58429 # Invalidates (from upper level)
   INVX: 1791029 # Downgrades (from upper level)
   FWD: 0 # Forwards (from upper level)
   latGETnl: 38877697580 # GET request latency on next level
   latGETnet: 0 # GET request latency on network to next level
  l2_CPU-1: # Cache stats
   hGETS: 58300500 # GETS hits
   hGETX: 611100 # GETX hits
   mGETS: 645582418 # GETS misses
   mGETXIM: 413018787 # GETX I->M misses
   mGETXSM: 58336 # GETX S->M misses (upgrade misses)
   PUTS: 603107707 # Clean evictions (from lower level)
   PUTX: 514347069 # Dirty evictions (from lower level)
   INV: 78761 # Invalidates (from upper level)
   INVX: 1641257 # Downgrades (from upper level)
   FWD: 0 # Forwards (from upper level)
   latGETnl: 38950076700 # GET request latency on next level
   latGETnet: 0 # GET request latency on network to next level
  l2_CPU-2: # Cache stats
   hGETS: 55468957 # GETS hits
   hGETX: 617140 # GETX hits
   mGETS: 605746346 # GETS misses
   mGETXIM: 388061676 # GETX I->M misses
   mGETXSM: 62644 # GETX S->M misses (upgrade misses)
   PUTS: 566719317 # Clean evictions (from lower level)
   PUTX: 483106688 # Dirty evictions (from lower level)
   INV: 80210 # Invalidates (from upper level)
   INVX: 2665723 # Downgrades (from upper level)
   FWD: 0 # Forwards (from upper level)
   latGETnl: 37049298616 # GET request latency on next level
   latGETnet: 0 # GET request latency on network to next level
  l2_CPU-3: # Cache stats
   hGETS: 54773148 # GETS hits
   hGETX: 575835 # GETX hits
   mGETS: 606441487 # GETS misses
   mGETXIM: 388113861 # GETX I->M misses
   mGETXSM: 39102 # GETX S->M misses (upgrade misses)
   PUTS: 566717883 # Clean evictions (from lower level)
   PUTX: 483138647 # Dirty evictions (from lower level)
   INV: 79042 # Invalidates (from upper level)
   INVX: 460468 # Downgrades (from upper level)
   FWD: 0 # Forwards (from upper level)
   latGETnl: 37191339745 # GET request latency on next level
   latGETnet: 0 # GET request latency on network to next level
 l3: # Cache stats
  l3-0b0: # Cache stats
   hGETS: 246599456 # GETS hits
   hGETX: 189868883 # GETX hits
   mGETS: 66194885 # GETS misses
   mGETXIM: 10410705 # GETX I->M misses
   mGETXSM: 0 # GETX S->M misses (upgrade misses)
   PUTS: 266221818 # Clean evictions (from lower level)
   PUTX: 246832332 # Dirty evictions (from lower level)
   INV: 0 # Invalidates (from upper level)
   INVX: 0 # Downgrades (from upper level)
   FWD: 0 # Forwards (from upper level)
   latGETnl: 3600462730 # GET request latency on next level
   latGETnet: 0 # GET request latency on network to next level
  l3-0b1: # Cache stats
   hGETS: 246862256 # GETS hits
   hGETX: 189841101 # GETX hits
   mGETS: 66189294 # GETS misses
   mGETXIM: 10408553 # GETX I->M misses
   mGETXSM: 0 # GETX S->M misses (upgrade misses)
   PUTS: 266526697 # Clean evictions (from lower level)
   PUTX: 246755972 # Dirty evictions (from lower level)
   INV: 0 # Invalidates (from upper level)
   INVX: 0 # Downgrades (from upper level)
   FWD: 0 # Forwards (from upper level)
   latGETnl: 3600098809 # GET request latency on next level
   latGETnet: 0 # GET request latency on network to next level
  l3-0b2: # Cache stats
   hGETS: 246539534 # GETS hits
   hGETX: 189783448 # GETX hits
   mGETS: 66224262 # GETS misses
   mGETXIM: 10410832 # GETX I->M misses
   mGETXSM: 0 # GETX S->M misses (upgrade misses)
   PUTS: 266150755 # Clean evictions (from lower level)
   PUTX: 246791641 # Dirty evictions (from lower level)
   INV: 0 # Invalidates (from upper level)
   INVX: 0 # Downgrades (from upper level)
   FWD: 0 # Forwards (from upper level)
   latGETnl: 3601849418 # GET request latency on next level
   latGETnet: 0 # GET request latency on network to next level
  l3-0b3: # Cache stats
   hGETS: 246600395 # GETS hits
   hGETX: 189918193 # GETX hits
   mGETS: 66194117 # GETS misses
   mGETXIM: 10413462 # GETX I->M misses
   mGETXSM: 0 # GETX S->M misses (upgrade misses)
   PUTS: 266176258 # Clean evictions (from lower level)
   PUTX: 246919905 # Dirty evictions (from lower level)
   INV: 0 # Invalidates (from upper level)
   INVX: 0 # Downgrades (from upper level)
   FWD: 0 # Forwards (from upper level)
   latGETnl: 3600556213 # GET request latency on next level
   latGETnet: 0 # GET request latency on network to next level
  l3-0b4: # Cache stats
   hGETS: 246782541 # GETS hits
   hGETX: 190142681 # GETX hits
   mGETS: 66174326 # GETS misses
   mGETXIM: 10405817 # GETX I->M misses
   mGETXSM: 0 # GETX S->M misses (upgrade misses)
   PUTS: 266229332 # Clean evictions (from lower level)
   PUTX: 246904073 # Dirty evictions (from lower level)
   INV: 0 # Invalidates (from upper level)
   INVX: 0 # Downgrades (from upper level)
   FWD: 0 # Forwards (from upper level)
   latGETnl: 3599266721 # GET request latency on next level
   latGETnet: 0 # GET request latency on network to next level
  l3-0b5: # Cache stats
   hGETS: 246753228 # GETS hits
   hGETX: 189906494 # GETX hits
   mGETS: 66199410 # GETS misses
   mGETXIM: 10409378 # GETX I->M misses
   mGETXSM: 0 # GETX S->M misses (upgrade misses)
   PUTS: 266317362 # Clean evictions (from lower level)
   PUTX: 246934234 # Dirty evictions (from lower level)
   INV: 0 # Invalidates (from upper level)
   INVX: 0 # Downgrades (from upper level)
   FWD: 0 # Forwards (from upper level)
   latGETnl: 3600613036 # GET request latency on next level
   latGETnet: 0 # GET request latency on network to next level
  l3-0b6: # Cache stats
   hGETS: 247114068 # GETS hits
   hGETX: 189883925 # GETX hits
   mGETS: 66188674 # GETS misses
   mGETXIM: 10405552 # GETX I->M misses
   mGETXSM: 0 # GETX S->M misses (upgrade misses)
   PUTS: 266733523 # Clean evictions (from lower level)
   PUTX: 246841561 # Dirty evictions (from lower level)
   INV: 0 # Invalidates (from upper level)
   INVX: 0 # Downgrades (from upper level)
   FWD: 0 # Forwards (from upper level)
   latGETnl: 3599928622 # GET request latency on next level
   latGETnet: 0 # GET request latency on network to next level
  l3-0b7: # Cache stats
   hGETS: 246413980 # GETS hits
   hGETX: 189813865 # GETX hits
   mGETS: 66229465 # GETS misses
   mGETXIM: 10404685 # GETX I->M misses
   mGETXSM: 0 # GETX S->M misses (upgrade misses)
   PUTS: 265944466 # Clean evictions (from lower level)
   PUTX: 246896858 # Dirty evictions (from lower level)
   INV: 0 # Invalidates (from upper level)
   INVX: 0 # Downgrades (from upper level)
   FWD: 0 # Forwards (from upper level)
   latGETnl: 3601805050 # GET request latency on next level
   latGETnet: 0 # GET request latency on network to next level
 mem: # Memory controller stats
  mem-0: # Memory controller stats
   rd: 153225355 # Read requests
   wr: 70847884 # Write requests
   rdlat: 13500819791 # Total latency experienced by read requests
   wrlat: 8045577484 # Total latency experienced by write requests
   rdhits: 216031 # Read row hits
   wrhits: 733117 # Write row hits
   mlh: # latency histogram for memory requests
    0: 0
    1: 0
    2: 0
    3: 0
    4: 0
    5: 219
    6: 29444
    7: 53230
    8: 128709292
    9: 16735496
    10: 1870003
    11: 764566
    12: 666214
    13: 636373
    14: 586634
    15: 588425
    16: 562893
    17: 538473
    18: 506874
    19: 395211
    20: 204482
    21: 86164
    22: 81869
    23: 75885
    24: 55645
    25: 37202
    26: 12658
    27: 8159
    28: 6450
    29: 4664
    30: 2907
    31: 1846
    32: 1276
    33: 869
    34: 622
    35: 482
    36: 268
    37: 212
    38: 123
    39: 72
    40: 57
    41: 25
    42: 20
    43: 5
    44: 10
    45: 9
    46: 4
    47: 5
    48: 6
    49: 4
    50: 3
    51: 2
    52: 2
    53: 1
    54: 0
    55: 0
    56: 0
    57: 0
    58: 0
    59: 0
    60: 0
    61: 0
    62: 0
    63: 0
    64: 0
    65: 0
    66: 0
    67: 0
    68: 0
    69: 0
    70: 0
    71: 0
    72: 0
    73: 0
    74: 0
    75: 0
    76: 0
    77: 0
    78: 0
    79: 0
    80: 0
    81: 0
    82: 0
    83: 0
    84: 0
    85: 0
    86: 0
    87: 0
    88: 0
    89: 0
    90: 0
    91: 0
    92: 0
    93: 0
    94: 0
    95: 0
    96: 0
    97: 0
    98: 0
    99: 0
  mem-1: # Memory controller stats
   rd: 153224601 # Read requests
   wr: 70847943 # Write requests
   rdlat: 13502719668 # Total latency experienced by read requests
   wrlat: 8076874028 # Total latency experienced by write requests
   rdhits: 218567 # Read row hits
   wrhits: 726730 # Write row hits
   mlh: # latency histogram for memory requests
    0: 0
    1: 0
    2: 0
    3: 0
    4: 0
    5: 155
    6: 30082
    7: 54187
    8: 128607904
    9: 16820274
    10: 1895521
    11: 777884
    12: 633847
    13: 638893
    14: 581244
    15: 563413
    16: 553553
    17: 550744
    18: 521600
    19: 403103
    20: 211246
    21: 87395
    22: 82450
    23: 75647
    24: 56100
    25: 37529
    26: 12853
    27: 8146
    28: 6649
    29: 4852
    30: 3116
    31: 1915
    32: 1327
    33: 927
    34: 661
    35: 500
    36: 299
    37: 187
    38: 126
    39: 77
    40: 41
    41: 57
    42: 30
    43: 22
    44: 12
    45: 8
    46: 8
    47: 7
    48: 3
    49: 3
    50: 1
    51: 0
    52: 0
    53: 0
    54: 0
    55: 1
    56: 0
    57: 0
    58: 1
    59: 1
    60: 0
    61: 0
    62: 0
    63: 0
    64: 0
    65: 0
    66: 0
    67: 0
    68: 0
    69: 0
    70: 0
    71: 0
    72: 0
    73: 0
    74: 0
    75: 0
    76: 0
    77: 0
    78: 0
    79: 0
    80: 0
    81: 0
    82: 0
    83: 0
    84: 0
    85: 0
    86: 0
    87: 0
    88: 0
    89: 0
    90: 0
    91: 0
    92: 0
    93: 0
    94: 0
    95: 0
    96: 0
    97: 0
    98: 0
    99: 0
  mem-2: # Memory controller stats
   rd: 153198927 # Read requests
   wr: 70849459 # Write requests
   rdlat: 13481058543 # Total latency experienced by read requests
   wrlat: 8033277405 # Total latency experienced by write requests
   rdhits: 220659 # Read row hits
   wrhits: 738395 # Write row hits
   mlh: # latency histogram for memory requests
    0: 0
    1: 0
    2: 0
    3: 0
    4: 0
    5: 221
    6: 31814
    7: 53302
    8: 128952002
    9: 16775112
    10: 1822129
    11: 728607
    12: 607383
    13: 609784
    14: 559679
    15: 543130
    16: 538960
    17: 518702
    18: 492466
    19: 391690
    20: 205649
    21: 84714
    22: 79775
    23: 73799
    24: 54845
    25: 36208
    26: 11875
    27: 7588
    28: 6474
    29: 4498
    30: 2781
    31: 1819
    32: 1105
    33: 915
    34: 607
    35: 460
    36: 274
    37: 180
    38: 142
    39: 72
    40: 40
    41: 35
    42: 27
    43: 24
    44: 14
    45: 5
    46: 6
    47: 5
    48: 5
    49: 2
    50: 2
    51: 0
    52: 0
    53: 1
    54: 0
    55: 0
    56: 0
    57: 0
    58: 0
    59: 0
    60: 0
    61: 0
    62: 0
    63: 0
    64: 0
    65: 0
    66: 0
    67: 0
    68: 0
    69: 0
    70: 0
    71: 0
    72: 0
    73: 0
    74: 0
    75: 0
    76: 0
    77: 0
    78: 0
    79: 0
    80: 0
    81: 0
    82: 0
    83: 0
    84: 0
    85: 0
    86: 0
    87: 0
    88: 0
    89: 0
    90: 0
    91: 0
    92: 0
    93: 0
    94: 0
    95: 0
    96: 0
    97: 0
    98: 0
    99: 0
  mem-3: # Memory controller stats
   rd: 153214534 # Read requests
   wr: 70855313 # Write requests
   rdlat: 13495194242 # Total latency experienced by read requests
   wrlat: 8047806495 # Total latency experienced by write requests
   rdhits: 222595 # Read row hits
   wrhits: 726839 # Write row hits
   mlh: # latency histogram for memory requests
    0: 0
    1: 0
    2: 0
    3: 0
    4: 0
    5: 173
    6: 31993
    7: 55551
    8: 128637128
    9: 16914775
    10: 1869806
    11: 753002
    12: 615572
    13: 619882
    14: 565110
    15: 544374
    16: 539130
    17: 578957
    18: 496031
    19: 397275
    20: 211489
    21: 87271
    22: 82754
    23: 76522
    24: 56093
    25: 38628
    26: 12975
    27: 8524
    28: 7116
    29: 5011
    30: 3125
    31: 2041
    32: 1251
    33: 898
    34: 673
    35: 462
    36: 329
    37: 194
    38: 124
    39: 81
    40: 69
    41: 31
    42: 28
    43: 37
    44: 11
    45: 12
    46: 7
    47: 4
    48: 4
    49: 2
    50: 5
    51: 3
    52: 1
    53: 0
    54: 0
    55: 0
    56: 0
    57: 0
    58: 0
    59: 0
    60: 0
    61: 0
    62: 0
    63: 0
    64: 0
    65: 0
    66: 0
    67: 0
    68: 0
    69: 0
    70: 0
    71: 0
    72: 0
    73: 0
    74: 0
    75: 0
    76: 0
    77: 0
    78: 0
    79: 0
    80: 0
    81: 0
    82: 0
    83: 0
    84: 0
    85: 0
    86: 0
    87: 0
    88: 0
    89: 0
    90: 0
    91: 0
    92: 0
    93: 0
    94: 0
    95: 0
    96: 0
    97: 0
    98: 0
    99: 0
 sched: # Scheduler stats
  thCr: 4 # Threads created
  thFn: 4 # Threads finished
  schedEvs: 4 # Schedule events
  waitEvs: 0 # Wait events
  handoffEvs: 0 # Handoff events
  sleepEvs: 0 # Sleep events
  idlePhases: 0 # Phases with no thread active
  idlePeriods: 0 # Periods with no thread active
  occHist: # Occupancy histogram
   0: 0
   1: 105
   2: 0
   3: 0
   4: 3914981
  rqSzHist: # Run queue size histogram
   0: 3915086
   1: 0
   2: 0
   3: 0
   4: 0
   5: 0
   6: 0
   7: 0
   8: 0
   9: 0
   10: 0
   11: 0
   12: 0
   13: 0
   14: 0
   15: 0
   16: 0
 procCycles: # Per-process unhalted core cycles
  0: 156598929382
  1: 0
  2: 0
  3: 0
  4: 0
  5: 0
  6: 0
  7: 0
  8: 0
  9: 0
  10: 0
  11: 0
  12: 0
  13: 0
  14: 0
  15: 0
  16: 0
  17: 0
  18: 0
  19: 0
  20: 0
  21: 0
  22: 0
  23: 0
  24: 0
  25: 0
  26: 0
  27: 0
  28: 0
  29: 0
  30: 0
  31: 0
  32: 0
  33: 0
  34: 0
  35: 0
  36: 0
  37: 0
  38: 0
  39: 0
  40: 0
  41: 0
  42: 0
  43: 0
  44: 0
  45: 0
  46: 0
  47: 0
  48: 0
  49: 0
  50: 0
  51: 0
  52: 0
  53: 0
  54: 0
  55: 0
  56: 0
  57: 0
  58: 0
  59: 0
  60: 0
  61: 0
  62: 0
  63: 0
 procInstrs: # Per-process instructions
  0: 239485526105
  1: 0
  2: 0
  3: 0
  4: 0
  5: 0
  6: 0
  7: 0
  8: 0
  9: 0
  10: 0
  11: 0
  12: 0
  13: 0
  14: 0
  15: 0
  16: 0
  17: 0
  18: 0
  19: 0
  20: 0
  21: 0
  22: 0
  23: 0
  24: 0
  25: 0
  26: 0
  27: 0
  28: 0
  29: 0
  30: 0
  31: 0
  32: 0
  33: 0
  34: 0
  35: 0
  36: 0
  37: 0
  38: 0
  39: 0
  40: 0
  41: 0
  42: 0
  43: 0
  44: 0
  45: 0
  46: 0
  47: 0
  48: 0
  49: 0
  50: 0
  51: 0
  52: 0
  53: 0
  54: 0
  55: 0
  56: 0
  57: 0
  58: 0
  59: 0
  60: 0
  61: 0
  62: 0
  63: 0
 heartbeats: # Per-process heartbeats
  0: 0
  1: 0
  2: 0
  3: 0
  4: 0
  5: 0
  6: 0
  7: 0
  8: 0
  9: 0
  10: 0
  11: 0
  12: 0
  13: 0
  14: 0
  15: 0
  16: 0
  17: 0
  18: 0
  19: 0
  20: 0
  21: 0
  22: 0
  23: 0
  24: 0
  25: 0
  26: 0
  27: 0
  28: 0
  29: 0
  30: 0
  31: 0
  32: 0
  33: 0
  34: 0
  35: 0
  36: 0
  37: 0
  38: 0
  39: 0
  40: 0
  41: 0
  42: 0
  43: 0
  44: 0
  45: 0
  46: 0
  47: 0
  48: 0
  49: 0
  50: 0
  51: 0
  52: 0
  53: 0
  54: 0
  55: 0
  56: 0
  57: 0
  58: 0
  59: 0
  60: 0
  61: 0
  62: 0
  63: 0
===
