bt,A,1,0,LLC-stores,82042139
bt,A,1,0,LLC-stores,81156071
bt,A,1,0,LLC-stores,76984489
bt,A,1,0,LLC-stores,85193764
bt,A,1,0,LLC-stores,78001599
bt,A,1,0,LLC-stores,76008133
bt,A,1,0,LLC-stores,78166453
bt,A,1,0,LLC-stores,76627433
bt,A,1,0,LLC-stores,215220321
bt,A,1,0,LLC-stores,91489236
