bt,A,4,0,L1-dcache-stores,13494881574
bt,A,4,2,L1-dcache-stores,13493476754
bt,A,4,4,L1-dcache-stores,12659261358
bt,A,4,6,L1-dcache-stores,12659088682
bt,A,4,0,L1-dcache-stores,13495390331
bt,A,4,2,L1-dcache-stores,13492873927
bt,A,4,4,L1-dcache-stores,12659029734
bt,A,4,6,L1-dcache-stores,12659022127
bt,A,4,0,L1-dcache-stores,13496420709
bt,A,4,2,L1-dcache-stores,13492698042
bt,A,4,4,L1-dcache-stores,12660526817
bt,A,4,6,L1-dcache-stores,12659230368
bt,A,4,0,L1-dcache-stores,13494626854
bt,A,4,2,L1-dcache-stores,13493592233
bt,A,4,4,L1-dcache-stores,12659224034
bt,A,4,6,L1-dcache-stores,12659014138
bt,A,4,0,L1-dcache-stores,13495411979
bt,A,4,2,L1-dcache-stores,13493533509
bt,A,4,4,L1-dcache-stores,12659658609
bt,A,4,6,L1-dcache-stores,12659108537
bt,A,4,0,L1-dcache-stores,13495477493
bt,A,4,2,L1-dcache-stores,13493200749
bt,A,4,4,L1-dcache-stores,12659443502
bt,A,4,6,L1-dcache-stores,12659844993
bt,A,4,0,L1-dcache-stores,13496595022
bt,A,4,2,L1-dcache-stores,13492743637
bt,A,4,4,L1-dcache-stores,12659571775
bt,A,4,6,L1-dcache-stores,12659123053
bt,A,4,0,L1-dcache-stores,13496174989
bt,A,4,2,L1-dcache-stores,13492779845
bt,A,4,4,L1-dcache-stores,12659413152
bt,A,4,6,L1-dcache-stores,12659561971
bt,A,4,0,L1-dcache-stores,13495647981
bt,A,4,2,L1-dcache-stores,13492672734
bt,A,4,4,L1-dcache-stores,12659049851
bt,A,4,6,L1-dcache-stores,12659405588
bt,A,4,0,L1-dcache-stores,13496723187
bt,A,4,2,L1-dcache-stores,13492786852
bt,A,4,4,L1-dcache-stores,12660269300
bt,A,4,6,L1-dcache-stores,12659505462
