cg,A,2,0,cycles,2182127860
cg,A,2,2,cycles,2177004746
cg,A,2,0,cycles,2205386226
cg,A,2,2,cycles,2200719989
cg,A,2,0,cycles,2287462810
cg,A,2,2,cycles,2280371145
cg,A,2,0,cycles,2204190801
cg,A,2,2,cycles,2199265600
cg,A,2,0,cycles,2249633577
cg,A,2,2,cycles,2245142006
cg,A,2,0,cycles,2242252456
cg,A,2,2,cycles,2237460572
cg,A,2,0,cycles,2305881295
cg,A,2,2,cycles,2297784352
cg,A,2,0,cycles,2221445289
cg,A,2,2,cycles,2213163833
cg,A,2,0,cycles,2200680423
cg,A,2,2,cycles,2195884081
cg,A,2,0,cycles,2210278509
cg,A,2,2,cycles,2205444976
