cg,A,8,0,LLC-stores,295562
cg,A,8,2,LLC-stores,256929
cg,A,8,4,LLC-stores,258477
cg,A,8,6,LLC-stores,252128
cg,A,8,8,LLC-stores,262360
cg,A,8,10,LLC-stores,256548
cg,A,8,12,LLC-stores,248669
cg,A,8,14,LLC-stores,248761
cg,A,8,0,LLC-stores,285458
cg,A,8,2,LLC-stores,255184
cg,A,8,4,LLC-stores,248572
cg,A,8,6,LLC-stores,252141
cg,A,8,8,LLC-stores,253222
cg,A,8,10,LLC-stores,244370
cg,A,8,12,LLC-stores,249545
cg,A,8,14,LLC-stores,240186
cg,A,8,0,LLC-stores,298999
cg,A,8,2,LLC-stores,251093
cg,A,8,4,LLC-stores,246823
cg,A,8,6,LLC-stores,244077
cg,A,8,8,LLC-stores,255648
cg,A,8,10,LLC-stores,243961
cg,A,8,12,LLC-stores,245078
cg,A,8,14,LLC-stores,246699
cg,A,8,0,LLC-stores,292204
cg,A,8,2,LLC-stores,252644
cg,A,8,4,LLC-stores,253329
cg,A,8,6,LLC-stores,249242
cg,A,8,8,LLC-stores,254725
cg,A,8,10,LLC-stores,243616
cg,A,8,12,LLC-stores,255387
cg,A,8,14,LLC-stores,240908
cg,A,8,0,LLC-stores,289574
cg,A,8,2,LLC-stores,252565
cg,A,8,4,LLC-stores,254001
cg,A,8,6,LLC-stores,248647
cg,A,8,8,LLC-stores,255779
cg,A,8,10,LLC-stores,249105
cg,A,8,12,LLC-stores,247873
cg,A,8,14,LLC-stores,241739
cg,A,8,0,LLC-stores,305858
cg,A,8,2,LLC-stores,253555
cg,A,8,4,LLC-stores,252534
cg,A,8,6,LLC-stores,252007
cg,A,8,8,LLC-stores,259202
cg,A,8,10,LLC-stores,242357
cg,A,8,12,LLC-stores,244342
cg,A,8,14,LLC-stores,247836
cg,A,8,0,LLC-stores,295284
cg,A,8,2,LLC-stores,254113
cg,A,8,4,LLC-stores,244901
cg,A,8,6,LLC-stores,247374
cg,A,8,8,LLC-stores,252291
cg,A,8,10,LLC-stores,246927
cg,A,8,12,LLC-stores,249564
cg,A,8,14,LLC-stores,241766
cg,A,8,0,LLC-stores,287898
cg,A,8,2,LLC-stores,250166
cg,A,8,4,LLC-stores,245338
cg,A,8,6,LLC-stores,250551
cg,A,8,8,LLC-stores,256853
cg,A,8,10,LLC-stores,246309
cg,A,8,12,LLC-stores,249530
cg,A,8,14,LLC-stores,241492
cg,A,8,0,LLC-stores,293653
cg,A,8,2,LLC-stores,256197
cg,A,8,4,LLC-stores,254142
cg,A,8,6,LLC-stores,253378
cg,A,8,8,LLC-stores,254918
cg,A,8,10,LLC-stores,260310
cg,A,8,12,LLC-stores,245790
cg,A,8,14,LLC-stores,249158
cg,A,8,0,LLC-stores,289911
cg,A,8,2,LLC-stores,257813
cg,A,8,4,LLC-stores,254664
cg,A,8,6,LLC-stores,257456
cg,A,8,8,LLC-stores,252852
cg,A,8,10,LLC-stores,243592
cg,A,8,12,LLC-stores,249938
cg,A,8,14,LLC-stores,247958
