cg,A,1,0,L1-dcache-loads,2769410450
cg,A,1,0,L1-dcache-loads,2769788216
cg,A,1,0,L1-dcache-loads,2769345867
cg,A,1,0,L1-dcache-loads,2769793601
cg,A,1,0,L1-dcache-loads,2770020896
cg,A,1,0,L1-dcache-loads,2769675858
cg,A,1,0,L1-dcache-loads,2769572178
cg,A,1,0,L1-dcache-loads,2769426575
cg,A,1,0,L1-dcache-loads,2769823222
cg,A,1,0,L1-dcache-loads,2771280395
