cg,A,8,0,LLC-loads,21213713
cg,A,8,2,LLC-loads,21344181
cg,A,8,4,LLC-loads,20797245
cg,A,8,6,LLC-loads,20560706
cg,A,8,8,LLC-loads,21159340
cg,A,8,10,LLC-loads,21125457
cg,A,8,12,LLC-loads,20606955
cg,A,8,14,LLC-loads,20745052
cg,A,8,0,LLC-loads,21530306
cg,A,8,2,LLC-loads,21505748
cg,A,8,4,LLC-loads,21460391
cg,A,8,6,LLC-loads,21643879
cg,A,8,8,LLC-loads,21821845
cg,A,8,10,LLC-loads,21921235
cg,A,8,12,LLC-loads,21258176
cg,A,8,14,LLC-loads,21805139
cg,A,8,0,LLC-loads,20007663
cg,A,8,2,LLC-loads,20000330
cg,A,8,4,LLC-loads,19680556
cg,A,8,6,LLC-loads,20112136
cg,A,8,8,LLC-loads,20598606
cg,A,8,10,LLC-loads,20145751
cg,A,8,12,LLC-loads,20142474
cg,A,8,14,LLC-loads,20191798
cg,A,8,0,LLC-loads,18700033
cg,A,8,2,LLC-loads,18548948
cg,A,8,4,LLC-loads,17969367
cg,A,8,6,LLC-loads,18697075
cg,A,8,8,LLC-loads,18597057
cg,A,8,10,LLC-loads,18563120
cg,A,8,12,LLC-loads,18726610
cg,A,8,14,LLC-loads,18340302
cg,A,8,0,LLC-loads,19824157
cg,A,8,2,LLC-loads,19832209
cg,A,8,4,LLC-loads,19216007
cg,A,8,6,LLC-loads,20077959
cg,A,8,8,LLC-loads,20001543
cg,A,8,10,LLC-loads,19775869
cg,A,8,12,LLC-loads,19993465
cg,A,8,14,LLC-loads,19623400
cg,A,8,0,LLC-loads,19497817
cg,A,8,2,LLC-loads,19298923
cg,A,8,4,LLC-loads,19229454
cg,A,8,6,LLC-loads,18818761
cg,A,8,8,LLC-loads,19392673
cg,A,8,10,LLC-loads,19190786
cg,A,8,12,LLC-loads,19114446
cg,A,8,14,LLC-loads,19073373
cg,A,8,0,LLC-loads,19099243
cg,A,8,2,LLC-loads,19193092
cg,A,8,4,LLC-loads,19114729
cg,A,8,6,LLC-loads,18777542
cg,A,8,8,LLC-loads,18784152
cg,A,8,10,LLC-loads,18466641
cg,A,8,12,LLC-loads,18431789
cg,A,8,14,LLC-loads,18989381
cg,A,8,0,LLC-loads,19542080
cg,A,8,2,LLC-loads,18999314
cg,A,8,4,LLC-loads,18675076
cg,A,8,6,LLC-loads,18830947
cg,A,8,8,LLC-loads,19019624
cg,A,8,10,LLC-loads,19504084
cg,A,8,12,LLC-loads,19090617
cg,A,8,14,LLC-loads,19026824
cg,A,8,0,LLC-loads,18019592
cg,A,8,2,LLC-loads,17914104
cg,A,8,4,LLC-loads,17494468
cg,A,8,6,LLC-loads,17363163
cg,A,8,8,LLC-loads,17613653
cg,A,8,10,LLC-loads,17485633
cg,A,8,12,LLC-loads,17485223
cg,A,8,14,LLC-loads,17311111
cg,A,8,0,LLC-loads,18492543
cg,A,8,2,LLC-loads,18304897
cg,A,8,4,LLC-loads,17864722
cg,A,8,6,LLC-loads,17970601
cg,A,8,8,LLC-loads,18503323
cg,A,8,10,LLC-loads,18251607
cg,A,8,12,LLC-loads,18134694
cg,A,8,14,LLC-loads,18046658
