cg,A,2,0,L1-dcache-stores,89192449
cg,A,2,2,L1-dcache-stores,89379010
cg,A,2,0,L1-dcache-stores,89383234
cg,A,2,2,L1-dcache-stores,89281145
cg,A,2,0,L1-dcache-stores,89388463
cg,A,2,2,L1-dcache-stores,89370735
cg,A,2,0,L1-dcache-stores,89398887
cg,A,2,2,L1-dcache-stores,89364874
cg,A,2,0,L1-dcache-stores,89229315
cg,A,2,2,L1-dcache-stores,89346596
cg,A,2,0,L1-dcache-stores,89320436
cg,A,2,2,L1-dcache-stores,89281934
cg,A,2,0,L1-dcache-stores,89176106
cg,A,2,2,L1-dcache-stores,89386757
cg,A,2,0,L1-dcache-stores,89372557
cg,A,2,2,L1-dcache-stores,89681700
cg,A,2,0,L1-dcache-stores,89314012
cg,A,2,2,L1-dcache-stores,89372411
cg,A,2,0,L1-dcache-stores,89340430
cg,A,2,2,L1-dcache-stores,89386830
