ep,A,1,0,cycles,40811922311
ep,A,1,0,cycles,40867427709
ep,A,1,0,cycles,40876043724
ep,A,1,0,cycles,40875574717
ep,A,1,0,cycles,40851752378
ep,A,1,0,cycles,40841818205
ep,A,1,0,cycles,40830507858
ep,A,1,0,cycles,40852363992
ep,A,1,0,cycles,40864670106
ep,A,1,0,cycles,40870722621
