ep,A,2,0,LLC-stores,912679
ep,A,2,2,LLC-stores,961170
ep,A,2,0,LLC-stores,965456
ep,A,2,2,LLC-stores,929399
ep,A,2,0,LLC-stores,967611
ep,A,2,2,LLC-stores,915879
ep,A,2,0,LLC-stores,968951
ep,A,2,2,LLC-stores,937752
ep,A,2,0,LLC-stores,977879
ep,A,2,2,LLC-stores,971006
ep,A,2,0,LLC-stores,960405
ep,A,2,2,LLC-stores,922372
ep,A,2,0,LLC-stores,967991
ep,A,2,2,LLC-stores,891687
ep,A,2,0,LLC-stores,912308
ep,A,2,2,LLC-stores,910947
ep,A,2,0,LLC-stores,994930
ep,A,2,2,LLC-stores,937189
ep,A,2,0,LLC-stores,953496
ep,A,2,2,LLC-stores,893486
