ft,A,2,0,LLC-stores,53594019
ft,A,2,2,LLC-stores,52820850
ft,A,2,0,LLC-stores,55390214
ft,A,2,2,LLC-stores,51558024
ft,A,2,0,LLC-stores,53074734
ft,A,2,2,LLC-stores,54846663
ft,A,2,0,LLC-stores,50689375
ft,A,2,2,LLC-stores,51441307
ft,A,2,0,LLC-stores,53056941
ft,A,2,2,LLC-stores,52808878
ft,A,2,0,LLC-stores,52369304
ft,A,2,2,LLC-stores,53529549
ft,A,2,0,LLC-stores,55505582
ft,A,2,2,LLC-stores,53771536
ft,A,2,0,LLC-stores,53534816
ft,A,2,2,LLC-stores,51883031
ft,A,2,0,LLC-stores,52958969
ft,A,2,2,LLC-stores,51665524
ft,A,2,0,LLC-stores,52026185
ft,A,2,2,LLC-stores,53331595
