ft,A,2,0,LLC-loads,46711980
ft,A,2,2,LLC-loads,47747020
ft,A,2,0,LLC-loads,46441108
ft,A,2,2,LLC-loads,48607260
ft,A,2,0,LLC-loads,48222038
ft,A,2,2,LLC-loads,48088181
ft,A,2,0,LLC-loads,48020326
ft,A,2,2,LLC-loads,49107963
ft,A,2,0,LLC-loads,48209143
ft,A,2,2,LLC-loads,49175713
ft,A,2,0,LLC-loads,48927649
ft,A,2,2,LLC-loads,48017026
ft,A,2,0,LLC-loads,45531688
ft,A,2,2,LLC-loads,44771977
ft,A,2,0,LLC-loads,46598631
ft,A,2,2,LLC-loads,46008366
ft,A,2,0,LLC-loads,48591110
ft,A,2,2,LLC-loads,46667469
ft,A,2,0,LLC-loads,51541222
ft,A,2,2,LLC-loads,54579812
