ft,A,4,0,cycles,3450193452
ft,A,4,2,cycles,3382538603
ft,A,4,4,cycles,3382221758
ft,A,4,6,cycles,3382259919
ft,A,4,0,cycles,3706990273
ft,A,4,2,cycles,3640579078
ft,A,4,4,cycles,3640322067
ft,A,4,6,cycles,3640361314
ft,A,4,0,cycles,3738972346
ft,A,4,2,cycles,3672824676
ft,A,4,4,cycles,3674875513
ft,A,4,6,cycles,3667469346
ft,A,4,0,cycles,3754353737
ft,A,4,2,cycles,3692844876
ft,A,4,4,cycles,3694784568
ft,A,4,6,cycles,3690720461
ft,A,4,0,cycles,3750113572
ft,A,4,2,cycles,3678159439
ft,A,4,4,cycles,3685556861
ft,A,4,6,cycles,3685469086
ft,A,4,0,cycles,3502209465
ft,A,4,2,cycles,3435785456
ft,A,4,4,cycles,3435331909
ft,A,4,6,cycles,3433153971
ft,A,4,0,cycles,3781148791
ft,A,4,2,cycles,3711952777
ft,A,4,4,cycles,3678770540
ft,A,4,6,cycles,3714176244
ft,A,4,0,cycles,3493181215
ft,A,4,2,cycles,3426502826
ft,A,4,4,cycles,3426235055
ft,A,4,6,cycles,3426176086
ft,A,4,0,cycles,3728526520
ft,A,4,2,cycles,3680922432
ft,A,4,4,cycles,3680876747
ft,A,4,6,cycles,3680751461
ft,A,4,0,cycles,3500454459
ft,A,4,2,cycles,3435615889
ft,A,4,4,cycles,3435622695
ft,A,4,6,cycles,3435490385
