is,A,1,0,cycles,6044666035
is,A,1,0,cycles,6051966092
is,A,1,0,cycles,6044613930
is,A,1,0,cycles,6058098188
is,A,1,0,cycles,6052491672
is,A,1,0,cycles,6061018646
is,A,1,0,cycles,6054754089
is,A,1,0,cycles,6054986377
is,A,1,0,cycles,6056473215
is,A,1,0,cycles,6056486935
