is,A,4,0,LLC-loads,1595010
is,A,4,2,LLC-loads,1494702
is,A,4,4,LLC-loads,1481599
is,A,4,6,LLC-loads,1470983
is,A,4,0,LLC-loads,1578961
is,A,4,2,LLC-loads,1454353
is,A,4,4,LLC-loads,1457015
is,A,4,6,LLC-loads,1465746
is,A,4,0,LLC-loads,1595486
is,A,4,2,LLC-loads,1496624
is,A,4,4,LLC-loads,1490998
is,A,4,6,LLC-loads,1502586
is,A,4,0,LLC-loads,1633750
is,A,4,2,LLC-loads,1499127
is,A,4,4,LLC-loads,1516242
is,A,4,6,LLC-loads,1501819
is,A,4,0,LLC-loads,1566009
is,A,4,2,LLC-loads,1463816
is,A,4,4,LLC-loads,1456605
is,A,4,6,LLC-loads,1474654
is,A,4,0,LLC-loads,1608088
is,A,4,2,LLC-loads,1482019
is,A,4,4,LLC-loads,1475074
is,A,4,6,LLC-loads,1491652
is,A,4,0,LLC-loads,1584394
is,A,4,2,LLC-loads,1469255
is,A,4,4,LLC-loads,1480777
is,A,4,6,LLC-loads,1496613
is,A,4,0,LLC-loads,1612763
is,A,4,2,LLC-loads,1497727
is,A,4,4,LLC-loads,1494949
is,A,4,6,LLC-loads,1513612
is,A,4,0,LLC-loads,1596141
is,A,4,2,LLC-loads,1469097
is,A,4,4,LLC-loads,1473216
is,A,4,6,LLC-loads,1476597
is,A,4,0,LLC-loads,1572902
is,A,4,2,LLC-loads,1463244
is,A,4,4,LLC-loads,1471058
is,A,4,6,LLC-loads,1471562
