is,A,2,0,LLC-loads,2319362
is,A,2,2,LLC-loads,2219131
is,A,2,0,LLC-loads,2281057
is,A,2,2,LLC-loads,2181397
is,A,2,0,LLC-loads,2274659
is,A,2,2,LLC-loads,2195485
is,A,2,0,LLC-loads,2279865
is,A,2,2,LLC-loads,2195865
is,A,2,0,LLC-loads,2291480
is,A,2,2,LLC-loads,2212733
is,A,2,0,LLC-loads,2334561
is,A,2,2,LLC-loads,2222983
is,A,2,0,LLC-loads,2252612
is,A,2,2,LLC-loads,2166441
is,A,2,0,LLC-loads,2260853
is,A,2,2,LLC-loads,2179092
is,A,2,0,LLC-loads,2259882
is,A,2,2,LLC-loads,2174293
is,A,2,0,LLC-loads,2326704
is,A,2,2,LLC-loads,2212133
