is,A,4,0,L1-dcache-stores,131919974
is,A,4,2,L1-dcache-stores,130007773
is,A,4,4,L1-dcache-stores,130111162
is,A,4,6,L1-dcache-stores,130063276
is,A,4,0,L1-dcache-stores,131801333
is,A,4,2,L1-dcache-stores,130181770
is,A,4,4,L1-dcache-stores,130071153
is,A,4,6,L1-dcache-stores,129910001
is,A,4,0,L1-dcache-stores,131935504
is,A,4,2,L1-dcache-stores,130089210
is,A,4,4,L1-dcache-stores,129839743
is,A,4,6,L1-dcache-stores,130011240
is,A,4,0,L1-dcache-stores,131720871
is,A,4,2,L1-dcache-stores,129952056
is,A,4,4,L1-dcache-stores,130061608
is,A,4,6,L1-dcache-stores,130067004
is,A,4,0,L1-dcache-stores,131903489
is,A,4,2,L1-dcache-stores,130083386
is,A,4,4,L1-dcache-stores,129966053
is,A,4,6,L1-dcache-stores,129969869
is,A,4,0,L1-dcache-stores,131734355
is,A,4,2,L1-dcache-stores,130118099
is,A,4,4,L1-dcache-stores,129895002
is,A,4,6,L1-dcache-stores,130012715
is,A,4,0,L1-dcache-stores,131933766
is,A,4,2,L1-dcache-stores,130019240
is,A,4,4,L1-dcache-stores,129862177
is,A,4,6,L1-dcache-stores,130109889
is,A,4,0,L1-dcache-stores,131725645
is,A,4,2,L1-dcache-stores,129775373
is,A,4,4,L1-dcache-stores,130115515
is,A,4,6,L1-dcache-stores,130109861
is,A,4,0,L1-dcache-stores,131908046
is,A,4,2,L1-dcache-stores,129948291
is,A,4,4,L1-dcache-stores,130080836
is,A,4,6,L1-dcache-stores,129920339
is,A,4,0,L1-dcache-stores,131820212
is,A,4,2,L1-dcache-stores,130081772
is,A,4,4,L1-dcache-stores,130000903
is,A,4,6,L1-dcache-stores,130067709
