is,A,4,0,L1-dcache-loads,282709831
is,A,4,2,L1-dcache-loads,278662906
is,A,4,4,L1-dcache-loads,279125793
is,A,4,6,L1-dcache-loads,278953310
is,A,4,0,L1-dcache-loads,282354598
is,A,4,2,L1-dcache-loads,278570858
is,A,4,4,L1-dcache-loads,278814037
is,A,4,6,L1-dcache-loads,278976161
is,A,4,0,L1-dcache-loads,282036237
is,A,4,2,L1-dcache-loads,279097450
is,A,4,4,L1-dcache-loads,278856244
is,A,4,6,L1-dcache-loads,278913121
is,A,4,0,L1-dcache-loads,282612158
is,A,4,2,L1-dcache-loads,279166255
is,A,4,4,L1-dcache-loads,278719617
is,A,4,6,L1-dcache-loads,278522188
is,A,4,0,L1-dcache-loads,282157445
is,A,4,2,L1-dcache-loads,278796479
is,A,4,4,L1-dcache-loads,278806041
is,A,4,6,L1-dcache-loads,279616458
is,A,4,0,L1-dcache-loads,282720815
is,A,4,2,L1-dcache-loads,278638759
is,A,4,4,L1-dcache-loads,278594981
is,A,4,6,L1-dcache-loads,279036668
is,A,4,0,L1-dcache-loads,282363273
is,A,4,2,L1-dcache-loads,278746729
is,A,4,4,L1-dcache-loads,279210250
is,A,4,6,L1-dcache-loads,278843743
is,A,4,0,L1-dcache-loads,281971488
is,A,4,2,L1-dcache-loads,278871796
is,A,4,4,L1-dcache-loads,278655338
is,A,4,6,L1-dcache-loads,279096778
is,A,4,0,L1-dcache-loads,282102633
is,A,4,2,L1-dcache-loads,278962592
is,A,4,4,L1-dcache-loads,278824832
is,A,4,6,L1-dcache-loads,278728398
is,A,4,0,L1-dcache-loads,282233322
is,A,4,2,L1-dcache-loads,279146033
is,A,4,4,L1-dcache-loads,279272178
is,A,4,6,L1-dcache-loads,279522576
