lu,A,8,0,cycles,17114011900
lu,A,8,2,cycles,17102167082
lu,A,8,4,cycles,17101796529
lu,A,8,6,cycles,17104006509
lu,A,8,8,cycles,17101654551
lu,A,8,10,cycles,17101575140
lu,A,8,12,cycles,17100551045
lu,A,8,14,cycles,17100416110
lu,A,8,0,cycles,17960493125
lu,A,8,2,cycles,17950600542
lu,A,8,4,cycles,17950451926
lu,A,8,6,cycles,17950362127
lu,A,8,8,cycles,17950307603
lu,A,8,10,cycles,17950276875
lu,A,8,12,cycles,17948630620
lu,A,8,14,cycles,17948497374
lu,A,8,0,cycles,17023125069
lu,A,8,2,cycles,17011289318
lu,A,8,4,cycles,17010907238
lu,A,8,6,cycles,17013129213
lu,A,8,8,cycles,17010772029
lu,A,8,10,cycles,17010699555
lu,A,8,12,cycles,17009653970
lu,A,8,14,cycles,17009447075
lu,A,8,0,cycles,16991419808
lu,A,8,2,cycles,16979133801
lu,A,8,4,cycles,16978663540
lu,A,8,6,cycles,16978631049
lu,A,8,8,cycles,16978553597
lu,A,8,10,cycles,16978512297
lu,A,8,12,cycles,16977016437
lu,A,8,14,cycles,16977274392
lu,A,8,0,cycles,17989758809
lu,A,8,2,cycles,17980573186
lu,A,8,4,cycles,17977634580
lu,A,8,6,cycles,17977690959
lu,A,8,8,cycles,17977608962
lu,A,8,10,cycles,17977477209
lu,A,8,12,cycles,17975567884
lu,A,8,14,cycles,17975477297
lu,A,8,0,cycles,17952233553
lu,A,8,2,cycles,17942175938
lu,A,8,4,cycles,17942034355
lu,A,8,6,cycles,17941978437
lu,A,8,8,cycles,17941910772
lu,A,8,10,cycles,17941876552
lu,A,8,12,cycles,17939916800
lu,A,8,14,cycles,17939809666
lu,A,8,0,cycles,17998747030
lu,A,8,2,cycles,17988848017
lu,A,8,4,cycles,17988870316
lu,A,8,6,cycles,17991087253
lu,A,8,8,cycles,17988563659
lu,A,8,10,cycles,17988569598
lu,A,8,12,cycles,17986330842
lu,A,8,14,cycles,17988415305
lu,A,8,0,cycles,17020512189
lu,A,8,2,cycles,17008150877
lu,A,8,4,cycles,17007686709
lu,A,8,6,cycles,17007763702
lu,A,8,8,cycles,17007574527
lu,A,8,10,cycles,17007574814
lu,A,8,12,cycles,17005964863
lu,A,8,14,cycles,17007467857
lu,A,8,0,cycles,17975658985
lu,A,8,2,cycles,17965650450
lu,A,8,4,cycles,17965511522
lu,A,8,6,cycles,17967913145
lu,A,8,8,cycles,17965404534
lu,A,8,10,cycles,17965299401
lu,A,8,12,cycles,17963394781
lu,A,8,14,cycles,17963231822
lu,A,8,0,cycles,17988266828
lu,A,8,2,cycles,17976434892
lu,A,8,4,cycles,17978598552
lu,A,8,6,cycles,17976137214
lu,A,8,8,cycles,17976010530
lu,A,8,10,cycles,17975920076
lu,A,8,12,cycles,17973266361
lu,A,8,14,cycles,17973168477
