lu,A,8,0,L1-dcache-stores,3459977752
lu,A,8,2,L1-dcache-stores,3458245558
lu,A,8,4,L1-dcache-stores,3458572127
lu,A,8,6,L1-dcache-stores,3458232829
lu,A,8,8,L1-dcache-stores,3458257845
lu,A,8,10,L1-dcache-stores,3458270842
lu,A,8,12,L1-dcache-stores,3034005364
lu,A,8,14,L1-dcache-stores,3034029713
lu,A,8,0,L1-dcache-stores,3460786118
lu,A,8,2,L1-dcache-stores,3458251154
lu,A,8,4,L1-dcache-stores,3458215477
lu,A,8,6,L1-dcache-stores,3458216461
lu,A,8,8,L1-dcache-stores,3458580659
lu,A,8,10,L1-dcache-stores,3458229782
lu,A,8,12,L1-dcache-stores,3033974715
lu,A,8,14,L1-dcache-stores,3034185125
lu,A,8,0,L1-dcache-stores,3460038460
lu,A,8,2,L1-dcache-stores,3458298295
lu,A,8,4,L1-dcache-stores,3458310759
lu,A,8,6,L1-dcache-stores,3458523671
lu,A,8,8,L1-dcache-stores,3458535080
lu,A,8,10,L1-dcache-stores,3458685763
lu,A,8,12,L1-dcache-stores,3034100747
lu,A,8,14,L1-dcache-stores,3034097658
lu,A,8,0,L1-dcache-stores,3460026433
lu,A,8,2,L1-dcache-stores,3458349115
lu,A,8,4,L1-dcache-stores,3458299188
lu,A,8,6,L1-dcache-stores,3458300883
lu,A,8,8,L1-dcache-stores,3458666845
lu,A,8,10,L1-dcache-stores,3458327237
lu,A,8,12,L1-dcache-stores,3034077745
lu,A,8,14,L1-dcache-stores,3034075265
lu,A,8,0,L1-dcache-stores,3460858348
lu,A,8,2,L1-dcache-stores,3458578910
lu,A,8,4,L1-dcache-stores,3458383155
lu,A,8,6,L1-dcache-stores,3458303991
lu,A,8,8,L1-dcache-stores,3458302382
lu,A,8,10,L1-dcache-stores,3458344458
lu,A,8,12,L1-dcache-stores,3034424944
lu,A,8,14,L1-dcache-stores,3034233081
lu,A,8,0,L1-dcache-stores,3460023996
lu,A,8,2,L1-dcache-stores,3458324803
lu,A,8,4,L1-dcache-stores,3458375270
lu,A,8,6,L1-dcache-stores,3458313194
lu,A,8,8,L1-dcache-stores,3458828883
lu,A,8,10,L1-dcache-stores,3458331661
lu,A,8,12,L1-dcache-stores,3034068764
lu,A,8,14,L1-dcache-stores,3034071075
lu,A,8,0,L1-dcache-stores,3461106219
lu,A,8,2,L1-dcache-stores,3458291826
lu,A,8,4,L1-dcache-stores,3458234491
lu,A,8,6,L1-dcache-stores,3458238141
lu,A,8,8,L1-dcache-stores,3458266981
lu,A,8,10,L1-dcache-stores,3458230718
lu,A,8,12,L1-dcache-stores,3034498809
lu,A,8,14,L1-dcache-stores,3034013966
lu,A,8,0,L1-dcache-stores,3461383138
lu,A,8,2,L1-dcache-stores,3458310996
lu,A,8,4,L1-dcache-stores,3458305348
lu,A,8,6,L1-dcache-stores,3458581509
lu,A,8,8,L1-dcache-stores,3458318718
lu,A,8,10,L1-dcache-stores,3458334816
lu,A,8,12,L1-dcache-stores,3034086992
lu,A,8,14,L1-dcache-stores,3034089734
lu,A,8,0,L1-dcache-stores,3460447832
lu,A,8,2,L1-dcache-stores,3458239741
lu,A,8,4,L1-dcache-stores,3458212399
lu,A,8,6,L1-dcache-stores,3458214128
lu,A,8,8,L1-dcache-stores,3458252248
lu,A,8,10,L1-dcache-stores,3458212474
lu,A,8,12,L1-dcache-stores,3033967668
lu,A,8,14,L1-dcache-stores,3033987319
lu,A,8,0,L1-dcache-stores,3461172246
lu,A,8,2,L1-dcache-stores,3458353185
lu,A,8,4,L1-dcache-stores,3458389897
lu,A,8,6,L1-dcache-stores,3458310402
lu,A,8,8,L1-dcache-stores,3458316847
lu,A,8,10,L1-dcache-stores,3458346348
lu,A,8,12,L1-dcache-stores,3034285296
lu,A,8,14,L1-dcache-stores,3034101715
