lu,A,1,0,L1-dcache-loads,59619606538
lu,A,1,0,L1-dcache-loads,59618316392
lu,A,1,0,L1-dcache-loads,59619382538
lu,A,1,0,L1-dcache-loads,59619704203
lu,A,1,0,L1-dcache-loads,59619215239
lu,A,1,0,L1-dcache-loads,59619975599
lu,A,1,0,L1-dcache-loads,59619644811
lu,A,1,0,L1-dcache-loads,59619495551
lu,A,1,0,L1-dcache-loads,59619388121
lu,A,1,0,L1-dcache-loads,59620132953
