mg,A,4,0,LLC-loads,31874859
mg,A,4,2,LLC-loads,31982964
mg,A,4,4,LLC-loads,32245595
mg,A,4,6,LLC-loads,32341648
mg,A,4,0,LLC-loads,26042018
mg,A,4,2,LLC-loads,26495391
mg,A,4,4,LLC-loads,26493895
mg,A,4,6,LLC-loads,25914023
mg,A,4,0,LLC-loads,32252048
mg,A,4,2,LLC-loads,31893872
mg,A,4,4,LLC-loads,30990445
mg,A,4,6,LLC-loads,31728079
mg,A,4,0,LLC-loads,32164871
mg,A,4,2,LLC-loads,31735857
mg,A,4,4,LLC-loads,32238076
mg,A,4,6,LLC-loads,32085679
mg,A,4,0,LLC-loads,26138453
mg,A,4,2,LLC-loads,26692403
mg,A,4,4,LLC-loads,26689418
mg,A,4,6,LLC-loads,25794295
mg,A,4,0,LLC-loads,31643752
mg,A,4,2,LLC-loads,30837284
mg,A,4,4,LLC-loads,31525723
mg,A,4,6,LLC-loads,30976499
mg,A,4,0,LLC-loads,26037476
mg,A,4,2,LLC-loads,26013570
mg,A,4,4,LLC-loads,26067813
mg,A,4,6,LLC-loads,26168160
mg,A,4,0,LLC-loads,31250393
mg,A,4,2,LLC-loads,32015917
mg,A,4,4,LLC-loads,32234061
mg,A,4,6,LLC-loads,32164409
mg,A,4,0,LLC-loads,26075857
mg,A,4,2,LLC-loads,25960804
mg,A,4,4,LLC-loads,26395133
mg,A,4,6,LLC-loads,25490961
mg,A,4,0,LLC-loads,26044577
mg,A,4,2,LLC-loads,26513934
mg,A,4,4,LLC-loads,26234831
mg,A,4,6,LLC-loads,25668595
