mg,A,8,0,LLC-stores,6533238
mg,A,8,2,LLC-stores,6308964
mg,A,8,4,LLC-stores,6177575
mg,A,8,6,LLC-stores,6251116
mg,A,8,8,LLC-stores,6244069
mg,A,8,10,LLC-stores,6241863
mg,A,8,12,LLC-stores,6220988
mg,A,8,14,LLC-stores,6254576
mg,A,8,0,LLC-stores,6372531
mg,A,8,2,LLC-stores,6336901
mg,A,8,4,LLC-stores,6234707
mg,A,8,6,LLC-stores,6268457
mg,A,8,8,LLC-stores,6270907
mg,A,8,10,LLC-stores,6251760
mg,A,8,12,LLC-stores,6261541
mg,A,8,14,LLC-stores,6242311
mg,A,8,0,LLC-stores,6640874
mg,A,8,2,LLC-stores,6398097
mg,A,8,4,LLC-stores,6295462
mg,A,8,6,LLC-stores,6299684
mg,A,8,8,LLC-stores,6311609
mg,A,8,10,LLC-stores,6310839
mg,A,8,12,LLC-stores,6291891
mg,A,8,14,LLC-stores,6299214
mg,A,8,0,LLC-stores,6662213
mg,A,8,2,LLC-stores,6421192
mg,A,8,4,LLC-stores,6310244
mg,A,8,6,LLC-stores,6333903
mg,A,8,8,LLC-stores,6317211
mg,A,8,10,LLC-stores,6311928
mg,A,8,12,LLC-stores,6331774
mg,A,8,14,LLC-stores,6321218
mg,A,8,0,LLC-stores,6557201
mg,A,8,2,LLC-stores,6407016
mg,A,8,4,LLC-stores,6284949
mg,A,8,6,LLC-stores,6301504
mg,A,8,8,LLC-stores,6301482
mg,A,8,10,LLC-stores,6306300
mg,A,8,12,LLC-stores,6316904
mg,A,8,14,LLC-stores,6296344
mg,A,8,0,LLC-stores,6418116
mg,A,8,2,LLC-stores,6415856
mg,A,8,4,LLC-stores,6310141
mg,A,8,6,LLC-stores,6313222
mg,A,8,8,LLC-stores,6341516
mg,A,8,10,LLC-stores,6314062
mg,A,8,12,LLC-stores,6299316
mg,A,8,14,LLC-stores,6290676
mg,A,8,0,LLC-stores,6653004
mg,A,8,2,LLC-stores,6412144
mg,A,8,4,LLC-stores,6301117
mg,A,8,6,LLC-stores,6326403
mg,A,8,8,LLC-stores,6312835
mg,A,8,10,LLC-stores,6319117
mg,A,8,12,LLC-stores,6279598
mg,A,8,14,LLC-stores,6312367
mg,A,8,0,LLC-stores,6628081
mg,A,8,2,LLC-stores,6387296
mg,A,8,4,LLC-stores,6298199
mg,A,8,6,LLC-stores,6319586
mg,A,8,8,LLC-stores,6302306
mg,A,8,10,LLC-stores,6308082
mg,A,8,12,LLC-stores,6291099
mg,A,8,14,LLC-stores,6303994
mg,A,8,0,LLC-stores,6663573
mg,A,8,2,LLC-stores,6399371
mg,A,8,4,LLC-stores,6310363
mg,A,8,6,LLC-stores,6325080
mg,A,8,8,LLC-stores,6313479
mg,A,8,10,LLC-stores,6293474
mg,A,8,12,LLC-stores,6295560
mg,A,8,14,LLC-stores,6301983
mg,A,8,0,LLC-stores,6659650
mg,A,8,2,LLC-stores,6371042
mg,A,8,4,LLC-stores,6277426
mg,A,8,6,LLC-stores,6302169
mg,A,8,8,LLC-stores,6317271
mg,A,8,10,LLC-stores,6291003
mg,A,8,12,LLC-stores,6318395
mg,A,8,14,LLC-stores,6311621
