mg,A,1,0,L1-dcache-loads,5176686576
mg,A,1,0,L1-dcache-loads,5175905872
mg,A,1,0,L1-dcache-loads,5175796631
mg,A,1,0,L1-dcache-loads,5175995605
mg,A,1,0,L1-dcache-loads,5175779216
mg,A,1,0,L1-dcache-loads,5175546824
mg,A,1,0,L1-dcache-loads,5175878622
mg,A,1,0,L1-dcache-loads,5177365913
mg,A,1,0,L1-dcache-loads,5175781003
mg,A,1,0,L1-dcache-loads,5176333799
