mg,A,2,0,cycles,3363199764
mg,A,2,2,cycles,3274838090
mg,A,2,0,cycles,3369646310
mg,A,2,2,cycles,3283580542
mg,A,2,0,cycles,3449813026
mg,A,2,2,cycles,3365042328
mg,A,2,0,cycles,3450460673
mg,A,2,2,cycles,3366070603
mg,A,2,0,cycles,3450532191
mg,A,2,2,cycles,3364923454
mg,A,2,0,cycles,3445125269
mg,A,2,2,cycles,3361043764
mg,A,2,0,cycles,3453965959
mg,A,2,2,cycles,3367509089
mg,A,2,0,cycles,3460231395
mg,A,2,2,cycles,3377185254
mg,A,2,0,cycles,3449156047
mg,A,2,2,cycles,3364946862
mg,A,2,0,cycles,3356482655
mg,A,2,2,cycles,3270266743
