mg,A,4,0,L1-dcache-stores,352403292
mg,A,4,2,L1-dcache-stores,339100545
mg,A,4,4,L1-dcache-stores,338615939
mg,A,4,6,L1-dcache-stores,338349923
mg,A,4,0,L1-dcache-stores,352230513
mg,A,4,2,L1-dcache-stores,339142036
mg,A,4,4,L1-dcache-stores,338374426
mg,A,4,6,L1-dcache-stores,338356320
mg,A,4,0,L1-dcache-stores,352229559
mg,A,4,2,L1-dcache-stores,339108887
mg,A,4,4,L1-dcache-stores,338618696
mg,A,4,6,L1-dcache-stores,338411029
mg,A,4,0,L1-dcache-stores,352228383
mg,A,4,2,L1-dcache-stores,339148846
mg,A,4,4,L1-dcache-stores,338374680
mg,A,4,6,L1-dcache-stores,338387246
mg,A,4,0,L1-dcache-stores,352402132
mg,A,4,2,L1-dcache-stores,339118442
mg,A,4,4,L1-dcache-stores,338365952
mg,A,4,6,L1-dcache-stores,338373920
mg,A,4,0,L1-dcache-stores,352321164
mg,A,4,2,L1-dcache-stores,339094819
mg,A,4,4,L1-dcache-stores,338338882
mg,A,4,6,L1-dcache-stores,338345398
mg,A,4,0,L1-dcache-stores,352279039
mg,A,4,2,L1-dcache-stores,339092326
mg,A,4,4,L1-dcache-stores,338343737
mg,A,4,6,L1-dcache-stores,338344427
mg,A,4,0,L1-dcache-stores,352242645
mg,A,4,2,L1-dcache-stores,339277551
mg,A,4,4,L1-dcache-stores,338373732
mg,A,4,6,L1-dcache-stores,338366961
mg,A,4,0,L1-dcache-stores,352235201
mg,A,4,2,L1-dcache-stores,339341663
mg,A,4,4,L1-dcache-stores,338378564
mg,A,4,6,L1-dcache-stores,338381055
mg,A,4,0,L1-dcache-stores,352234271
mg,A,4,2,L1-dcache-stores,339117947
mg,A,4,4,L1-dcache-stores,338373082
mg,A,4,6,L1-dcache-stores,338568246
