mg,A,8,0,cycles,1957769367
mg,A,8,2,cycles,1874127099
mg,A,8,4,cycles,1876212964
mg,A,8,6,cycles,1874011246
mg,A,8,8,cycles,1873979702
mg,A,8,10,cycles,1873850975
mg,A,8,12,cycles,1873856387
mg,A,8,14,cycles,1873706542
mg,A,8,0,cycles,1197267675
mg,A,8,2,cycles,1110112218
mg,A,8,4,cycles,1109815503
mg,A,8,6,cycles,1109597830
mg,A,8,8,cycles,1109497359
mg,A,8,10,cycles,1109468885
mg,A,8,12,cycles,1109350488
mg,A,8,14,cycles,1109273355
mg,A,8,0,cycles,1956897321
mg,A,8,2,cycles,1872709221
mg,A,8,4,cycles,1872590408
mg,A,8,6,cycles,1872661822
mg,A,8,8,cycles,1872501543
mg,A,8,10,cycles,1874511296
mg,A,8,12,cycles,1872356246
mg,A,8,14,cycles,1872353448
mg,A,8,0,cycles,1959454360
mg,A,8,2,cycles,1875646831
mg,A,8,4,cycles,1875451292
mg,A,8,6,cycles,1875516843
mg,A,8,8,cycles,1875372313
mg,A,8,10,cycles,1877979525
mg,A,8,12,cycles,1875428060
mg,A,8,14,cycles,1875212245
mg,A,8,0,cycles,1194626741
mg,A,8,2,cycles,1109413477
mg,A,8,4,cycles,1109142970
mg,A,8,6,cycles,1109214172
mg,A,8,8,cycles,1109047712
mg,A,8,10,cycles,1109037378
mg,A,8,12,cycles,1111987331
mg,A,8,14,cycles,1108925850
mg,A,8,0,cycles,1960250863
mg,A,8,2,cycles,1876145232
mg,A,8,4,cycles,1876085662
mg,A,8,6,cycles,1878303498
mg,A,8,8,cycles,1875950465
mg,A,8,10,cycles,1875817934
mg,A,8,12,cycles,1875787563
mg,A,8,14,cycles,1875721470
mg,A,8,0,cycles,1962381791
mg,A,8,2,cycles,1877430109
mg,A,8,4,cycles,1877223309
mg,A,8,6,cycles,1877032087
mg,A,8,8,cycles,1877020533
mg,A,8,10,cycles,1876901580
mg,A,8,12,cycles,1876966402
mg,A,8,14,cycles,1876729477
mg,A,8,0,cycles,1958096378
mg,A,8,2,cycles,1874012560
mg,A,8,4,cycles,1873923225
mg,A,8,6,cycles,1873957568
mg,A,8,8,cycles,1873793965
mg,A,8,10,cycles,1873738626
mg,A,8,12,cycles,1873697076
mg,A,8,14,cycles,1873600796
mg,A,8,0,cycles,1960858476
mg,A,8,2,cycles,1874132052
mg,A,8,4,cycles,1874049237
mg,A,8,6,cycles,1874135853
mg,A,8,8,cycles,1873954777
mg,A,8,10,cycles,1873875029
mg,A,8,12,cycles,1873845306
mg,A,8,14,cycles,1873773315
mg,A,8,0,cycles,1980959199
mg,A,8,2,cycles,1895131533
mg,A,8,4,cycles,1895141872
mg,A,8,6,cycles,1894272894
mg,A,8,8,cycles,1902400185
mg,A,8,10,cycles,1894005275
mg,A,8,12,cycles,1893995232
mg,A,8,14,cycles,1894325585
