mg,A,2,0,L1-dcache-stores,690608068
mg,A,2,2,L1-dcache-stores,677290397
mg,A,2,0,L1-dcache-stores,690438952
mg,A,2,2,L1-dcache-stores,677373081
mg,A,2,0,L1-dcache-stores,690613692
mg,A,2,2,L1-dcache-stores,677585723
mg,A,2,0,L1-dcache-stores,690487419
mg,A,2,2,L1-dcache-stores,677363187
mg,A,2,0,L1-dcache-stores,690364673
mg,A,2,2,L1-dcache-stores,677349603
mg,A,2,0,L1-dcache-stores,690565359
mg,A,2,2,L1-dcache-stores,677337972
mg,A,2,0,L1-dcache-stores,690304259
mg,A,2,2,L1-dcache-stores,677393584
mg,A,2,0,L1-dcache-stores,690624849
mg,A,2,2,L1-dcache-stores,677318771
mg,A,2,0,L1-dcache-stores,690411379
mg,A,2,2,L1-dcache-stores,677323870
mg,A,2,0,L1-dcache-stores,690599481
mg,A,2,2,L1-dcache-stores,677300292
