mg,A,4,0,LLC-stores,9922014
mg,A,4,2,LLC-stores,9864100
mg,A,4,4,LLC-stores,9695456
mg,A,4,6,LLC-stores,9897625
mg,A,4,0,LLC-stores,11325446
mg,A,4,2,LLC-stores,11375930
mg,A,4,4,LLC-stores,11245463
mg,A,4,6,LLC-stores,11302450
mg,A,4,0,LLC-stores,11430037
mg,A,4,2,LLC-stores,11162239
mg,A,4,4,LLC-stores,11229000
mg,A,4,6,LLC-stores,11091304
mg,A,4,0,LLC-stores,11386636
mg,A,4,2,LLC-stores,11174844
mg,A,4,4,LLC-stores,11188766
mg,A,4,6,LLC-stores,11148452
mg,A,4,0,LLC-stores,11395637
mg,A,4,2,LLC-stores,11167702
mg,A,4,4,LLC-stores,11045192
mg,A,4,6,LLC-stores,11102337
mg,A,4,0,LLC-stores,11370640
mg,A,4,2,LLC-stores,11340464
mg,A,4,4,LLC-stores,11127490
mg,A,4,6,LLC-stores,11108131
mg,A,4,0,LLC-stores,10304696
mg,A,4,2,LLC-stores,9880966
mg,A,4,4,LLC-stores,9834895
mg,A,4,6,LLC-stores,9920347
mg,A,4,0,LLC-stores,11235537
mg,A,4,2,LLC-stores,11177155
mg,A,4,4,LLC-stores,11117797
mg,A,4,6,LLC-stores,11107723
mg,A,4,0,LLC-stores,11514337
mg,A,4,2,LLC-stores,11384638
mg,A,4,4,LLC-stores,11337819
mg,A,4,6,LLC-stores,11241535
mg,A,4,0,LLC-stores,11272044
mg,A,4,2,LLC-stores,11206575
mg,A,4,4,LLC-stores,11108286
mg,A,4,6,LLC-stores,11111531
