sp,A,2,0,L1-dcache-loads,30124913092
sp,A,2,2,L1-dcache-loads,30128743903
sp,A,2,0,L1-dcache-loads,30125227996
sp,A,2,2,L1-dcache-loads,30127576161
sp,A,2,0,L1-dcache-loads,30122229408
sp,A,2,2,L1-dcache-loads,30126129381
sp,A,2,0,L1-dcache-loads,30126245029
sp,A,2,2,L1-dcache-loads,30125416363
sp,A,2,0,L1-dcache-loads,30117688454
sp,A,2,2,L1-dcache-loads,30170609775
sp,A,2,0,L1-dcache-loads,30126050571
sp,A,2,2,L1-dcache-loads,30129368794
sp,A,2,0,L1-dcache-loads,30121232265
sp,A,2,2,L1-dcache-loads,30123710019
sp,A,2,0,L1-dcache-loads,30120176750
sp,A,2,2,L1-dcache-loads,30127954547
sp,A,2,0,L1-dcache-loads,30123369782
sp,A,2,2,L1-dcache-loads,30119893479
sp,A,2,0,L1-dcache-loads,30118279839
sp,A,2,2,L1-dcache-loads,30164962728
