sp,A,4,0,cycles,28063327847
sp,A,4,2,cycles,28051313260
sp,A,4,4,cycles,28050272855
sp,A,4,6,cycles,28049654552
sp,A,4,0,cycles,30842985707
sp,A,4,2,cycles,30834076778
sp,A,4,4,cycles,30829903186
sp,A,4,6,cycles,30829103122
sp,A,4,0,cycles,30859732528
sp,A,4,2,cycles,30844600981
sp,A,4,4,cycles,30843750582
sp,A,4,6,cycles,30842923478
sp,A,4,0,cycles,30911032099
sp,A,4,2,cycles,30899177398
sp,A,4,4,cycles,30898430929
sp,A,4,6,cycles,30896342137
sp,A,4,0,cycles,30769184845
sp,A,4,2,cycles,30757288937
sp,A,4,4,cycles,30756489984
sp,A,4,6,cycles,30755618716
sp,A,4,0,cycles,28079457571
sp,A,4,2,cycles,28064912391
sp,A,4,4,cycles,28063697349
sp,A,4,6,cycles,28062887997
sp,A,4,0,cycles,30799545438
sp,A,4,2,cycles,30787594060
sp,A,4,4,cycles,30788970173
sp,A,4,6,cycles,30785903180
sp,A,4,0,cycles,28097469719
sp,A,4,2,cycles,28085470818
sp,A,4,4,cycles,28084281926
sp,A,4,6,cycles,28083361351
sp,A,4,0,cycles,30832283723
sp,A,4,2,cycles,30820595191
sp,A,4,4,cycles,30819804150
sp,A,4,6,cycles,30819022447
sp,A,4,0,cycles,28107775229
sp,A,4,2,cycles,28095697288
sp,A,4,4,cycles,28094786196
sp,A,4,6,cycles,28093924540
