sp,A,2,0,L1-dcache-stores,12900529779
sp,A,2,2,L1-dcache-stores,12896005357
sp,A,2,0,L1-dcache-stores,12898732193
sp,A,2,2,L1-dcache-stores,12897955175
sp,A,2,0,L1-dcache-stores,12900059349
sp,A,2,2,L1-dcache-stores,12896396465
sp,A,2,0,L1-dcache-stores,12900030568
sp,A,2,2,L1-dcache-stores,12896345223
sp,A,2,0,L1-dcache-stores,12900865816
sp,A,2,2,L1-dcache-stores,12896249779
sp,A,2,0,L1-dcache-stores,12900530593
sp,A,2,2,L1-dcache-stores,12896542392
sp,A,2,0,L1-dcache-stores,12900827853
sp,A,2,2,L1-dcache-stores,12896297203
sp,A,2,0,L1-dcache-stores,12900940579
sp,A,2,2,L1-dcache-stores,12896313462
sp,A,2,0,L1-dcache-stores,12901169691
sp,A,2,2,L1-dcache-stores,12895988838
sp,A,2,0,L1-dcache-stores,12900877260
sp,A,2,2,L1-dcache-stores,12896045416
