sp,A,4,0,LLC-stores,76596053
sp,A,4,2,LLC-stores,77952313
sp,A,4,4,LLC-stores,75683358
sp,A,4,6,LLC-stores,74567603
sp,A,4,0,LLC-stores,77504786
sp,A,4,2,LLC-stores,77891891
sp,A,4,4,LLC-stores,74591637
sp,A,4,6,LLC-stores,75445797
sp,A,4,0,LLC-stores,78251026
sp,A,4,2,LLC-stores,77739245
sp,A,4,4,LLC-stores,74794594
sp,A,4,6,LLC-stores,75169982
sp,A,4,0,LLC-stores,78923059
sp,A,4,2,LLC-stores,77311529
sp,A,4,4,LLC-stores,74977620
sp,A,4,6,LLC-stores,74639045
sp,A,4,0,LLC-stores,79731111
sp,A,4,2,LLC-stores,77635172
sp,A,4,4,LLC-stores,75880684
sp,A,4,6,LLC-stores,75699349
sp,A,4,0,LLC-stores,77440751
sp,A,4,2,LLC-stores,77960032
sp,A,4,4,LLC-stores,75558556
sp,A,4,6,LLC-stores,74496206
sp,A,4,0,LLC-stores,73767765
sp,A,4,2,LLC-stores,73328163
sp,A,4,4,LLC-stores,70548495
sp,A,4,6,LLC-stores,69997175
sp,A,4,0,LLC-stores,79082793
sp,A,4,2,LLC-stores,77391934
sp,A,4,4,LLC-stores,74907823
sp,A,4,6,LLC-stores,74883548
sp,A,4,0,LLC-stores,78120761
sp,A,4,2,LLC-stores,78011185
sp,A,4,4,LLC-stores,75784310
sp,A,4,6,LLC-stores,75028647
sp,A,4,0,LLC-stores,78534331
sp,A,4,2,LLC-stores,78725553
sp,A,4,4,LLC-stores,75732789
sp,A,4,6,LLC-stores,74790787
