sp,A,8,0,L1-dcache-loads,7799679367
sp,A,8,2,L1-dcache-loads,7805069115
sp,A,8,4,L1-dcache-loads,7765509924
sp,A,8,6,L1-dcache-loads,7762647168
sp,A,8,8,L1-dcache-loads,7757362468
sp,A,8,10,L1-dcache-loads,7760452049
sp,A,8,12,L1-dcache-loads,6958190603
sp,A,8,14,L1-dcache-loads,6965972309
sp,A,8,0,L1-dcache-loads,7808987401
sp,A,8,2,L1-dcache-loads,7798942188
sp,A,8,4,L1-dcache-loads,7772439575
sp,A,8,6,L1-dcache-loads,7768157242
sp,A,8,8,L1-dcache-loads,7759912579
sp,A,8,10,L1-dcache-loads,7760113487
sp,A,8,12,L1-dcache-loads,6964448872
sp,A,8,14,L1-dcache-loads,6963355309
sp,A,8,0,L1-dcache-loads,7803044479
sp,A,8,2,L1-dcache-loads,7805846012
sp,A,8,4,L1-dcache-loads,7764312422
sp,A,8,6,L1-dcache-loads,7767549742
sp,A,8,8,L1-dcache-loads,7769566323
sp,A,8,10,L1-dcache-loads,7765162510
sp,A,8,12,L1-dcache-loads,6961107552
sp,A,8,14,L1-dcache-loads,6955970145
sp,A,8,0,L1-dcache-loads,7816579425
sp,A,8,2,L1-dcache-loads,7810967278
sp,A,8,4,L1-dcache-loads,7773622557
sp,A,8,6,L1-dcache-loads,7765095112
sp,A,8,8,L1-dcache-loads,7771391650
sp,A,8,10,L1-dcache-loads,7773098197
sp,A,8,12,L1-dcache-loads,6983217151
sp,A,8,14,L1-dcache-loads,6977349535
sp,A,8,0,L1-dcache-loads,7802027906
sp,A,8,2,L1-dcache-loads,7805880994
sp,A,8,4,L1-dcache-loads,7768728669
sp,A,8,6,L1-dcache-loads,7762594390
sp,A,8,8,L1-dcache-loads,7762721605
sp,A,8,10,L1-dcache-loads,7765493299
sp,A,8,12,L1-dcache-loads,6956004955
sp,A,8,14,L1-dcache-loads,6958261722
sp,A,8,0,L1-dcache-loads,7804658757
sp,A,8,2,L1-dcache-loads,7817301612
sp,A,8,4,L1-dcache-loads,7774988957
sp,A,8,6,L1-dcache-loads,7767813365
sp,A,8,8,L1-dcache-loads,7766503029
sp,A,8,10,L1-dcache-loads,7766890072
sp,A,8,12,L1-dcache-loads,6979431213
sp,A,8,14,L1-dcache-loads,6970590496
sp,A,8,0,L1-dcache-loads,7807558567
sp,A,8,2,L1-dcache-loads,7810917720
sp,A,8,4,L1-dcache-loads,7773913736
sp,A,8,6,L1-dcache-loads,7766643596
sp,A,8,8,L1-dcache-loads,7766911967
sp,A,8,10,L1-dcache-loads,7764451466
sp,A,8,12,L1-dcache-loads,6982224225
sp,A,8,14,L1-dcache-loads,6977236489
sp,A,8,0,L1-dcache-loads,7799727123
sp,A,8,2,L1-dcache-loads,7803737045
sp,A,8,4,L1-dcache-loads,7774843251
sp,A,8,6,L1-dcache-loads,7755156458
sp,A,8,8,L1-dcache-loads,7761970762
sp,A,8,10,L1-dcache-loads,7771802827
sp,A,8,12,L1-dcache-loads,6952037389
sp,A,8,14,L1-dcache-loads,6961994557
sp,A,8,0,L1-dcache-loads,7803213566
sp,A,8,2,L1-dcache-loads,7816036135
sp,A,8,4,L1-dcache-loads,7768654892
sp,A,8,6,L1-dcache-loads,7768267589
sp,A,8,8,L1-dcache-loads,7768514535
sp,A,8,10,L1-dcache-loads,7769411962
sp,A,8,12,L1-dcache-loads,6983714159
sp,A,8,14,L1-dcache-loads,6973340707
sp,A,8,0,L1-dcache-loads,7804263706
sp,A,8,2,L1-dcache-loads,7818626047
sp,A,8,4,L1-dcache-loads,7771094070
sp,A,8,6,L1-dcache-loads,7768989825
sp,A,8,8,L1-dcache-loads,7767082293
sp,A,8,10,L1-dcache-loads,7763206697
sp,A,8,12,L1-dcache-loads,6978391536
sp,A,8,14,L1-dcache-loads,6971670409
