sp,A,1,0,L1-dcache-loads,60227405089
sp,A,1,0,L1-dcache-loads,60225229940
sp,A,1,0,L1-dcache-loads,60227442520
sp,A,1,0,L1-dcache-loads,60226960054
sp,A,1,0,L1-dcache-loads,60227419630
sp,A,1,0,L1-dcache-loads,60226856075
sp,A,1,0,L1-dcache-loads,60227315547
sp,A,1,0,L1-dcache-loads,60226668205
sp,A,1,0,L1-dcache-loads,60227086436
sp,A,1,0,L1-dcache-loads,60227322525
