sp,A,8,0,LLC-stores,41513618
sp,A,8,2,LLC-stores,40343901
sp,A,8,4,LLC-stores,40523595
sp,A,8,6,LLC-stores,40528436
sp,A,8,8,LLC-stores,40434409
sp,A,8,10,LLC-stores,40746905
sp,A,8,12,LLC-stores,37605478
sp,A,8,14,LLC-stores,38105383
sp,A,8,0,LLC-stores,41144050
sp,A,8,2,LLC-stores,40441568
sp,A,8,4,LLC-stores,39976708
sp,A,8,6,LLC-stores,40318053
sp,A,8,8,LLC-stores,40756943
sp,A,8,10,LLC-stores,40171999
sp,A,8,12,LLC-stores,37873110
sp,A,8,14,LLC-stores,37900116
sp,A,8,0,LLC-stores,41375175
sp,A,8,2,LLC-stores,40640939
sp,A,8,4,LLC-stores,40501187
sp,A,8,6,LLC-stores,40651563
sp,A,8,8,LLC-stores,40765335
sp,A,8,10,LLC-stores,40259043
sp,A,8,12,LLC-stores,38416220
sp,A,8,14,LLC-stores,38085874
sp,A,8,0,LLC-stores,41796386
sp,A,8,2,LLC-stores,40391479
sp,A,8,4,LLC-stores,40650465
sp,A,8,6,LLC-stores,40801403
sp,A,8,8,LLC-stores,40871624
sp,A,8,10,LLC-stores,40689029
sp,A,8,12,LLC-stores,38585588
sp,A,8,14,LLC-stores,38208262
sp,A,8,0,LLC-stores,41328551
sp,A,8,2,LLC-stores,40909124
sp,A,8,4,LLC-stores,41028341
sp,A,8,6,LLC-stores,40619133
sp,A,8,8,LLC-stores,40863545
sp,A,8,10,LLC-stores,40743503
sp,A,8,12,LLC-stores,38105717
sp,A,8,14,LLC-stores,37994326
sp,A,8,0,LLC-stores,41732651
sp,A,8,2,LLC-stores,40857997
sp,A,8,4,LLC-stores,40443321
sp,A,8,6,LLC-stores,40435191
sp,A,8,8,LLC-stores,40440304
sp,A,8,10,LLC-stores,40013992
sp,A,8,12,LLC-stores,38337075
sp,A,8,14,LLC-stores,37967804
sp,A,8,0,LLC-stores,40877816
sp,A,8,2,LLC-stores,40195418
sp,A,8,4,LLC-stores,40125296
sp,A,8,6,LLC-stores,40616305
sp,A,8,8,LLC-stores,40793346
sp,A,8,10,LLC-stores,39945156
sp,A,8,12,LLC-stores,38145973
sp,A,8,14,LLC-stores,38229118
sp,A,8,0,LLC-stores,41541975
sp,A,8,2,LLC-stores,40870226
sp,A,8,4,LLC-stores,40872199
sp,A,8,6,LLC-stores,40419828
sp,A,8,8,LLC-stores,40507331
sp,A,8,10,LLC-stores,39735708
sp,A,8,12,LLC-stores,37794494
sp,A,8,14,LLC-stores,38500295
sp,A,8,0,LLC-stores,41591419
sp,A,8,2,LLC-stores,41313565
sp,A,8,4,LLC-stores,40789045
sp,A,8,6,LLC-stores,40992611
sp,A,8,8,LLC-stores,40828906
sp,A,8,10,LLC-stores,40654443
sp,A,8,12,LLC-stores,38409115
sp,A,8,14,LLC-stores,38197333
sp,A,8,0,LLC-stores,41202959
sp,A,8,2,LLC-stores,40631818
sp,A,8,4,LLC-stores,40391488
sp,A,8,6,LLC-stores,40377404
sp,A,8,8,LLC-stores,40368882
sp,A,8,10,LLC-stores,39948592
sp,A,8,12,LLC-stores,38162626
sp,A,8,14,LLC-stores,38355190
