sp,A,2,0,cycles,52799164530
sp,A,2,2,cycles,52783402073
sp,A,2,0,cycles,52820862199
sp,A,2,2,cycles,52807559251
sp,A,2,0,cycles,53922674868
sp,A,2,2,cycles,53908615293
sp,A,2,0,cycles,53929885693
sp,A,2,2,cycles,53915359916
sp,A,2,0,cycles,53991696431
sp,A,2,2,cycles,53981248531
sp,A,2,0,cycles,53834043930
sp,A,2,2,cycles,53817606239
sp,A,2,0,cycles,53653211199
sp,A,2,2,cycles,53640307873
sp,A,2,0,cycles,54037109016
sp,A,2,2,cycles,54024099522
sp,A,2,0,cycles,53799578997
sp,A,2,2,cycles,53789072303
sp,A,2,0,cycles,52673619487
sp,A,2,2,cycles,52659168307
