ua,A,8,0,L1-dcache-stores,2908108414
ua,A,8,2,L1-dcache-stores,2879963535
ua,A,8,4,L1-dcache-stores,2898366880
ua,A,8,6,L1-dcache-stores,2921886894
ua,A,8,8,L1-dcache-stores,2932509122
ua,A,8,10,L1-dcache-stores,2928400137
ua,A,8,12,L1-dcache-stores,2914194042
ua,A,8,14,L1-dcache-stores,2886608659
ua,A,8,0,L1-dcache-stores,2908331142
ua,A,8,2,L1-dcache-stores,2880270594
ua,A,8,4,L1-dcache-stores,2898088331
ua,A,8,6,L1-dcache-stores,2921627078
ua,A,8,8,L1-dcache-stores,2932417500
ua,A,8,10,L1-dcache-stores,2928112892
ua,A,8,12,L1-dcache-stores,2914134932
ua,A,8,14,L1-dcache-stores,2886664427
ua,A,8,0,L1-dcache-stores,2907941423
ua,A,8,2,L1-dcache-stores,2880064303
ua,A,8,4,L1-dcache-stores,2898281026
ua,A,8,6,L1-dcache-stores,2921646423
ua,A,8,8,L1-dcache-stores,2932539486
ua,A,8,10,L1-dcache-stores,2928179435
ua,A,8,12,L1-dcache-stores,2914320870
ua,A,8,14,L1-dcache-stores,2886845866
ua,A,8,0,L1-dcache-stores,2907834027
ua,A,8,2,L1-dcache-stores,2879931507
ua,A,8,4,L1-dcache-stores,2898603775
ua,A,8,6,L1-dcache-stores,2921751880
ua,A,8,8,L1-dcache-stores,2932677265
ua,A,8,10,L1-dcache-stores,2928167933
ua,A,8,12,L1-dcache-stores,2914467785
ua,A,8,14,L1-dcache-stores,2886782251
ua,A,8,0,L1-dcache-stores,2908774003
ua,A,8,2,L1-dcache-stores,2879996836
ua,A,8,4,L1-dcache-stores,2898291541
ua,A,8,6,L1-dcache-stores,2922054492
ua,A,8,8,L1-dcache-stores,2932464314
ua,A,8,10,L1-dcache-stores,2928181693
ua,A,8,12,L1-dcache-stores,2914208886
ua,A,8,14,L1-dcache-stores,2887050991
ua,A,8,0,L1-dcache-stores,2908913016
ua,A,8,2,L1-dcache-stores,2879983672
ua,A,8,4,L1-dcache-stores,2898185576
ua,A,8,6,L1-dcache-stores,2921788646
ua,A,8,8,L1-dcache-stores,2932771469
ua,A,8,10,L1-dcache-stores,2928151939
ua,A,8,12,L1-dcache-stores,2914325773
ua,A,8,14,L1-dcache-stores,2886880119
ua,A,8,0,L1-dcache-stores,2909200470
ua,A,8,2,L1-dcache-stores,2880015335
ua,A,8,4,L1-dcache-stores,2898255576
ua,A,8,6,L1-dcache-stores,2921873621
ua,A,8,8,L1-dcache-stores,2932428885
ua,A,8,10,L1-dcache-stores,2928106408
ua,A,8,12,L1-dcache-stores,2914137223
ua,A,8,14,L1-dcache-stores,2886670282
ua,A,8,0,L1-dcache-stores,2909070282
ua,A,8,2,L1-dcache-stores,2879983114
ua,A,8,4,L1-dcache-stores,2898227370
ua,A,8,6,L1-dcache-stores,2921800385
ua,A,8,8,L1-dcache-stores,2932551284
ua,A,8,10,L1-dcache-stores,2928593879
ua,A,8,12,L1-dcache-stores,2914156851
ua,A,8,14,L1-dcache-stores,2886702391
ua,A,8,0,L1-dcache-stores,2907985273
ua,A,8,2,L1-dcache-stores,2880037165
ua,A,8,4,L1-dcache-stores,2898118757
ua,A,8,6,L1-dcache-stores,2921605457
ua,A,8,8,L1-dcache-stores,2932625123
ua,A,8,10,L1-dcache-stores,2928140181
ua,A,8,12,L1-dcache-stores,2914303739
ua,A,8,14,L1-dcache-stores,2886682912
ua,A,8,0,L1-dcache-stores,2908314797
ua,A,8,2,L1-dcache-stores,2880019934
ua,A,8,4,L1-dcache-stores,2898328208
ua,A,8,6,L1-dcache-stores,2921711411
ua,A,8,8,L1-dcache-stores,2932842110
ua,A,8,10,L1-dcache-stores,2928130787
ua,A,8,12,L1-dcache-stores,2914145312
ua,A,8,14,L1-dcache-stores,2886676778
