ua,A,2,0,cycles,62936947770
ua,A,2,2,cycles,63260463234
ua,A,2,0,cycles,62902257815
ua,A,2,2,cycles,63242136559
ua,A,2,0,cycles,62964768292
ua,A,2,2,cycles,63276917027
ua,A,2,0,cycles,62923850762
ua,A,2,2,cycles,63235990945
ua,A,2,0,cycles,62908823456
ua,A,2,2,cycles,63242481027
ua,A,2,0,cycles,62946978535
ua,A,2,2,cycles,63270946397
ua,A,2,0,cycles,62906441663
ua,A,2,2,cycles,63217992865
ua,A,2,0,cycles,62915227007
ua,A,2,2,cycles,63238039436
ua,A,2,0,cycles,62950269989
ua,A,2,2,cycles,63271920683
ua,A,2,0,cycles,62929530115
ua,A,2,2,cycles,63247529869
