ua,A,4,0,cycles,33077280867
ua,A,4,2,cycles,33983311572
ua,A,4,4,cycles,34086928564
ua,A,4,6,cycles,33318746867
ua,A,4,0,cycles,33035268969
ua,A,4,2,cycles,33922050361
ua,A,4,4,cycles,34028315681
ua,A,4,6,cycles,33261762913
ua,A,4,0,cycles,33087184125
ua,A,4,2,cycles,33990450786
ua,A,4,4,cycles,34094277182
ua,A,4,6,cycles,33327619598
ua,A,4,0,cycles,33075523339
ua,A,4,2,cycles,33987601049
ua,A,4,4,cycles,34093482526
ua,A,4,6,cycles,33321280474
ua,A,4,0,cycles,33063232875
ua,A,4,2,cycles,33965067531
ua,A,4,4,cycles,34072286724
ua,A,4,6,cycles,33302664076
ua,A,4,0,cycles,33084237373
ua,A,4,2,cycles,33988138087
ua,A,4,4,cycles,34096130188
ua,A,4,6,cycles,33325366669
ua,A,4,0,cycles,33043400083
ua,A,4,2,cycles,33951619594
ua,A,4,4,cycles,34057609686
ua,A,4,6,cycles,33289156501
ua,A,4,0,cycles,33060963176
ua,A,4,2,cycles,33972888523
ua,A,4,4,cycles,34075501083
ua,A,4,6,cycles,33308674711
ua,A,4,0,cycles,33075743770
ua,A,4,2,cycles,33988788261
ua,A,4,4,cycles,34091911425
ua,A,4,6,cycles,33324989428
ua,A,4,0,cycles,33051168638
ua,A,4,2,cycles,33964836057
ua,A,4,4,cycles,34069986247
ua,A,4,6,cycles,33302917135
