ua,A,1,0,LLC-loads,914683422
ua,A,1,0,LLC-loads,914627718
ua,A,1,0,LLC-loads,916619652
ua,A,1,0,LLC-loads,907528726
ua,A,1,0,LLC-loads,910037877
ua,A,1,0,LLC-loads,907951181
ua,A,1,0,LLC-loads,908510519
ua,A,1,0,LLC-loads,918127373
ua,A,1,0,LLC-loads,899088742
ua,A,1,0,LLC-loads,919054381
