ua,A,2,0,LLC-stores,110121253
ua,A,2,2,LLC-stores,106615115
ua,A,2,0,LLC-stores,110426126
ua,A,2,2,LLC-stores,106991633
ua,A,2,0,LLC-stores,109588130
ua,A,2,2,LLC-stores,106158506
ua,A,2,0,LLC-stores,110301380
ua,A,2,2,LLC-stores,106887530
ua,A,2,0,LLC-stores,108816287
ua,A,2,2,LLC-stores,106181052
ua,A,2,0,LLC-stores,109609908
ua,A,2,2,LLC-stores,106606936
ua,A,2,0,LLC-stores,110865855
ua,A,2,2,LLC-stores,106922867
ua,A,2,0,LLC-stores,110168824
ua,A,2,2,LLC-stores,107035806
ua,A,2,0,LLC-stores,109879950
ua,A,2,2,LLC-stores,106608556
ua,A,2,0,LLC-stores,109682596
ua,A,2,2,LLC-stores,106468793
