ua,A,4,0,LLC-loads,231787139
ua,A,4,2,LLC-loads,233941519
ua,A,4,4,LLC-loads,236536004
ua,A,4,6,LLC-loads,237834198
ua,A,4,0,LLC-loads,231492433
ua,A,4,2,LLC-loads,233074392
ua,A,4,4,LLC-loads,234926881
ua,A,4,6,LLC-loads,238183100
ua,A,4,0,LLC-loads,232309951
ua,A,4,2,LLC-loads,234823958
ua,A,4,4,LLC-loads,233521643
ua,A,4,6,LLC-loads,240005215
ua,A,4,0,LLC-loads,233384402
ua,A,4,2,LLC-loads,233703787
ua,A,4,4,LLC-loads,235365347
ua,A,4,6,LLC-loads,238262703
ua,A,4,0,LLC-loads,232324735
ua,A,4,2,LLC-loads,235173077
ua,A,4,4,LLC-loads,235444721
ua,A,4,6,LLC-loads,237204912
ua,A,4,0,LLC-loads,230848552
ua,A,4,2,LLC-loads,232247932
ua,A,4,4,LLC-loads,233269216
ua,A,4,6,LLC-loads,237435111
ua,A,4,0,LLC-loads,231034643
ua,A,4,2,LLC-loads,231219553
ua,A,4,4,LLC-loads,231614750
ua,A,4,6,LLC-loads,234672405
ua,A,4,0,LLC-loads,231684669
ua,A,4,2,LLC-loads,232728181
ua,A,4,4,LLC-loads,235502157
ua,A,4,6,LLC-loads,236576123
ua,A,4,0,LLC-loads,230526540
ua,A,4,2,LLC-loads,230420553
ua,A,4,4,LLC-loads,231449006
ua,A,4,6,LLC-loads,234862069
ua,A,4,0,LLC-loads,227096784
ua,A,4,2,LLC-loads,231435442
ua,A,4,4,LLC-loads,231746879
ua,A,4,6,LLC-loads,235240030
