is,A,1,CPU-0,cycles,8211815815
is,A,1,CPU-0,cCycles,828354016
is,A,1,CPU-0,instrs,4499375441
is,A,1,CPU-0,uops,5467347860
is,A,1,CPU-0,bbls,456425438
is,A,1,CPU-0,approxInstrs,8390086
is,A,1,CPU-0,mispredBranches,41484
is,A,1,l1i_CPU-0,hGETS,56656
is,A,1,l1i_CPU-0,hGETX,0
is,A,1,l1i_CPU-0,mGETS,2417
is,A,1,l1i_CPU-0,mGETXIM,0
is,A,1,l1i_CPU-0,mGETXSM,0
is,A,1,l1i_CPU-0,PUTS,0
is,A,1,l1i_CPU-0,PUTX,0
is,A,1,l1i_CPU-0,INV,89 0
is,A,1,l1i_CPU-0,INVX,0
is,A,1,l1i_CPU-0,FWD,0
is,A,1,l1i_CPU-0,latGETnl,205390
is,A,1,l1i_CPU-0,latGETnet,0
is,A,1,l1d_CPU-0,hGETS,63585494
is,A,1,l1d_CPU-0,hGETX,108254111
is,A,1,l1d_CPU-0,mGETS,19203314
is,A,1,l1d_CPU-0,mGETXIM,39358783
is,A,1,l1d_CPU-0,mGETXSM,0
is,A,1,l1d_CPU-0,PUTS,0
is,A,1,l1d_CPU-0,PUTX,0
is,A,1,l1d_CPU-0,INV,0 4
is,A,1,l1d_CPU-0,INVX,4
is,A,1,l1d_CPU-0,FWD,0
is,A,1,l1d_CPU-0,latGETnl,2707048711
is,A,1,l1d_CPU-0,latGETnet,0
is,A,1,l2_CPU-0,hGETS,806003
is,A,1,l2_CPU-0,hGETX,31254055
is,A,1,l2_CPU-0,mGETS,18399728
is,A,1,l2_CPU-0,mGETXIM,8104728
is,A,1,l2_CPU-0,mGETXSM,0
is,A,1,l2_CPU-0,PUTS,18385730
is,A,1,l2_CPU-0,PUTX,40177671
is,A,1,l2_CPU-0,INV,0 0
is,A,1,l2_CPU-0,INVX,0
is,A,1,l2_CPU-0,FWD,0
is,A,1,l2_CPU-0,latGETnl,2004479917
is,A,1,l2_CPU-0,latGETnet,0
is,A,1,l3-0b0,hGETS,47084
is,A,1,l3-0b0,hGETX,48825
is,A,1,l3-0b0,mGETS,2252338
is,A,1,l3-0b0,mGETXIM,964086
is,A,1,l3-0b0,mGETXSM,0
is,A,1,l3-0b0,PUTS,2294094
is,A,1,l3-0b0,PUTX,1017711
is,A,1,l3-0b0,INV,0 0
is,A,1,l3-0b0,INVX,0
is,A,1,l3-0b0,FWD,0
is,A,1,l3-0b0,latGETnl,151171928
is,A,1,l3-0b0,latGETnet,0
is,A,1,l3-0b1,hGETS,48173
is,A,1,l3-0b1,hGETX,48932
is,A,1,l3-0b1,mGETS,2252256
is,A,1,l3-0b1,mGETXIM,964074
is,A,1,l3-0b1,mGETXSM,0
is,A,1,l3-0b1,PUTS,2294162
is,A,1,l3-0b1,PUTX,1018754
is,A,1,l3-0b1,INV,0 0
is,A,1,l3-0b1,INVX,0
is,A,1,l3-0b1,FWD,0
is,A,1,l3-0b1,latGETnl,151167510
is,A,1,l3-0b1,latGETnet,0
is,A,1,l3-0b2,hGETS,47387
is,A,1,l3-0b2,hGETX,48300
is,A,1,l3-0b2,mGETS,2252030
is,A,1,l3-0b2,mGETXIM,964031
is,A,1,l3-0b2,mGETXSM,0
is,A,1,l3-0b2,PUTS,2294169
is,A,1,l3-0b2,PUTX,1017080
is,A,1,l3-0b2,INV,0 0
is,A,1,l3-0b2,INVX,0
is,A,1,l3-0b2,FWD,0
is,A,1,l3-0b2,latGETnl,151154867
is,A,1,l3-0b2,latGETnet,0
is,A,1,l3-0b3,hGETS,47376
is,A,1,l3-0b3,hGETX,49337
is,A,1,l3-0b3,mGETS,2252217
is,A,1,l3-0b3,mGETXIM,964123
is,A,1,l3-0b3,mGETXSM,0
is,A,1,l3-0b3,PUTS,2294098
is,A,1,l3-0b3,PUTX,1018453
is,A,1,l3-0b3,INV,0 0
is,A,1,l3-0b3,INVX,0
is,A,1,l3-0b3,FWD,0
is,A,1,l3-0b3,latGETnl,151167980
is,A,1,l3-0b3,latGETnet,0
is,A,1,l3-0b4,hGETS,47901
is,A,1,l3-0b4,hGETX,49484
is,A,1,l3-0b4,mGETS,2252250
is,A,1,l3-0b4,mGETXIM,964094
is,A,1,l3-0b4,mGETXSM,0
is,A,1,l3-0b4,PUTS,2294113
is,A,1,l3-0b4,PUTX,1019098
is,A,1,l3-0b4,INV,0 0
is,A,1,l3-0b4,INVX,0
is,A,1,l3-0b4,FWD,0
is,A,1,l3-0b4,latGETnl,151168168
is,A,1,l3-0b4,latGETnet,0
is,A,1,l3-0b5,hGETS,47433
is,A,1,l3-0b5,hGETX,48691
is,A,1,l3-0b5,mGETS,2252153
is,A,1,l3-0b5,mGETXIM,964109
is,A,1,l3-0b5,mGETXSM,0
is,A,1,l3-0b5,PUTS,2294172
is,A,1,l3-0b5,PUTX,1017709
is,A,1,l3-0b5,INV,0 0
is,A,1,l3-0b5,INVX,0
is,A,1,l3-0b5,FWD,0
is,A,1,l3-0b5,latGETnl,151164314
is,A,1,l3-0b5,latGETnet,0
is,A,1,l3-0b6,hGETS,48310
is,A,1,l3-0b6,hGETX,48951
is,A,1,l3-0b6,mGETS,2252283
is,A,1,l3-0b6,mGETXIM,964221
is,A,1,l3-0b6,mGETXSM,0
is,A,1,l3-0b6,PUTS,2294105
is,A,1,l3-0b6,PUTX,1019152
is,A,1,l3-0b6,INV,0 0
is,A,1,l3-0b6,INVX,0
is,A,1,l3-0b6,FWD,0
is,A,1,l3-0b6,latGETnl,151175688
is,A,1,l3-0b6,latGETnet,0
is,A,1,l3-0b7,hGETS,48293
is,A,1,l3-0b7,hGETX,49208
is,A,1,l3-0b7,mGETS,2252244
is,A,1,l3-0b7,mGETXIM,964262
is,A,1,l3-0b7,mGETXSM,0
is,A,1,l3-0b7,PUTS,2294129
is,A,1,l3-0b7,PUTX,1019361
is,A,1,l3-0b7,INV,0 0
is,A,1,l3-0b7,INVX,0
is,A,1,l3-0b7,FWD,0
is,A,1,l3-0b7,latGETnl,151175782
is,A,1,l3-0b7,latGETnet,0
