bt,A,1,cycles,155558912319
bt,A,1,L1-dcache-loads,102979180620
bt,A,1,L1-dcache-load-misses,7136567407
bt,A,1,L1-dcache-stores,52306156029
bt,A,1,LLC-loads,648675632
bt,A,1,LLC-load-misses,211946719
bt,A,1,LLC-stores,74261577
bt,A,1,offcore-requests-demand-rfo,41579300
bt,A,1,l2-rqsts-all-rfo,2390658459
bt,A,1,l2-rqsts-rfo-miss,31819903
bt,A,1,l2-store-lock-rqsts-all,2387491339
bt,A,1,l2-store-lock-rqsts-miss,41941390
bt,A,1,l2-trans-rfo,2400028143
bt,A,1,offcore-requests-outstanding-demand-rfo,10988752762
bt,A,1,offcore-response-demand-rfo-llc-hit-hitm-other-core,172
bt,A,1,offcore-response-demand-rfo-llc-miss-remote-hitm,2016
bt,A,1,offcore-response-all-reads-llc-hit-any-response,947520603
bt,A,1,offcore-response-all-reads-llc-miss-any-response,646915274
bt,A,2,cycles,158987755075
bt,A,2,L1-dcache-loads,102983528990
bt,A,2,L1-dcache-load-misses,7136996627
bt,A,2,L1-dcache-stores,52305467481
bt,A,2,LLC-loads,673556487
bt,A,2,LLC-load-misses,233749606
bt,A,2,LLC-stores,88876216
bt,A,2,offcore-requests-demand-rfo,59278870
bt,A,2,l2-rqsts-all-rfo,2395297999
bt,A,2,l2-rqsts-rfo-miss,43229564
bt,A,2,l2-store-lock-rqsts-all,2396335066
bt,A,2,l2-store-lock-rqsts-miss,41381743
bt,A,2,l2-trans-rfo,2407792112
bt,A,2,offcore-requests-outstanding-demand-rfo,13768081446
bt,A,2,offcore-response-demand-rfo-llc-hit-hitm-other-core,19321
bt,A,2,offcore-response-demand-rfo-llc-miss-remote-hitm,28384
bt,A,2,offcore-response-all-reads-llc-hit-any-response,1008889410
bt,A,2,offcore-response-all-reads-llc-miss-any-response,649893690
bt,A,4,cycles,167203883023
bt,A,4,L1-dcache-loads,103366457035
bt,A,4,L1-dcache-load-misses,7122308390
bt,A,4,L1-dcache-stores,52307607835
bt,A,4,LLC-loads,742530885
bt,A,4,LLC-load-misses,262923839
bt,A,4,LLC-stores,94888913
bt,A,4,offcore-requests-demand-rfo,52187959
bt,A,4,l2-rqsts-all-rfo,2399268965
bt,A,4,l2-rqsts-rfo-miss,48707897
bt,A,4,l2-store-lock-rqsts-all,2399088420
bt,A,4,l2-store-lock-rqsts-miss,36532606
bt,A,4,l2-trans-rfo,2417774281
bt,A,4,offcore-requests-outstanding-demand-rfo,21596935323
bt,A,4,offcore-response-demand-rfo-llc-hit-hitm-other-core,29861
bt,A,4,offcore-response-demand-rfo-llc-miss-remote-hitm,25790
bt,A,4,offcore-response-all-reads-llc-hit-any-response,1065253039
bt,A,4,offcore-response-all-reads-llc-miss-any-response,646718830
bt,A,8,cycles,181953978417
bt,A,8,L1-dcache-loads,103540242481
bt,A,8,L1-dcache-load-misses,7124530410
bt,A,8,L1-dcache-stores,52308600086
bt,A,8,LLC-loads,910576058
bt,A,8,LLC-load-misses,321695155
bt,A,8,LLC-stores,96795044
bt,A,8,offcore-requests-demand-rfo,54728440
bt,A,8,l2-rqsts-all-rfo,2402839435
bt,A,8,l2-rqsts-rfo-miss,50128065
bt,A,8,l2-store-lock-rqsts-all,2401936247
bt,A,8,l2-store-lock-rqsts-miss,35428845
bt,A,8,l2-trans-rfo,2467922298
bt,A,8,offcore-requests-outstanding-demand-rfo,29045603155
bt,A,8,offcore-response-demand-rfo-llc-hit-hitm-other-core,50695
bt,A,8,offcore-response-demand-rfo-llc-miss-remote-hitm,22816
bt,A,8,offcore-response-all-reads-llc-hit-any-response,1126750776
bt,A,8,offcore-response-all-reads-llc-miss-any-response,649394874
