bt,A,1,cycles,155478740833
bt,A,1,L1-dcache-loads,102979747179
bt,A,1,L1-dcache-load-misses,7136678265
bt,A,1,L1-dcache-stores,52306074100
bt,A,1,LLC-loads,679325547
bt,A,1,LLC-load-misses,231463618
bt,A,1,LLC-stores,75439733
bt,A,1,offcore-requests-demand-rfo,42111677
bt,A,1,l2-rqsts-all-rfo,2388219794
bt,A,1,l2-rqsts-rfo-miss,32570661
bt,A,1,l2-store-lock-rqsts-all,2386529831
bt,A,1,l2-store-lock-rqsts-miss,35206510
bt,A,1,l2-trans-rfo,2397733292
bt,A,1,offcore-requests-outstanding-demand-rfo,13977617382
bt,A,1,offcore-response-demand-rfo-llc-hit-hitm-other-core,212
bt,A,1,offcore-response-demand-rfo-llc-miss-remote-hitm,1686
bt,A,1,offcore-response-all-reads-llc-hit-any-response,950758990
bt,A,1,offcore-response-all-reads-llc-miss-any-response,650550064
bt,A,2,cycles,157794453980
bt,A,2,L1-dcache-loads,103002538835
bt,A,2,L1-dcache-load-misses,7126319334
bt,A,2,L1-dcache-stores,52305830722
bt,A,2,LLC-loads,670665578
bt,A,2,LLC-load-misses,228787144
bt,A,2,LLC-stores,98048429
bt,A,2,offcore-requests-demand-rfo,51065318
bt,A,2,l2-rqsts-all-rfo,2393449525
bt,A,2,l2-rqsts-rfo-miss,48491131
bt,A,2,l2-store-lock-rqsts-all,2397033991
bt,A,2,l2-store-lock-rqsts-miss,43762517
bt,A,2,l2-trans-rfo,2407426252
bt,A,2,offcore-requests-outstanding-demand-rfo,16189598070
bt,A,2,offcore-response-demand-rfo-llc-hit-hitm-other-core,21463
bt,A,2,offcore-response-demand-rfo-llc-miss-remote-hitm,30545
bt,A,2,offcore-response-all-reads-llc-hit-any-response,982142310
bt,A,2,offcore-response-all-reads-llc-miss-any-response,648906758
bt,A,4,cycles,166985133029
bt,A,4,L1-dcache-loads,103389270218
bt,A,4,L1-dcache-load-misses,7129582576
bt,A,4,L1-dcache-stores,52307330053
bt,A,4,LLC-loads,756048742
bt,A,4,LLC-load-misses,266300118
bt,A,4,LLC-stores,98551938
bt,A,4,offcore-requests-demand-rfo,53989453
bt,A,4,l2-rqsts-all-rfo,2398944080
bt,A,4,l2-rqsts-rfo-miss,45454420
bt,A,4,l2-store-lock-rqsts-all,2399709062
bt,A,4,l2-store-lock-rqsts-miss,39118429
bt,A,4,l2-trans-rfo,2417179326
bt,A,4,offcore-requests-outstanding-demand-rfo,18343146235
bt,A,4,offcore-response-demand-rfo-llc-hit-hitm-other-core,35995
bt,A,4,offcore-response-demand-rfo-llc-miss-remote-hitm,24976
bt,A,4,offcore-response-all-reads-llc-hit-any-response,1043135175
bt,A,4,offcore-response-all-reads-llc-miss-any-response,648626097
bt,A,8,cycles,181406794483
bt,A,8,L1-dcache-loads,103507468253
bt,A,8,L1-dcache-load-misses,7129844951
bt,A,8,L1-dcache-stores,52308278858
bt,A,8,LLC-loads,913731889
bt,A,8,LLC-load-misses,328746244
bt,A,8,LLC-stores,96919772
bt,A,8,offcore-requests-demand-rfo,56542597
bt,A,8,l2-rqsts-all-rfo,2402266711
bt,A,8,l2-rqsts-rfo-miss,50246490
bt,A,8,l2-store-lock-rqsts-all,2402859259
bt,A,8,l2-store-lock-rqsts-miss,41699600
bt,A,8,l2-trans-rfo,2469060490
bt,A,8,offcore-requests-outstanding-demand-rfo,28159960261
bt,A,8,offcore-response-demand-rfo-llc-hit-hitm-other-core,50761
bt,A,8,offcore-response-demand-rfo-llc-miss-remote-hitm,23562
bt,A,8,offcore-response-all-reads-llc-hit-any-response,1110938755
bt,A,8,offcore-response-all-reads-llc-miss-any-response,656174040
