bt,A,1,cycles,155736068315
bt,A,1,L1-dcache-loads,102979876944
bt,A,1,L1-dcache-load-misses,7133486587
bt,A,1,L1-dcache-stores,52305701378
bt,A,1,LLC-loads,642405627
bt,A,1,LLC-load-misses,212054784
bt,A,1,LLC-stores,83299584
bt,A,1,offcore-requests-demand-rfo,104792999
bt,A,1,l2-rqsts-all-rfo,2389618504
bt,A,1,l2-rqsts-rfo-miss,32735016
bt,A,1,l2-store-lock-rqsts-all,2388023774
bt,A,1,l2-store-lock-rqsts-miss,33487816
bt,A,1,l2-trans-rfo,2398381821
bt,A,1,offcore-requests-outstanding-demand-rfo,10579322686
bt,A,1,offcore-response-demand-rfo-llc-hit-hitm-other-core,174
bt,A,1,offcore-response-demand-rfo-llc-miss-remote-hitm,1537
bt,A,1,offcore-response-all-reads-llc-hit-any-response,980648666
bt,A,1,offcore-response-all-reads-llc-miss-any-response,649824376
bt,A,2,cycles,157815706966
bt,A,2,L1-dcache-loads,103074017304
bt,A,2,L1-dcache-load-misses,7112074902
bt,A,2,L1-dcache-stores,52306226443
bt,A,2,LLC-loads,671828083
bt,A,2,LLC-load-misses,236216888
bt,A,2,LLC-stores,87273888
bt,A,2,offcore-requests-demand-rfo,50613098
bt,A,2,l2-rqsts-all-rfo,2393793351
bt,A,2,l2-rqsts-rfo-miss,41178920
bt,A,2,l2-store-lock-rqsts-all,2394752991
bt,A,2,l2-store-lock-rqsts-miss,37157776
bt,A,2,l2-trans-rfo,2405768413
bt,A,2,offcore-requests-outstanding-demand-rfo,17859087929
bt,A,2,offcore-response-demand-rfo-llc-hit-hitm-other-core,21011
bt,A,2,offcore-response-demand-rfo-llc-miss-remote-hitm,32728
bt,A,2,offcore-response-all-reads-llc-hit-any-response,997612110
bt,A,2,offcore-response-all-reads-llc-miss-any-response,649725066
bt,A,4,cycles,166095566629
bt,A,4,L1-dcache-loads,103308670386
bt,A,4,L1-dcache-load-misses,7141183363
bt,A,4,L1-dcache-stores,52306755327
bt,A,4,LLC-loads,772589137
bt,A,4,LLC-load-misses,266694593
bt,A,4,LLC-stores,100300659
bt,A,4,offcore-requests-demand-rfo,53266690
bt,A,4,l2-rqsts-all-rfo,2398874511
bt,A,4,l2-rqsts-rfo-miss,46012298
bt,A,4,l2-store-lock-rqsts-all,2399895023
bt,A,4,l2-store-lock-rqsts-miss,33224775
bt,A,4,l2-trans-rfo,2419182279
bt,A,4,offcore-requests-outstanding-demand-rfo,20021224822
bt,A,4,offcore-response-demand-rfo-llc-hit-hitm-other-core,37728
bt,A,4,offcore-response-demand-rfo-llc-miss-remote-hitm,25196
bt,A,4,offcore-response-all-reads-llc-hit-any-response,1076086716
bt,A,4,offcore-response-all-reads-llc-miss-any-response,646876243
bt,A,8,cycles,182077633234
bt,A,8,L1-dcache-loads,103523126775
bt,A,8,L1-dcache-load-misses,7141701310
bt,A,8,L1-dcache-stores,52308212102
bt,A,8,LLC-loads,905939148
bt,A,8,LLC-load-misses,327072791
bt,A,8,LLC-stores,98433842
bt,A,8,offcore-requests-demand-rfo,62322844
bt,A,8,l2-rqsts-all-rfo,2402276164
bt,A,8,l2-rqsts-rfo-miss,46121176
bt,A,8,l2-store-lock-rqsts-all,2401742517
bt,A,8,l2-store-lock-rqsts-miss,36215156
bt,A,8,l2-trans-rfo,2473507099
bt,A,8,offcore-requests-outstanding-demand-rfo,33111379323
bt,A,8,offcore-response-demand-rfo-llc-hit-hitm-other-core,56121
bt,A,8,offcore-response-demand-rfo-llc-miss-remote-hitm,24611
bt,A,8,offcore-response-all-reads-llc-hit-any-response,1137011554
bt,A,8,offcore-response-all-reads-llc-miss-any-response,652038887
