cg,A,1,cycles,5235727873
cg,A,1,L1-dcache-loads,2770078568
cg,A,1,L1-dcache-load-misses,748013616
cg,A,1,L1-dcache-stores,177959865
cg,A,1,LLC-loads,488600404
cg,A,1,LLC-load-misses,28731935
cg,A,1,LLC-stores,1472604
cg,A,1,offcore-requests-demand-rfo,1468253
cg,A,1,l2-rqsts-all-rfo,2032584
cg,A,1,l2-rqsts-rfo-miss,1460492
cg,A,1,l2-store-lock-rqsts-all,2033703
cg,A,1,l2-store-lock-rqsts-miss,1450970
cg,A,1,l2-trans-rfo,2064765
cg,A,1,offcore-requests-outstanding-demand-rfo,3738435545
cg,A,1,offcore-response-demand-rfo-llc-hit-hitm-other-core,41
cg,A,1,offcore-response-demand-rfo-llc-miss-remote-hitm,141
cg,A,1,offcore-response-all-reads-llc-hit-any-response,676742756
cg,A,1,offcore-response-all-reads-llc-miss-any-response,58139278
cg,A,2,cycles,4374334979
cg,A,2,L1-dcache-loads,2774421376
cg,A,2,L1-dcache-load-misses,749276853
cg,A,2,L1-dcache-stores,178810260
cg,A,2,LLC-loads,149545241
cg,A,2,LLC-load-misses,19455424
cg,A,2,LLC-stores,1774908
cg,A,2,offcore-requests-demand-rfo,1613467
cg,A,2,l2-rqsts-all-rfo,2196882
cg,A,2,l2-rqsts-rfo-miss,1550020
cg,A,2,l2-store-lock-rqsts-all,2201822
cg,A,2,l2-store-lock-rqsts-miss,1449586
cg,A,2,l2-trans-rfo,2278538
cg,A,2,offcore-requests-outstanding-demand-rfo,1473446229
cg,A,2,offcore-response-demand-rfo-llc-hit-hitm-other-core,16288
cg,A,2,offcore-response-demand-rfo-llc-miss-remote-hitm,1045
cg,A,2,offcore-response-all-reads-llc-hit-any-response,277093226
cg,A,2,offcore-response-all-reads-llc-miss-any-response,63476154
cg,A,4,cycles,4580145945
cg,A,4,L1-dcache-loads,2784995380
cg,A,4,L1-dcache-load-misses,749594915
cg,A,4,L1-dcache-stores,180704201
cg,A,4,LLC-loads,221365572
cg,A,4,LLC-load-misses,20183545
cg,A,4,LLC-stores,1905077
cg,A,4,offcore-requests-demand-rfo,1738344
cg,A,4,l2-rqsts-all-rfo,2349726
cg,A,4,l2-rqsts-rfo-miss,1611153
cg,A,4,l2-store-lock-rqsts-all,2306948
cg,A,4,l2-store-lock-rqsts-miss,1412688
cg,A,4,l2-trans-rfo,2420057
cg,A,4,offcore-requests-outstanding-demand-rfo,1133954347
cg,A,4,offcore-response-demand-rfo-llc-hit-hitm-other-core,23358
cg,A,4,offcore-response-demand-rfo-llc-miss-remote-hitm,787
cg,A,4,offcore-response-all-reads-llc-hit-any-response,265387717
cg,A,4,offcore-response-all-reads-llc-miss-any-response,63530275
cg,A,8,cycles,4882696634
cg,A,8,L1-dcache-loads,2802063475
cg,A,8,L1-dcache-load-misses,749435237
cg,A,8,L1-dcache-stores,184484013
cg,A,8,LLC-loads,146918529
cg,A,8,LLC-load-misses,23342104
cg,A,8,LLC-stores,2109343
cg,A,8,offcore-requests-demand-rfo,1762785
cg,A,8,l2-rqsts-all-rfo,2463783
cg,A,8,l2-rqsts-rfo-miss,1737139
cg,A,8,l2-store-lock-rqsts-all,2440708
cg,A,8,l2-store-lock-rqsts-miss,1466134
cg,A,8,l2-trans-rfo,2575484
cg,A,8,offcore-requests-outstanding-demand-rfo,557362178
cg,A,8,offcore-response-demand-rfo-llc-hit-hitm-other-core,41910
cg,A,8,offcore-response-demand-rfo-llc-miss-remote-hitm,974
cg,A,8,offcore-response-all-reads-llc-hit-any-response,246510892
cg,A,8,offcore-response-all-reads-llc-miss-any-response,62082362
