cg,A,1,cycles,5228617940
cg,A,1,L1-dcache-loads,2770076488
cg,A,1,L1-dcache-load-misses,748017534
cg,A,1,L1-dcache-stores,177990906
cg,A,1,LLC-loads,488532119
cg,A,1,LLC-load-misses,30159512
cg,A,1,LLC-stores,1482303
cg,A,1,offcore-requests-demand-rfo,1479398
cg,A,1,l2-rqsts-all-rfo,2030183
cg,A,1,l2-rqsts-rfo-miss,1462186
cg,A,1,l2-store-lock-rqsts-all,2043541
cg,A,1,l2-store-lock-rqsts-miss,1464297
cg,A,1,l2-trans-rfo,2067344
cg,A,1,offcore-requests-outstanding-demand-rfo,1298725895
cg,A,1,offcore-response-demand-rfo-llc-hit-hitm-other-core,870
cg,A,1,offcore-response-demand-rfo-llc-miss-remote-hitm,67
cg,A,1,offcore-response-all-reads-llc-hit-any-response,693120738
cg,A,1,offcore-response-all-reads-llc-miss-any-response,61250489
cg,A,2,cycles,4584085851
cg,A,2,L1-dcache-loads,2774422275
cg,A,2,L1-dcache-load-misses,749585539
cg,A,2,L1-dcache-stores,178822912
cg,A,2,LLC-loads,174821706
cg,A,2,LLC-load-misses,25023889
cg,A,2,LLC-stores,1782344
cg,A,2,offcore-requests-demand-rfo,1654594
cg,A,2,l2-rqsts-all-rfo,2252630
cg,A,2,l2-rqsts-rfo-miss,1624400
cg,A,2,l2-store-lock-rqsts-all,2227397
cg,A,2,l2-store-lock-rqsts-miss,1385957
cg,A,2,l2-trans-rfo,2310321
cg,A,2,offcore-requests-outstanding-demand-rfo,535651351
cg,A,2,offcore-response-demand-rfo-llc-hit-hitm-other-core,16253
cg,A,2,offcore-response-demand-rfo-llc-miss-remote-hitm,990
cg,A,2,offcore-response-all-reads-llc-hit-any-response,357632229
cg,A,2,offcore-response-all-reads-llc-miss-any-response,60301732
cg,A,4,cycles,4704999355
cg,A,4,L1-dcache-loads,2784510468
cg,A,4,L1-dcache-load-misses,749688051
cg,A,4,L1-dcache-stores,180681986
cg,A,4,LLC-loads,157483649
cg,A,4,LLC-load-misses,20878701
cg,A,4,LLC-stores,1929702
cg,A,4,offcore-requests-demand-rfo,1675195
cg,A,4,l2-rqsts-all-rfo,2331913
cg,A,4,l2-rqsts-rfo-miss,1708263
cg,A,4,l2-store-lock-rqsts-all,2326826
cg,A,4,l2-store-lock-rqsts-miss,1440915
cg,A,4,l2-trans-rfo,2406635
cg,A,4,offcore-requests-outstanding-demand-rfo,996396964
cg,A,4,offcore-response-demand-rfo-llc-hit-hitm-other-core,23629
cg,A,4,offcore-response-demand-rfo-llc-miss-remote-hitm,667
cg,A,4,offcore-response-all-reads-llc-hit-any-response,295668411
cg,A,4,offcore-response-all-reads-llc-miss-any-response,61821784
cg,A,8,cycles,4879746275
cg,A,8,L1-dcache-loads,2802149544
cg,A,8,L1-dcache-load-misses,749249365
cg,A,8,L1-dcache-stores,184476472
cg,A,8,LLC-loads,164551810
cg,A,8,LLC-load-misses,24046298
cg,A,8,LLC-stores,1990201
cg,A,8,offcore-requests-demand-rfo,1787036
cg,A,8,l2-rqsts-all-rfo,2454142
cg,A,8,l2-rqsts-rfo-miss,1715314
cg,A,8,l2-store-lock-rqsts-all,2436888
cg,A,8,l2-store-lock-rqsts-miss,1483805
cg,A,8,l2-trans-rfo,2579864
cg,A,8,offcore-requests-outstanding-demand-rfo,1313864878
cg,A,8,offcore-response-demand-rfo-llc-hit-hitm-other-core,41558
cg,A,8,offcore-response-demand-rfo-llc-miss-remote-hitm,823
cg,A,8,offcore-response-all-reads-llc-hit-any-response,291063060
cg,A,8,offcore-response-all-reads-llc-miss-any-response,58555893
