cg,A,1,cycles,5247213242
cg,A,1,L1-dcache-loads,2770081886
cg,A,1,L1-dcache-load-misses,748309579
cg,A,1,L1-dcache-stores,177973667
cg,A,1,LLC-loads,488658595
cg,A,1,LLC-load-misses,30646584
cg,A,1,LLC-stores,1478987
cg,A,1,offcore-requests-demand-rfo,1468978
cg,A,1,l2-rqsts-all-rfo,2031237
cg,A,1,l2-rqsts-rfo-miss,1460722
cg,A,1,l2-store-lock-rqsts-all,2039596
cg,A,1,l2-store-lock-rqsts-miss,1465563
cg,A,1,l2-trans-rfo,2069961
cg,A,1,offcore-requests-outstanding-demand-rfo,256867661
cg,A,1,offcore-response-demand-rfo-llc-hit-hitm-other-core,126
cg,A,1,offcore-response-demand-rfo-llc-miss-remote-hitm,686
cg,A,1,offcore-response-all-reads-llc-hit-any-response,674438495
cg,A,1,offcore-response-all-reads-llc-miss-any-response,63618647
cg,A,2,cycles,4529169807
cg,A,2,L1-dcache-loads,2774696001
cg,A,2,L1-dcache-load-misses,749632985
cg,A,2,L1-dcache-stores,178850682
cg,A,2,LLC-loads,149651568
cg,A,2,LLC-load-misses,26919490
cg,A,2,LLC-stores,1784508
cg,A,2,offcore-requests-demand-rfo,1603077
cg,A,2,l2-rqsts-all-rfo,2223451
cg,A,2,l2-rqsts-rfo-miss,1602885
cg,A,2,l2-store-lock-rqsts-all,2204414
cg,A,2,l2-store-lock-rqsts-miss,1354235
cg,A,2,l2-trans-rfo,2300427
cg,A,2,offcore-requests-outstanding-demand-rfo,392889938
cg,A,2,offcore-response-demand-rfo-llc-hit-hitm-other-core,15611
cg,A,2,offcore-response-demand-rfo-llc-miss-remote-hitm,1378
cg,A,2,offcore-response-all-reads-llc-hit-any-response,225592039
cg,A,2,offcore-response-all-reads-llc-miss-any-response,65516233
cg,A,4,cycles,4622190094
cg,A,4,L1-dcache-loads,2784908067
cg,A,4,L1-dcache-load-misses,749819328
cg,A,4,L1-dcache-stores,180744175
cg,A,4,LLC-loads,146012125
cg,A,4,LLC-load-misses,21558499
cg,A,4,LLC-stores,1957783
cg,A,4,offcore-requests-demand-rfo,1725784
cg,A,4,l2-rqsts-all-rfo,2337365
cg,A,4,l2-rqsts-rfo-miss,1702771
cg,A,4,l2-store-lock-rqsts-all,2330850
cg,A,4,l2-store-lock-rqsts-miss,1440545
cg,A,4,l2-trans-rfo,2405772
cg,A,4,offcore-requests-outstanding-demand-rfo,627061974
cg,A,4,offcore-response-demand-rfo-llc-hit-hitm-other-core,23369
cg,A,4,offcore-response-demand-rfo-llc-miss-remote-hitm,791
cg,A,4,offcore-response-all-reads-llc-hit-any-response,343483645
cg,A,4,offcore-response-all-reads-llc-miss-any-response,63009790
cg,A,8,cycles,4880209526
cg,A,8,L1-dcache-loads,2801534715
cg,A,8,L1-dcache-load-misses,749366858
cg,A,8,L1-dcache-stores,184513796
cg,A,8,LLC-loads,150747103
cg,A,8,LLC-load-misses,28743194
cg,A,8,LLC-stores,2042150
cg,A,8,offcore-requests-demand-rfo,1801042
cg,A,8,l2-rqsts-all-rfo,2457373
cg,A,8,l2-rqsts-rfo-miss,1723914
cg,A,8,l2-store-lock-rqsts-all,2427562
cg,A,8,l2-store-lock-rqsts-miss,1479229
cg,A,8,l2-trans-rfo,2576676
cg,A,8,offcore-requests-outstanding-demand-rfo,1008859586
cg,A,8,offcore-response-demand-rfo-llc-hit-hitm-other-core,41090
cg,A,8,offcore-response-demand-rfo-llc-miss-remote-hitm,764
cg,A,8,offcore-response-all-reads-llc-hit-any-response,258996607
cg,A,8,offcore-response-all-reads-llc-miss-any-response,59181554
