cg,A,1,cycles,5371920880
cg,A,1,L1-dcache-loads,2770089702
cg,A,1,L1-dcache-load-misses,749390780
cg,A,1,L1-dcache-stores,177847370
cg,A,1,LLC-loads,293635999
cg,A,1,LLC-load-misses,33508493
cg,A,1,LLC-stores,1423407
cg,A,1,offcore-requests-demand-rfo,1476844
cg,A,1,l2-rqsts-all-rfo,2041394
cg,A,1,l2-rqsts-rfo-miss,1445568
cg,A,1,l2-store-lock-rqsts-all,2034143
cg,A,1,l2-store-lock-rqsts-miss,1402018
cg,A,1,l2-trans-rfo,2053910
cg,A,1,offcore-requests-outstanding-demand-rfo,256817070
cg,A,1,offcore-response-demand-rfo-llc-hit-hitm-other-core,47
cg,A,1,offcore-response-demand-rfo-llc-miss-remote-hitm,112
cg,A,1,offcore-response-all-reads-llc-hit-any-response,470643427
cg,A,1,offcore-response-all-reads-llc-miss-any-response,63333785
cg,A,2,cycles,4422781264
cg,A,2,L1-dcache-loads,2774418988
cg,A,2,L1-dcache-load-misses,749606523
cg,A,2,L1-dcache-stores,178785762
cg,A,2,LLC-loads,145420529
cg,A,2,LLC-load-misses,25291614
cg,A,2,LLC-stores,1749879
cg,A,2,offcore-requests-demand-rfo,1590931
cg,A,2,l2-rqsts-all-rfo,2256804
cg,A,2,l2-rqsts-rfo-miss,1644352
cg,A,2,l2-store-lock-rqsts-all,2207947
cg,A,2,l2-store-lock-rqsts-miss,1404996
cg,A,2,l2-trans-rfo,2272040
cg,A,2,offcore-requests-outstanding-demand-rfo,454606315
cg,A,2,offcore-response-demand-rfo-llc-hit-hitm-other-core,15879
cg,A,2,offcore-response-demand-rfo-llc-miss-remote-hitm,932
cg,A,2,offcore-response-all-reads-llc-hit-any-response,242755241
cg,A,2,offcore-response-all-reads-llc-miss-any-response,66314867
cg,A,4,cycles,4516575713
cg,A,4,L1-dcache-loads,2785066876
cg,A,4,L1-dcache-load-misses,749750755
cg,A,4,L1-dcache-stores,180668674
cg,A,4,LLC-loads,194096932
cg,A,4,LLC-load-misses,24003164
cg,A,4,LLC-stores,1937221
cg,A,4,offcore-requests-demand-rfo,1710043
cg,A,4,l2-rqsts-all-rfo,2338980
cg,A,4,l2-rqsts-rfo-miss,1714666
cg,A,4,l2-store-lock-rqsts-all,2314900
cg,A,4,l2-store-lock-rqsts-miss,1411446
cg,A,4,l2-trans-rfo,2408438
cg,A,4,offcore-requests-outstanding-demand-rfo,934764203
cg,A,4,offcore-response-demand-rfo-llc-hit-hitm-other-core,23725
cg,A,4,offcore-response-demand-rfo-llc-miss-remote-hitm,720
cg,A,4,offcore-response-all-reads-llc-hit-any-response,295366759
cg,A,4,offcore-response-all-reads-llc-miss-any-response,66288386
cg,A,8,cycles,4918612377
cg,A,8,L1-dcache-loads,2801767817
cg,A,8,L1-dcache-load-misses,749473452
cg,A,8,L1-dcache-stores,184463914
cg,A,8,LLC-loads,210218579
cg,A,8,LLC-load-misses,24917057
cg,A,8,LLC-stores,2097597
cg,A,8,offcore-requests-demand-rfo,1737112
cg,A,8,l2-rqsts-all-rfo,2461419
cg,A,8,l2-rqsts-rfo-miss,1716859
cg,A,8,l2-store-lock-rqsts-all,2423356
cg,A,8,l2-store-lock-rqsts-miss,1458285
cg,A,8,l2-trans-rfo,2567198
cg,A,8,offcore-requests-outstanding-demand-rfo,564575827
cg,A,8,offcore-response-demand-rfo-llc-hit-hitm-other-core,42285
cg,A,8,offcore-response-demand-rfo-llc-miss-remote-hitm,653
cg,A,8,offcore-response-all-reads-llc-hit-any-response,253853926
cg,A,8,offcore-response-all-reads-llc-miss-any-response,64139278
