cg,A,1,cycles,5212150801
cg,A,1,L1-dcache-loads,2769877088
cg,A,1,L1-dcache-load-misses,748011771
cg,A,1,L1-dcache-stores,178005391
cg,A,1,LLC-loads,488862506
cg,A,1,LLC-load-misses,28543768
cg,A,1,LLC-stores,1476703
cg,A,1,offcore-requests-demand-rfo,1473131
cg,A,1,l2-rqsts-all-rfo,2032253
cg,A,1,l2-rqsts-rfo-miss,1453464
cg,A,1,l2-store-lock-rqsts-all,2032152
cg,A,1,l2-store-lock-rqsts-miss,1449119
cg,A,1,l2-trans-rfo,2060146
cg,A,1,offcore-requests-outstanding-demand-rfo,219532736
cg,A,1,offcore-response-demand-rfo-llc-hit-hitm-other-core,66
cg,A,1,offcore-response-demand-rfo-llc-miss-remote-hitm,239
cg,A,1,offcore-response-all-reads-llc-hit-any-response,679963656
cg,A,1,offcore-response-all-reads-llc-miss-any-response,59647775
cg,A,2,cycles,4394824930
cg,A,2,L1-dcache-loads,2774526785
cg,A,2,L1-dcache-load-misses,749478832
cg,A,2,L1-dcache-stores,178870542
cg,A,2,LLC-loads,139927080
cg,A,2,LLC-load-misses,21280813
cg,A,2,LLC-stores,1728508
cg,A,2,offcore-requests-demand-rfo,1602618
cg,A,2,l2-rqsts-all-rfo,2221829
cg,A,2,l2-rqsts-rfo-miss,1516292
cg,A,2,l2-store-lock-rqsts-all,2198266
cg,A,2,l2-store-lock-rqsts-miss,1383404
cg,A,2,l2-trans-rfo,2283956
cg,A,2,offcore-requests-outstanding-demand-rfo,546229159
cg,A,2,offcore-response-demand-rfo-llc-hit-hitm-other-core,16309
cg,A,2,offcore-response-demand-rfo-llc-miss-remote-hitm,907
cg,A,2,offcore-response-all-reads-llc-hit-any-response,308843190
cg,A,2,offcore-response-all-reads-llc-miss-any-response,57407751
cg,A,4,cycles,4864738355
cg,A,4,L1-dcache-loads,2784597851
cg,A,4,L1-dcache-load-misses,749705555
cg,A,4,L1-dcache-stores,180749691
cg,A,4,LLC-loads,162606809
cg,A,4,LLC-load-misses,22349793
cg,A,4,LLC-stores,1958283
cg,A,4,offcore-requests-demand-rfo,1735533
cg,A,4,l2-rqsts-all-rfo,2341378
cg,A,4,l2-rqsts-rfo-miss,1713111
cg,A,4,l2-store-lock-rqsts-all,2321204
cg,A,4,l2-store-lock-rqsts-miss,1403892
cg,A,4,l2-trans-rfo,2404467
cg,A,4,offcore-requests-outstanding-demand-rfo,515353149
cg,A,4,offcore-response-demand-rfo-llc-hit-hitm-other-core,23425
cg,A,4,offcore-response-demand-rfo-llc-miss-remote-hitm,1014
cg,A,4,offcore-response-all-reads-llc-hit-any-response,229407895
cg,A,4,offcore-response-all-reads-llc-miss-any-response,59323721
cg,A,8,cycles,4885442888
cg,A,8,L1-dcache-loads,2803942418
cg,A,8,L1-dcache-load-misses,749416554
cg,A,8,L1-dcache-stores,184527927
cg,A,8,LLC-loads,136005256
cg,A,8,LLC-load-misses,22202155
cg,A,8,LLC-stores,2033653
cg,A,8,offcore-requests-demand-rfo,1806074
cg,A,8,l2-rqsts-all-rfo,2464694
cg,A,8,l2-rqsts-rfo-miss,1708861
cg,A,8,l2-store-lock-rqsts-all,2426839
cg,A,8,l2-store-lock-rqsts-miss,1498904
cg,A,8,l2-trans-rfo,2585033
cg,A,8,offcore-requests-outstanding-demand-rfo,730685829
cg,A,8,offcore-response-demand-rfo-llc-hit-hitm-other-core,41019
cg,A,8,offcore-response-demand-rfo-llc-miss-remote-hitm,957
cg,A,8,offcore-response-all-reads-llc-hit-any-response,237505369
cg,A,8,offcore-response-all-reads-llc-miss-any-response,59032922
