ep,A,1,cycles,40959863064
ep,A,1,L1-dcache-loads,9486876586
ep,A,1,L1-dcache-load-misses,144249344
ep,A,1,L1-dcache-stores,4120191537
ep,A,1,LLC-loads,4027876
ep,A,1,LLC-load-misses,5547
ep,A,1,LLC-stores,1696594
ep,A,1,offcore-requests-demand-rfo,2118222
ep,A,1,l2-rqsts-all-rfo,66353289
ep,A,1,l2-rqsts-rfo-miss,1274128
ep,A,1,l2-store-lock-rqsts-all,66308446
ep,A,1,l2-store-lock-rqsts-miss,1277273
ep,A,1,l2-trans-rfo,67909418
ep,A,1,offcore-requests-outstanding-demand-rfo,49149129
ep,A,1,offcore-response-demand-rfo-llc-hit-hitm-other-core,154
ep,A,1,offcore-response-demand-rfo-llc-miss-remote-hitm,510
ep,A,1,offcore-response-all-reads-llc-hit-any-response,139975921
ep,A,1,offcore-response-all-reads-llc-miss-any-response,21428
ep,A,2,cycles,40881790109
ep,A,2,L1-dcache-loads,9487057833
ep,A,2,L1-dcache-load-misses,143858271
ep,A,2,L1-dcache-stores,4120414654
ep,A,2,LLC-loads,3966163
ep,A,2,LLC-load-misses,28318
ep,A,2,LLC-stores,1835455
ep,A,2,offcore-requests-demand-rfo,2153790
ep,A,2,l2-rqsts-all-rfo,66440696
ep,A,2,l2-rqsts-rfo-miss,1329656
ep,A,2,l2-store-lock-rqsts-all,66416423
ep,A,2,l2-store-lock-rqsts-miss,1300694
ep,A,2,l2-trans-rfo,67976856
ep,A,2,offcore-requests-outstanding-demand-rfo,20523053572
ep,A,2,offcore-response-demand-rfo-llc-hit-hitm-other-core,195
ep,A,2,offcore-response-demand-rfo-llc-miss-remote-hitm,7602
ep,A,2,offcore-response-all-reads-llc-hit-any-response,139881981
ep,A,2,offcore-response-all-reads-llc-miss-any-response,76676
ep,A,4,cycles,40893364318
ep,A,4,L1-dcache-loads,9488632980
ep,A,4,L1-dcache-load-misses,143616500
ep,A,4,L1-dcache-stores,4121192491
ep,A,4,LLC-loads,4048533
ep,A,4,LLC-load-misses,26556
ep,A,4,LLC-stores,1946302
ep,A,4,offcore-requests-demand-rfo,2221060
ep,A,4,l2-rqsts-all-rfo,66495944
ep,A,4,l2-rqsts-rfo-miss,1380786
ep,A,4,l2-store-lock-rqsts-all,66528010
ep,A,4,l2-store-lock-rqsts-miss,1339270
ep,A,4,l2-trans-rfo,68099004
ep,A,4,offcore-requests-outstanding-demand-rfo,77369597
ep,A,4,offcore-response-demand-rfo-llc-hit-hitm-other-core,2295
ep,A,4,offcore-response-demand-rfo-llc-miss-remote-hitm,6202
ep,A,4,offcore-response-all-reads-llc-hit-any-response,139833618
ep,A,4,offcore-response-all-reads-llc-miss-any-response,85237
ep,A,8,cycles,40942191624
ep,A,8,L1-dcache-loads,9491655260
ep,A,8,L1-dcache-load-misses,144050719
ep,A,8,L1-dcache-stores,4122783549
ep,A,8,LLC-loads,4071190
ep,A,8,LLC-load-misses,30474
ep,A,8,LLC-stores,2095971
ep,A,8,offcore-requests-demand-rfo,2399240
ep,A,8,l2-rqsts-all-rfo,66561953
ep,A,8,l2-rqsts-rfo-miss,1464930
ep,A,8,l2-store-lock-rqsts-all,66559654
ep,A,8,l2-store-lock-rqsts-miss,1441502
ep,A,8,l2-trans-rfo,68117780
ep,A,8,offcore-requests-outstanding-demand-rfo,10323866557
ep,A,8,offcore-response-demand-rfo-llc-hit-hitm-other-core,5789
ep,A,8,offcore-response-demand-rfo-llc-miss-remote-hitm,5594
ep,A,8,offcore-response-all-reads-llc-hit-any-response,139886041
ep,A,8,offcore-response-all-reads-llc-miss-any-response,172167
