ep,A,1,cycles,40803310349
ep,A,1,L1-dcache-loads,9486823639
ep,A,1,L1-dcache-load-misses,144661249
ep,A,1,L1-dcache-stores,4120220890
ep,A,1,LLC-loads,4021519
ep,A,1,LLC-load-misses,6347
ep,A,1,LLC-stores,1796611
ep,A,1,offcore-requests-demand-rfo,2172988
ep,A,1,l2-rqsts-all-rfo,66349338
ep,A,1,l2-rqsts-rfo-miss,1273126
ep,A,1,l2-store-lock-rqsts-all,66385480
ep,A,1,l2-store-lock-rqsts-miss,1253461
ep,A,1,l2-trans-rfo,68008198
ep,A,1,offcore-requests-outstanding-demand-rfo,52316612
ep,A,1,offcore-response-demand-rfo-llc-hit-hitm-other-core,76
ep,A,1,offcore-response-demand-rfo-llc-miss-remote-hitm,259
ep,A,1,offcore-response-all-reads-llc-hit-any-response,140090856
ep,A,1,offcore-response-all-reads-llc-miss-any-response,18694
ep,A,2,cycles,40856622459
ep,A,2,L1-dcache-loads,9487060466
ep,A,2,L1-dcache-load-misses,143654776
ep,A,2,L1-dcache-stores,4120412316
ep,A,2,LLC-loads,4002649
ep,A,2,LLC-load-misses,30767
ep,A,2,LLC-stores,1880841
ep,A,2,offcore-requests-demand-rfo,2178331
ep,A,2,l2-rqsts-all-rfo,66401032
ep,A,2,l2-rqsts-rfo-miss,1336339
ep,A,2,l2-store-lock-rqsts-all,66407528
ep,A,2,l2-store-lock-rqsts-miss,1296823
ep,A,2,l2-trans-rfo,67983088
ep,A,2,offcore-requests-outstanding-demand-rfo,68516143
ep,A,2,offcore-response-demand-rfo-llc-hit-hitm-other-core,157
ep,A,2,offcore-response-demand-rfo-llc-miss-remote-hitm,7983
ep,A,2,offcore-response-all-reads-llc-hit-any-response,139794543
ep,A,2,offcore-response-all-reads-llc-miss-any-response,83989
ep,A,4,cycles,41001192624
ep,A,4,L1-dcache-loads,9488143361
ep,A,4,L1-dcache-load-misses,143969093
ep,A,4,L1-dcache-stores,4121210656
ep,A,4,LLC-loads,4029213
ep,A,4,LLC-load-misses,26895
ep,A,4,LLC-stores,1957081
ep,A,4,offcore-requests-demand-rfo,2262487
ep,A,4,l2-rqsts-all-rfo,66461491
ep,A,4,l2-rqsts-rfo-miss,1374282
ep,A,4,l2-store-lock-rqsts-all,66443389
ep,A,4,l2-store-lock-rqsts-miss,1348282
ep,A,4,l2-trans-rfo,68048944
ep,A,4,offcore-requests-outstanding-demand-rfo,74540130
ep,A,4,offcore-response-demand-rfo-llc-hit-hitm-other-core,3971
ep,A,4,offcore-response-demand-rfo-llc-miss-remote-hitm,6125
ep,A,4,offcore-response-all-reads-llc-hit-any-response,139689447
ep,A,4,offcore-response-all-reads-llc-miss-any-response,85368
ep,A,8,cycles,41048308979
ep,A,8,L1-dcache-loads,9491248331
ep,A,8,L1-dcache-load-misses,143787809
ep,A,8,L1-dcache-stores,4122781033
ep,A,8,LLC-loads,4031601
ep,A,8,LLC-load-misses,26564
ep,A,8,LLC-stores,2101372
ep,A,8,offcore-requests-demand-rfo,2402030
ep,A,8,l2-rqsts-all-rfo,66530864
ep,A,8,l2-rqsts-rfo-miss,1461561
ep,A,8,l2-store-lock-rqsts-all,66518212
ep,A,8,l2-store-lock-rqsts-miss,1446325
ep,A,8,l2-trans-rfo,68088700
ep,A,8,offcore-requests-outstanding-demand-rfo,103135819
ep,A,8,offcore-response-demand-rfo-llc-hit-hitm-other-core,5776
ep,A,8,offcore-response-demand-rfo-llc-miss-remote-hitm,5684
ep,A,8,offcore-response-all-reads-llc-hit-any-response,139730332
ep,A,8,offcore-response-all-reads-llc-miss-any-response,141947
