ep,A,1,cycles,40831300714
ep,A,1,L1-dcache-loads,9486893456
ep,A,1,L1-dcache-load-misses,143501663
ep,A,1,L1-dcache-stores,4120227241
ep,A,1,LLC-loads,3984290
ep,A,1,LLC-load-misses,5180
ep,A,1,LLC-stores,1838488
ep,A,1,offcore-requests-demand-rfo,2072850
ep,A,1,l2-rqsts-all-rfo,66360362
ep,A,1,l2-rqsts-rfo-miss,1254868
ep,A,1,l2-store-lock-rqsts-all,66359956
ep,A,1,l2-store-lock-rqsts-miss,1333023
ep,A,1,l2-trans-rfo,68054437
ep,A,1,offcore-requests-outstanding-demand-rfo,50218125
ep,A,1,offcore-response-demand-rfo-llc-hit-hitm-other-core,85
ep,A,1,offcore-response-demand-rfo-llc-miss-remote-hitm,449
ep,A,1,offcore-response-all-reads-llc-hit-any-response,140067865
ep,A,1,offcore-response-all-reads-llc-miss-any-response,25185
ep,A,2,cycles,40864402294
ep,A,2,L1-dcache-loads,9487073821
ep,A,2,L1-dcache-load-misses,144047930
ep,A,2,L1-dcache-stores,4120408728
ep,A,2,LLC-loads,3978185
ep,A,2,LLC-load-misses,32709
ep,A,2,LLC-stores,1883382
ep,A,2,offcore-requests-demand-rfo,2171860
ep,A,2,l2-rqsts-all-rfo,66405262
ep,A,2,l2-rqsts-rfo-miss,1341605
ep,A,2,l2-store-lock-rqsts-all,66425751
ep,A,2,l2-store-lock-rqsts-miss,1299684
ep,A,2,l2-trans-rfo,67941557
ep,A,2,offcore-requests-outstanding-demand-rfo,67497649
ep,A,2,offcore-response-demand-rfo-llc-hit-hitm-other-core,321
ep,A,2,offcore-response-demand-rfo-llc-miss-remote-hitm,8246
ep,A,2,offcore-response-all-reads-llc-hit-any-response,139792319
ep,A,2,offcore-response-all-reads-llc-miss-any-response,83517
ep,A,4,cycles,40944988901
ep,A,4,L1-dcache-loads,9488318799
ep,A,4,L1-dcache-load-misses,144072045
ep,A,4,L1-dcache-stores,4121218386
ep,A,4,LLC-loads,4008484
ep,A,4,LLC-load-misses,25592
ep,A,4,LLC-stores,1979730
ep,A,4,offcore-requests-demand-rfo,2246003
ep,A,4,l2-rqsts-all-rfo,66473963
ep,A,4,l2-rqsts-rfo-miss,1382045
ep,A,4,l2-store-lock-rqsts-all,66469306
ep,A,4,l2-store-lock-rqsts-miss,1351074
ep,A,4,l2-trans-rfo,68067625
ep,A,4,offcore-requests-outstanding-demand-rfo,71969007
ep,A,4,offcore-response-demand-rfo-llc-hit-hitm-other-core,3472
ep,A,4,offcore-response-demand-rfo-llc-miss-remote-hitm,6611
ep,A,4,offcore-response-all-reads-llc-hit-any-response,139769385
ep,A,4,offcore-response-all-reads-llc-miss-any-response,99660
ep,A,8,cycles,40999927852
ep,A,8,L1-dcache-loads,9492391348
ep,A,8,L1-dcache-load-misses,143819569
ep,A,8,L1-dcache-stores,4122784371
ep,A,8,LLC-loads,4020094
ep,A,8,LLC-load-misses,26513
ep,A,8,LLC-stores,2101852
ep,A,8,offcore-requests-demand-rfo,2380500
ep,A,8,l2-rqsts-all-rfo,66527875
ep,A,8,l2-rqsts-rfo-miss,1469399
ep,A,8,l2-store-lock-rqsts-all,66527888
ep,A,8,l2-store-lock-rqsts-miss,1439554
ep,A,8,l2-trans-rfo,68122001
ep,A,8,offcore-requests-outstanding-demand-rfo,5207091185
ep,A,8,offcore-response-demand-rfo-llc-hit-hitm-other-core,3429
ep,A,8,offcore-response-demand-rfo-llc-miss-remote-hitm,5414
ep,A,8,offcore-response-all-reads-llc-hit-any-response,139759907
ep,A,8,offcore-response-all-reads-llc-miss-any-response,149673
