ft,A,1,cycles,13023306094
ft,A,1,L1-dcache-loads,4843749111
ft,A,1,L1-dcache-load-misses,1105362568
ft,A,1,L1-dcache-stores,4561670434
ft,A,1,LLC-loads,87255946
ft,A,1,LLC-load-misses,29535916
ft,A,1,LLC-stores,96534537
ft,A,1,offcore-requests-demand-rfo,86897580
ft,A,1,l2-rqsts-all-rfo,537534924
ft,A,1,l2-rqsts-rfo-miss,78797153
ft,A,1,l2-store-lock-rqsts-all,537506473
ft,A,1,l2-store-lock-rqsts-miss,78678358
ft,A,1,l2-trans-rfo,550581871
ft,A,1,offcore-requests-outstanding-demand-rfo,6363189507
ft,A,1,offcore-response-demand-rfo-llc-hit-hitm-other-core,48
ft,A,1,offcore-response-demand-rfo-llc-miss-remote-hitm,190
ft,A,1,offcore-response-all-reads-llc-hit-any-response,299730605
ft,A,1,offcore-response-all-reads-llc-miss-any-response,98252398
ft,A,2,cycles,13263644032
ft,A,2,L1-dcache-loads,4845900096
ft,A,2,L1-dcache-load-misses,1105815329
ft,A,2,L1-dcache-stores,4561731867
ft,A,2,LLC-loads,87415405
ft,A,2,LLC-load-misses,31817902
ft,A,2,LLC-stores,100902587
ft,A,2,offcore-requests-demand-rfo,88558584
ft,A,2,l2-rqsts-all-rfo,537382616
ft,A,2,l2-rqsts-rfo-miss,79961148
ft,A,2,l2-store-lock-rqsts-all,537282256
ft,A,2,l2-store-lock-rqsts-miss,78991277
ft,A,2,l2-trans-rfo,550931847
ft,A,2,offcore-requests-outstanding-demand-rfo,6309054682
ft,A,2,offcore-response-demand-rfo-llc-hit-hitm-other-core,101452
ft,A,2,offcore-response-demand-rfo-llc-miss-remote-hitm,2543
ft,A,2,offcore-response-all-reads-llc-hit-any-response,320046034
ft,A,2,offcore-response-all-reads-llc-miss-any-response,98366984
ft,A,4,cycles,14226583128
ft,A,4,L1-dcache-loads,4847821944
ft,A,4,L1-dcache-load-misses,1105890710
ft,A,4,L1-dcache-stores,4561982442
ft,A,4,LLC-loads,93485235
ft,A,4,LLC-load-misses,34036737
ft,A,4,LLC-stores,103445330
ft,A,4,offcore-requests-demand-rfo,89915777
ft,A,4,l2-rqsts-all-rfo,536587465
ft,A,4,l2-rqsts-rfo-miss,80159053
ft,A,4,l2-store-lock-rqsts-all,536324576
ft,A,4,l2-store-lock-rqsts-miss,79932920
ft,A,4,l2-trans-rfo,559926931
ft,A,4,offcore-requests-outstanding-demand-rfo,7242761800
ft,A,4,offcore-response-demand-rfo-llc-hit-hitm-other-core,114840
ft,A,4,offcore-response-demand-rfo-llc-miss-remote-hitm,2173
ft,A,4,offcore-response-all-reads-llc-hit-any-response,327461091
ft,A,4,offcore-response-all-reads-llc-miss-any-response,98618680
ft,A,8,cycles,16774649583
ft,A,8,L1-dcache-loads,4852283943
ft,A,8,L1-dcache-load-misses,1106055413
ft,A,8,L1-dcache-stores,4562530148
ft,A,8,LLC-loads,97094742
ft,A,8,LLC-load-misses,35482805
ft,A,8,LLC-stores,103120027
ft,A,8,offcore-requests-demand-rfo,89333208
ft,A,8,l2-rqsts-all-rfo,536489939
ft,A,8,l2-rqsts-rfo-miss,79371261
ft,A,8,l2-store-lock-rqsts-all,536420079
ft,A,8,l2-store-lock-rqsts-miss,78935206
ft,A,8,l2-trans-rfo,591605583
ft,A,8,offcore-requests-outstanding-demand-rfo,9514807307
ft,A,8,offcore-response-demand-rfo-llc-hit-hitm-other-core,128686
ft,A,8,offcore-response-demand-rfo-llc-miss-remote-hitm,2273
ft,A,8,offcore-response-all-reads-llc-hit-any-response,333999724
ft,A,8,offcore-response-all-reads-llc-miss-any-response,99432114
