ft,A,1,cycles,12868228562
ft,A,1,L1-dcache-loads,4843765138
ft,A,1,L1-dcache-load-misses,1104705596
ft,A,1,L1-dcache-stores,4561727656
ft,A,1,LLC-loads,84670739
ft,A,1,LLC-load-misses,29341073
ft,A,1,LLC-stores,97436010
ft,A,1,offcore-requests-demand-rfo,87186222
ft,A,1,l2-rqsts-all-rfo,538101255
ft,A,1,l2-rqsts-rfo-miss,79200865
ft,A,1,l2-store-lock-rqsts-all,537634760
ft,A,1,l2-store-lock-rqsts-miss,78506057
ft,A,1,l2-trans-rfo,550875029
ft,A,1,offcore-requests-outstanding-demand-rfo,5951300934
ft,A,1,offcore-response-demand-rfo-llc-hit-hitm-other-core,75
ft,A,1,offcore-response-demand-rfo-llc-miss-remote-hitm,190
ft,A,1,offcore-response-all-reads-llc-hit-any-response,298317793
ft,A,1,offcore-response-all-reads-llc-miss-any-response,98230137
ft,A,2,cycles,13176495395
ft,A,2,L1-dcache-loads,4849205794
ft,A,2,L1-dcache-load-misses,1105220996
ft,A,2,L1-dcache-stores,4561812996
ft,A,2,LLC-loads,88480049
ft,A,2,LLC-load-misses,31803312
ft,A,2,LLC-stores,101521947
ft,A,2,offcore-requests-demand-rfo,89690607
ft,A,2,l2-rqsts-all-rfo,537317356
ft,A,2,l2-rqsts-rfo-miss,79011093
ft,A,2,l2-store-lock-rqsts-all,537257193
ft,A,2,l2-store-lock-rqsts-miss,78323513
ft,A,2,l2-trans-rfo,550946740
ft,A,2,offcore-requests-outstanding-demand-rfo,6343237369
ft,A,2,offcore-response-demand-rfo-llc-hit-hitm-other-core,101471
ft,A,2,offcore-response-demand-rfo-llc-miss-remote-hitm,2909
ft,A,2,offcore-response-all-reads-llc-hit-any-response,394450662
ft,A,2,offcore-response-all-reads-llc-miss-any-response,98352443
ft,A,4,cycles,14217626645
ft,A,4,L1-dcache-loads,4847859703
ft,A,4,L1-dcache-load-misses,1105458690
ft,A,4,L1-dcache-stores,4562033616
ft,A,4,LLC-loads,92256630
ft,A,4,LLC-load-misses,34196691
ft,A,4,LLC-stores,103208554
ft,A,4,offcore-requests-demand-rfo,89227932
ft,A,4,l2-rqsts-all-rfo,536329748
ft,A,4,l2-rqsts-rfo-miss,79429843
ft,A,4,l2-store-lock-rqsts-all,536265916
ft,A,4,l2-store-lock-rqsts-miss,79256447
ft,A,4,l2-trans-rfo,559079611
ft,A,4,offcore-requests-outstanding-demand-rfo,7101532401
ft,A,4,offcore-response-demand-rfo-llc-hit-hitm-other-core,114350
ft,A,4,offcore-response-demand-rfo-llc-miss-remote-hitm,2226
ft,A,4,offcore-response-all-reads-llc-hit-any-response,324022548
ft,A,4,offcore-response-all-reads-llc-miss-any-response,98591039
ft,A,8,cycles,16792017535
ft,A,8,L1-dcache-loads,4852652153
ft,A,8,L1-dcache-load-misses,1105452210
ft,A,8,L1-dcache-stores,4562580483
ft,A,8,LLC-loads,95602774
ft,A,8,LLC-load-misses,35390057
ft,A,8,LLC-stores,103486306
ft,A,8,offcore-requests-demand-rfo,88969820
ft,A,8,l2-rqsts-all-rfo,536463192
ft,A,8,l2-rqsts-rfo-miss,79093501
ft,A,8,l2-store-lock-rqsts-all,536408417
ft,A,8,l2-store-lock-rqsts-miss,79154685
ft,A,8,l2-trans-rfo,591959097
ft,A,8,offcore-requests-outstanding-demand-rfo,9988141718
ft,A,8,offcore-response-demand-rfo-llc-hit-hitm-other-core,130900
ft,A,8,offcore-response-demand-rfo-llc-miss-remote-hitm,2136
ft,A,8,offcore-response-all-reads-llc-hit-any-response,325062026
ft,A,8,offcore-response-all-reads-llc-miss-any-response,99353092
