is,A,1,cycles,6046510971
is,A,1,L1-dcache-loads,1117946374
is,A,1,L1-dcache-load-misses,93236527
is,A,1,L1-dcache-stores,521502125
is,A,1,LLC-loads,3351977
is,A,1,LLC-load-misses,2406538
is,A,1,LLC-stores,8016946
is,A,1,offcore-requests-demand-rfo,7863487
is,A,1,l2-rqsts-all-rfo,51567532
is,A,1,l2-rqsts-rfo-miss,7790098
is,A,1,l2-store-lock-rqsts-all,51576546
is,A,1,l2-store-lock-rqsts-miss,7797020
is,A,1,l2-trans-rfo,51673404
is,A,1,offcore-requests-outstanding-demand-rfo,4115783308
is,A,1,offcore-response-demand-rfo-llc-hit-hitm-other-core,35
is,A,1,offcore-response-demand-rfo-llc-miss-remote-hitm,368
is,A,1,offcore-response-all-reads-llc-hit-any-response,2762908
is,A,1,offcore-response-all-reads-llc-miss-any-response,25371902
is,A,2,cycles,6182527266
is,A,2,L1-dcache-loads,1118372650
is,A,2,L1-dcache-load-misses,96133386
is,A,2,L1-dcache-stores,521791687
is,A,2,LLC-loads,4510588
is,A,2,LLC-load-misses,2427040
is,A,2,LLC-stores,9624076
is,A,2,offcore-requests-demand-rfo,9454964
is,A,2,l2-rqsts-all-rfo,53137858
is,A,2,l2-rqsts-rfo-miss,9276766
is,A,2,l2-store-lock-rqsts-all,53108277
is,A,2,l2-store-lock-rqsts-miss,8537443
is,A,2,l2-trans-rfo,53567737
is,A,2,offcore-requests-outstanding-demand-rfo,2705849109
is,A,2,offcore-response-demand-rfo-llc-hit-hitm-other-core,320574
is,A,2,offcore-response-demand-rfo-llc-miss-remote-hitm,1306
is,A,2,offcore-response-all-reads-llc-hit-any-response,7578138
is,A,2,offcore-response-all-reads-llc-miss-any-response,25402964
is,A,4,cycles,6368438977
is,A,4,L1-dcache-loads,1119149739
is,A,4,L1-dcache-load-misses,100291378
is,A,4,L1-dcache-stores,521960104
is,A,4,LLC-loads,6047163
is,A,4,LLC-load-misses,2483521
is,A,4,LLC-stores,11416436
is,A,4,offcore-requests-demand-rfo,11313413
is,A,4,l2-rqsts-all-rfo,55172914
is,A,4,l2-rqsts-rfo-miss,11100401
is,A,4,l2-store-lock-rqsts-all,55178670
is,A,4,l2-store-lock-rqsts-miss,9204232
is,A,4,l2-trans-rfo,56027219
is,A,4,offcore-requests-outstanding-demand-rfo,2375591569
is,A,4,offcore-response-demand-rfo-llc-hit-hitm-other-core,383793
is,A,4,offcore-response-demand-rfo-llc-miss-remote-hitm,1162
is,A,4,offcore-response-all-reads-llc-hit-any-response,15048207
is,A,4,offcore-response-all-reads-llc-miss-any-response,25358553
is,A,8,cycles,6612366391
is,A,8,L1-dcache-loads,1121917974
is,A,8,L1-dcache-load-misses,102959253
is,A,8,L1-dcache-stores,522985044
is,A,8,LLC-loads,7604347
is,A,8,LLC-load-misses,2923156
is,A,8,LLC-stores,12705002
is,A,8,offcore-requests-demand-rfo,12567153
is,A,8,l2-rqsts-all-rfo,56496870
is,A,8,l2-rqsts-rfo-miss,12184398
is,A,8,l2-store-lock-rqsts-all,56430903
is,A,8,l2-store-lock-rqsts-miss,9775419
is,A,8,l2-trans-rfo,57724768
is,A,8,offcore-requests-outstanding-demand-rfo,3039977604
is,A,8,offcore-response-demand-rfo-llc-hit-hitm-other-core,474304
is,A,8,offcore-response-demand-rfo-llc-miss-remote-hitm,961
is,A,8,offcore-response-all-reads-llc-hit-any-response,19768984
is,A,8,offcore-response-all-reads-llc-miss-any-response,25381887
