is,A,1,cycles,5991973838
is,A,1,L1-dcache-loads,1117933413
is,A,1,L1-dcache-load-misses,93227074
is,A,1,L1-dcache-stores,521497043
is,A,1,LLC-loads,3361412
is,A,1,LLC-load-misses,2451548
is,A,1,LLC-stores,7989505
is,A,1,offcore-requests-demand-rfo,7910626
is,A,1,l2-rqsts-all-rfo,51573072
is,A,1,l2-rqsts-rfo-miss,7791829
is,A,1,l2-store-lock-rqsts-all,51573083
is,A,1,l2-store-lock-rqsts-miss,7824394
is,A,1,l2-trans-rfo,51683677
is,A,1,offcore-requests-outstanding-demand-rfo,3046146513
is,A,1,offcore-response-demand-rfo-llc-hit-hitm-other-core,37
is,A,1,offcore-response-demand-rfo-llc-miss-remote-hitm,175
is,A,1,offcore-response-all-reads-llc-hit-any-response,2847675
is,A,1,offcore-response-all-reads-llc-miss-any-response,25415901
is,A,2,cycles,6181702455
is,A,2,L1-dcache-loads,1118345224
is,A,2,L1-dcache-load-misses,96120070
is,A,2,L1-dcache-stores,521733435
is,A,2,LLC-loads,4435277
is,A,2,LLC-load-misses,2448064
is,A,2,LLC-stores,9618989
is,A,2,offcore-requests-demand-rfo,9453139
is,A,2,l2-rqsts-all-rfo,53148820
is,A,2,l2-rqsts-rfo-miss,9271595
is,A,2,l2-store-lock-rqsts-all,53201249
is,A,2,l2-store-lock-rqsts-miss,8585249
is,A,2,l2-trans-rfo,53550672
is,A,2,offcore-requests-outstanding-demand-rfo,3129232530
is,A,2,offcore-response-demand-rfo-llc-hit-hitm-other-core,321021
is,A,2,offcore-response-demand-rfo-llc-miss-remote-hitm,1166
is,A,2,offcore-response-all-reads-llc-hit-any-response,7772582
is,A,2,offcore-response-all-reads-llc-miss-any-response,25408000
is,A,4,cycles,6343550572
is,A,4,L1-dcache-loads,1119176917
is,A,4,L1-dcache-load-misses,100335670
is,A,4,L1-dcache-stores,521920325
is,A,4,LLC-loads,5945139
is,A,4,LLC-load-misses,2497687
is,A,4,LLC-stores,11468473
is,A,4,offcore-requests-demand-rfo,11295213
is,A,4,l2-rqsts-all-rfo,55156249
is,A,4,l2-rqsts-rfo-miss,11049658
is,A,4,l2-store-lock-rqsts-all,55137240
is,A,4,l2-store-lock-rqsts-miss,9202279
is,A,4,l2-trans-rfo,56086416
is,A,4,offcore-requests-outstanding-demand-rfo,2990534592
is,A,4,offcore-response-demand-rfo-llc-hit-hitm-other-core,382499
is,A,4,offcore-response-demand-rfo-llc-miss-remote-hitm,1046
is,A,4,offcore-response-all-reads-llc-hit-any-response,15049410
is,A,4,offcore-response-all-reads-llc-miss-any-response,25380567
is,A,8,cycles,6589956298
is,A,8,L1-dcache-loads,1121957414
is,A,8,L1-dcache-load-misses,102921774
is,A,8,L1-dcache-stores,522920914
is,A,8,LLC-loads,7738901
is,A,8,LLC-load-misses,2936550
is,A,8,LLC-stores,12748917
is,A,8,offcore-requests-demand-rfo,12576970
is,A,8,l2-rqsts-all-rfo,56456869
is,A,8,l2-rqsts-rfo-miss,12189624
is,A,8,l2-store-lock-rqsts-all,56472279
is,A,8,l2-store-lock-rqsts-miss,9772441
is,A,8,l2-trans-rfo,57734624
is,A,8,offcore-requests-outstanding-demand-rfo,2821316454
is,A,8,offcore-response-demand-rfo-llc-hit-hitm-other-core,472102
is,A,8,offcore-response-demand-rfo-llc-miss-remote-hitm,1023
is,A,8,offcore-response-all-reads-llc-hit-any-response,19683934
is,A,8,offcore-response-all-reads-llc-miss-any-response,25390776
