lu,A,1,cycles,119592593586
lu,A,1,L1-dcache-loads,59618049770
lu,A,1,L1-dcache-load-misses,4913741120
lu,A,1,L1-dcache-stores,26795269134
lu,A,1,LLC-loads,648201035
lu,A,1,LLC-load-misses,217280336
lu,A,1,LLC-stores,220823068
lu,A,1,offcore-requests-demand-rfo,176580862
lu,A,1,l2-rqsts-all-rfo,1632863030
lu,A,1,l2-rqsts-rfo-miss,170820344
lu,A,1,l2-store-lock-rqsts-all,1634254236
lu,A,1,l2-store-lock-rqsts-miss,170126726
lu,A,1,l2-trans-rfo,1649965500
lu,A,1,offcore-requests-outstanding-demand-rfo,5916955272
lu,A,1,offcore-response-demand-rfo-llc-hit-hitm-other-core,88
lu,A,1,offcore-response-demand-rfo-llc-miss-remote-hitm,1053
lu,A,1,offcore-response-all-reads-llc-hit-any-response,4146372810
lu,A,1,offcore-response-all-reads-llc-miss-any-response,497599704
lu,A,2,cycles,122865894965
lu,A,2,L1-dcache-loads,59688153729
lu,A,2,L1-dcache-load-misses,4914599813
lu,A,2,L1-dcache-stores,26798435239
lu,A,2,LLC-loads,717956945
lu,A,2,LLC-load-misses,224408733
lu,A,2,LLC-stores,244759197
lu,A,2,offcore-requests-demand-rfo,186749884
lu,A,2,l2-rqsts-all-rfo,1640977341
lu,A,2,l2-rqsts-rfo-miss,180504127
lu,A,2,l2-store-lock-rqsts-all,1641150088
lu,A,2,l2-store-lock-rqsts-miss,172287142
lu,A,2,l2-trans-rfo,1655437528
lu,A,2,offcore-requests-outstanding-demand-rfo,7913206957
lu,A,2,offcore-response-demand-rfo-llc-hit-hitm-other-core,15737
lu,A,2,offcore-response-demand-rfo-llc-miss-remote-hitm,25476
lu,A,2,offcore-response-all-reads-llc-hit-any-response,4208391709
lu,A,2,offcore-response-all-reads-llc-miss-any-response,506519067
lu,A,4,cycles,131231574942
lu,A,4,L1-dcache-loads,60015290600
lu,A,4,L1-dcache-load-misses,4922015411
lu,A,4,L1-dcache-stores,26805892932
lu,A,4,LLC-loads,780647560
lu,A,4,LLC-load-misses,229562097
lu,A,4,LLC-stores,252589217
lu,A,4,offcore-requests-demand-rfo,188013279
lu,A,4,l2-rqsts-all-rfo,1643127435
lu,A,4,l2-rqsts-rfo-miss,180906012
lu,A,4,l2-store-lock-rqsts-all,1643380804
lu,A,4,l2-store-lock-rqsts-miss,171025604
lu,A,4,l2-trans-rfo,1659709341
lu,A,4,offcore-requests-outstanding-demand-rfo,10144032348
lu,A,4,offcore-response-demand-rfo-llc-hit-hitm-other-core,30424
lu,A,4,offcore-response-demand-rfo-llc-miss-remote-hitm,19814
lu,A,4,offcore-response-all-reads-llc-hit-any-response,4245243260
lu,A,4,offcore-response-all-reads-llc-miss-any-response,502219537
lu,A,8,cycles,143498952104
lu,A,8,L1-dcache-loads,60313133425
lu,A,8,L1-dcache-load-misses,4929279193
lu,A,8,L1-dcache-stores,26820113102
lu,A,8,LLC-loads,735049500
lu,A,8,LLC-load-misses,214100856
lu,A,8,LLC-stores,245688480
lu,A,8,offcore-requests-demand-rfo,181304739
lu,A,8,l2-rqsts-all-rfo,1646046537
lu,A,8,l2-rqsts-rfo-miss,173046532
lu,A,8,l2-store-lock-rqsts-all,1645514022
lu,A,8,l2-store-lock-rqsts-miss,159560775
lu,A,8,l2-trans-rfo,1675597787
lu,A,8,offcore-requests-outstanding-demand-rfo,15635190043
lu,A,8,offcore-response-demand-rfo-llc-hit-hitm-other-core,56875
lu,A,8,offcore-response-demand-rfo-llc-miss-remote-hitm,19019
lu,A,8,offcore-response-all-reads-llc-hit-any-response,3915405283
lu,A,8,offcore-response-all-reads-llc-miss-any-response,488304660
