lu,A,1,cycles,118261198814
lu,A,1,L1-dcache-loads,59618077080
lu,A,1,L1-dcache-load-misses,4930954308
lu,A,1,L1-dcache-stores,26795158276
lu,A,1,LLC-loads,648871456
lu,A,1,LLC-load-misses,218003155
lu,A,1,LLC-stores,219149643
lu,A,1,offcore-requests-demand-rfo,177532110
lu,A,1,l2-rqsts-all-rfo,1634771101
lu,A,1,l2-rqsts-rfo-miss,171339528
lu,A,1,l2-store-lock-rqsts-all,1636027562
lu,A,1,l2-store-lock-rqsts-miss,171257169
lu,A,1,l2-trans-rfo,1646601539
lu,A,1,offcore-requests-outstanding-demand-rfo,6303098793
lu,A,1,offcore-response-demand-rfo-llc-hit-hitm-other-core,74
lu,A,1,offcore-response-demand-rfo-llc-miss-remote-hitm,1351
lu,A,1,offcore-response-all-reads-llc-hit-any-response,4147892058
lu,A,1,offcore-response-all-reads-llc-miss-any-response,498851396
lu,A,2,cycles,121623632403
lu,A,2,L1-dcache-loads,59700088840
lu,A,2,L1-dcache-load-misses,4921859658
lu,A,2,L1-dcache-stores,26798344973
lu,A,2,LLC-loads,725875428
lu,A,2,LLC-load-misses,223952862
lu,A,2,LLC-stores,245148866
lu,A,2,offcore-requests-demand-rfo,187697506
lu,A,2,l2-rqsts-all-rfo,1643067336
lu,A,2,l2-rqsts-rfo-miss,180846893
lu,A,2,l2-store-lock-rqsts-all,1643564035
lu,A,2,l2-store-lock-rqsts-miss,174161969
lu,A,2,l2-trans-rfo,1656838882
lu,A,2,offcore-requests-outstanding-demand-rfo,7791409703
lu,A,2,offcore-response-demand-rfo-llc-hit-hitm-other-core,16143
lu,A,2,offcore-response-demand-rfo-llc-miss-remote-hitm,23219
lu,A,2,offcore-response-all-reads-llc-hit-any-response,4221161323
lu,A,2,offcore-response-all-reads-llc-miss-any-response,503298868
lu,A,4,cycles,130845470544
lu,A,4,L1-dcache-loads,59985109491
lu,A,4,L1-dcache-load-misses,4915422894
lu,A,4,L1-dcache-stores,26805922870
lu,A,4,LLC-loads,783019701
lu,A,4,LLC-load-misses,227290417
lu,A,4,LLC-stores,253410900
lu,A,4,offcore-requests-demand-rfo,189333087
lu,A,4,l2-rqsts-all-rfo,1643210494
lu,A,4,l2-rqsts-rfo-miss,181208913
lu,A,4,l2-store-lock-rqsts-all,1643220127
lu,A,4,l2-store-lock-rqsts-miss,171234350
lu,A,4,l2-trans-rfo,1659243646
lu,A,4,offcore-requests-outstanding-demand-rfo,11138115125
lu,A,4,offcore-response-demand-rfo-llc-hit-hitm-other-core,27548
lu,A,4,offcore-response-demand-rfo-llc-miss-remote-hitm,19484
lu,A,4,offcore-response-all-reads-llc-hit-any-response,4241864153
lu,A,4,offcore-response-all-reads-llc-miss-any-response,504861511
lu,A,8,cycles,143123096416
lu,A,8,L1-dcache-loads,60295375427
lu,A,8,L1-dcache-load-misses,4930510339
lu,A,8,L1-dcache-stores,26820154676
lu,A,8,LLC-loads,729647036
lu,A,8,LLC-load-misses,215560679
lu,A,8,LLC-stores,245270712
lu,A,8,offcore-requests-demand-rfo,180936295
lu,A,8,l2-rqsts-all-rfo,1645884159
lu,A,8,l2-rqsts-rfo-miss,172851622
lu,A,8,l2-store-lock-rqsts-all,1645199220
lu,A,8,l2-store-lock-rqsts-miss,162801154
lu,A,8,l2-trans-rfo,1676227913
lu,A,8,offcore-requests-outstanding-demand-rfo,15726014836
lu,A,8,offcore-response-demand-rfo-llc-hit-hitm-other-core,52248
lu,A,8,offcore-response-demand-rfo-llc-miss-remote-hitm,18663
lu,A,8,offcore-response-all-reads-llc-hit-any-response,4002344720
lu,A,8,offcore-response-all-reads-llc-miss-any-response,485602048
