lu,A,1,cycles,119237138904
lu,A,1,L1-dcache-loads,59617726130
lu,A,1,L1-dcache-load-misses,4929874739
lu,A,1,L1-dcache-stores,26795171264
lu,A,1,LLC-loads,640350947
lu,A,1,LLC-load-misses,218881882
lu,A,1,LLC-stores,219012982
lu,A,1,offcore-requests-demand-rfo,176608177
lu,A,1,l2-rqsts-all-rfo,1633361690
lu,A,1,l2-rqsts-rfo-miss,170527176
lu,A,1,l2-store-lock-rqsts-all,1632739149
lu,A,1,l2-store-lock-rqsts-miss,170229696
lu,A,1,l2-trans-rfo,1646671680
lu,A,1,offcore-requests-outstanding-demand-rfo,6317131244
lu,A,1,offcore-response-demand-rfo-llc-hit-hitm-other-core,67
lu,A,1,offcore-response-demand-rfo-llc-miss-remote-hitm,1063
lu,A,1,offcore-response-all-reads-llc-hit-any-response,4149997952
lu,A,1,offcore-response-all-reads-llc-miss-any-response,501698954
lu,A,2,cycles,122520938239
lu,A,2,L1-dcache-loads,59690776035
lu,A,2,L1-dcache-load-misses,4921073179
lu,A,2,L1-dcache-stores,26798443405
lu,A,2,LLC-loads,729837231
lu,A,2,LLC-load-misses,223757458
lu,A,2,LLC-stores,245178942
lu,A,2,offcore-requests-demand-rfo,186826913
lu,A,2,l2-rqsts-all-rfo,1643053484
lu,A,2,l2-rqsts-rfo-miss,180833380
lu,A,2,l2-store-lock-rqsts-all,1642420575
lu,A,2,l2-store-lock-rqsts-miss,173061341
lu,A,2,l2-trans-rfo,1655011515
lu,A,2,offcore-requests-outstanding-demand-rfo,8051638894
lu,A,2,offcore-response-demand-rfo-llc-hit-hitm-other-core,15602
lu,A,2,offcore-response-demand-rfo-llc-miss-remote-hitm,25228
lu,A,2,offcore-response-all-reads-llc-hit-any-response,4217965644
lu,A,2,offcore-response-all-reads-llc-miss-any-response,505618826
lu,A,4,cycles,131181030482
lu,A,4,L1-dcache-loads,59996904564
lu,A,4,L1-dcache-load-misses,4916171010
lu,A,4,L1-dcache-stores,26805928157
lu,A,4,LLC-loads,779379798
lu,A,4,LLC-load-misses,228252071
lu,A,4,LLC-stores,252405075
lu,A,4,offcore-requests-demand-rfo,188366680
lu,A,4,l2-rqsts-all-rfo,1643465139
lu,A,4,l2-rqsts-rfo-miss,179534450
lu,A,4,l2-store-lock-rqsts-all,1643450983
lu,A,4,l2-store-lock-rqsts-miss,171505923
lu,A,4,l2-trans-rfo,1659076490
lu,A,4,offcore-requests-outstanding-demand-rfo,11083018419
lu,A,4,offcore-response-demand-rfo-llc-hit-hitm-other-core,32163
lu,A,4,offcore-response-demand-rfo-llc-miss-remote-hitm,20763
lu,A,4,offcore-response-all-reads-llc-hit-any-response,4240675937
lu,A,4,offcore-response-all-reads-llc-miss-any-response,505129085
lu,A,8,cycles,143669753612
lu,A,8,L1-dcache-loads,60294392344
lu,A,8,L1-dcache-load-misses,4930474099
lu,A,8,L1-dcache-stores,26820220746
lu,A,8,LLC-loads,728831066
lu,A,8,LLC-load-misses,215173578
lu,A,8,LLC-stores,248018640
lu,A,8,offcore-requests-demand-rfo,181836043
lu,A,8,l2-rqsts-all-rfo,1645835890
lu,A,8,l2-rqsts-rfo-miss,173119448
lu,A,8,l2-store-lock-rqsts-all,1645689648
lu,A,8,l2-store-lock-rqsts-miss,160077243
lu,A,8,l2-trans-rfo,1675990931
lu,A,8,offcore-requests-outstanding-demand-rfo,15434819752
lu,A,8,offcore-response-demand-rfo-llc-hit-hitm-other-core,56560
lu,A,8,offcore-response-demand-rfo-llc-miss-remote-hitm,19345
lu,A,8,offcore-response-all-reads-llc-hit-any-response,3935362936
lu,A,8,offcore-response-all-reads-llc-miss-any-response,488195968
