lu,A,1,cycles,119646943247
lu,A,1,L1-dcache-loads,59617991875
lu,A,1,L1-dcache-load-misses,4920342686
lu,A,1,L1-dcache-stores,26795178317
lu,A,1,LLC-loads,643003013
lu,A,1,LLC-load-misses,216135302
lu,A,1,LLC-stores,219810053
lu,A,1,offcore-requests-demand-rfo,176152194
lu,A,1,l2-rqsts-all-rfo,1633468001
lu,A,1,l2-rqsts-rfo-miss,170063908
lu,A,1,l2-store-lock-rqsts-all,1635110443
lu,A,1,l2-store-lock-rqsts-miss,169416504
lu,A,1,l2-trans-rfo,1648365688
lu,A,1,offcore-requests-outstanding-demand-rfo,6036296182
lu,A,1,offcore-response-demand-rfo-llc-hit-hitm-other-core,72
lu,A,1,offcore-response-demand-rfo-llc-miss-remote-hitm,1347
lu,A,1,offcore-response-all-reads-llc-hit-any-response,4155902555
lu,A,1,offcore-response-all-reads-llc-miss-any-response,496100479
lu,A,2,cycles,122176697478
lu,A,2,L1-dcache-loads,59709414490
lu,A,2,L1-dcache-load-misses,4915180509
lu,A,2,L1-dcache-stores,26798371869
lu,A,2,LLC-loads,716849621
lu,A,2,LLC-load-misses,225219667
lu,A,2,LLC-stores,242802715
lu,A,2,offcore-requests-demand-rfo,186037338
lu,A,2,l2-rqsts-all-rfo,1642724495
lu,A,2,l2-rqsts-rfo-miss,179802966
lu,A,2,l2-store-lock-rqsts-all,1642161297
lu,A,2,l2-store-lock-rqsts-miss,172237340
lu,A,2,l2-trans-rfo,1656389492
lu,A,2,offcore-requests-outstanding-demand-rfo,7710674888
lu,A,2,offcore-response-demand-rfo-llc-hit-hitm-other-core,15444
lu,A,2,offcore-response-demand-rfo-llc-miss-remote-hitm,24344
lu,A,2,offcore-response-all-reads-llc-hit-any-response,4211390828
lu,A,2,offcore-response-all-reads-llc-miss-any-response,501782344
lu,A,4,cycles,131380675852
lu,A,4,L1-dcache-loads,60028949632
lu,A,4,L1-dcache-load-misses,4917321536
lu,A,4,L1-dcache-stores,26806227747
lu,A,4,LLC-loads,775498541
lu,A,4,LLC-load-misses,229614443
lu,A,4,LLC-stores,250453965
lu,A,4,offcore-requests-demand-rfo,187198588
lu,A,4,l2-rqsts-all-rfo,1642426132
lu,A,4,l2-rqsts-rfo-miss,178920510
lu,A,4,l2-store-lock-rqsts-all,1642796885
lu,A,4,l2-store-lock-rqsts-miss,170702901
lu,A,4,l2-trans-rfo,1659236629
lu,A,4,offcore-requests-outstanding-demand-rfo,10625057697
lu,A,4,offcore-response-demand-rfo-llc-hit-hitm-other-core,33540
lu,A,4,offcore-response-demand-rfo-llc-miss-remote-hitm,20441
lu,A,4,offcore-response-all-reads-llc-hit-any-response,4244919171
lu,A,4,offcore-response-all-reads-llc-miss-any-response,500703328
lu,A,8,cycles,142570594849
lu,A,8,L1-dcache-loads,60287594696
lu,A,8,L1-dcache-load-misses,4931482561
lu,A,8,L1-dcache-stores,26820082429
lu,A,8,LLC-loads,737479571
lu,A,8,LLC-load-misses,217479496
lu,A,8,LLC-stores,247383436
lu,A,8,offcore-requests-demand-rfo,179875995
lu,A,8,l2-rqsts-all-rfo,1645709267
lu,A,8,l2-rqsts-rfo-miss,173750299
lu,A,8,l2-store-lock-rqsts-all,1645352294
lu,A,8,l2-store-lock-rqsts-miss,160561695
lu,A,8,l2-trans-rfo,1674006312
lu,A,8,offcore-requests-outstanding-demand-rfo,15262141766
lu,A,8,offcore-response-demand-rfo-llc-hit-hitm-other-core,53858
lu,A,8,offcore-response-demand-rfo-llc-miss-remote-hitm,19189
lu,A,8,offcore-response-all-reads-llc-hit-any-response,3926303797
lu,A,8,offcore-response-all-reads-llc-miss-any-response,486080397
