lu,A,1,cycles,118386799354
lu,A,1,L1-dcache-loads,59617929340
lu,A,1,L1-dcache-load-misses,4929226222
lu,A,1,L1-dcache-stores,26795137998
lu,A,1,LLC-loads,639550068
lu,A,1,LLC-load-misses,217940648
lu,A,1,LLC-stores,220434283
lu,A,1,offcore-requests-demand-rfo,177063778
lu,A,1,l2-rqsts-all-rfo,1634109513
lu,A,1,l2-rqsts-rfo-miss,169830122
lu,A,1,l2-store-lock-rqsts-all,1635899589
lu,A,1,l2-store-lock-rqsts-miss,170878092
lu,A,1,l2-trans-rfo,1646980494
lu,A,1,offcore-requests-outstanding-demand-rfo,6008018193
lu,A,1,offcore-response-demand-rfo-llc-hit-hitm-other-core,86
lu,A,1,offcore-response-demand-rfo-llc-miss-remote-hitm,1342
lu,A,1,offcore-response-all-reads-llc-hit-any-response,4156531999
lu,A,1,offcore-response-all-reads-llc-miss-any-response,501602363
lu,A,2,cycles,121917431108
lu,A,2,L1-dcache-loads,59681428304
lu,A,2,L1-dcache-load-misses,4915351207
lu,A,2,L1-dcache-stores,26798352477
lu,A,2,LLC-loads,720320698
lu,A,2,LLC-load-misses,223182157
lu,A,2,LLC-stores,244426500
lu,A,2,offcore-requests-demand-rfo,186252626
lu,A,2,l2-rqsts-all-rfo,1642842552
lu,A,2,l2-rqsts-rfo-miss,179586330
lu,A,2,l2-store-lock-rqsts-all,1641093317
lu,A,2,l2-store-lock-rqsts-miss,172130971
lu,A,2,l2-trans-rfo,1656002665
lu,A,2,offcore-requests-outstanding-demand-rfo,7507756486
lu,A,2,offcore-response-demand-rfo-llc-hit-hitm-other-core,16127
lu,A,2,offcore-response-demand-rfo-llc-miss-remote-hitm,24011
lu,A,2,offcore-response-all-reads-llc-hit-any-response,4208720465
lu,A,2,offcore-response-all-reads-llc-miss-any-response,507003133
lu,A,4,cycles,131442239049
lu,A,4,L1-dcache-loads,60008622790
lu,A,4,L1-dcache-load-misses,4921510620
lu,A,4,L1-dcache-stores,26805859970
lu,A,4,LLC-loads,780962515
lu,A,4,LLC-load-misses,229055950
lu,A,4,LLC-stores,251287210
lu,A,4,offcore-requests-demand-rfo,187457830
lu,A,4,l2-rqsts-all-rfo,1643565192
lu,A,4,l2-rqsts-rfo-miss,181410021
lu,A,4,l2-store-lock-rqsts-all,1643608031
lu,A,4,l2-store-lock-rqsts-miss,171768857
lu,A,4,l2-trans-rfo,1659405597
lu,A,4,offcore-requests-outstanding-demand-rfo,10496820935
lu,A,4,offcore-response-demand-rfo-llc-hit-hitm-other-core,31711
lu,A,4,offcore-response-demand-rfo-llc-miss-remote-hitm,19349
lu,A,4,offcore-response-all-reads-llc-hit-any-response,4248055008
lu,A,4,offcore-response-all-reads-llc-miss-any-response,502058250
lu,A,8,cycles,143286166855
lu,A,8,L1-dcache-loads,60281030785
lu,A,8,L1-dcache-load-misses,4928590177
lu,A,8,L1-dcache-stores,26820109415
lu,A,8,LLC-loads,737483184
lu,A,8,LLC-load-misses,215540193
lu,A,8,LLC-stores,248057274
lu,A,8,offcore-requests-demand-rfo,181119842
lu,A,8,l2-rqsts-all-rfo,1645923543
lu,A,8,l2-rqsts-rfo-miss,173494370
lu,A,8,l2-store-lock-rqsts-all,1645504566
lu,A,8,l2-store-lock-rqsts-miss,161249181
lu,A,8,l2-trans-rfo,1675655871
lu,A,8,offcore-requests-outstanding-demand-rfo,15718906708
lu,A,8,offcore-response-demand-rfo-llc-hit-hitm-other-core,56347
lu,A,8,offcore-response-demand-rfo-llc-miss-remote-hitm,19141
lu,A,8,offcore-response-all-reads-llc-hit-any-response,3968791381
lu,A,8,offcore-response-all-reads-llc-miss-any-response,487077945
