lu,A,1,cycles,119117232106
lu,A,1,L1-dcache-loads,59617990912
lu,A,1,L1-dcache-load-misses,4931544989
lu,A,1,L1-dcache-stores,26795255780
lu,A,1,LLC-loads,636504845
lu,A,1,LLC-load-misses,221123749
lu,A,1,LLC-stores,220967966
lu,A,1,offcore-requests-demand-rfo,175892901
lu,A,1,l2-rqsts-all-rfo,1635130779
lu,A,1,l2-rqsts-rfo-miss,171073218
lu,A,1,l2-store-lock-rqsts-all,1634853657
lu,A,1,l2-store-lock-rqsts-miss,170303693
lu,A,1,l2-trans-rfo,1648608486
lu,A,1,offcore-requests-outstanding-demand-rfo,5906792553
lu,A,1,offcore-response-demand-rfo-llc-hit-hitm-other-core,195
lu,A,1,offcore-response-demand-rfo-llc-miss-remote-hitm,1259
lu,A,1,offcore-response-all-reads-llc-hit-any-response,4153672771
lu,A,1,offcore-response-all-reads-llc-miss-any-response,497289844
lu,A,2,cycles,121180286191
lu,A,2,L1-dcache-loads,59695064928
lu,A,2,L1-dcache-load-misses,4921237640
lu,A,2,L1-dcache-stores,26798436392
lu,A,2,LLC-loads,724069022
lu,A,2,LLC-load-misses,222889036
lu,A,2,LLC-stores,245085309
lu,A,2,offcore-requests-demand-rfo,186596735
lu,A,2,l2-rqsts-all-rfo,1641785540
lu,A,2,l2-rqsts-rfo-miss,180040683
lu,A,2,l2-store-lock-rqsts-all,1641439408
lu,A,2,l2-store-lock-rqsts-miss,171718502
lu,A,2,l2-trans-rfo,1655410263
lu,A,2,offcore-requests-outstanding-demand-rfo,7979695389
lu,A,2,offcore-response-demand-rfo-llc-hit-hitm-other-core,16115
lu,A,2,offcore-response-demand-rfo-llc-miss-remote-hitm,23522
lu,A,2,offcore-response-all-reads-llc-hit-any-response,4219951462
lu,A,2,offcore-response-all-reads-llc-miss-any-response,505871806
lu,A,4,cycles,131432866782
lu,A,4,L1-dcache-loads,60000569803
lu,A,4,L1-dcache-load-misses,4917821944
lu,A,4,L1-dcache-stores,26805920520
lu,A,4,LLC-loads,782814833
lu,A,4,LLC-load-misses,229193787
lu,A,4,LLC-stores,251969371
lu,A,4,offcore-requests-demand-rfo,186891626
lu,A,4,l2-rqsts-all-rfo,1643520278
lu,A,4,l2-rqsts-rfo-miss,179415810
lu,A,4,l2-store-lock-rqsts-all,1643709914
lu,A,4,l2-store-lock-rqsts-miss,170532119
lu,A,4,l2-trans-rfo,1659428089
lu,A,4,offcore-requests-outstanding-demand-rfo,10088134009
lu,A,4,offcore-response-demand-rfo-llc-hit-hitm-other-core,32372
lu,A,4,offcore-response-demand-rfo-llc-miss-remote-hitm,18533
lu,A,4,offcore-response-all-reads-llc-hit-any-response,4239638890
lu,A,4,offcore-response-all-reads-llc-miss-any-response,500053662
lu,A,8,cycles,142671505541
lu,A,8,L1-dcache-loads,60279707113
lu,A,8,L1-dcache-load-misses,4928562075
lu,A,8,L1-dcache-stores,26820114007
lu,A,8,LLC-loads,731364522
lu,A,8,LLC-load-misses,215949273
lu,A,8,LLC-stores,248953135
lu,A,8,offcore-requests-demand-rfo,180054424
lu,A,8,l2-rqsts-all-rfo,1645423801
lu,A,8,l2-rqsts-rfo-miss,174327407
lu,A,8,l2-store-lock-rqsts-all,1645292770
lu,A,8,l2-store-lock-rqsts-miss,160599570
lu,A,8,l2-trans-rfo,1675869939
lu,A,8,offcore-requests-outstanding-demand-rfo,15499818799
lu,A,8,offcore-response-demand-rfo-llc-hit-hitm-other-core,53902
lu,A,8,offcore-response-demand-rfo-llc-miss-remote-hitm,19552
lu,A,8,offcore-response-all-reads-llc-hit-any-response,3972034524
lu,A,8,offcore-response-all-reads-llc-miss-any-response,489201888
