lu,A,1,cycles,120110565271
lu,A,1,L1-dcache-loads,59618037335
lu,A,1,L1-dcache-load-misses,4910919354
lu,A,1,L1-dcache-stores,26795208514
lu,A,1,LLC-loads,650836820
lu,A,1,LLC-load-misses,215950015
lu,A,1,LLC-stores,222175362
lu,A,1,offcore-requests-demand-rfo,177980251
lu,A,1,l2-rqsts-all-rfo,1633260356
lu,A,1,l2-rqsts-rfo-miss,170907262
lu,A,1,l2-store-lock-rqsts-all,1632166001
lu,A,1,l2-store-lock-rqsts-miss,171427276
lu,A,1,l2-trans-rfo,1649353342
lu,A,1,offcore-requests-outstanding-demand-rfo,6164655282
lu,A,1,offcore-response-demand-rfo-llc-hit-hitm-other-core,80
lu,A,1,offcore-response-demand-rfo-llc-miss-remote-hitm,1445
lu,A,1,offcore-response-all-reads-llc-hit-any-response,4143002345
lu,A,1,offcore-response-all-reads-llc-miss-any-response,502026346
lu,A,2,cycles,122488373134
lu,A,2,L1-dcache-loads,59705070320
lu,A,2,L1-dcache-load-misses,4915290607
lu,A,2,L1-dcache-stores,26798394757
lu,A,2,LLC-loads,709045899
lu,A,2,LLC-load-misses,226717244
lu,A,2,LLC-stores,245683995
lu,A,2,offcore-requests-demand-rfo,189086351
lu,A,2,l2-rqsts-all-rfo,1641323925
lu,A,2,l2-rqsts-rfo-miss,181464294
lu,A,2,l2-store-lock-rqsts-all,1642771272
lu,A,2,l2-store-lock-rqsts-miss,174196410
lu,A,2,l2-trans-rfo,1656305166
lu,A,2,offcore-requests-outstanding-demand-rfo,8153746572
lu,A,2,offcore-response-demand-rfo-llc-hit-hitm-other-core,15471
lu,A,2,offcore-response-demand-rfo-llc-miss-remote-hitm,22848
lu,A,2,offcore-response-all-reads-llc-hit-any-response,4215382795
lu,A,2,offcore-response-all-reads-llc-miss-any-response,509775153
lu,A,4,cycles,131691803622
lu,A,4,L1-dcache-loads,59988836711
lu,A,4,L1-dcache-load-misses,4916271761
lu,A,4,L1-dcache-stores,26805928441
lu,A,4,LLC-loads,790802253
lu,A,4,LLC-load-misses,229707663
lu,A,4,LLC-stores,252092062
lu,A,4,offcore-requests-demand-rfo,188732931
lu,A,4,l2-rqsts-all-rfo,1642807896
lu,A,4,l2-rqsts-rfo-miss,181117581
lu,A,4,l2-store-lock-rqsts-all,1642667783
lu,A,4,l2-store-lock-rqsts-miss,172504710
lu,A,4,l2-trans-rfo,1659653375
lu,A,4,offcore-requests-outstanding-demand-rfo,10545147694
lu,A,4,offcore-response-demand-rfo-llc-hit-hitm-other-core,28499
lu,A,4,offcore-response-demand-rfo-llc-miss-remote-hitm,20612
lu,A,4,offcore-response-all-reads-llc-hit-any-response,4249499253
lu,A,4,offcore-response-all-reads-llc-miss-any-response,501788653
lu,A,8,cycles,143427831693
lu,A,8,L1-dcache-loads,60307857446
lu,A,8,L1-dcache-load-misses,4930587097
lu,A,8,L1-dcache-stores,26820188199
lu,A,8,LLC-loads,728779697
lu,A,8,LLC-load-misses,215898217
lu,A,8,LLC-stores,248800208
lu,A,8,offcore-requests-demand-rfo,182928078
lu,A,8,l2-rqsts-all-rfo,1645341331
lu,A,8,l2-rqsts-rfo-miss,173290902
lu,A,8,l2-store-lock-rqsts-all,1645462716
lu,A,8,l2-store-lock-rqsts-miss,161174639
lu,A,8,l2-trans-rfo,1676916811
lu,A,8,offcore-requests-outstanding-demand-rfo,16446786463
lu,A,8,offcore-response-demand-rfo-llc-hit-hitm-other-core,54399
lu,A,8,offcore-response-demand-rfo-llc-miss-remote-hitm,16713
lu,A,8,offcore-response-all-reads-llc-hit-any-response,4013660392
lu,A,8,offcore-response-all-reads-llc-miss-any-response,490436266
