lu,A,1,cycles,119826510091
lu,A,1,L1-dcache-loads,59618022674
lu,A,1,L1-dcache-load-misses,4915137588
lu,A,1,L1-dcache-stores,26795203582
lu,A,1,LLC-loads,647358343
lu,A,1,LLC-load-misses,217754710
lu,A,1,LLC-stores,220154851
lu,A,1,offcore-requests-demand-rfo,176123321
lu,A,1,l2-rqsts-all-rfo,1632736967
lu,A,1,l2-rqsts-rfo-miss,169008545
lu,A,1,l2-store-lock-rqsts-all,1634451732
lu,A,1,l2-store-lock-rqsts-miss,169902978
lu,A,1,l2-trans-rfo,1649378026
lu,A,1,offcore-requests-outstanding-demand-rfo,6461797413
lu,A,1,offcore-response-demand-rfo-llc-hit-hitm-other-core,106
lu,A,1,offcore-response-demand-rfo-llc-miss-remote-hitm,1659
lu,A,1,offcore-response-all-reads-llc-hit-any-response,4156760037
lu,A,1,offcore-response-all-reads-llc-miss-any-response,500951499
lu,A,2,cycles,122322822166
lu,A,2,L1-dcache-loads,59722769856
lu,A,2,L1-dcache-load-misses,4914592561
lu,A,2,L1-dcache-stores,26798380538
lu,A,2,LLC-loads,721765195
lu,A,2,LLC-load-misses,224313078
lu,A,2,LLC-stores,244858384
lu,A,2,offcore-requests-demand-rfo,186997852
lu,A,2,l2-rqsts-all-rfo,1642014346
lu,A,2,l2-rqsts-rfo-miss,179542511
lu,A,2,l2-store-lock-rqsts-all,1642644265
lu,A,2,l2-store-lock-rqsts-miss,173502548
lu,A,2,l2-trans-rfo,1655919346
lu,A,2,offcore-requests-outstanding-demand-rfo,7658545786
lu,A,2,offcore-response-demand-rfo-llc-hit-hitm-other-core,18244
lu,A,2,offcore-response-demand-rfo-llc-miss-remote-hitm,22110
lu,A,2,offcore-response-all-reads-llc-hit-any-response,4221310676
lu,A,2,offcore-response-all-reads-llc-miss-any-response,506788727
lu,A,4,cycles,131609322215
lu,A,4,L1-dcache-loads,60028182742
lu,A,4,L1-dcache-load-misses,4919151344
lu,A,4,L1-dcache-stores,26805760205
lu,A,4,LLC-loads,780356965
lu,A,4,LLC-load-misses,228238253
lu,A,4,LLC-stores,252074434
lu,A,4,offcore-requests-demand-rfo,187461867
lu,A,4,l2-rqsts-all-rfo,1643426747
lu,A,4,l2-rqsts-rfo-miss,181329531
lu,A,4,l2-store-lock-rqsts-all,1643477118
lu,A,4,l2-store-lock-rqsts-miss,170891605
lu,A,4,l2-trans-rfo,1658980059
lu,A,4,offcore-requests-outstanding-demand-rfo,9985067606
lu,A,4,offcore-response-demand-rfo-llc-hit-hitm-other-core,32056
lu,A,4,offcore-response-demand-rfo-llc-miss-remote-hitm,20049
lu,A,4,offcore-response-all-reads-llc-hit-any-response,4247982235
lu,A,4,offcore-response-all-reads-llc-miss-any-response,503684658
lu,A,8,cycles,143146831693
lu,A,8,L1-dcache-loads,60292677217
lu,A,8,L1-dcache-load-misses,4930683435
lu,A,8,L1-dcache-stores,26820113398
lu,A,8,LLC-loads,730324617
lu,A,8,LLC-load-misses,216200791
lu,A,8,LLC-stores,247178606
lu,A,8,offcore-requests-demand-rfo,181008747
lu,A,8,l2-rqsts-all-rfo,1645949052
lu,A,8,l2-rqsts-rfo-miss,172709391
lu,A,8,l2-store-lock-rqsts-all,1645585227
lu,A,8,l2-store-lock-rqsts-miss,161466760
lu,A,8,l2-trans-rfo,1676281047
lu,A,8,offcore-requests-outstanding-demand-rfo,15608508383
lu,A,8,offcore-response-demand-rfo-llc-hit-hitm-other-core,58012
lu,A,8,offcore-response-demand-rfo-llc-miss-remote-hitm,19411
lu,A,8,offcore-response-all-reads-llc-hit-any-response,3951410409
lu,A,8,offcore-response-all-reads-llc-miss-any-response,491381920
