mg,A,1,cycles,6432015027
mg,A,1,L1-dcache-loads,5177212430
mg,A,1,L1-dcache-load-misses,333781869
mg,A,1,L1-dcache-stores,1369555472
mg,A,1,LLC-loads,81661913
mg,A,1,LLC-load-misses,31985106
mg,A,1,LLC-stores,35422573
mg,A,1,offcore-requests-demand-rfo,25472118
mg,A,1,l2-rqsts-all-rfo,45840400
mg,A,1,l2-rqsts-rfo-miss,19076334
mg,A,1,l2-store-lock-rqsts-all,45929171
mg,A,1,l2-store-lock-rqsts-miss,18419818
mg,A,1,l2-trans-rfo,54338295
mg,A,1,offcore-requests-outstanding-demand-rfo,4249271022
mg,A,1,offcore-response-demand-rfo-llc-hit-hitm-other-core,48
mg,A,1,offcore-response-demand-rfo-llc-miss-remote-hitm,579
mg,A,1,offcore-response-all-reads-llc-hit-any-response,143366186
mg,A,1,offcore-response-all-reads-llc-miss-any-response,163840130
mg,A,2,cycles,6656204436
mg,A,2,L1-dcache-loads,5179137041
mg,A,2,L1-dcache-load-misses,335674633
mg,A,2,L1-dcache-stores,1369260111
mg,A,2,LLC-loads,88695740
mg,A,2,LLC-load-misses,34519496
mg,A,2,LLC-stores,38694725
mg,A,2,offcore-requests-demand-rfo,26621817
mg,A,2,l2-rqsts-all-rfo,46415283
mg,A,2,l2-rqsts-rfo-miss,19718732
mg,A,2,l2-store-lock-rqsts-all,46299955
mg,A,2,l2-store-lock-rqsts-miss,19485567
mg,A,2,l2-trans-rfo,54750359
mg,A,2,offcore-requests-outstanding-demand-rfo,4635190615
mg,A,2,offcore-response-demand-rfo-llc-hit-hitm-other-core,123580
mg,A,2,offcore-response-demand-rfo-llc-miss-remote-hitm,1506
mg,A,2,offcore-response-all-reads-llc-hit-any-response,150985750
mg,A,2,offcore-response-all-reads-llc-miss-any-response,164469924
mg,A,4,cycles,7884244536
mg,A,4,L1-dcache-loads,5179804535
mg,A,4,L1-dcache-load-misses,333267265
mg,A,4,L1-dcache-stores,1369486954
mg,A,4,LLC-loads,123874583
mg,A,4,LLC-load-misses,47788174
mg,A,4,LLC-stores,45174905
mg,A,4,offcore-requests-demand-rfo,29116794
mg,A,4,l2-rqsts-all-rfo,46080995
mg,A,4,l2-rqsts-rfo-miss,21357603
mg,A,4,l2-store-lock-rqsts-all,46082770
mg,A,4,l2-store-lock-rqsts-miss,21241701
mg,A,4,l2-trans-rfo,66324545
mg,A,4,offcore-requests-outstanding-demand-rfo,6667739294
mg,A,4,offcore-response-demand-rfo-llc-hit-hitm-other-core,151643
mg,A,4,offcore-response-demand-rfo-llc-miss-remote-hitm,1344
mg,A,4,offcore-response-all-reads-llc-hit-any-response,169384190
mg,A,4,offcore-response-all-reads-llc-miss-any-response,171188533
mg,A,8,cycles,15016797088
mg,A,8,L1-dcache-loads,5188700494
mg,A,8,L1-dcache-load-misses,331655436
mg,A,8,L1-dcache-stores,1370500896
mg,A,8,LLC-loads,200317897
mg,A,8,LLC-load-misses,93293962
mg,A,8,LLC-stores,50940068
mg,A,8,offcore-requests-demand-rfo,31303894
mg,A,8,l2-rqsts-all-rfo,47175601
mg,A,8,l2-rqsts-rfo-miss,23485918
mg,A,8,l2-store-lock-rqsts-all,47172540
mg,A,8,l2-store-lock-rqsts-miss,23154742
mg,A,8,l2-trans-rfo,129588699
mg,A,8,offcore-requests-outstanding-demand-rfo,11388302109
mg,A,8,offcore-response-demand-rfo-llc-hit-hitm-other-core,173875
mg,A,8,offcore-response-demand-rfo-llc-miss-remote-hitm,1617
mg,A,8,offcore-response-all-reads-llc-hit-any-response,176522813
mg,A,8,offcore-response-all-reads-llc-miss-any-response,205980807
