mg,A,1,cycles,6508938365
mg,A,1,L1-dcache-loads,5177235663
mg,A,1,L1-dcache-load-misses,334319798
mg,A,1,L1-dcache-stores,1369179571
mg,A,1,LLC-loads,80791007
mg,A,1,LLC-load-misses,31961269
mg,A,1,LLC-stores,35587651
mg,A,1,offcore-requests-demand-rfo,25603357
mg,A,1,l2-rqsts-all-rfo,45785624
mg,A,1,l2-rqsts-rfo-miss,18918200
mg,A,1,l2-store-lock-rqsts-all,45583092
mg,A,1,l2-store-lock-rqsts-miss,18747218
mg,A,1,l2-trans-rfo,54641137
mg,A,1,offcore-requests-outstanding-demand-rfo,4251006057
mg,A,1,offcore-response-demand-rfo-llc-hit-hitm-other-core,253
mg,A,1,offcore-response-demand-rfo-llc-miss-remote-hitm,201
mg,A,1,offcore-response-all-reads-llc-hit-any-response,143161555
mg,A,1,offcore-response-all-reads-llc-miss-any-response,163837742
mg,A,2,cycles,6652601718
mg,A,2,L1-dcache-loads,5179335350
mg,A,2,L1-dcache-load-misses,335895069
mg,A,2,L1-dcache-stores,1369278581
mg,A,2,LLC-loads,88175933
mg,A,2,LLC-load-misses,34329966
mg,A,2,LLC-stores,38493484
mg,A,2,offcore-requests-demand-rfo,26606559
mg,A,2,l2-rqsts-all-rfo,46209135
mg,A,2,l2-rqsts-rfo-miss,19803891
mg,A,2,l2-store-lock-rqsts-all,46284212
mg,A,2,l2-store-lock-rqsts-miss,19462654
mg,A,2,l2-trans-rfo,54798979
mg,A,2,offcore-requests-outstanding-demand-rfo,4607051937
mg,A,2,offcore-response-demand-rfo-llc-hit-hitm-other-core,122614
mg,A,2,offcore-response-demand-rfo-llc-miss-remote-hitm,1422
mg,A,2,offcore-response-all-reads-llc-hit-any-response,151558349
mg,A,2,offcore-response-all-reads-llc-miss-any-response,164458215
mg,A,4,cycles,7845848976
mg,A,4,L1-dcache-loads,5179595852
mg,A,4,L1-dcache-load-misses,333926274
mg,A,4,L1-dcache-stores,1369524862
mg,A,4,LLC-loads,124720208
mg,A,4,LLC-load-misses,48229312
mg,A,4,LLC-stores,45307361
mg,A,4,offcore-requests-demand-rfo,29005649
mg,A,4,l2-rqsts-all-rfo,46208051
mg,A,4,l2-rqsts-rfo-miss,21406008
mg,A,4,l2-store-lock-rqsts-all,46168514
mg,A,4,l2-store-lock-rqsts-miss,21235128
mg,A,4,l2-trans-rfo,65921075
mg,A,4,offcore-requests-outstanding-demand-rfo,6390251511
mg,A,4,offcore-response-demand-rfo-llc-hit-hitm-other-core,150035
mg,A,4,offcore-response-demand-rfo-llc-miss-remote-hitm,1156
mg,A,4,offcore-response-all-reads-llc-hit-any-response,169949536
mg,A,4,offcore-response-all-reads-llc-miss-any-response,171134595
mg,A,8,cycles,15085182159
mg,A,8,L1-dcache-loads,5189442074
mg,A,8,L1-dcache-load-misses,332041109
mg,A,8,L1-dcache-stores,1370550137
mg,A,8,LLC-loads,199419950
mg,A,8,LLC-load-misses,93181224
mg,A,8,LLC-stores,50842494
mg,A,8,offcore-requests-demand-rfo,31331541
mg,A,8,l2-rqsts-all-rfo,47151075
mg,A,8,l2-rqsts-rfo-miss,23542677
mg,A,8,l2-store-lock-rqsts-all,47002230
mg,A,8,l2-store-lock-rqsts-miss,23210312
mg,A,8,l2-trans-rfo,130517665
mg,A,8,offcore-requests-outstanding-demand-rfo,11382598479
mg,A,8,offcore-response-demand-rfo-llc-hit-hitm-other-core,172721
mg,A,8,offcore-response-demand-rfo-llc-miss-remote-hitm,1548
mg,A,8,offcore-response-all-reads-llc-hit-any-response,177681611
mg,A,8,offcore-response-all-reads-llc-miss-any-response,206413622
