sp,A,1,cycles,103671103963
sp,A,1,L1-dcache-loads,60225558061
sp,A,1,L1-dcache-load-misses,5350466821
sp,A,1,L1-dcache-stores,25795804057
sp,A,1,LLC-loads,1725762773
sp,A,1,LLC-load-misses,423437083
sp,A,1,LLC-stores,252605146
sp,A,1,offcore-requests-demand-rfo,196110115
sp,A,1,l2-rqsts-all-rfo,714081922
sp,A,1,l2-rqsts-rfo-miss,180463769
sp,A,1,l2-store-lock-rqsts-all,714108490
sp,A,1,l2-store-lock-rqsts-miss,179886809
sp,A,1,l2-trans-rfo,735899387
sp,A,1,offcore-requests-outstanding-demand-rfo,14627737898
sp,A,1,offcore-response-demand-rfo-llc-hit-hitm-other-core,48
sp,A,1,offcore-response-demand-rfo-llc-miss-remote-hitm,1144
sp,A,1,offcore-response-all-reads-llc-hit-any-response,4429204259
sp,A,1,offcore-response-all-reads-llc-miss-any-response,1371858823
sp,A,2,cycles,108349702839
sp,A,2,L1-dcache-loads,60294062443
sp,A,2,L1-dcache-load-misses,5357690977
sp,A,2,L1-dcache-stores,25796615235
sp,A,2,LLC-loads,1799871095
sp,A,2,LLC-load-misses,443522464
sp,A,2,LLC-stores,275690452
sp,A,2,offcore-requests-demand-rfo,204117733
sp,A,2,l2-rqsts-all-rfo,716503011
sp,A,2,l2-rqsts-rfo-miss,186040679
sp,A,2,l2-store-lock-rqsts-all,716607620
sp,A,2,l2-store-lock-rqsts-miss,185334641
sp,A,2,l2-trans-rfo,739801489
sp,A,2,offcore-requests-outstanding-demand-rfo,19123210165
sp,A,2,offcore-response-demand-rfo-llc-hit-hitm-other-core,25019
sp,A,2,offcore-response-demand-rfo-llc-miss-remote-hitm,19907
sp,A,2,offcore-response-all-reads-llc-hit-any-response,4523863658
sp,A,2,offcore-response-all-reads-llc-miss-any-response,1381967535
sp,A,4,cycles,123293972647
sp,A,4,L1-dcache-loads,60534332857
sp,A,4,L1-dcache-load-misses,5358573950
sp,A,4,L1-dcache-stores,25798928039
sp,A,4,LLC-loads,1977089771
sp,A,4,LLC-load-misses,542858899
sp,A,4,LLC-stores,308203313
sp,A,4,offcore-requests-demand-rfo,211365157
sp,A,4,l2-rqsts-all-rfo,719618953
sp,A,4,l2-rqsts-rfo-miss,191638885
sp,A,4,l2-store-lock-rqsts-all,719652835
sp,A,4,l2-store-lock-rqsts-miss,191276776
sp,A,4,l2-trans-rfo,755704736
sp,A,4,offcore-requests-outstanding-demand-rfo,27480390986
sp,A,4,offcore-response-demand-rfo-llc-hit-hitm-other-core,42319
sp,A,4,offcore-response-demand-rfo-llc-miss-remote-hitm,18446
sp,A,4,offcore-response-all-reads-llc-hit-any-response,4699768661
sp,A,4,offcore-response-all-reads-llc-miss-any-response,1417051854
sp,A,8,cycles,168332902604
sp,A,8,L1-dcache-loads,60638985902
sp,A,8,L1-dcache-load-misses,5363778635
sp,A,8,L1-dcache-stores,25804858922
sp,A,8,LLC-loads,2304772564
sp,A,8,LLC-load-misses,691330212
sp,A,8,LLC-stores,322931242
sp,A,8,offcore-requests-demand-rfo,219680592
sp,A,8,l2-rqsts-all-rfo,723545647
sp,A,8,l2-rqsts-rfo-miss,205328737
sp,A,8,l2-store-lock-rqsts-all,723694978
sp,A,8,l2-store-lock-rqsts-miss,199694815
sp,A,8,l2-trans-rfo,858864382
sp,A,8,offcore-requests-outstanding-demand-rfo,45793578796
sp,A,8,offcore-response-demand-rfo-llc-hit-hitm-other-core,76994
sp,A,8,offcore-response-demand-rfo-llc-miss-remote-hitm,20047
sp,A,8,offcore-response-all-reads-llc-hit-any-response,4743376802
sp,A,8,offcore-response-all-reads-llc-miss-any-response,1473138821
