sp,A,1,cycles,103236264007
sp,A,1,L1-dcache-loads,60225690934
sp,A,1,L1-dcache-load-misses,5351803216
sp,A,1,L1-dcache-stores,25796001488
sp,A,1,LLC-loads,1670302328
sp,A,1,LLC-load-misses,414842073
sp,A,1,LLC-stores,256479288
sp,A,1,offcore-requests-demand-rfo,202981462
sp,A,1,l2-rqsts-all-rfo,714204522
sp,A,1,l2-rqsts-rfo-miss,180813637
sp,A,1,l2-store-lock-rqsts-all,714036919
sp,A,1,l2-store-lock-rqsts-miss,183070933
sp,A,1,l2-trans-rfo,736136957
sp,A,1,offcore-requests-outstanding-demand-rfo,14227208675
sp,A,1,offcore-response-demand-rfo-llc-hit-hitm-other-core,75
sp,A,1,offcore-response-demand-rfo-llc-miss-remote-hitm,1099
sp,A,1,offcore-response-all-reads-llc-hit-any-response,4504249856
sp,A,1,offcore-response-all-reads-llc-miss-any-response,1374985684
sp,A,2,cycles,107467353614
sp,A,2,L1-dcache-loads,60289174946
sp,A,2,L1-dcache-load-misses,5358007582
sp,A,2,L1-dcache-stores,25796647066
sp,A,2,LLC-loads,1780465806
sp,A,2,LLC-load-misses,440310629
sp,A,2,LLC-stores,276944652
sp,A,2,offcore-requests-demand-rfo,202052165
sp,A,2,l2-rqsts-all-rfo,716535027
sp,A,2,l2-rqsts-rfo-miss,182140413
sp,A,2,l2-store-lock-rqsts-all,716517150
sp,A,2,l2-store-lock-rqsts-miss,184647755
sp,A,2,l2-trans-rfo,739970444
sp,A,2,offcore-requests-outstanding-demand-rfo,18578159937
sp,A,2,offcore-response-demand-rfo-llc-hit-hitm-other-core,25806
sp,A,2,offcore-response-demand-rfo-llc-miss-remote-hitm,19761
sp,A,2,offcore-response-all-reads-llc-hit-any-response,4571167724
sp,A,2,offcore-response-all-reads-llc-miss-any-response,1379435410
sp,A,4,cycles,122062612908
sp,A,4,L1-dcache-loads,60542502125
sp,A,4,L1-dcache-load-misses,5357388903
sp,A,4,L1-dcache-stores,25798976090
sp,A,4,LLC-loads,2002269018
sp,A,4,LLC-load-misses,551226025
sp,A,4,LLC-stores,305748379
sp,A,4,offcore-requests-demand-rfo,209956139
sp,A,4,l2-rqsts-all-rfo,719807574
sp,A,4,l2-rqsts-rfo-miss,191371026
sp,A,4,l2-store-lock-rqsts-all,719816507
sp,A,4,l2-store-lock-rqsts-miss,188214506
sp,A,4,l2-trans-rfo,757499035
sp,A,4,offcore-requests-outstanding-demand-rfo,27204305929
sp,A,4,offcore-response-demand-rfo-llc-hit-hitm-other-core,44898
sp,A,4,offcore-response-demand-rfo-llc-miss-remote-hitm,18759
sp,A,4,offcore-response-all-reads-llc-hit-any-response,4695758996
sp,A,4,offcore-response-all-reads-llc-miss-any-response,1407782544
sp,A,8,cycles,168299303884
sp,A,8,L1-dcache-loads,60641674651
sp,A,8,L1-dcache-load-misses,5363438325
sp,A,8,L1-dcache-stores,25804871151
sp,A,8,LLC-loads,2304697274
sp,A,8,LLC-load-misses,685596403
sp,A,8,LLC-stores,320496479
sp,A,8,offcore-requests-demand-rfo,217421635
sp,A,8,l2-rqsts-all-rfo,723789057
sp,A,8,l2-rqsts-rfo-miss,202310824
sp,A,8,l2-store-lock-rqsts-all,723548746
sp,A,8,l2-store-lock-rqsts-miss,197225757
sp,A,8,l2-trans-rfo,856183349
sp,A,8,offcore-requests-outstanding-demand-rfo,46126565566
sp,A,8,offcore-response-demand-rfo-llc-hit-hitm-other-core,71867
sp,A,8,offcore-response-demand-rfo-llc-miss-remote-hitm,18673
sp,A,8,offcore-response-all-reads-llc-hit-any-response,4742037748
sp,A,8,offcore-response-all-reads-llc-miss-any-response,1485223158
