sp,A,1,cycles,104836035926
sp,A,1,L1-dcache-loads,60225877977
sp,A,1,L1-dcache-load-misses,5349724813
sp,A,1,L1-dcache-stores,25795933369
sp,A,1,LLC-loads,1660565122
sp,A,1,LLC-load-misses,412200035
sp,A,1,LLC-stores,251449006
sp,A,1,offcore-requests-demand-rfo,197797182
sp,A,1,l2-rqsts-all-rfo,713964186
sp,A,1,l2-rqsts-rfo-miss,180304394
sp,A,1,l2-store-lock-rqsts-all,714046335
sp,A,1,l2-store-lock-rqsts-miss,181221052
sp,A,1,l2-trans-rfo,736008451
sp,A,1,offcore-requests-outstanding-demand-rfo,12126816522
sp,A,1,offcore-response-demand-rfo-llc-hit-hitm-other-core,79
sp,A,1,offcore-response-demand-rfo-llc-miss-remote-hitm,1747
sp,A,1,offcore-response-all-reads-llc-hit-any-response,4549908034
sp,A,1,offcore-response-all-reads-llc-miss-any-response,1368464021
sp,A,2,cycles,107940211660
sp,A,2,L1-dcache-loads,60246981332
sp,A,2,L1-dcache-load-misses,5356965362
sp,A,2,L1-dcache-stores,25797010923
sp,A,2,LLC-loads,1774694532
sp,A,2,LLC-load-misses,449941671
sp,A,2,LLC-stores,277844727
sp,A,2,offcore-requests-demand-rfo,199860165
sp,A,2,l2-rqsts-all-rfo,716683241
sp,A,2,l2-rqsts-rfo-miss,182109677
sp,A,2,l2-store-lock-rqsts-all,716698336
sp,A,2,l2-store-lock-rqsts-miss,182902604
sp,A,2,l2-trans-rfo,740318957
sp,A,2,offcore-requests-outstanding-demand-rfo,18424710197
sp,A,2,offcore-response-demand-rfo-llc-hit-hitm-other-core,25524
sp,A,2,offcore-response-demand-rfo-llc-miss-remote-hitm,22048
sp,A,2,offcore-response-all-reads-llc-hit-any-response,4559547901
sp,A,2,offcore-response-all-reads-llc-miss-any-response,1387280641
sp,A,4,cycles,123475793112
sp,A,4,L1-dcache-loads,60517259258
sp,A,4,L1-dcache-load-misses,5356957267
sp,A,4,L1-dcache-stores,25799016352
sp,A,4,LLC-loads,1982625637
sp,A,4,LLC-load-misses,558951150
sp,A,4,LLC-stores,304755531
sp,A,4,offcore-requests-demand-rfo,210055021
sp,A,4,l2-rqsts-all-rfo,720044781
sp,A,4,l2-rqsts-rfo-miss,190414409
sp,A,4,l2-store-lock-rqsts-all,719901970
sp,A,4,l2-store-lock-rqsts-miss,188784913
sp,A,4,l2-trans-rfo,759189927
sp,A,4,offcore-requests-outstanding-demand-rfo,26435339864
sp,A,4,offcore-response-demand-rfo-llc-hit-hitm-other-core,41664
sp,A,4,offcore-response-demand-rfo-llc-miss-remote-hitm,18910
sp,A,4,offcore-response-all-reads-llc-hit-any-response,4716879899
sp,A,4,offcore-response-all-reads-llc-miss-any-response,1402432168
sp,A,8,cycles,168538092194
sp,A,8,L1-dcache-loads,60664968161
sp,A,8,L1-dcache-load-misses,5360506224
sp,A,8,L1-dcache-stores,25804848493
sp,A,8,LLC-loads,2297365248
sp,A,8,LLC-load-misses,679689828
sp,A,8,LLC-stores,320163234
sp,A,8,offcore-requests-demand-rfo,218221841
sp,A,8,l2-rqsts-all-rfo,724187547
sp,A,8,l2-rqsts-rfo-miss,202196900
sp,A,8,l2-store-lock-rqsts-all,724084557
sp,A,8,l2-store-lock-rqsts-miss,198554262
sp,A,8,l2-trans-rfo,868917706
sp,A,8,offcore-requests-outstanding-demand-rfo,46200908666
sp,A,8,offcore-response-demand-rfo-llc-hit-hitm-other-core,71161
sp,A,8,offcore-response-demand-rfo-llc-miss-remote-hitm,21052
sp,A,8,offcore-response-all-reads-llc-hit-any-response,4759525125
sp,A,8,offcore-response-all-reads-llc-miss-any-response,1469150188
