sp,A,1,cycles,103122470477
sp,A,1,L1-dcache-loads,60225532286
sp,A,1,L1-dcache-load-misses,5351154562
sp,A,1,L1-dcache-stores,25795970388
sp,A,1,LLC-loads,1659036653
sp,A,1,LLC-load-misses,435693209
sp,A,1,LLC-stores,253576010
sp,A,1,offcore-requests-demand-rfo,198827629
sp,A,1,l2-rqsts-all-rfo,714115300
sp,A,1,l2-rqsts-rfo-miss,182266295
sp,A,1,l2-store-lock-rqsts-all,714089630
sp,A,1,l2-store-lock-rqsts-miss,181351589
sp,A,1,l2-trans-rfo,736020707
sp,A,1,offcore-requests-outstanding-demand-rfo,14612926377
sp,A,1,offcore-response-demand-rfo-llc-hit-hitm-other-core,186
sp,A,1,offcore-response-demand-rfo-llc-miss-remote-hitm,1289
sp,A,1,offcore-response-all-reads-llc-hit-any-response,4532309576
sp,A,1,offcore-response-all-reads-llc-miss-any-response,1380689378
sp,A,2,cycles,107606940672
sp,A,2,L1-dcache-loads,60289574641
sp,A,2,L1-dcache-load-misses,5355649142
sp,A,2,L1-dcache-stores,25796573110
sp,A,2,LLC-loads,1797573981
sp,A,2,LLC-load-misses,453539730
sp,A,2,LLC-stores,277613636
sp,A,2,offcore-requests-demand-rfo,201951046
sp,A,2,l2-rqsts-all-rfo,716653012
sp,A,2,l2-rqsts-rfo-miss,185122761
sp,A,2,l2-store-lock-rqsts-all,716727500
sp,A,2,l2-store-lock-rqsts-miss,180638057
sp,A,2,l2-trans-rfo,740028895
sp,A,2,offcore-requests-outstanding-demand-rfo,18613171980
sp,A,2,offcore-response-demand-rfo-llc-hit-hitm-other-core,25587
sp,A,2,offcore-response-demand-rfo-llc-miss-remote-hitm,21361
sp,A,2,offcore-response-all-reads-llc-hit-any-response,4567161745
sp,A,2,offcore-response-all-reads-llc-miss-any-response,1389120477
sp,A,4,cycles,122308163115
sp,A,4,L1-dcache-loads,60529009688
sp,A,4,L1-dcache-load-misses,5358112294
sp,A,4,L1-dcache-stores,25798952702
sp,A,4,LLC-loads,1997637290
sp,A,4,LLC-load-misses,549081561
sp,A,4,LLC-stores,305098267
sp,A,4,offcore-requests-demand-rfo,209951449
sp,A,4,l2-rqsts-all-rfo,720015517
sp,A,4,l2-rqsts-rfo-miss,191962638
sp,A,4,l2-store-lock-rqsts-all,719846665
sp,A,4,l2-store-lock-rqsts-miss,188116465
sp,A,4,l2-trans-rfo,759634476
sp,A,4,offcore-requests-outstanding-demand-rfo,26766634249
sp,A,4,offcore-response-demand-rfo-llc-hit-hitm-other-core,41964
sp,A,4,offcore-response-demand-rfo-llc-miss-remote-hitm,18843
sp,A,4,offcore-response-all-reads-llc-hit-any-response,4712245956
sp,A,4,offcore-response-all-reads-llc-miss-any-response,1412987846
sp,A,8,cycles,167816663191
sp,A,8,L1-dcache-loads,60643456218
sp,A,8,L1-dcache-load-misses,5361777199
sp,A,8,L1-dcache-stores,25804828555
sp,A,8,LLC-loads,2316440747
sp,A,8,LLC-load-misses,694454173
sp,A,8,LLC-stores,322454116
sp,A,8,offcore-requests-demand-rfo,219359496
sp,A,8,l2-rqsts-all-rfo,723508586
sp,A,8,l2-rqsts-rfo-miss,203705404
sp,A,8,l2-store-lock-rqsts-all,723482404
sp,A,8,l2-store-lock-rqsts-miss,197651148
sp,A,8,l2-trans-rfo,864291853
sp,A,8,offcore-requests-outstanding-demand-rfo,46774131407
sp,A,8,offcore-response-demand-rfo-llc-hit-hitm-other-core,79252
sp,A,8,offcore-response-demand-rfo-llc-miss-remote-hitm,20911
sp,A,8,offcore-response-all-reads-llc-hit-any-response,4740417868
sp,A,8,offcore-response-all-reads-llc-miss-any-response,1476580603
