ua,A,1,cycles,122537318056
ua,A,1,L1-dcache-loads,62375691111
ua,A,1,L1-dcache-load-misses,2276847738
ua,A,1,L1-dcache-stores,23242062234
ua,A,1,LLC-loads,909600899
ua,A,1,LLC-load-misses,147839380
ua,A,1,LLC-stores,200548124
ua,A,1,offcore-requests-demand-rfo,135897630
ua,A,1,l2-rqsts-all-rfo,282087352
ua,A,1,l2-rqsts-rfo-miss,111452659
ua,A,1,l2-store-lock-rqsts-all,281654572
ua,A,1,l2-store-lock-rqsts-miss,111373313
ua,A,1,l2-trans-rfo,319419207
ua,A,1,offcore-requests-outstanding-demand-rfo,22336948804
ua,A,1,offcore-response-demand-rfo-llc-hit-hitm-other-core,39
ua,A,1,offcore-response-demand-rfo-llc-miss-remote-hitm,1361
ua,A,1,offcore-response-all-reads-llc-hit-any-response,2509843209
ua,A,1,offcore-response-all-reads-llc-miss-any-response,386357597
ua,A,2,cycles,126042609703
ua,A,2,L1-dcache-loads,62544143348
ua,A,2,L1-dcache-load-misses,2291815476
ua,A,2,L1-dcache-stores,23247384815
ua,A,2,LLC-loads,909445494
ua,A,2,LLC-load-misses,146654548
ua,A,2,LLC-stores,216710708
ua,A,2,offcore-requests-demand-rfo,144296480
ua,A,2,l2-rqsts-all-rfo,289231958
ua,A,2,l2-rqsts-rfo-miss,118150724
ua,A,2,l2-store-lock-rqsts-all,287743092
ua,A,2,l2-store-lock-rqsts-miss,110556880
ua,A,2,l2-trans-rfo,329709754
ua,A,2,offcore-requests-outstanding-demand-rfo,26700624689
ua,A,2,offcore-response-demand-rfo-llc-hit-hitm-other-core,606097
ua,A,2,offcore-response-demand-rfo-llc-miss-remote-hitm,23380
ua,A,2,offcore-response-all-reads-llc-hit-any-response,2541908958
ua,A,2,offcore-response-all-reads-llc-miss-any-response,375473281
ua,A,4,cycles,134404462772
ua,A,4,L1-dcache-loads,62924324374
ua,A,4,L1-dcache-load-misses,2307230052
ua,A,4,L1-dcache-stores,23252651092
ua,A,4,LLC-loads,933710087
ua,A,4,LLC-load-misses,154777800
ua,A,4,LLC-stores,234891677
ua,A,4,offcore-requests-demand-rfo,153863188
ua,A,4,l2-rqsts-all-rfo,299303113
ua,A,4,l2-rqsts-rfo-miss,128546366
ua,A,4,l2-store-lock-rqsts-all,298190044
ua,A,4,l2-store-lock-rqsts-miss,112784231
ua,A,4,l2-trans-rfo,341991185
ua,A,4,offcore-requests-outstanding-demand-rfo,30016973190
ua,A,4,offcore-response-demand-rfo-llc-hit-hitm-other-core,1882782
ua,A,4,offcore-response-demand-rfo-llc-miss-remote-hitm,20267
ua,A,4,offcore-response-all-reads-llc-hit-any-response,2579963251
ua,A,4,offcore-response-all-reads-llc-miss-any-response,383536397
ua,A,8,cycles,150078084088
ua,A,8,L1-dcache-loads,63384046615
ua,A,8,L1-dcache-load-misses,2344933991
ua,A,8,L1-dcache-stores,23262947936
ua,A,8,LLC-loads,967794328
ua,A,8,LLC-load-misses,171406338
ua,A,8,LLC-stores,258575313
ua,A,8,offcore-requests-demand-rfo,172036823
ua,A,8,l2-rqsts-all-rfo,320817155
ua,A,8,l2-rqsts-rfo-miss,145427781
ua,A,8,l2-store-lock-rqsts-all,318704828
ua,A,8,l2-store-lock-rqsts-miss,115892441
ua,A,8,l2-trans-rfo,384756225
ua,A,8,offcore-requests-outstanding-demand-rfo,37914380403
ua,A,8,offcore-response-demand-rfo-llc-hit-hitm-other-core,5375884
ua,A,8,offcore-response-demand-rfo-llc-miss-remote-hitm,17444
ua,A,8,offcore-response-all-reads-llc-hit-any-response,2656510979
ua,A,8,offcore-response-all-reads-llc-miss-any-response,382504163
