ua,A,1,cycles,122765602656
ua,A,1,L1-dcache-loads,62375522932
ua,A,1,L1-dcache-load-misses,2275269475
ua,A,1,L1-dcache-stores,23242020934
ua,A,1,LLC-loads,905359040
ua,A,1,LLC-load-misses,139562999
ua,A,1,LLC-stores,203779836
ua,A,1,offcore-requests-demand-rfo,136841995
ua,A,1,l2-rqsts-all-rfo,281464924
ua,A,1,l2-rqsts-rfo-miss,113808517
ua,A,1,l2-store-lock-rqsts-all,282420492
ua,A,1,l2-store-lock-rqsts-miss,114670003
ua,A,1,l2-trans-rfo,320869217
ua,A,1,offcore-requests-outstanding-demand-rfo,21778158491
ua,A,1,offcore-response-demand-rfo-llc-hit-hitm-other-core,65
ua,A,1,offcore-response-demand-rfo-llc-miss-remote-hitm,1437
ua,A,1,offcore-response-all-reads-llc-hit-any-response,2504517572
ua,A,1,offcore-response-all-reads-llc-miss-any-response,384288770
ua,A,2,cycles,126365736934
ua,A,2,L1-dcache-loads,62546795236
ua,A,2,L1-dcache-load-misses,2290922204
ua,A,2,L1-dcache-stores,23247389848
ua,A,2,LLC-loads,917158673
ua,A,2,LLC-load-misses,155123417
ua,A,2,LLC-stores,218560098
ua,A,2,offcore-requests-demand-rfo,143945009
ua,A,2,l2-rqsts-all-rfo,288366045
ua,A,2,l2-rqsts-rfo-miss,119459313
ua,A,2,l2-store-lock-rqsts-all,288306824
ua,A,2,l2-store-lock-rqsts-miss,111547197
ua,A,2,l2-trans-rfo,329254312
ua,A,2,offcore-requests-outstanding-demand-rfo,27181025948
ua,A,2,offcore-response-demand-rfo-llc-hit-hitm-other-core,604771
ua,A,2,offcore-response-demand-rfo-llc-miss-remote-hitm,21448
ua,A,2,offcore-response-all-reads-llc-hit-any-response,2535614446
ua,A,2,offcore-response-all-reads-llc-miss-any-response,385363272
ua,A,4,cycles,134409079471
ua,A,4,L1-dcache-loads,62926516158
ua,A,4,L1-dcache-load-misses,2307040460
ua,A,4,L1-dcache-stores,23252730050
ua,A,4,LLC-loads,944126058
ua,A,4,LLC-load-misses,157907000
ua,A,4,LLC-stores,235148679
ua,A,4,offcore-requests-demand-rfo,155235234
ua,A,4,l2-rqsts-all-rfo,299004752
ua,A,4,l2-rqsts-rfo-miss,129169440
ua,A,4,l2-store-lock-rqsts-all,298883136
ua,A,4,l2-store-lock-rqsts-miss,113602081
ua,A,4,l2-trans-rfo,342325196
ua,A,4,offcore-requests-outstanding-demand-rfo,29938262009
ua,A,4,offcore-response-demand-rfo-llc-hit-hitm-other-core,1907184
ua,A,4,offcore-response-demand-rfo-llc-miss-remote-hitm,18821
ua,A,4,offcore-response-all-reads-llc-hit-any-response,2567841728
ua,A,4,offcore-response-all-reads-llc-miss-any-response,387374540
ua,A,8,cycles,150215171638
ua,A,8,L1-dcache-loads,63393833085
ua,A,8,L1-dcache-load-misses,2345350266
ua,A,8,L1-dcache-stores,23263047994
ua,A,8,LLC-loads,958519414
ua,A,8,LLC-load-misses,174566725
ua,A,8,LLC-stores,258175676
ua,A,8,offcore-requests-demand-rfo,172466299
ua,A,8,l2-rqsts-all-rfo,320256810
ua,A,8,l2-rqsts-rfo-miss,146658516
ua,A,8,l2-store-lock-rqsts-all,319298345
ua,A,8,l2-store-lock-rqsts-miss,117643478
ua,A,8,l2-trans-rfo,386222985
ua,A,8,offcore-requests-outstanding-demand-rfo,37380435323
ua,A,8,offcore-response-demand-rfo-llc-hit-hitm-other-core,5372378
ua,A,8,offcore-response-demand-rfo-llc-miss-remote-hitm,15687
ua,A,8,offcore-response-all-reads-llc-hit-any-response,2664676047
ua,A,8,offcore-response-all-reads-llc-miss-any-response,375360549
