ua,A,1,cycles,122817828747
ua,A,1,L1-dcache-loads,62375542254
ua,A,1,L1-dcache-load-misses,2277990205
ua,A,1,L1-dcache-stores,23241952627
ua,A,1,LLC-loads,900638691
ua,A,1,LLC-load-misses,145466260
ua,A,1,LLC-stores,200827200
ua,A,1,offcore-requests-demand-rfo,135850883
ua,A,1,l2-rqsts-all-rfo,281692435
ua,A,1,l2-rqsts-rfo-miss,112378038
ua,A,1,l2-store-lock-rqsts-all,281931256
ua,A,1,l2-store-lock-rqsts-miss,111336336
ua,A,1,l2-trans-rfo,319438532
ua,A,1,offcore-requests-outstanding-demand-rfo,22887099992
ua,A,1,offcore-response-demand-rfo-llc-hit-hitm-other-core,175
ua,A,1,offcore-response-demand-rfo-llc-miss-remote-hitm,1360
ua,A,1,offcore-response-all-reads-llc-hit-any-response,2512207697
ua,A,1,offcore-response-all-reads-llc-miss-any-response,370555840
ua,A,2,cycles,126160942299
ua,A,2,L1-dcache-loads,62546309815
ua,A,2,L1-dcache-load-misses,2289723982
ua,A,2,L1-dcache-stores,23247372166
ua,A,2,LLC-loads,903016884
ua,A,2,LLC-load-misses,154491739
ua,A,2,LLC-stores,217032843
ua,A,2,offcore-requests-demand-rfo,144598018
ua,A,2,l2-rqsts-all-rfo,289030899
ua,A,2,l2-rqsts-rfo-miss,119098349
ua,A,2,l2-store-lock-rqsts-all,288063234
ua,A,2,l2-store-lock-rqsts-miss,110849691
ua,A,2,l2-trans-rfo,329605870
ua,A,2,offcore-requests-outstanding-demand-rfo,24890503723
ua,A,2,offcore-response-demand-rfo-llc-hit-hitm-other-core,609416
ua,A,2,offcore-response-demand-rfo-llc-miss-remote-hitm,24950
ua,A,2,offcore-response-all-reads-llc-hit-any-response,2525627634
ua,A,2,offcore-response-all-reads-llc-miss-any-response,383809792
ua,A,4,cycles,134690791491
ua,A,4,L1-dcache-loads,62926252936
ua,A,4,L1-dcache-load-misses,2307188026
ua,A,4,L1-dcache-stores,23252689149
ua,A,4,LLC-loads,940699718
ua,A,4,LLC-load-misses,156050840
ua,A,4,LLC-stores,234480131
ua,A,4,offcore-requests-demand-rfo,155044578
ua,A,4,l2-rqsts-all-rfo,298801062
ua,A,4,l2-rqsts-rfo-miss,128473460
ua,A,4,l2-store-lock-rqsts-all,297600858
ua,A,4,l2-store-lock-rqsts-miss,113292251
ua,A,4,l2-trans-rfo,342316171
ua,A,4,offcore-requests-outstanding-demand-rfo,31637710012
ua,A,4,offcore-response-demand-rfo-llc-hit-hitm-other-core,1904075
ua,A,4,offcore-response-demand-rfo-llc-miss-remote-hitm,20909
ua,A,4,offcore-response-all-reads-llc-hit-any-response,2579161111
ua,A,4,offcore-response-all-reads-llc-miss-any-response,384395377
ua,A,8,cycles,150234729993
ua,A,8,L1-dcache-loads,63391677153
ua,A,8,L1-dcache-load-misses,2343680195
ua,A,8,L1-dcache-stores,23262998629
ua,A,8,LLC-loads,963887781
ua,A,8,LLC-load-misses,168180464
ua,A,8,LLC-stores,259319859
ua,A,8,offcore-requests-demand-rfo,171794189
ua,A,8,l2-rqsts-all-rfo,320577806
ua,A,8,l2-rqsts-rfo-miss,145288114
ua,A,8,l2-store-lock-rqsts-all,319131748
ua,A,8,l2-store-lock-rqsts-miss,116643224
ua,A,8,l2-trans-rfo,386454344
ua,A,8,offcore-requests-outstanding-demand-rfo,38216821962
ua,A,8,offcore-response-demand-rfo-llc-hit-hitm-other-core,5352435
ua,A,8,offcore-response-demand-rfo-llc-miss-remote-hitm,17305
ua,A,8,offcore-response-all-reads-llc-hit-any-response,2659979817
ua,A,8,offcore-response-all-reads-llc-miss-any-response,383719201
