ua,A,1,cycles,122584267847
ua,A,1,L1-dcache-loads,62375736042
ua,A,1,L1-dcache-load-misses,2277540944
ua,A,1,L1-dcache-stores,23242044948
ua,A,1,LLC-loads,913924204
ua,A,1,LLC-load-misses,153039342
ua,A,1,LLC-stores,201510237
ua,A,1,offcore-requests-demand-rfo,135684513
ua,A,1,l2-rqsts-all-rfo,281654301
ua,A,1,l2-rqsts-rfo-miss,112307793
ua,A,1,l2-store-lock-rqsts-all,281356130
ua,A,1,l2-store-lock-rqsts-miss,111353130
ua,A,1,l2-trans-rfo,319928698
ua,A,1,offcore-requests-outstanding-demand-rfo,22374272418
ua,A,1,offcore-response-demand-rfo-llc-hit-hitm-other-core,177
ua,A,1,offcore-response-demand-rfo-llc-miss-remote-hitm,859
ua,A,1,offcore-response-all-reads-llc-hit-any-response,2495670632
ua,A,1,offcore-response-all-reads-llc-miss-any-response,394171895
ua,A,2,cycles,126309829373
ua,A,2,L1-dcache-loads,62544730961
ua,A,2,L1-dcache-load-misses,2290148081
ua,A,2,L1-dcache-stores,23247356958
ua,A,2,LLC-loads,919729005
ua,A,2,LLC-load-misses,155669203
ua,A,2,LLC-stores,218096214
ua,A,2,offcore-requests-demand-rfo,144667058
ua,A,2,l2-rqsts-all-rfo,288415532
ua,A,2,l2-rqsts-rfo-miss,119275633
ua,A,2,l2-store-lock-rqsts-all,288170063
ua,A,2,l2-store-lock-rqsts-miss,111500619
ua,A,2,l2-trans-rfo,329044634
ua,A,2,offcore-requests-outstanding-demand-rfo,25855683045
ua,A,2,offcore-response-demand-rfo-llc-hit-hitm-other-core,608796
ua,A,2,offcore-response-demand-rfo-llc-miss-remote-hitm,23949
ua,A,2,offcore-response-all-reads-llc-hit-any-response,2524614810
ua,A,2,offcore-response-all-reads-llc-miss-any-response,396826108
ua,A,4,cycles,134547541119
ua,A,4,L1-dcache-loads,62928423217
ua,A,4,L1-dcache-load-misses,2307016713
ua,A,4,L1-dcache-stores,23252702073
ua,A,4,LLC-loads,948446579
ua,A,4,LLC-load-misses,165906028
ua,A,4,LLC-stores,235876330
ua,A,4,offcore-requests-demand-rfo,155221046
ua,A,4,l2-rqsts-all-rfo,298950316
ua,A,4,l2-rqsts-rfo-miss,128601307
ua,A,4,l2-store-lock-rqsts-all,298340242
ua,A,4,l2-store-lock-rqsts-miss,112868616
ua,A,4,l2-trans-rfo,342320794
ua,A,4,offcore-requests-outstanding-demand-rfo,31340827841
ua,A,4,offcore-response-demand-rfo-llc-hit-hitm-other-core,1893048
ua,A,4,offcore-response-demand-rfo-llc-miss-remote-hitm,19730
ua,A,4,offcore-response-all-reads-llc-hit-any-response,2574938186
ua,A,4,offcore-response-all-reads-llc-miss-any-response,398797713
ua,A,8,cycles,150391538426
ua,A,8,L1-dcache-loads,63387522801
ua,A,8,L1-dcache-load-misses,2343195631
ua,A,8,L1-dcache-stores,23263051366
ua,A,8,LLC-loads,969753931
ua,A,8,LLC-load-misses,175815826
ua,A,8,LLC-stores,259037465
ua,A,8,offcore-requests-demand-rfo,172075154
ua,A,8,l2-rqsts-all-rfo,321211892
ua,A,8,l2-rqsts-rfo-miss,145191368
ua,A,8,l2-store-lock-rqsts-all,318695163
ua,A,8,l2-store-lock-rqsts-miss,116526029
ua,A,8,l2-trans-rfo,383083509
ua,A,8,offcore-requests-outstanding-demand-rfo,38038564107
ua,A,8,offcore-response-demand-rfo-llc-hit-hitm-other-core,5350706
ua,A,8,offcore-response-demand-rfo-llc-miss-remote-hitm,17663
ua,A,8,offcore-response-all-reads-llc-hit-any-response,2657143023
ua,A,8,offcore-response-all-reads-llc-miss-any-response,401369691
