ft,A,8,CPU-0,cycles,2616879437
ft,A,8,CPU-0,cCycles,392464456
ft,A,8,CPU-0,instrs,3666379089
ft,A,8,CPU-0,uops,4093887750
ft,A,8,CPU-0,bbls,215487882
ft,A,8,CPU-0,approxInstrs,4793540
ft,A,8,CPU-0,mispredBranches,4598475
ft,A,8,l1i_CPU-0,hGETS,8599851
ft,A,8,l1i_CPU-0,hGETX,0
ft,A,8,l1i_CPU-0,mGETS,11621
ft,A,8,l1i_CPU-0,mGETXIM,0
ft,A,8,l1i_CPU-0,mGETXSM,0
ft,A,8,l1i_CPU-0,PUTS,0
ft,A,8,l1i_CPU-0,PUTX,0
ft,A,8,l1i_CPU-0,INV,52 0
ft,A,8,l1i_CPU-0,INVX,0
ft,A,8,l1i_CPU-0,FWD,0
ft,A,8,l1i_CPU-0,latGETnl,647605
ft,A,8,l1i_CPU-0,latGETnet,0
ft,A,8,l1d_CPU-0,hGETS,38583156
ft,A,8,l1d_CPU-0,hGETX,33434563
ft,A,8,l1d_CPU-0,mGETS,68246112
ft,A,8,l1d_CPU-0,mGETXIM,68213550
ft,A,8,l1d_CPU-0,mGETXSM,254
ft,A,8,l1d_CPU-0,PUTS,0
ft,A,8,l1d_CPU-0,PUTX,0
ft,A,8,l1d_CPU-0,INV,409 10164
ft,A,8,l1d_CPU-0,INVX,10164
ft,A,8,l1d_CPU-0,FWD,0
ft,A,8,l1d_CPU-0,latGETnl,3910569318
ft,A,8,l1d_CPU-0,latGETnet,0
ft,A,8,l2_CPU-0,hGETS,42280068
ft,A,8,l2_CPU-0,hGETX,37650914
ft,A,8,l2_CPU-0,mGETS,25977665
ft,A,8,l2_CPU-0,mGETXIM,30562573
ft,A,8,l2_CPU-0,mGETXSM,317
ft,A,8,l2_CPU-0,PUTS,66444873
ft,A,8,l2_CPU-0,PUTX,70024926
ft,A,8,l2_CPU-0,INV,430 35431
ft,A,8,l2_CPU-0,INVX,35431
ft,A,8,l2_CPU-0,FWD,0
ft,A,8,l2_CPU-0,latGETnl,2273558475
ft,A,8,l2_CPU-0,latGETnet,0
ft,A,8,CPU-1,cycles,2587568994
ft,A,8,CPU-1,cCycles,390616882
ft,A,8,CPU-1,instrs,3697888184
ft,A,8,CPU-1,uops,4134558405
ft,A,8,CPU-1,bbls,224581294
ft,A,8,CPU-1,approxInstrs,4781100
ft,A,8,CPU-1,mispredBranches,4584364
ft,A,8,l1i_CPU-1,hGETS,8558651
ft,A,8,l1i_CPU-1,hGETX,0
ft,A,8,l1i_CPU-1,mGETS,265
ft,A,8,l1i_CPU-1,mGETXIM,0
ft,A,8,l1i_CPU-1,mGETXSM,0
ft,A,8,l1i_CPU-1,PUTS,0
ft,A,8,l1i_CPU-1,PUTX,0
ft,A,8,l1i_CPU-1,INV,0 0
ft,A,8,l1i_CPU-1,INVX,0
ft,A,8,l1i_CPU-1,FWD,0
ft,A,8,l1i_CPU-1,latGETnl,12681
ft,A,8,l1i_CPU-1,latGETnet,0
ft,A,8,l1d_CPU-1,hGETS,36127487
ft,A,8,l1d_CPU-1,hGETX,34523552
ft,A,8,l1d_CPU-1,mGETS,68204461
ft,A,8,l1d_CPU-1,mGETXIM,68182390
ft,A,8,l1d_CPU-1,mGETXSM,137
ft,A,8,l1d_CPU-1,PUTS,0
ft,A,8,l1d_CPU-1,PUTX,0
ft,A,8,l1d_CPU-1,INV,302 9449
ft,A,8,l1d_CPU-1,INVX,9449
ft,A,8,l1d_CPU-1,FWD,0
ft,A,8,l1d_CPU-1,latGETnl,3666050407
ft,A,8,l1d_CPU-1,latGETnet,0
ft,A,8,l2_CPU-1,hGETS,46227504
ft,A,8,l2_CPU-1,hGETX,41732708
ft,A,8,l2_CPU-1,mGETS,21977222
ft,A,8,l2_CPU-1,mGETXIM,26449683
ft,A,8,l2_CPU-1,mGETXSM,136
ft,A,8,l2_CPU-1,PUTS,66408684
ft,A,8,l2_CPU-1,PUTX,69977367
ft,A,8,l2_CPU-1,INV,325 31202
ft,A,8,l2_CPU-1,INVX,31202
ft,A,8,l2_CPU-1,FWD,0
ft,A,8,l2_CPU-1,latGETnl,2029416052
ft,A,8,l2_CPU-1,latGETnet,0
ft,A,8,CPU-2,cycles,2574989427
ft,A,8,CPU-2,cCycles,388993087
ft,A,8,CPU-2,instrs,3700374703
ft,A,8,CPU-2,uops,4137755814
ft,A,8,CPU-2,bbls,225292068
ft,A,8,CPU-2,approxInstrs,4781088
ft,A,8,CPU-2,mispredBranches,4584332
ft,A,8,l1i_CPU-2,hGETS,8558473
ft,A,8,l1i_CPU-2,hGETX,0
ft,A,8,l1i_CPU-2,mGETS,189
ft,A,8,l1i_CPU-2,mGETXIM,0
ft,A,8,l1i_CPU-2,mGETXSM,0
ft,A,8,l1i_CPU-2,PUTS,0
ft,A,8,l1i_CPU-2,PUTX,0
ft,A,8,l1i_CPU-2,INV,0 0
ft,A,8,l1i_CPU-2,INVX,0
ft,A,8,l1i_CPU-2,FWD,0
ft,A,8,l1i_CPU-2,latGETnl,8455
ft,A,8,l1i_CPU-2,latGETnet,0
ft,A,8,l1d_CPU-2,hGETS,36149126
ft,A,8,l1d_CPU-2,hGETX,34525539
ft,A,8,l1d_CPU-2,mGETS,68204466
ft,A,8,l1d_CPU-2,mGETXIM,68182373
ft,A,8,l1d_CPU-2,mGETXSM,138
ft,A,8,l1d_CPU-2,PUTS,0
ft,A,8,l1d_CPU-2,PUTX,0
ft,A,8,l1d_CPU-2,INV,290 7724
ft,A,8,l1d_CPU-2,INVX,7724
ft,A,8,l1d_CPU-2,FWD,0
ft,A,8,l1d_CPU-2,latGETnl,3588113934
ft,A,8,l1d_CPU-2,latGETnet,0
ft,A,8,l2_CPU-2,hGETS,47310484
ft,A,8,l2_CPU-2,hGETX,43248102
ft,A,8,l2_CPU-2,mGETS,20894171
ft,A,8,l2_CPU-2,mGETXIM,24934272
ft,A,8,l2_CPU-2,mGETXSM,137
ft,A,8,l2_CPU-2,PUTS,66408705
ft,A,8,l2_CPU-2,PUTX,69977344
ft,A,8,l2_CPU-2,INV,297 31802
ft,A,8,l2_CPU-2,INVX,31802
ft,A,8,l2_CPU-2,FWD,0
ft,A,8,l2_CPU-2,latGETnl,1951476397
ft,A,8,l2_CPU-2,latGETnet,0
ft,A,8,CPU-3,cycles,2552140813
ft,A,8,CPU-3,cCycles,386947292
ft,A,8,CPU-3,instrs,3699681564
ft,A,8,CPU-3,uops,4136864645
ft,A,8,CPU-3,bbls,225094022
ft,A,8,CPU-3,approxInstrs,4781090
ft,A,8,CPU-3,mispredBranches,4584324
ft,A,8,l1i_CPU-3,hGETS,8558469
ft,A,8,l1i_CPU-3,hGETX,0
ft,A,8,l1i_CPU-3,mGETS,178
ft,A,8,l1i_CPU-3,mGETXIM,0
ft,A,8,l1i_CPU-3,mGETXSM,0
ft,A,8,l1i_CPU-3,PUTS,0
ft,A,8,l1i_CPU-3,PUTX,0
ft,A,8,l1i_CPU-3,INV,0 0
ft,A,8,l1i_CPU-3,INVX,0
ft,A,8,l1i_CPU-3,FWD,0
ft,A,8,l1i_CPU-3,latGETnl,7899
ft,A,8,l1i_CPU-3,latGETnet,0
ft,A,8,l1d_CPU-3,hGETS,36128920
ft,A,8,l1d_CPU-3,hGETX,34502125
ft,A,8,l1d_CPU-3,mGETS,68204436
ft,A,8,l1d_CPU-3,mGETXIM,68182374
ft,A,8,l1d_CPU-3,mGETXSM,122
ft,A,8,l1d_CPU-3,PUTS,0
ft,A,8,l1d_CPU-3,PUTX,0
ft,A,8,l1d_CPU-3,INV,298 8657
ft,A,8,l1d_CPU-3,INVX,8657
ft,A,8,l1d_CPU-3,FWD,0
ft,A,8,l1d_CPU-3,latGETnl,3551511057
ft,A,8,l1d_CPU-3,latGETnet,0
ft,A,8,l2_CPU-3,hGETS,48067126
ft,A,8,l2_CPU-3,hGETX,43708399
ft,A,8,l2_CPU-3,mGETS,20137488
ft,A,8,l2_CPU-3,mGETXIM,24473977
ft,A,8,l2_CPU-3,mGETXSM,120
ft,A,8,l2_CPU-3,PUTS,66408665
ft,A,8,l2_CPU-3,PUTX,69977350
ft,A,8,l2_CPU-3,INV,322 36100
ft,A,8,l2_CPU-3,INVX,36100
ft,A,8,l2_CPU-3,FWD,0
ft,A,8,l2_CPU-3,latGETnl,1914873636
ft,A,8,l2_CPU-3,latGETnet,0
ft,A,8,CPU-4,cycles,2572868755
ft,A,8,CPU-4,cCycles,388683092
ft,A,8,CPU-4,instrs,3699761827
ft,A,8,CPU-4,uops,4136967821
ft,A,8,CPU-4,bbls,225116962
ft,A,8,CPU-4,approxInstrs,4781087
ft,A,8,CPU-4,mispredBranches,4584319
ft,A,8,l1i_CPU-4,hGETS,8558468
ft,A,8,l1i_CPU-4,hGETX,0
ft,A,8,l1i_CPU-4,mGETS,182
ft,A,8,l1i_CPU-4,mGETXIM,0
ft,A,8,l1i_CPU-4,mGETXSM,0
ft,A,8,l1i_CPU-4,PUTS,0
ft,A,8,l1i_CPU-4,PUTX,0
ft,A,8,l1i_CPU-4,INV,0 0
ft,A,8,l1i_CPU-4,INVX,0
ft,A,8,l1i_CPU-4,FWD,0
ft,A,8,l1i_CPU-4,latGETnl,8020
ft,A,8,l1i_CPU-4,latGETnet,0
ft,A,8,l1d_CPU-4,hGETS,36119768
ft,A,8,l1d_CPU-4,hGETX,34500541
ft,A,8,l1d_CPU-4,mGETS,68204416
ft,A,8,l1d_CPU-4,mGETXIM,68182373
ft,A,8,l1d_CPU-4,mGETXSM,134
ft,A,8,l1d_CPU-4,PUTS,0
ft,A,8,l1d_CPU-4,PUTX,0
ft,A,8,l1d_CPU-4,INV,295 9382
ft,A,8,l1d_CPU-4,INVX,9382
ft,A,8,l1d_CPU-4,FWD,0
ft,A,8,l1d_CPU-4,latGETnl,3584716493
ft,A,8,l1d_CPU-4,latGETnet,0
ft,A,8,l2_CPU-4,hGETS,47366363
ft,A,8,l2_CPU-4,hGETX,43302673
ft,A,8,l2_CPU-4,mGETS,20838235
ft,A,8,l2_CPU-4,mGETXIM,24879701
ft,A,8,l2_CPU-4,mGETXSM,133
ft,A,8,l2_CPU-4,PUTS,66408643
ft,A,8,l2_CPU-4,PUTX,69977350
ft,A,8,l2_CPU-4,INV,314 49583
ft,A,8,l2_CPU-4,INVX,49583
ft,A,8,l2_CPU-4,FWD,0
ft,A,8,l2_CPU-4,latGETnl,1948079253
ft,A,8,l2_CPU-4,latGETnet,0
ft,A,8,CPU-5,cycles,2580053127
ft,A,8,CPU-5,cCycles,386165325
ft,A,8,CPU-5,instrs,3700852214
ft,A,8,CPU-5,uops,4138369643
ft,A,8,CPU-5,bbls,225428394
ft,A,8,CPU-5,approxInstrs,4781096
ft,A,8,CPU-5,mispredBranches,4584353
ft,A,8,l1i_CPU-5,hGETS,8558500
ft,A,8,l1i_CPU-5,hGETX,0
ft,A,8,l1i_CPU-5,mGETS,249
ft,A,8,l1i_CPU-5,mGETXIM,0
ft,A,8,l1i_CPU-5,mGETXSM,0
ft,A,8,l1i_CPU-5,PUTS,0
ft,A,8,l1i_CPU-5,PUTX,0
ft,A,8,l1i_CPU-5,INV,0 0
ft,A,8,l1i_CPU-5,INVX,0
ft,A,8,l1i_CPU-5,FWD,0
ft,A,8,l1i_CPU-5,latGETnl,10599
ft,A,8,l1i_CPU-5,latGETnet,0
ft,A,8,l1d_CPU-5,hGETS,36152349
ft,A,8,l1d_CPU-5,hGETX,34525607
ft,A,8,l1d_CPU-5,mGETS,68204514
ft,A,8,l1d_CPU-5,mGETXIM,68182386
ft,A,8,l1d_CPU-5,mGETXSM,134
ft,A,8,l1d_CPU-5,PUTS,0
ft,A,8,l1d_CPU-5,PUTX,0
ft,A,8,l1d_CPU-5,INV,293 7351
ft,A,8,l1d_CPU-5,INVX,7351
ft,A,8,l1d_CPU-5,FWD,0
ft,A,8,l1d_CPU-5,latGETnl,3638258824
ft,A,8,l1d_CPU-5,latGETnet,0
ft,A,8,l2_CPU-5,hGETS,46623158
ft,A,8,l2_CPU-5,hGETX,42253670
ft,A,8,l2_CPU-5,mGETS,21581605
ft,A,8,l2_CPU-5,mGETXIM,25928717
ft,A,8,l2_CPU-5,mGETXSM,133
ft,A,8,l2_CPU-5,PUTS,66408735
ft,A,8,l2_CPU-5,PUTX,69977370
ft,A,8,l2_CPU-5,INV,317 33273
ft,A,8,l2_CPU-5,INVX,33273
ft,A,8,l2_CPU-5,FWD,0
ft,A,8,l2_CPU-5,latGETnl,2001622027
ft,A,8,l2_CPU-5,latGETnet,0
ft,A,8,CPU-6,cycles,2585069522
ft,A,8,CPU-6,cCycles,389388950
ft,A,8,CPU-6,instrs,3698460418
ft,A,8,CPU-6,uops,4135294484
ft,A,8,CPU-6,bbls,224745022
ft,A,8,CPU-6,approxInstrs,4781092
ft,A,8,CPU-6,mispredBranches,4584352
ft,A,8,l1i_CPU-6,hGETS,8558508
ft,A,8,l1i_CPU-6,hGETX,0
ft,A,8,l1i_CPU-6,mGETS,246
ft,A,8,l1i_CPU-6,mGETXIM,0
ft,A,8,l1i_CPU-6,mGETXSM,0
ft,A,8,l1i_CPU-6,PUTS,0
ft,A,8,l1i_CPU-6,PUTX,0
ft,A,8,l1i_CPU-6,INV,0 0
ft,A,8,l1i_CPU-6,INVX,0
ft,A,8,l1i_CPU-6,FWD,0
ft,A,8,l1i_CPU-6,latGETnl,11272
ft,A,8,l1i_CPU-6,latGETnet,0
ft,A,8,l1d_CPU-6,hGETS,36126971
ft,A,8,l1d_CPU-6,hGETX,34523423
ft,A,8,l1d_CPU-6,mGETS,68204372
ft,A,8,l1d_CPU-6,mGETXIM,68182385
ft,A,8,l1d_CPU-6,mGETXSM,140
ft,A,8,l1d_CPU-6,PUTS,0
ft,A,8,l1d_CPU-6,PUTX,0
ft,A,8,l1d_CPU-6,INV,300 8888
ft,A,8,l1d_CPU-6,INVX,8888
ft,A,8,l1d_CPU-6,FWD,0
ft,A,8,l1d_CPU-6,latGETnl,3643312970
ft,A,8,l1d_CPU-6,latGETnet,0
ft,A,8,l2_CPU-6,hGETS,46570756
ft,A,8,l2_CPU-6,hGETX,42136456
ft,A,8,l2_CPU-6,mGETS,21633862
ft,A,8,l2_CPU-6,mGETXIM,26045931
ft,A,8,l2_CPU-6,mGETXSM,138
ft,A,8,l2_CPU-6,PUTS,66408592
ft,A,8,l2_CPU-6,PUTX,69977368
ft,A,8,l2_CPU-6,INV,317 44516
ft,A,8,l2_CPU-6,INVX,44516
ft,A,8,l2_CPU-6,FWD,0
ft,A,8,l2_CPU-6,latGETnl,2006678526
ft,A,8,l2_CPU-6,latGETnet,0
ft,A,8,CPU-7,cycles,2591858278
ft,A,8,CPU-7,cCycles,389123889
ft,A,8,CPU-7,instrs,3694891213
ft,A,8,CPU-7,uops,4130705179
ft,A,8,CPU-7,bbls,223725004
ft,A,8,CPU-7,approxInstrs,4781105
ft,A,8,CPU-7,mispredBranches,4584389
ft,A,8,l1i_CPU-7,hGETS,8558631
ft,A,8,l1i_CPU-7,hGETX,0
ft,A,8,l1i_CPU-7,mGETS,253
ft,A,8,l1i_CPU-7,mGETXIM,0
ft,A,8,l1i_CPU-7,mGETXSM,0
ft,A,8,l1i_CPU-7,PUTS,0
ft,A,8,l1i_CPU-7,PUTX,0
ft,A,8,l1i_CPU-7,INV,0 0
ft,A,8,l1i_CPU-7,INVX,0
ft,A,8,l1i_CPU-7,FWD,0
ft,A,8,l1i_CPU-7,latGETnl,12365
ft,A,8,l1i_CPU-7,latGETnet,0
ft,A,8,l1d_CPU-7,hGETS,36120741
ft,A,8,l1d_CPU-7,hGETX,34522899
ft,A,8,l1d_CPU-7,mGETS,68204385
ft,A,8,l1d_CPU-7,mGETXIM,68182391
ft,A,8,l1d_CPU-7,mGETXSM,144
ft,A,8,l1d_CPU-7,PUTS,0
ft,A,8,l1d_CPU-7,PUTX,0
ft,A,8,l1d_CPU-7,INV,292 8080
ft,A,8,l1d_CPU-7,INVX,8080
ft,A,8,l1d_CPU-7,FWD,0
ft,A,8,l1d_CPU-7,latGETnl,3675720462
ft,A,8,l1d_CPU-7,latGETnet,0
ft,A,8,l2_CPU-7,hGETS,45984710
ft,A,8,l2_CPU-7,hGETX,41633886
ft,A,8,l2_CPU-7,mGETS,22219928
ft,A,8,l2_CPU-7,mGETXIM,26548500
ft,A,8,l2_CPU-7,mGETXSM,149
ft,A,8,l2_CPU-7,PUTS,66408585
ft,A,8,l2_CPU-7,PUTX,69977399
ft,A,8,l2_CPU-7,INV,305 34072
ft,A,8,l2_CPU-7,INVX,34072
ft,A,8,l2_CPU-7,FWD,0
ft,A,8,l2_CPU-7,latGETnl,2039086751
ft,A,8,l2_CPU-7,latGETnet,0
ft,A,8,l3-0b0,hGETS,13128933
ft,A,8,l3-0b0,hGETX,22719965
ft,A,8,l3-0b0,mGETS,8669453
ft,A,8,l3-0b0,mGETXIM,3587323
ft,A,8,l3-0b0,mGETXSM,0
ft,A,8,l3-0b0,PUTS,12333963
ft,A,8,l3-0b0,PUTX,35766660
ft,A,8,l3-0b0,INV,0 0
ft,A,8,l3-0b0,INVX,0
ft,A,8,l3-0b0,FWD,0
ft,A,8,l3-0b0,latGETnl,576068472
ft,A,8,l3-0b0,latGETnet,0
ft,A,8,l3-0b1,hGETS,13275010
ft,A,8,l3-0b1,hGETX,22643810
ft,A,8,l3-0b1,mGETS,8669212
ft,A,8,l3-0b1,mGETXIM,3587105
ft,A,8,l3-0b1,mGETXSM,0
ft,A,8,l3-0b1,PUTS,12610082
ft,A,8,l3-0b1,PUTX,35560283
ft,A,8,l3-0b1,INV,0 0
ft,A,8,l3-0b1,INVX,0
ft,A,8,l3-0b1,FWD,0
ft,A,8,l3-0b1,latGETnl,576046899
ft,A,8,l3-0b1,latGETnet,0
ft,A,8,l3-0b2,hGETS,13505513
ft,A,8,l3-0b2,hGETX,22859423
ft,A,8,l3-0b2,mGETS,8668927
ft,A,8,l3-0b2,mGETXIM,3587106
ft,A,8,l3-0b2,mGETXSM,0
ft,A,8,l3-0b2,PUTS,12895376
ft,A,8,l3-0b2,PUTX,35721365
ft,A,8,l3-0b2,INV,0 0
ft,A,8,l3-0b2,INVX,0
ft,A,8,l3-0b2,FWD,0
ft,A,8,l3-0b2,latGETnl,576033551
ft,A,8,l3-0b2,latGETnet,0
ft,A,8,l3-0b3,hGETS,13268457
ft,A,8,l3-0b3,hGETX,22724631
ft,A,8,l3-0b3,mGETS,8669433
ft,A,8,l3-0b3,mGETXIM,3587076
ft,A,8,l3-0b3,mGETXSM,0
ft,A,8,l3-0b3,PUTS,12490974
ft,A,8,l3-0b3,PUTX,35754400
ft,A,8,l3-0b3,INV,0 0
ft,A,8,l3-0b3,INVX,0
ft,A,8,l3-0b3,FWD,0
ft,A,8,l3-0b3,latGETnl,576055923
ft,A,8,l3-0b3,latGETnet,0
ft,A,8,l3-0b4,hGETS,12896937
ft,A,8,l3-0b4,hGETX,22397308
ft,A,8,l3-0b4,mGETS,8669433
ft,A,8,l3-0b4,mGETXIM,3587262
ft,A,8,l3-0b4,mGETXSM,0
ft,A,8,l3-0b4,PUTS,12396573
ft,A,8,l3-0b4,PUTX,35149446
ft,A,8,l3-0b4,INV,0 0
ft,A,8,l3-0b4,INVX,0
ft,A,8,l3-0b4,FWD,0
ft,A,8,l3-0b4,latGETnl,576064665
ft,A,8,l3-0b4,latGETnet,0
ft,A,8,l3-0b5,hGETS,13506182
ft,A,8,l3-0b5,hGETX,22574312
ft,A,8,l3-0b5,mGETS,8669105
ft,A,8,l3-0b5,mGETXIM,3587115
ft,A,8,l3-0b5,mGETXSM,0
ft,A,8,l3-0b5,PUTS,12947188
ft,A,8,l3-0b5,PUTX,35384702
ft,A,8,l3-0b5,INV,0 0
ft,A,8,l3-0b5,INVX,0
ft,A,8,l3-0b5,FWD,0
ft,A,8,l3-0b5,latGETnl,576042340
ft,A,8,l3-0b5,latGETnet,0
ft,A,8,l3-0b6,hGETS,13228046
ft,A,8,l3-0b6,hGETX,22691756
ft,A,8,l3-0b6,mGETS,8668826
ft,A,8,l3-0b6,mGETXIM,3587186
ft,A,8,l3-0b6,mGETXSM,0
ft,A,8,l3-0b6,PUTS,12436459
ft,A,8,l3-0b6,PUTX,35735154
ft,A,8,l3-0b6,INV,0 0
ft,A,8,l3-0b6,INVX,0
ft,A,8,l3-0b6,FWD,0
ft,A,8,l3-0b6,latGETnl,576032564
ft,A,8,l3-0b6,latGETnet,0
ft,A,8,l3-0b7,hGETS,13097573
ft,A,8,l3-0b7,hGETX,22516088
ft,A,8,l3-0b7,mGETS,8669136
ft,A,8,l3-0b7,mGETXIM,3587151
ft,A,8,l3-0b7,mGETXSM,0
ft,A,8,l3-0b7,PUTS,12593931
ft,A,8,l3-0b7,PUTX,35271664
ft,A,8,l3-0b7,INV,0 0
ft,A,8,l3-0b7,INVX,0
ft,A,8,l3-0b7,FWD,0
ft,A,8,l3-0b7,latGETnl,576045489
ft,A,8,l3-0b7,latGETnet,0
