# zsim stats
===
root: # Stats
 contention: # Contention simulation stats
  domain-0: # Domain stats
   time: 133438827097 # Weave simulation time
 time: # Simulator time breakdown
  init: 73816107
  bound: 1449024416716
  weave: 207316676437
  ff: 0
 trigger: 20000 # Reason for this stats dump
 phase: 986909 # Simulated phases
 CPU: # Core stats
  CPU-0: # Core stats
   cycles: 9869092346 # Simulated unhalted cycles
   cCycles: 970166823 # Cycles due to contention stalls
   instrs: 14657422635 # Simulated instructions
   uops: 16365617547 # Retired micro-ops
   bbls: 859918791 # Basic blocks
   approxInstrs: 19136713 # Instrs with approx uop decoding
   mispredBranches: 18349673 # Mispredicted branches
  CPU-1: # Core stats
   cycles: 9656784745 # Simulated unhalted cycles
   cCycles: 974303955 # Cycles due to contention stalls
   instrs: 14689819365 # Simulated instructions
   uops: 16407435210 # Retired micro-ops
   bbls: 869261504 # Basic blocks
   approxInstrs: 19124304 # Instrs with approx uop decoding
   mispredBranches: 18335757 # Mispredicted branches
 l1d_CPU: # Cache stats
  l1d_CPU-0: # Filter cache stats
   fhGETS: 1959300349 # Filtered GETS hits
   fhGETX: 1839382128 # Filtered GETX hits
   hGETS: 154353373 # GETS hits
   hGETX: 133643307 # GETX hits
   mGETS: 272918449 # GETS misses
   mGETXIM: 272807865 # GETX I->M misses
   mGETXSM: 219 # GETX S->M misses (upgrade misses)
   PUTS: 0 # Clean evictions (from lower level)
   PUTX: 0 # Dirty evictions (from lower level)
   INV: 114 # Invalidates (from upper level)
   INVX: 48724 # Downgrades (from upper level)
   FWD: 0 # Forwards (from upper level)
   latGETnl: 15810085479 # GET request latency on next level
   latGETnet: 0 # GET request latency on network to next level
  l1d_CPU-1: # Filter cache stats
   fhGETS: 1973611355 # Filtered GETS hits
   fhGETX: 1834840770 # Filtered GETX hits
   hGETS: 144648129 # GETS hits
   hGETX: 138153209 # GETX hits
   mGETS: 272829928 # GETS misses
   mGETXIM: 272726917 # GETX I->M misses
   mGETXSM: 101 # GETX S->M misses (upgrade misses)
   PUTS: 0 # Clean evictions (from lower level)
   PUTX: 0 # Dirty evictions (from lower level)
   INV: 291 # Invalidates (from upper level)
   INVX: 49984 # Downgrades (from upper level)
   FWD: 0 # Forwards (from upper level)
   latGETnl: 14757039448 # GET request latency on next level
   latGETnet: 0 # GET request latency on network to next level
 l1i_CPU: # Cache stats
  l1i_CPU-0: # Filter cache stats
   fhGETS: 1372233601 # Filtered GETS hits
   fhGETX: 0 # Filtered GETX hits
   hGETS: 34274089 # GETS hits
   hGETX: 0 # GETX hits
   mGETS: 11608 # GETS misses
   mGETXIM: 0 # GETX I->M misses
   mGETXSM: 0 # GETX S->M misses (upgrade misses)
   PUTS: 0 # Clean evictions (from lower level)
   PUTX: 0 # Dirty evictions (from lower level)
   INV: 9 # Invalidates (from upper level)
   INVX: 0 # Downgrades (from upper level)
   FWD: 0 # Forwards (from upper level)
   latGETnl: 648628 # GET request latency on next level
   latGETnet: 0 # GET request latency on network to next level
  l1i_CPU-1: # Filter cache stats
   fhGETS: 1380304140 # Filtered GETS hits
   fhGETX: 0 # Filtered GETX hits
   hGETS: 34233431 # GETS hits
   hGETX: 0 # GETX hits
   mGETS: 274 # GETS misses
   mGETXIM: 0 # GETX I->M misses
   mGETXSM: 0 # GETX S->M misses (upgrade misses)
   PUTS: 0 # Clean evictions (from lower level)
   PUTX: 0 # Dirty evictions (from lower level)
   INV: 0 # Invalidates (from upper level)
   INVX: 0 # Downgrades (from upper level)
   FWD: 0 # Forwards (from upper level)
   latGETnl: 15080 # GET request latency on next level
   latGETnet: 0 # GET request latency on network to next level
 l2_CPU: # Cache stats
  l2_CPU-0: # Cache stats
   hGETS: 166261500 # GETS hits
   hGETX: 147454636 # GETX hits
   mGETS: 106668557 # GETS misses
   mGETXIM: 125353204 # GETX I->M misses
   mGETXSM: 244 # GETX S->M misses (upgrade misses)
   PUTS: 265684466 # Clean evictions (from lower level)
   PUTX: 280052309 # Dirty evictions (from lower level)
   INV: 118 # Invalidates (from upper level)
   INVX: 148027 # Downgrades (from upper level)
   FWD: 0 # Forwards (from upper level)
   latGETnl: 9261876411 # GET request latency on next level
   latGETnet: 0 # GET request latency on network to next level
  l2_CPU-1: # Cache stats
   hGETS: 183496487 # GETS hits
   hGETX: 165052168 # GETX hits
   mGETS: 89333715 # GETS misses
   mGETXIM: 107674750 # GETX I->M misses
   mGETXSM: 100 # GETX S->M misses (upgrade misses)
   PUTS: 265646549 # Clean evictions (from lower level)
   PUTX: 279909501 # Dirty evictions (from lower level)
   INV: 303 # Invalidates (from upper level)
   INVX: 166384 # Downgrades (from upper level)
   FWD: 0 # Forwards (from upper level)
   latGETnl: 8210367888 # GET request latency on next level
   latGETnet: 0 # GET request latency on network to next level
 l3: # Cache stats
  l3-0b0: # Cache stats
   hGETS: 15759569 # GETS hits
   hGETX: 25732181 # GETX hits
   mGETS: 8665309 # GETS misses
   mGETXIM: 3561200 # GETX I->M misses
   mGETXSM: 0 # GETX S->M misses (upgrade misses)
   PUTS: 14022367 # Clean evictions (from lower level)
   PUTX: 39694626 # Dirty evictions (from lower level)
   INV: 0 # Invalidates (from upper level)
   INVX: 0 # Downgrades (from upper level)
   FWD: 0 # Forwards (from upper level)
   latGETnl: 574645923 # GET request latency on next level
   latGETnet: 0 # GET request latency on network to next level
  l3-0b1: # Cache stats
   hGETS: 16075434 # GETS hits
   hGETX: 25711367 # GETX hits
   mGETS: 8665219 # GETS misses
   mGETXIM: 3561089 # GETX I->M misses
   mGETXSM: 0 # GETX S->M misses (upgrade misses)
   PUTS: 14187300 # Clean evictions (from lower level)
   PUTX: 39824705 # Dirty evictions (from lower level)
   INV: 0 # Invalidates (from upper level)
   INVX: 0 # Downgrades (from upper level)
   FWD: 0 # Forwards (from upper level)
   latGETnl: 574636476 # GET request latency on next level
   latGETnet: 0 # GET request latency on network to next level
  l3-0b2: # Cache stats
   hGETS: 16203491 # GETS hits
   hGETX: 25852662 # GETX hits
   mGETS: 8665470 # GETS misses
   mGETXIM: 3561157 # GETX I->M misses
   mGETXSM: 0 # GETX S->M misses (upgrade misses)
   PUTS: 14348222 # Clean evictions (from lower level)
   PUTX: 39933487 # Dirty evictions (from lower level)
   INV: 0 # Invalidates (from upper level)
   INVX: 0 # Downgrades (from upper level)
   FWD: 0 # Forwards (from upper level)
   latGETnl: 574651469 # GET request latency on next level
   latGETnet: 0 # GET request latency on network to next level
  l3-0b3: # Cache stats
   hGETS: 16063150 # GETS hits
   hGETX: 25841274 # GETX hits
   mGETS: 8665388 # GETS misses
   mGETXIM: 3561104 # GETX I->M misses
   mGETXSM: 0 # GETX S->M misses (upgrade misses)
   PUTS: 14302770 # Clean evictions (from lower level)
   PUTX: 39827103 # Dirty evictions (from lower level)
   INV: 0 # Invalidates (from upper level)
   INVX: 0 # Downgrades (from upper level)
   FWD: 0 # Forwards (from upper level)
   latGETnl: 574645124 # GET request latency on next level
   latGETnet: 0 # GET request latency on network to next level
  l3-0b4: # Cache stats
   hGETS: 15483142 # GETS hits
   hGETX: 25253690 # GETX hits
   mGETS: 8665292 # GETS misses
   mGETXIM: 3561204 # GETX I->M misses
   mGETXSM: 0 # GETX S->M misses (upgrade misses)
   PUTS: 14075294 # Clean evictions (from lower level)
   PUTX: 38886873 # Dirty evictions (from lower level)
   INV: 0 # Invalidates (from upper level)
   INVX: 0 # Downgrades (from upper level)
   FWD: 0 # Forwards (from upper level)
   latGETnl: 574645312 # GET request latency on next level
   latGETnet: 0 # GET request latency on network to next level
  l3-0b5: # Cache stats
   hGETS: 15864934 # GETS hits
   hGETX: 25248520 # GETX hits
   mGETS: 8665211 # GETS misses
   mGETXIM: 3561102 # GETX I->M misses
   mGETXSM: 0 # GETX S->M misses (upgrade misses)
   PUTS: 14188427 # Clean evictions (from lower level)
   PUTX: 39150163 # Dirty evictions (from lower level)
   INV: 0 # Invalidates (from upper level)
   INVX: 0 # Downgrades (from upper level)
   FWD: 0 # Forwards (from upper level)
   latGETnl: 574636711 # GET request latency on next level
   latGETnet: 0 # GET request latency on network to next level
  l3-0b6: # Cache stats
   hGETS: 15634547 # GETS hits
   hGETX: 25412344 # GETX hits
   mGETS: 8665371 # GETS misses
   mGETXIM: 3561192 # GETX I->M misses
   mGETXSM: 0 # GETX S->M misses (upgrade misses)
   PUTS: 13796587 # Clean evictions (from lower level)
   PUTX: 39475811 # Dirty evictions (from lower level)
   INV: 0 # Invalidates (from upper level)
   INVX: 0 # Downgrades (from upper level)
   FWD: 0 # Forwards (from upper level)
   latGETnl: 574648461 # GET request latency on next level
   latGETnet: 0 # GET request latency on network to next level
  l3-0b7: # Cache stats
   hGETS: 15595492 # GETS hits
   hGETX: 25487012 # GETX hits
   mGETS: 8665253 # GETS misses
   mGETXIM: 3561200 # GETX I->M misses
   mGETXSM: 0 # GETX S->M misses (upgrade misses)
   PUTS: 14024542 # Clean evictions (from lower level)
   PUTX: 39283343 # Dirty evictions (from lower level)
   INV: 0 # Invalidates (from upper level)
   INVX: 0 # Downgrades (from upper level)
   FWD: 0 # Forwards (from upper level)
   latGETnl: 574643291 # GET request latency on next level
   latGETnet: 0 # GET request latency on network to next level
 mem: # Memory controller stats
  mem-0: # Memory controller stats
   rd: 24454079 # Read requests
   wr: 21758664 # Write requests
   rdlat: 2433842353 # Total latency experienced by read requests
   wrlat: 2456487659 # Total latency experienced by write requests
   rdhits: 275 # Read row hits
   wrhits: 88715 # Write row hits
   mlh: # latency histogram for memory requests
    0: 0
    1: 0
    2: 0
    3: 0
    4: 0
    5: 0
    6: 46
    7: 51
    8: 19318122
    9: 1304900
    10: 185470
    11: 164590
    12: 207487
    13: 237345
    14: 136604
    15: 102653
    16: 106051
    17: 94318
    18: 84251
    19: 2270331
    20: 107817
    21: 17425
    22: 14293
    23: 12381
    24: 11477
    25: 20844
    26: 9164
    27: 7456
    28: 8291
    29: 9192
    30: 9487
    31: 9000
    32: 1195
    33: 965
    34: 875
    35: 836
    36: 448
    37: 190
    38: 91
    39: 93
    40: 85
    41: 129
    42: 60
    43: 34
    44: 7
    45: 6
    46: 7
    47: 2
    48: 2
    49: 2
    50: 5
    51: 0
    52: 0
    53: 1
    54: 0
    55: 0
    56: 0
    57: 0
    58: 0
    59: 0
    60: 0
    61: 0
    62: 0
    63: 0
    64: 0
    65: 0
    66: 0
    67: 0
    68: 0
    69: 0
    70: 0
    71: 0
    72: 0
    73: 0
    74: 0
    75: 0
    76: 0
    77: 0
    78: 0
    79: 0
    80: 0
    81: 0
    82: 0
    83: 0
    84: 0
    85: 0
    86: 0
    87: 0
    88: 0
    89: 0
    90: 0
    91: 0
    92: 0
    93: 0
    94: 0
    95: 0
    96: 0
    97: 0
    98: 0
    99: 0
  mem-1: # Memory controller stats
   rd: 24452503 # Read requests
   wr: 21757543 # Write requests
   rdlat: 2171365658 # Total latency experienced by read requests
   wrlat: 2250228374 # Total latency experienced by write requests
   rdhits: 268 # Read row hits
   wrhits: 83627 # Write row hits
   mlh: # latency histogram for memory requests
    0: 0
    1: 0
    2: 0
    3: 0
    4: 0
    5: 0
    6: 27
    7: 57
    8: 21546222
    9: 1325160
    10: 172696
    11: 157318
    12: 221504
    13: 230739
    14: 140479
    15: 110915
    16: 119537
    17: 99729
    18: 88045
    19: 143016
    20: 39045
    21: 15699
    22: 12995
    23: 10563
    24: 7626
    25: 2908
    26: 1953
    27: 1852
    28: 1391
    29: 988
    30: 719
    31: 673
    32: 219
    33: 134
    34: 93
    35: 61
    36: 40
    37: 28
    38: 22
    39: 11
    40: 9
    41: 15
    42: 10
    43: 2
    44: 0
    45: 2
    46: 1
    47: 0
    48: 0
    49: 0
    50: 0
    51: 0
    52: 0
    53: 0
    54: 0
    55: 0
    56: 0
    57: 0
    58: 0
    59: 0
    60: 0
    61: 0
    62: 0
    63: 0
    64: 0
    65: 0
    66: 0
    67: 0
    68: 0
    69: 0
    70: 0
    71: 0
    72: 0
    73: 0
    74: 0
    75: 0
    76: 0
    77: 0
    78: 0
    79: 0
    80: 0
    81: 0
    82: 0
    83: 0
    84: 0
    85: 0
    86: 0
    87: 0
    88: 0
    89: 0
    90: 0
    91: 0
    92: 0
    93: 0
    94: 0
    95: 0
    96: 0
    97: 0
    98: 0
    99: 0
  mem-2: # Memory controller stats
   rd: 24452490 # Read requests
   wr: 21757530 # Write requests
   rdlat: 2408211117 # Total latency experienced by read requests
   wrlat: 2461886058 # Total latency experienced by write requests
   rdhits: 260 # Read row hits
   wrhits: 89390 # Write row hits
   mlh: # latency histogram for memory requests
    0: 0
    1: 0
    2: 0
    3: 0
    4: 0
    5: 0
    6: 40
    7: 48
    8: 19554302
    9: 1490230
    10: 181541
    11: 116535
    12: 145363
    13: 178299
    14: 84379
    15: 55568
    16: 59914
    17: 76677
    18: 62359
    19: 2188823
    20: 116566
    21: 17439
    22: 15721
    23: 15522
    24: 10691
    25: 20648
    26: 11237
    27: 7808
    28: 8001
    29: 8932
    30: 10595
    31: 9318
    32: 1315
    33: 1058
    34: 887
    35: 913
    36: 412
    37: 304
    38: 108
    39: 111
    40: 153
    41: 508
    42: 58
    43: 36
    44: 7
    45: 2
    46: 21
    47: 14
    48: 5
    49: 9
    50: 5
    51: 5
    52: 1
    53: 2
    54: 0
    55: 0
    56: 0
    57: 0
    58: 0
    59: 0
    60: 0
    61: 0
    62: 0
    63: 0
    64: 0
    65: 0
    66: 0
    67: 0
    68: 0
    69: 0
    70: 0
    71: 0
    72: 0
    73: 0
    74: 0
    75: 0
    76: 0
    77: 0
    78: 0
    79: 0
    80: 0
    81: 0
    82: 0
    83: 0
    84: 0
    85: 0
    86: 0
    87: 0
    88: 0
    89: 0
    90: 0
    91: 0
    92: 0
    93: 0
    94: 0
    95: 0
    96: 0
    97: 0
    98: 0
    99: 0
  mem-3: # Memory controller stats
   rd: 24452683 # Read requests
   wr: 21757548 # Write requests
   rdlat: 2164359987 # Total latency experienced by read requests
   wrlat: 2261135973 # Total latency experienced by write requests
   rdhits: 260 # Read row hits
   wrhits: 81450 # Write row hits
   mlh: # latency histogram for memory requests
    0: 0
    1: 0
    2: 0
    3: 0
    4: 0
    5: 0
    6: 37
    7: 65
    8: 20487864
    9: 2737288
    10: 187742
    11: 119966
    12: 165471
    13: 169044
    14: 84277
    15: 57905
    16: 55320
    17: 56618
    18: 61191
    19: 122311
    20: 87542
    21: 16060
    22: 12656
    23: 9824
    24: 6691
    25: 4572
    26: 3118
    27: 1354
    28: 1158
    29: 989
    30: 856
    31: 1742
    32: 448
    33: 114
    34: 103
    35: 69
    36: 66
    37: 62
    38: 36
    39: 17
    40: 20
    41: 26
    42: 12
    43: 17
    44: 8
    45: 3
    46: 3
    47: 2
    48: 4
    49: 3
    50: 3
    51: 1
    52: 3
    53: 1
    54: 0
    55: 1
    56: 0
    57: 0
    58: 0
    59: 0
    60: 0
    61: 0
    62: 0
    63: 0
    64: 0
    65: 0
    66: 0
    67: 0
    68: 0
    69: 0
    70: 0
    71: 0
    72: 0
    73: 0
    74: 0
    75: 0
    76: 0
    77: 0
    78: 0
    79: 0
    80: 0
    81: 0
    82: 0
    83: 0
    84: 0
    85: 0
    86: 0
    87: 0
    88: 0
    89: 0
    90: 0
    91: 0
    92: 0
    93: 0
    94: 0
    95: 0
    96: 0
    97: 0
    98: 0
    99: 0
 sched: # Scheduler stats
  thCr: 2 # Threads created
  thFn: 2 # Threads finished
  schedEvs: 2 # Schedule events
  waitEvs: 0 # Wait events
  handoffEvs: 0 # Handoff events
  sleepEvs: 0 # Sleep events
  idlePhases: 0 # Phases with no thread active
  idlePeriods: 0 # Periods with no thread active
  occHist: # Occupancy histogram
   0: 0
   1: 103
   2: 986806
  rqSzHist: # Run queue size histogram
   0: 986909
   1: 0
   2: 0
   3: 0
   4: 0
   5: 0
   6: 0
   7: 0
   8: 0
   9: 0
   10: 0
   11: 0
   12: 0
   13: 0
   14: 0
   15: 0
   16: 0
 procCycles: # Per-process unhalted core cycles
  0: 19525877091
  1: 0
  2: 0
  3: 0
  4: 0
  5: 0
  6: 0
  7: 0
  8: 0
  9: 0
  10: 0
  11: 0
  12: 0
  13: 0
  14: 0
  15: 0
  16: 0
  17: 0
  18: 0
  19: 0
  20: 0
  21: 0
  22: 0
  23: 0
  24: 0
  25: 0
  26: 0
  27: 0
  28: 0
  29: 0
  30: 0
  31: 0
  32: 0
  33: 0
  34: 0
  35: 0
  36: 0
  37: 0
  38: 0
  39: 0
  40: 0
  41: 0
  42: 0
  43: 0
  44: 0
  45: 0
  46: 0
  47: 0
  48: 0
  49: 0
  50: 0
  51: 0
  52: 0
  53: 0
  54: 0
  55: 0
  56: 0
  57: 0
  58: 0
  59: 0
  60: 0
  61: 0
  62: 0
  63: 0
 procInstrs: # Per-process instructions
  0: 29347242000
  1: 0
  2: 0
  3: 0
  4: 0
  5: 0
  6: 0
  7: 0
  8: 0
  9: 0
  10: 0
  11: 0
  12: 0
  13: 0
  14: 0
  15: 0
  16: 0
  17: 0
  18: 0
  19: 0
  20: 0
  21: 0
  22: 0
  23: 0
  24: 0
  25: 0
  26: 0
  27: 0
  28: 0
  29: 0
  30: 0
  31: 0
  32: 0
  33: 0
  34: 0
  35: 0
  36: 0
  37: 0
  38: 0
  39: 0
  40: 0
  41: 0
  42: 0
  43: 0
  44: 0
  45: 0
  46: 0
  47: 0
  48: 0
  49: 0
  50: 0
  51: 0
  52: 0
  53: 0
  54: 0
  55: 0
  56: 0
  57: 0
  58: 0
  59: 0
  60: 0
  61: 0
  62: 0
  63: 0
 heartbeats: # Per-process heartbeats
  0: 0
  1: 0
  2: 0
  3: 0
  4: 0
  5: 0
  6: 0
  7: 0
  8: 0
  9: 0
  10: 0
  11: 0
  12: 0
  13: 0
  14: 0
  15: 0
  16: 0
  17: 0
  18: 0
  19: 0
  20: 0
  21: 0
  22: 0
  23: 0
  24: 0
  25: 0
  26: 0
  27: 0
  28: 0
  29: 0
  30: 0
  31: 0
  32: 0
  33: 0
  34: 0
  35: 0
  36: 0
  37: 0
  38: 0
  39: 0
  40: 0
  41: 0
  42: 0
  43: 0
  44: 0
  45: 0
  46: 0
  47: 0
  48: 0
  49: 0
  50: 0
  51: 0
  52: 0
  53: 0
  54: 0
  55: 0
  56: 0
  57: 0
  58: 0
  59: 0
  60: 0
  61: 0
  62: 0
  63: 0
===
