# zsim stats
===
root: # Stats
 contention: # Contention simulation stats
  domain-0: # Domain stats
   time: 886129936218 # Weave simulation time
 time: # Simulator time breakdown
  init: 73834614
  bound: 17907458574108
  weave: 1743123471936
  ff: 0
 trigger: 20000 # Reason for this stats dump
 phase: 12340111 # Simulated phases
 CPU: # Core stats
  CPU-0: # Core stats
   cycles: 123401109974 # Simulated unhalted cycles
   cCycles: 8095699104 # Cycles due to contention stalls
   instrs: 193477497763 # Simulated instructions
   uops: 227774713799 # Retired micro-ops
   bbls: 6067176261 # Basic blocks
   approxInstrs: 2538741275 # Instrs with approx uop decoding
   mispredBranches: 8795796 # Mispredicted branches
  CPU-1: # Core stats
   cycles: 120190718348 # Simulated unhalted cycles
   cCycles: 7850549198 # Cycles due to contention stalls
   instrs: 194089750921 # Simulated instructions
   uops: 228561993697 # Retired micro-ops
   bbls: 6242245151 # Basic blocks
   approxInstrs: 2538732132 # Instrs with approx uop decoding
   mispredBranches: 8781279 # Mispredicted branches
 l1d_CPU: # Cache stats
  l1d_CPU-0: # Filter cache stats
   fhGETS: 45771590129 # Filtered GETS hits
   fhGETX: 22543052716 # Filtered GETX hits
   hGETS: 3463534216 # GETS hits
   hGETX: 2370931906 # GETX hits
   mGETS: 2240147890 # GETS misses
   mGETXIM: 1225730661 # GETX I->M misses
   mGETXSM: 8225 # GETX S->M misses (upgrade misses)
   PUTS: 0 # Clean evictions (from lower level)
   PUTX: 0 # Dirty evictions (from lower level)
   INV: 639759994 # Invalidates (from upper level)
   INVX: 232823 # Downgrades (from upper level)
   FWD: 0 # Forwards (from upper level)
   latGETnl: 92628664036 # GET request latency on next level
   latGETnet: 0 # GET request latency on network to next level
  l1d_CPU-1: # Filter cache stats
   fhGETS: 46603620787 # Filtered GETS hits
   fhGETX: 22768068756 # Filtered GETX hits
   hGETS: 2730442724 # GETS hits
   hGETX: 2146357125 # GETX hits
   mGETS: 2228474035 # GETS misses
   mGETXIM: 1224992096 # GETX I->M misses
   mGETXSM: 5798 # GETX S->M misses (upgrade misses)
   PUTS: 0 # Clean evictions (from lower level)
   PUTX: 0 # Dirty evictions (from lower level)
   INV: 501514951 # Invalidates (from upper level)
   INVX: 146131 # Downgrades (from upper level)
   FWD: 0 # Forwards (from upper level)
   latGETnl: 88284541549 # GET request latency on next level
   latGETnet: 0 # GET request latency on network to next level
 l1i_CPU: # Cache stats
  l1i_CPU-0: # Filter cache stats
   fhGETS: 10954190218 # Filtered GETS hits
   fhGETX: 0 # Filtered GETX hits
   hGETS: 8112862903 # GETS hits
   hGETX: 0 # GETX hits
   mGETS: 154144935 # GETS misses
   mGETXIM: 0 # GETX I->M misses
   mGETXSM: 0 # GETX S->M misses (upgrade misses)
   PUTS: 0 # Clean evictions (from lower level)
   PUTX: 0 # Dirty evictions (from lower level)
   INV: 154086044 # Invalidates (from upper level)
   INVX: 0 # Downgrades (from upper level)
   FWD: 0 # Forwards (from upper level)
   latGETnl: 6476327551 # GET request latency on next level
   latGETnet: 0 # GET request latency on network to next level
  l1i_CPU-1: # Filter cache stats
   fhGETS: 11132596752 # Filtered GETS hits
   fhGETX: 0 # Filtered GETX hits
   hGETS: 8194519135 # GETS hits
   hGETX: 0 # GETX hits
   mGETS: 69267794 # GETS misses
   mGETXIM: 0 # GETX I->M misses
   mGETXSM: 0 # GETX S->M misses (upgrade misses)
   PUTS: 0 # Clean evictions (from lower level)
   PUTX: 0 # Dirty evictions (from lower level)
   INV: 69225582 # Invalidates (from upper level)
   INVX: 0 # Downgrades (from upper level)
   FWD: 0 # Forwards (from upper level)
   latGETnl: 2911441066 # GET request latency on next level
   latGETnet: 0 # GET request latency on network to next level
 l2_CPU: # Cache stats
  l2_CPU-0: # Cache stats
   hGETS: 1321587374 # GETS hits
   hGETX: 1033342168 # GETX hits
   mGETS: 1072705451 # GETS misses
   mGETXIM: 192388493 # GETX I->M misses
   mGETXSM: 8225 # GETX S->M misses (upgrade misses)
   PUTS: 1049904890 # Clean evictions (from lower level)
   PUTX: 1776271999 # Dirty evictions (from lower level)
   INV: 5904 # Invalidates (from upper level)
   INVX: 408354 # Downgrades (from upper level)
   FWD: 0 # Forwards (from upper level)
   latGETnl: 55664611051 # GET request latency on next level
   latGETnet: 0 # GET request latency on network to next level
  l2_CPU-1: # Cache stats
   hGETS: 1377461077 # GETS hits
   hGETX: 1099652867 # GETX hits
   mGETS: 920280752 # GETS misses
   mGETXIM: 125339230 # GETX I->M misses
   mGETXSM: 5797 # GETX S->M misses (upgrade misses)
   PUTS: 1096484789 # Clean evictions (from lower level)
   PUTX: 1855507964 # Dirty evictions (from lower level)
   INV: 9467 # Invalidates (from upper level)
   INVX: 360234 # Downgrades (from upper level)
   FWD: 0 # Forwards (from upper level)
   latGETnl: 48923105939 # GET request latency on next level
   latGETnet: 0 # GET request latency on network to next level
 l3: # Cache stats
  l3-0b0: # Cache stats
   hGETS: 167794506 # GETS hits
   hGETX: 41479470 # GETX hits
   mGETS: 84428514 # GETS misses
   mGETXIM: 9354880 # GETX I->M misses
   mGETXSM: 0 # GETX S->M misses (upgrade misses)
   PUTS: 192951144 # Clean evictions (from lower level)
   PUTX: 110102686 # Dirty evictions (from lower level)
   INV: 0 # Invalidates (from upper level)
   INVX: 0 # Downgrades (from upper level)
   FWD: 0 # Forwards (from upper level)
   latGETnl: 4407819518 # GET request latency on next level
   latGETnet: 0 # GET request latency on network to next level
  l3-0b1: # Cache stats
   hGETS: 166348401 # GETS hits
   hGETX: 33650995 # GETX hits
   mGETS: 84412242 # GETS misses
   mGETXIM: 9352636 # GETX I->M misses
   mGETXSM: 0 # GETX S->M misses (upgrade misses)
   PUTS: 193382113 # Clean evictions (from lower level)
   PUTX: 100378312 # Dirty evictions (from lower level)
   INV: 0 # Invalidates (from upper level)
   INVX: 0 # Downgrades (from upper level)
   FWD: 0 # Forwards (from upper level)
   latGETnl: 4406949266 # GET request latency on next level
   latGETnet: 0 # GET request latency on network to next level
  l3-0b2: # Cache stats
   hGETS: 156989246 # GETS hits
   hGETX: 23837107 # GETX hits
   mGETS: 84412006 # GETS misses
   mGETXIM: 9354135 # GETX I->M misses
   mGETXSM: 0 # GETX S->M misses (upgrade misses)
   PUTS: 184308786 # Clean evictions (from lower level)
   PUTX: 90279409 # Dirty evictions (from lower level)
   INV: 0 # Invalidates (from upper level)
   INVX: 0 # Downgrades (from upper level)
   FWD: 0 # Forwards (from upper level)
   latGETnl: 4407008627 # GET request latency on next level
   latGETnet: 0 # GET request latency on network to next level
  l3-0b3: # Cache stats
   hGETS: 163504998 # GETS hits
   hGETX: 28375903 # GETX hits
   mGETS: 84400690 # GETS misses
   mGETXIM: 9352103 # GETX I->M misses
   mGETXSM: 0 # GETX S->M misses (upgrade misses)
   PUTS: 190840220 # Clean evictions (from lower level)
   PUTX: 94790048 # Dirty evictions (from lower level)
   INV: 0 # Invalidates (from upper level)
   INVX: 0 # Downgrades (from upper level)
   FWD: 0 # Forwards (from upper level)
   latGETnl: 4406381271 # GET request latency on next level
   latGETnet: 0 # GET request latency on network to next level
  l3-0b4: # Cache stats
   hGETS: 163659524 # GETS hits
   hGETX: 22460270 # GETX hits
   mGETS: 84426298 # GETS misses
   mGETXIM: 9352662 # GETX I->M misses
   mGETXSM: 0 # GETX S->M misses (upgrade misses)
   PUTS: 191581526 # Clean evictions (from lower level)
   PUTX: 88307877 # Dirty evictions (from lower level)
   INV: 0 # Invalidates (from upper level)
   INVX: 0 # Downgrades (from upper level)
   FWD: 0 # Forwards (from upper level)
   latGETnl: 4407611120 # GET request latency on next level
   latGETnet: 0 # GET request latency on network to next level
  l3-0b5: # Cache stats
   hGETS: 163886048 # GETS hits
   hGETX: 28543286 # GETX hits
   mGETS: 84394034 # GETS misses
   mGETXIM: 9352371 # GETX I->M misses
   mGETXSM: 0 # GETX S->M misses (upgrade misses)
   PUTS: 190325120 # Clean evictions (from lower level)
   PUTX: 95843851 # Dirty evictions (from lower level)
   INV: 0 # Invalidates (from upper level)
   INVX: 0 # Downgrades (from upper level)
   FWD: 0 # Forwards (from upper level)
   latGETnl: 4406081035 # GET request latency on next level
   latGETnet: 0 # GET request latency on network to next level
  l3-0b6: # Cache stats
   hGETS: 164502124 # GETS hits
   hGETX: 29438294 # GETX hits
   mGETS: 84385097 # GETS misses
   mGETXIM: 9354582 # GETX I->M misses
   mGETXSM: 0 # GETX S->M misses (upgrade misses)
   PUTS: 191797084 # Clean evictions (from lower level)
   PUTX: 95880428 # Dirty evictions (from lower level)
   INV: 0 # Invalidates (from upper level)
   INVX: 0 # Downgrades (from upper level)
   FWD: 0 # Forwards (from upper level)
   latGETnl: 4405764913 # GET request latency on next level
   latGETnet: 0 # GET request latency on network to next level
  l3-0b7: # Cache stats
   hGETS: 171024734 # GETS hits
   hGETX: 35128404 # GETX hits
   mGETS: 84417741 # GETS misses
   mGETXIM: 9354647 # GETX I->M misses
   mGETXSM: 0 # GETX S->M misses (upgrade misses)
   PUTS: 197139222 # Clean evictions (from lower level)
   PUTX: 102782543 # Dirty evictions (from lower level)
   INV: 0 # Invalidates (from upper level)
   INVX: 0 # Downgrades (from upper level)
   FWD: 0 # Forwards (from upper level)
   latGETnl: 4407302236 # GET request latency on next level
   latGETnet: 0 # GET request latency on network to next level
 mem: # Memory controller stats
  mem-0: # Memory controller stats
   rd: 187528523 # Read requests
   wr: 76925249 # Write requests
   rdlat: 16861754080 # Total latency experienced by read requests
   wrlat: 7750143321 # Total latency experienced by write requests
   rdhits: 81565 # Read row hits
   wrhits: 790576 # Write row hits
   mlh: # latency histogram for memory requests
    0: 0
    1: 0
    2: 0
    3: 0
    4: 0
    5: 3
    6: 4827
    7: 10826
    8: 160566842
    9: 13859508
    10: 1694668
    11: 665243
    12: 1098571
    13: 835551
    14: 1172611
    15: 661848
    16: 1175390
    17: 891074
    18: 1136391
    19: 2980380
    20: 242516
    21: 87314
    22: 88396
    23: 75069
    24: 65428
    25: 50008
    26: 38328
    27: 38095
    28: 36684
    29: 17887
    30: 13380
    31: 6422
    32: 2851
    33: 4300
    34: 2354
    35: 3876
    36: 719
    37: 227
    38: 437
    39: 201
    40: 182
    41: 46
    42: 22
    43: 15
    44: 11
    45: 10
    46: 1
    47: 8
    48: 2
    49: 0
    50: 1
    51: 0
    52: 0
    53: 0
    54: 0
    55: 0
    56: 0
    57: 0
    58: 0
    59: 0
    60: 0
    61: 0
    62: 0
    63: 0
    64: 0
    65: 0
    66: 0
    67: 0
    68: 0
    69: 0
    70: 0
    71: 0
    72: 0
    73: 0
    74: 0
    75: 0
    76: 0
    77: 0
    78: 0
    79: 0
    80: 0
    81: 0
    82: 0
    83: 0
    84: 0
    85: 0
    86: 0
    87: 0
    88: 0
    89: 0
    90: 0
    91: 0
    92: 0
    93: 0
    94: 0
    95: 0
    96: 0
    97: 0
    98: 0
    99: 0
  mem-1: # Memory controller stats
   rd: 187530239 # Read requests
   wr: 76935736 # Write requests
   rdlat: 16905748460 # Total latency experienced by read requests
   wrlat: 7794476200 # Total latency experienced by write requests
   rdhits: 80038 # Read row hits
   wrhits: 796973 # Write row hits
   mlh: # latency histogram for memory requests
    0: 0
    1: 0
    2: 0
    3: 0
    4: 0
    5: 13
    6: 4332
    7: 9267
    8: 160641574
    9: 13659540
    10: 1552476
    11: 615789
    12: 1070241
    13: 789668
    14: 1220355
    15: 659340
    16: 1389391
    17: 1152364
    18: 616117
    19: 3193365
    20: 275536
    21: 89075
    22: 76230
    23: 62108
    24: 67493
    25: 51104
    26: 39241
    27: 45012
    28: 42499
    29: 131398
    30: 42067
    31: 8827
    32: 3908
    33: 5757
    34: 2230
    35: 6390
    36: 1654
    37: 1913
    38: 1193
    39: 963
    40: 690
    41: 343
    42: 169
    43: 91
    44: 82
    45: 77
    46: 252
    47: 78
    48: 7
    49: 10
    50: 6
    51: 1
    52: 1
    53: 0
    54: 0
    55: 0
    56: 2
    57: 0
    58: 0
    59: 0
    60: 0
    61: 0
    62: 0
    63: 0
    64: 0
    65: 0
    66: 0
    67: 0
    68: 0
    69: 0
    70: 0
    71: 0
    72: 0
    73: 0
    74: 0
    75: 0
    76: 0
    77: 0
    78: 0
    79: 0
    80: 0
    81: 0
    82: 0
    83: 0
    84: 0
    85: 0
    86: 0
    87: 0
    88: 0
    89: 0
    90: 0
    91: 0
    92: 0
    93: 0
    94: 0
    95: 0
    96: 0
    97: 0
    98: 0
    99: 0
  mem-2: # Memory controller stats
   rd: 187508933 # Read requests
   wr: 76919639 # Write requests
   rdlat: 16843590628 # Total latency experienced by read requests
   wrlat: 7713785120 # Total latency experienced by write requests
   rdhits: 79062 # Read row hits
   wrhits: 775332 # Write row hits
   mlh: # latency histogram for memory requests
    0: 0
    1: 0
    2: 0
    3: 0
    4: 0
    5: 1
    6: 4472
    7: 9457
    8: 160875833
    9: 13776563
    10: 1617080
    11: 635777
    12: 1107655
    13: 716866
    14: 1233275
    15: 646106
    16: 1027899
    17: 1060944
    18: 1098922
    19: 2970377
    20: 237230
    21: 78555
    22: 73489
    23: 62640
    24: 63350
    25: 47960
    26: 36374
    27: 40370
    28: 35010
    29: 18141
    30: 13939
    31: 6152
    32: 2521
    33: 4256
    34: 2107
    35: 3813
    36: 732
    37: 238
    38: 357
    39: 192
    40: 134
    41: 64
    42: 25
    43: 13
    44: 16
    45: 15
    46: 4
    47: 9
    48: 0
    49: 0
    50: 0
    51: 0
    52: 0
    53: 0
    54: 0
    55: 0
    56: 0
    57: 0
    58: 0
    59: 0
    60: 0
    61: 0
    62: 0
    63: 0
    64: 0
    65: 0
    66: 0
    67: 0
    68: 0
    69: 0
    70: 0
    71: 0
    72: 0
    73: 0
    74: 0
    75: 0
    76: 0
    77: 0
    78: 0
    79: 0
    80: 0
    81: 0
    82: 0
    83: 0
    84: 0
    85: 0
    86: 0
    87: 0
    88: 0
    89: 0
    90: 0
    91: 0
    92: 0
    93: 0
    94: 0
    95: 0
    96: 0
    97: 0
    98: 0
    99: 0
  mem-3: # Memory controller stats
   rd: 187536943 # Read requests
   wr: 76923611 # Write requests
   rdlat: 16900145997 # Total latency experienced by read requests
   wrlat: 7780999133 # Total latency experienced by write requests
   rdhits: 78818 # Read row hits
   wrhits: 799223 # Write row hits
   mlh: # latency histogram for memory requests
    0: 0
    1: 0
    2: 0
    3: 0
    4: 0
    5: 3
    6: 4505
    7: 9111
    8: 160551297
    9: 13684491
    10: 1581758
    11: 655012
    12: 1126090
    13: 735343
    14: 1232064
    15: 640825
    16: 1523978
    17: 1064192
    18: 725860
    19: 3074299
    20: 272681
    21: 83233
    22: 85470
    23: 68187
    24: 63814
    25: 50295
    26: 41736
    27: 47880
    28: 74176
    29: 79866
    30: 27169
    31: 10815
    32: 3984
    33: 5300
    34: 2059
    35: 5578
    36: 1598
    37: 1462
    38: 1030
    39: 673
    40: 589
    41: 191
    42: 102
    43: 81
    44: 53
    45: 40
    46: 25
    47: 24
    48: 2
    49: 0
    50: 1
    51: 0
    52: 1
    53: 0
    54: 0
    55: 0
    56: 0
    57: 0
    58: 0
    59: 0
    60: 0
    61: 0
    62: 0
    63: 0
    64: 0
    65: 0
    66: 0
    67: 0
    68: 0
    69: 0
    70: 0
    71: 0
    72: 0
    73: 0
    74: 0
    75: 0
    76: 0
    77: 0
    78: 0
    79: 0
    80: 0
    81: 0
    82: 0
    83: 0
    84: 0
    85: 0
    86: 0
    87: 0
    88: 0
    89: 0
    90: 0
    91: 0
    92: 0
    93: 0
    94: 0
    95: 0
    96: 0
    97: 0
    98: 0
    99: 0
 sched: # Scheduler stats
  thCr: 2 # Threads created
  thFn: 2 # Threads finished
  schedEvs: 2 # Schedule events
  waitEvs: 0 # Wait events
  handoffEvs: 0 # Handoff events
  sleepEvs: 0 # Sleep events
  idlePhases: 0 # Phases with no thread active
  idlePeriods: 0 # Periods with no thread active
  occHist: # Occupancy histogram
   0: 0
   1: 111
   2: 12340000
  rqSzHist: # Run queue size histogram
   0: 12340111
   1: 0
   2: 0
   3: 0
   4: 0
   5: 0
   6: 0
   7: 0
   8: 0
   9: 0
   10: 0
   11: 0
   12: 0
   13: 0
   14: 0
   15: 0
   16: 0
 procCycles: # Per-process unhalted core cycles
  0: 243591828322
  1: 0
  2: 0
  3: 0
  4: 0
  5: 0
  6: 0
  7: 0
  8: 0
  9: 0
  10: 0
  11: 0
  12: 0
  13: 0
  14: 0
  15: 0
  16: 0
  17: 0
  18: 0
  19: 0
  20: 0
  21: 0
  22: 0
  23: 0
  24: 0
  25: 0
  26: 0
  27: 0
  28: 0
  29: 0
  30: 0
  31: 0
  32: 0
  33: 0
  34: 0
  35: 0
  36: 0
  37: 0
  38: 0
  39: 0
  40: 0
  41: 0
  42: 0
  43: 0
  44: 0
  45: 0
  46: 0
  47: 0
  48: 0
  49: 0
  50: 0
  51: 0
  52: 0
  53: 0
  54: 0
  55: 0
  56: 0
  57: 0
  58: 0
  59: 0
  60: 0
  61: 0
  62: 0
  63: 0
 procInstrs: # Per-process instructions
  0: 387567248684
  1: 0
  2: 0
  3: 0
  4: 0
  5: 0
  6: 0
  7: 0
  8: 0
  9: 0
  10: 0
  11: 0
  12: 0
  13: 0
  14: 0
  15: 0
  16: 0
  17: 0
  18: 0
  19: 0
  20: 0
  21: 0
  22: 0
  23: 0
  24: 0
  25: 0
  26: 0
  27: 0
  28: 0
  29: 0
  30: 0
  31: 0
  32: 0
  33: 0
  34: 0
  35: 0
  36: 0
  37: 0
  38: 0
  39: 0
  40: 0
  41: 0
  42: 0
  43: 0
  44: 0
  45: 0
  46: 0
  47: 0
  48: 0
  49: 0
  50: 0
  51: 0
  52: 0
  53: 0
  54: 0
  55: 0
  56: 0
  57: 0
  58: 0
  59: 0
  60: 0
  61: 0
  62: 0
  63: 0
 heartbeats: # Per-process heartbeats
  0: 0
  1: 0
  2: 0
  3: 0
  4: 0
  5: 0
  6: 0
  7: 0
  8: 0
  9: 0
  10: 0
  11: 0
  12: 0
  13: 0
  14: 0
  15: 0
  16: 0
  17: 0
  18: 0
  19: 0
  20: 0
  21: 0
  22: 0
  23: 0
  24: 0
  25: 0
  26: 0
  27: 0
  28: 0
  29: 0
  30: 0
  31: 0
  32: 0
  33: 0
  34: 0
  35: 0
  36: 0
  37: 0
  38: 0
  39: 0
  40: 0
  41: 0
  42: 0
  43: 0
  44: 0
  45: 0
  46: 0
  47: 0
  48: 0
  49: 0
  50: 0
  51: 0
  52: 0
  53: 0
  54: 0
  55: 0
  56: 0
  57: 0
  58: 0
  59: 0
  60: 0
  61: 0
  62: 0
  63: 0
===
