# zsim stats
===
root: # Stats
 contention: # Contention simulation stats
  domain-0: # Domain stats
   time: 1874019214486 # Weave simulation time
 time: # Simulator time breakdown
  init: 79004212
  bound: 5247177899819
  weave: 2073107583337
  ff: 0
 trigger: 20000 # Reason for this stats dump
 phase: 2668772 # Simulated phases
 CPU: # Core stats
  CPU-0: # Core stats
   cycles: 26687715749 # Simulated unhalted cycles
   cCycles: 6151380968 # Cycles due to contention stalls
   instrs: 29060695022 # Simulated instructions
   uops: 33583938446 # Retired micro-ops
   bbls: 1633827434 # Basic blocks
   approxInstrs: 226908338 # Instrs with approx uop decoding
   mispredBranches: 7291386 # Mispredicted branches
  CPU-1: # Core stats
   cycles: 26686380244 # Simulated unhalted cycles
   cCycles: 6014207913 # Cycles due to contention stalls
   instrs: 29235697574 # Simulated instructions
   uops: 33808485612 # Retired micro-ops
   bbls: 1684536878 # Basic blocks
   approxInstrs: 226895865 # Instrs with approx uop decoding
   mispredBranches: 7271237 # Mispredicted branches
  CPU-2: # Core stats
   cycles: 26686250313 # Simulated unhalted cycles
   cCycles: 5892300445 # Cycles due to contention stalls
   instrs: 29233388891 # Simulated instructions
   uops: 33836315134 # Retired micro-ops
   bbls: 1719226311 # Basic blocks
   approxInstrs: 226896786 # Instrs with approx uop decoding
   mispredBranches: 7244512 # Mispredicted branches
  CPU-3: # Core stats
   cycles: 26686120789 # Simulated unhalted cycles
   cCycles: 6012717633 # Cycles due to contention stalls
   instrs: 29170994552 # Simulated instructions
   uops: 33756088900 # Retired micro-ops
   bbls: 1701401192 # Basic blocks
   approxInstrs: 226896037 # Instrs with approx uop decoding
   mispredBranches: 7246020 # Mispredicted branches
  CPU-4: # Core stats
   cycles: 26685990865 # Simulated unhalted cycles
   cCycles: 5740700158 # Cycles due to contention stalls
   instrs: 29383311612 # Simulated instructions
   uops: 34029062862 # Retired micro-ops
   bbls: 1762065098 # Basic blocks
   approxInstrs: 226895257 # Instrs with approx uop decoding
   mispredBranches: 7245041 # Mispredicted branches
  CPU-5: # Core stats
   cycles: 26685860395 # Simulated unhalted cycles
   cCycles: 5505444880 # Cycles due to contention stalls
   instrs: 29514811273 # Simulated instructions
   uops: 34198134011 # Retired micro-ops
   bbls: 1799636381 # Basic blocks
   approxInstrs: 226895284 # Instrs with approx uop decoding
   mispredBranches: 7245051 # Mispredicted branches
  CPU-6: # Core stats
   cycles: 26685731281 # Simulated unhalted cycles
   cCycles: 5479889302 # Cycles due to contention stalls
   instrs: 27757519802 # Simulated instructions
   uops: 32362743032 # Retired micro-ops
   bbls: 2070388929 # Basic blocks
   approxInstrs: 198533382 # Instrs with approx uop decoding
   mispredBranches: 6417868 # Mispredicted branches
  CPU-7: # Core stats
   cycles: 26685610498 # Simulated unhalted cycles
   cCycles: 5407069309 # Cycles due to contention stalls
   instrs: 27775456342 # Simulated instructions
   uops: 32385804887 # Retired micro-ops
   bbls: 2075513178 # Basic blocks
   approxInstrs: 198533542 # Instrs with approx uop decoding
   mispredBranches: 6418193 # Mispredicted branches
 l1d_CPU: # Cache stats
  l1d_CPU-0: # Filter cache stats
   fhGETS: 6467436582 # Filtered GETS hits
   fhGETX: 2727178946 # Filtered GETX hits
   hGETS: 781849741 # GETS hits
   hGETX: 504768175 # GETX hits
   mGETS: 571193259 # GETS misses
   mGETXIM: 94070839 # GETX I->M misses
   mGETXSM: 42731 # GETX S->M misses (upgrade misses)
   PUTS: 0 # Clean evictions (from lower level)
   PUTX: 0 # Dirty evictions (from lower level)
   INV: 33189 # Invalidates (from upper level)
   INVX: 91851 # Downgrades (from upper level)
   FWD: 0 # Forwards (from upper level)
   latGETnl: 36798794741 # GET request latency on next level
   latGETnet: 0 # GET request latency on network to next level
  l1d_CPU-1: # Filter cache stats
   fhGETS: 6479779502 # Filtered GETS hits
   fhGETX: 2717194131 # Filtered GETX hits
   hGETS: 793943610 # GETS hits
   hGETX: 513315937 # GETX hits
   mGETS: 571133786 # GETS misses
   mGETXIM: 93833736 # GETX I->M misses
   mGETXSM: 37906 # GETX S->M misses (upgrade misses)
   PUTS: 0 # Clean evictions (from lower level)
   PUTX: 0 # Dirty evictions (from lower level)
   INV: 23864 # Invalidates (from upper level)
   INVX: 21978 # Downgrades (from upper level)
   FWD: 0 # Forwards (from upper level)
   latGETnl: 36735923023 # GET request latency on next level
   latGETnet: 0 # GET request latency on network to next level
  l1d_CPU-2: # Filter cache stats
   fhGETS: 6486522312 # Filtered GETS hits
   fhGETX: 2724690601 # Filtered GETX hits
   hGETS: 768720878 # GETS hits
   hGETX: 498117510 # GETX hits
   mGETS: 565212441 # GETS misses
   mGETXIM: 93832739 # GETX I->M misses
   mGETXSM: 18160 # GETX S->M misses (upgrade misses)
   PUTS: 0 # Clean evictions (from lower level)
   PUTX: 0 # Dirty evictions (from lower level)
   INV: 26203 # Invalidates (from upper level)
   INVX: 18585 # Downgrades (from upper level)
   FWD: 0 # Forwards (from upper level)
   latGETnl: 36473574138 # GET request latency on next level
   latGETnet: 0 # GET request latency on network to next level
  l1d_CPU-3: # Filter cache stats
   fhGETS: 6412562862 # Filtered GETS hits
   fhGETX: 2686770222 # Filtered GETX hits
   hGETS: 833766063 # GETS hits
   hGETX: 536040118 # GETX hits
   mGETS: 565212208 # GETS misses
   mGETXIM: 93831948 # GETX I->M misses
   mGETXSM: 13679 # GETX S->M misses (upgrade misses)
   PUTS: 0 # Clean evictions (from lower level)
   PUTX: 0 # Dirty evictions (from lower level)
   INV: 25533 # Invalidates (from upper level)
   INVX: 13149 # Downgrades (from upper level)
   FWD: 0 # Forwards (from upper level)
   latGETnl: 36344589889 # GET request latency on next level
   latGETnet: 0 # GET request latency on network to next level
  l1d_CPU-4: # Filter cache stats
   fhGETS: 6460690325 # Filtered GETS hits
   fhGETX: 2703192549 # Filtered GETX hits
   hGETS: 815973660 # GETS hits
   hGETX: 519617742 # GETX hits
   mGETS: 565207158 # GETS misses
   mGETXIM: 93829956 # GETX I->M misses
   mGETXSM: 12608 # GETX S->M misses (upgrade misses)
   PUTS: 0 # Clean evictions (from lower level)
   PUTX: 0 # Dirty evictions (from lower level)
   INV: 25330 # Invalidates (from upper level)
   INVX: 14325 # Downgrades (from upper level)
   FWD: 0 # Forwards (from upper level)
   latGETnl: 36265936511 # GET request latency on next level
   latGETnet: 0 # GET request latency on network to next level
  l1d_CPU-5: # Filter cache stats
   fhGETS: 6514995740 # Filtered GETS hits
   fhGETX: 2714952864 # Filtered GETX hits
   hGETS: 780455863 # GETS hits
   hGETX: 507856958 # GETX hits
   mGETS: 565205168 # GETS misses
   mGETXIM: 93830751 # GETX I->M misses
   mGETXSM: 12334 # GETX S->M misses (upgrade misses)
   PUTS: 0 # Clean evictions (from lower level)
   PUTX: 0 # Dirty evictions (from lower level)
   INV: 24858 # Invalidates (from upper level)
   INVX: 284646 # Downgrades (from upper level)
   FWD: 0 # Forwards (from upper level)
   latGETnl: 36363822091 # GET request latency on next level
   latGETnet: 0 # GET request latency on network to next level
  l1d_CPU-6: # Filter cache stats
   fhGETS: 5885881683 # Filtered GETS hits
   fhGETX: 2327793794 # Filtered GETX hits
   hGETS: 788469077 # GETS hits
   hGETX: 516712288 # GETX hits
   mGETS: 501833383 # GETS misses
   mGETXIM: 84640615 # GETX I->M misses
   mGETXSM: 10494 # GETX S->M misses (upgrade misses)
   PUTS: 0 # Clean evictions (from lower level)
   PUTX: 0 # Dirty evictions (from lower level)
   INV: 25061 # Invalidates (from upper level)
   INVX: 184028 # Downgrades (from upper level)
   FWD: 0 # Forwards (from upper level)
   latGETnl: 32562394852 # GET request latency on next level
   latGETnet: 0 # GET request latency on network to next level
  l1d_CPU-7: # Filter cache stats
   fhGETS: 6005953913 # Filtered GETS hits
   fhGETX: 2407692253 # Filtered GETX hits
   hGETS: 670945642 # GETS hits
   hGETX: 436815885 # GETX hits
   mGETS: 501847323 # GETS misses
   mGETXIM: 84638362 # GETX I->M misses
   mGETXSM: 11305 # GETX S->M misses (upgrade misses)
   PUTS: 0 # Clean evictions (from lower level)
   PUTX: 0 # Dirty evictions (from lower level)
   INV: 25070 # Invalidates (from upper level)
   INVX: 32122 # Downgrades (from upper level)
   FWD: 0 # Forwards (from upper level)
   latGETnl: 32734239350 # GET request latency on next level
   latGETnet: 0 # GET request latency on network to next level
 l1i_CPU: # Cache stats
  l1i_CPU-0: # Filter cache stats
   fhGETS: 3064158611 # Filtered GETS hits
   fhGETX: 0 # Filtered GETX hits
   hGETS: 531445 # GETS hits
   hGETX: 0 # GETX hits
   mGETS: 264979 # GETS misses
   mGETXIM: 0 # GETX I->M misses
   mGETXSM: 0 # GETX S->M misses (upgrade misses)
   PUTS: 0 # Clean evictions (from lower level)
   PUTX: 0 # Dirty evictions (from lower level)
   INV: 174111 # Invalidates (from upper level)
   INVX: 0 # Downgrades (from upper level)
   FWD: 0 # Forwards (from upper level)
   latGETnl: 12826235 # GET request latency on next level
   latGETnet: 0 # GET request latency on network to next level
  l1i_CPU-1: # Filter cache stats
   fhGETS: 3114902696 # Filtered GETS hits
   fhGETX: 0 # Filtered GETX hits
   hGETS: 392908 # GETS hits
   hGETX: 0 # GETX hits
   mGETS: 184342 # GETS misses
   mGETXIM: 0 # GETX I->M misses
   mGETXSM: 0 # GETX S->M misses (upgrade misses)
   PUTS: 0 # Clean evictions (from lower level)
   PUTX: 0 # Dirty evictions (from lower level)
   INV: 169621 # Invalidates (from upper level)
   INVX: 0 # Downgrades (from upper level)
   FWD: 0 # Forwards (from upper level)
   latGETnl: 8648618 # GET request latency on next level
   latGETnet: 0 # GET request latency on network to next level
  l1i_CPU-2: # Filter cache stats
   fhGETS: 3141745317 # Filtered GETS hits
   fhGETX: 0 # Filtered GETX hits
   hGETS: 387555 # GETS hits
   hGETX: 0 # GETX hits
   mGETS: 184420 # GETS misses
   mGETXIM: 0 # GETX I->M misses
   mGETXSM: 0 # GETX S->M misses (upgrade misses)
   PUTS: 0 # Clean evictions (from lower level)
   PUTX: 0 # Dirty evictions (from lower level)
   INV: 169675 # Invalidates (from upper level)
   INVX: 0 # Downgrades (from upper level)
   FWD: 0 # Forwards (from upper level)
   latGETnl: 8620502 # GET request latency on next level
   latGETnet: 0 # GET request latency on network to next level
  l1i_CPU-3: # Filter cache stats
   fhGETS: 3123933434 # Filtered GETS hits
   fhGETX: 0 # Filtered GETX hits
   hGETS: 382023 # GETS hits
   hGETX: 0 # GETX hits
   mGETS: 186735 # GETS misses
   mGETXIM: 0 # GETX I->M misses
   mGETXSM: 0 # GETX S->M misses (upgrade misses)
   PUTS: 0 # Clean evictions (from lower level)
   PUTX: 0 # Dirty evictions (from lower level)
   INV: 172047 # Invalidates (from upper level)
   INVX: 0 # Downgrades (from upper level)
   FWD: 0 # Forwards (from upper level)
   latGETnl: 8664246 # GET request latency on next level
   latGETnet: 0 # GET request latency on network to next level
  l1i_CPU-4: # Filter cache stats
   fhGETS: 3184577113 # Filtered GETS hits
   fhGETX: 0 # Filtered GETX hits
   hGETS: 390528 # GETS hits
   hGETX: 0 # GETX hits
   mGETS: 186516 # GETS misses
   mGETXIM: 0 # GETX I->M misses
   mGETXSM: 0 # GETX S->M misses (upgrade misses)
   PUTS: 0 # Clean evictions (from lower level)
   PUTX: 0 # Dirty evictions (from lower level)
   INV: 172766 # Invalidates (from upper level)
   INVX: 0 # Downgrades (from upper level)
   FWD: 0 # Forwards (from upper level)
   latGETnl: 8628553 # GET request latency on next level
   latGETnet: 0 # GET request latency on network to next level
  l1i_CPU-5: # Filter cache stats
   fhGETS: 3222153635 # Filtered GETS hits
   fhGETX: 0 # Filtered GETX hits
   hGETS: 391336 # GETS hits
   hGETX: 0 # GETX hits
   mGETS: 186457 # GETS misses
   mGETXIM: 0 # GETX I->M misses
   mGETXSM: 0 # GETX S->M misses (upgrade misses)
   PUTS: 0 # Clean evictions (from lower level)
   PUTX: 0 # Dirty evictions (from lower level)
   INV: 171756 # Invalidates (from upper level)
   INVX: 0 # Downgrades (from upper level)
   FWD: 0 # Forwards (from upper level)
   latGETnl: 9474288 # GET request latency on next level
   latGETnet: 0 # GET request latency on network to next level
  l1i_CPU-6: # Filter cache stats
   fhGETS: 3326168540 # Filtered GETS hits
   fhGETX: 0 # Filtered GETX hits
   hGETS: 353865 # GETS hits
   hGETX: 0 # GETX hits
   mGETS: 185721 # GETS misses
   mGETXIM: 0 # GETX I->M misses
   mGETXSM: 0 # GETX S->M misses (upgrade misses)
   PUTS: 0 # Clean evictions (from lower level)
   PUTX: 0 # Dirty evictions (from lower level)
   INV: 171038 # Invalidates (from upper level)
   INVX: 0 # Downgrades (from upper level)
   FWD: 0 # Forwards (from upper level)
   latGETnl: 9200510 # GET request latency on next level
   latGETnet: 0 # GET request latency on network to next level
  l1i_CPU-7: # Filter cache stats
   fhGETS: 3331272130 # Filtered GETS hits
   fhGETX: 0 # Filtered GETX hits
   hGETS: 355071 # GETS hits
   hGETX: 0 # GETX hits
   mGETS: 185497 # GETS misses
   mGETXIM: 0 # GETX I->M misses
   mGETXSM: 0 # GETX S->M misses (upgrade misses)
   PUTS: 0 # Clean evictions (from lower level)
   PUTX: 0 # Dirty evictions (from lower level)
   INV: 170745 # Invalidates (from upper level)
   INVX: 0 # Downgrades (from upper level)
   FWD: 0 # Forwards (from upper level)
   latGETnl: 8596787 # GET request latency on next level
   latGETnet: 0 # GET request latency on network to next level
 l2_CPU: # Cache stats
  l2_CPU-0: # Cache stats
   hGETS: 46342716 # GETS hits
   hGETX: 3847521 # GETX hits
   mGETS: 525115522 # GETS misses
   mGETXIM: 90223322 # GETX I->M misses
   mGETXSM: 42727 # GETX S->M misses (upgrade misses)
   PUTS: 305244831 # Clean evictions (from lower level)
   PUTX: 360075947 # Dirty evictions (from lower level)
   INV: 213367 # Invalidates (from upper level)
   INVX: 489080 # Downgrades (from upper level)
   FWD: 0 # Forwards (from upper level)
   latGETnl: 28824759276 # GET request latency on next level
   latGETnet: 0 # GET request latency on network to next level
  l2_CPU-1: # Cache stats
   hGETS: 45540980 # GETS hits
   hGETX: 3350058 # GETX hits
   mGETS: 525777148 # GETS misses
   mGETXIM: 90483865 # GETX I->M misses
   mGETXSM: 37719 # GETX S->M misses (upgrade misses)
   PUTS: 305111835 # Clean evictions (from lower level)
   PUTX: 359846227 # Dirty evictions (from lower level)
   INV: 200284 # Invalidates (from upper level)
   INVX: 607857 # Downgrades (from upper level)
   FWD: 0 # Forwards (from upper level)
   latGETnl: 28762294401 # GET request latency on next level
   latGETnet: 0 # GET request latency on network to next level
  l2_CPU-2: # Cache stats
   hGETS: 45934152 # GETS hits
   hGETX: 3768056 # GETX hits
   mGETS: 519462709 # GETS misses
   mGETXIM: 90064794 # GETX I->M misses
   mGETXSM: 18049 # GETX S->M misses (upgrade misses)
   PUTS: 300165951 # Clean evictions (from lower level)
   PUTX: 358867302 # Dirty evictions (from lower level)
   INV: 223314 # Invalidates (from upper level)
   INVX: 477053 # Downgrades (from upper level)
   FWD: 0 # Forwards (from upper level)
   latGETnl: 28571221520 # GET request latency on next level
   latGETnet: 0 # GET request latency on network to next level
  l2_CPU-3: # Cache stats
   hGETS: 46188722 # GETS hits
   hGETX: 3617887 # GETX hits
   mGETS: 519210221 # GETS misses
   mGETXIM: 90214195 # GETX I->M misses
   mGETXSM: 13545 # GETX S->M misses (upgrade misses)
   PUTS: 300173990 # Clean evictions (from lower level)
   PUTX: 358858958 # Dirty evictions (from lower level)
   INV: 199953 # Invalidates (from upper level)
   INVX: 206434 # Downgrades (from upper level)
   FWD: 0 # Forwards (from upper level)
   latGETnl: 28442319295 # GET request latency on next level
   latGETnet: 0 # GET request latency on network to next level
  l2_CPU-4: # Cache stats
   hGETS: 45840949 # GETS hits
   hGETX: 3778468 # GETX hits
   mGETS: 519552725 # GETS misses
   mGETXIM: 90051625 # GETX I->M misses
   mGETXSM: 12471 # GETX S->M misses (upgrade misses)
   PUTS: 300170770 # Clean evictions (from lower level)
   PUTX: 358854571 # Dirty evictions (from lower level)
   INV: 195726 # Invalidates (from upper level)
   INVX: 183473 # Downgrades (from upper level)
   FWD: 0 # Forwards (from upper level)
   latGETnl: 28363730208 # GET request latency on next level
   latGETnet: 0 # GET request latency on network to next level
  l2_CPU-5: # Cache stats
   hGETS: 45873251 # GETS hits
   hGETX: 3667972 # GETX hits
   mGETS: 519518374 # GETS misses
   mGETXIM: 90162906 # GETX I->M misses
   mGETXSM: 12207 # GETX S->M misses (upgrade misses)
   PUTS: 300164942 # Clean evictions (from lower level)
   PUTX: 358860627 # Dirty evictions (from lower level)
   INV: 195399 # Invalidates (from upper level)
   INVX: 644792 # Downgrades (from upper level)
   FWD: 0 # Forwards (from upper level)
   latGETnl: 28462479859 # GET request latency on next level
   latGETnet: 0 # GET request latency on network to next level
  l2_CPU-6: # Cache stats
   hGETS: 40443015 # GETS hits
   hGETX: 3086900 # GETX hits
   mGETS: 461576089 # GETS misses
   mGETXIM: 81553823 # GETX I->M misses
   mGETXSM: 10386 # GETX S->M misses (upgrade misses)
   PUTS: 269072998 # Clean evictions (from lower level)
   PUTX: 317390441 # Dirty evictions (from lower level)
   INV: 193987 # Invalidates (from upper level)
   INVX: 489846 # Downgrades (from upper level)
   FWD: 0 # Forwards (from upper level)
   latGETnl: 25531552806 # GET request latency on next level
   latGETnet: 0 # GET request latency on network to next level
  l2_CPU-7: # Cache stats
   hGETS: 40805964 # GETS hits
   hGETX: 3065498 # GETX hits
   mGETS: 461226856 # GETS misses
   mGETXIM: 81572968 # GETX I->M misses
   mGETXSM: 11201 # GETX S->M misses (upgrade misses)
   PUTS: 269084772 # Clean evictions (from lower level)
   PUTX: 317390452 # Dirty evictions (from lower level)
   INV: 196390 # Invalidates (from upper level)
   INVX: 36971 # Downgrades (from upper level)
   FWD: 0 # Forwards (from upper level)
   latGETnl: 25702646293 # GET request latency on next level
   latGETnet: 0 # GET request latency on network to next level
 l3: # Cache stats
  l3-0b0: # Cache stats
   hGETS: 318426340 # GETS hits
   hGETX: 63612106 # GETX hits
   mGETS: 188180607 # GETS misses
   mGETXIM: 24471960 # GETX I->M misses
   mGETXSM: 0 # GETX S->M misses (upgrade misses)
   PUTS: 273695650 # Clean evictions (from lower level)
   PUTX: 320758100 # Dirty evictions (from lower level)
   INV: 0 # Invalidates (from upper level)
   INVX: 0 # Downgrades (from upper level)
   FWD: 0 # Forwards (from upper level)
   latGETnl: 9994670649 # GET request latency on next level
   latGETnet: 0 # GET request latency on network to next level
  l3-0b1: # Cache stats
   hGETS: 318454549 # GETS hits
   hGETX: 63482839 # GETX hits
   mGETS: 188183033 # GETS misses
   mGETXIM: 24477937 # GETX I->M misses
   mGETXSM: 0 # GETX S->M misses (upgrade misses)
   PUTS: 273863406 # Clean evictions (from lower level)
   PUTX: 320476264 # Dirty evictions (from lower level)
   INV: 0 # Invalidates (from upper level)
   INVX: 0 # Downgrades (from upper level)
   FWD: 0 # Forwards (from upper level)
   latGETnl: 9995065590 # GET request latency on next level
   latGETnet: 0 # GET request latency on network to next level
  l3-0b2: # Cache stats
   hGETS: 318349831 # GETS hits
   hGETX: 63506814 # GETX hits
   mGETS: 188143022 # GETS misses
   mGETXIM: 24483186 # GETX I->M misses
   mGETXSM: 0 # GETX S->M misses (upgrade misses)
   PUTS: 273511413 # Clean evictions (from lower level)
   PUTX: 320735759 # Dirty evictions (from lower level)
   INV: 0 # Invalidates (from upper level)
   INVX: 0 # Downgrades (from upper level)
   FWD: 0 # Forwards (from upper level)
   latGETnl: 9993431776 # GET request latency on next level
   latGETnet: 0 # GET request latency on network to next level
  l3-0b3: # Cache stats
   hGETS: 318300245 # GETS hits
   hGETX: 63560545 # GETX hits
   mGETS: 188135277 # GETS misses
   mGETXIM: 24480881 # GETX I->M misses
   mGETXSM: 0 # GETX S->M misses (upgrade misses)
   PUTS: 273442089 # Clean evictions (from lower level)
   PUTX: 320743407 # Dirty evictions (from lower level)
   INV: 0 # Invalidates (from upper level)
   INVX: 0 # Downgrades (from upper level)
   FWD: 0 # Forwards (from upper level)
   latGETnl: 9992959426 # GET request latency on next level
   latGETnet: 0 # GET request latency on network to next level
  l3-0b4: # Cache stats
   hGETS: 318262714 # GETS hits
   hGETX: 63580898 # GETX hits
   mGETS: 188086614 # GETS misses
   mGETXIM: 24477778 # GETX I->M misses
   mGETXSM: 0 # GETX S->M misses (upgrade misses)
   PUTS: 273630529 # Clean evictions (from lower level)
   PUTX: 320576436 # Dirty evictions (from lower level)
   INV: 0 # Invalidates (from upper level)
   INVX: 0 # Downgrades (from upper level)
   FWD: 0 # Forwards (from upper level)
   latGETnl: 9990526424 # GET request latency on next level
   latGETnet: 0 # GET request latency on network to next level
  l3-0b5: # Cache stats
   hGETS: 318134154 # GETS hits
   hGETX: 63599510 # GETX hits
   mGETS: 188155041 # GETS misses
   mGETXIM: 24450163 # GETX I->M misses
   mGETXSM: 0 # GETX S->M misses (upgrade misses)
   PUTS: 273947484 # Clean evictions (from lower level)
   PUTX: 320208979 # Dirty evictions (from lower level)
   INV: 0 # Invalidates (from upper level)
   INVX: 0 # Downgrades (from upper level)
   FWD: 0 # Forwards (from upper level)
   latGETnl: 9992444588 # GET request latency on next level
   latGETnet: 0 # GET request latency on network to next level
  l3-0b6: # Cache stats
   hGETS: 318234573 # GETS hits
   hGETX: 63679603 # GETX hits
   mGETS: 188153852 # GETS misses
   mGETXIM: 24463899 # GETX I->M misses
   mGETXSM: 0 # GETX S->M misses (upgrade misses)
   PUTS: 273958146 # Clean evictions (from lower level)
   PUTX: 320391214 # Dirty evictions (from lower level)
   INV: 0 # Invalidates (from upper level)
   INVX: 0 # Downgrades (from upper level)
   FWD: 0 # Forwards (from upper level)
   latGETnl: 9993034297 # GET request latency on next level
   latGETnet: 0 # GET request latency on network to next level
  l3-0b7: # Cache stats
   hGETS: 318188203 # GETS hits
   hGETX: 63699527 # GETX hits
   mGETS: 188051589 # GETS misses
   mGETXIM: 24458157 # GETX I->M misses
   mGETXSM: 0 # GETX S->M misses (upgrade misses)
   PUTS: 273755304 # Clean evictions (from lower level)
   PUTX: 320425797 # Dirty evictions (from lower level)
   INV: 0 # Invalidates (from upper level)
   INVX: 0 # Downgrades (from upper level)
   FWD: 0 # Forwards (from upper level)
   latGETnl: 9987958062 # GET request latency on next level
   latGETnet: 0 # GET request latency on network to next level
 mem: # Memory controller stats
  mem-0: # Memory controller stats
   rd: 425222675 # Read requests
   wr: 187063528 # Write requests
   rdlat: 45600141750 # Total latency experienced by read requests
   wrlat: 42894381406 # Total latency experienced by write requests
   rdhits: 3402144 # Read row hits
   wrhits: 7705399 # Write row hits
   mlh: # latency histogram for memory requests
    0: 0
    1: 0
    2: 0
    3: 0
    4: 0
    5: 20328
    6: 173464
    7: 290667
    8: 243310230
    9: 69433588
    10: 18140378
    11: 9454205
    12: 8227573
    13: 7002279
    14: 6009254
    15: 6283380
    16: 5941476
    17: 4805365
    18: 5436833
    19: 10338925
    20: 17061586
    21: 2665194
    22: 1674721
    23: 1450051
    24: 1283072
    25: 1023445
    26: 869654
    27: 765303
    28: 667879
    29: 555327
    30: 455651
    31: 377988
    32: 274491
    33: 230812
    34: 206184
    35: 170893
    36: 130626
    37: 96374
    38: 75736
    39: 60879
    40: 50600
    41: 41332
    42: 33222
    43: 26760
    44: 20520
    45: 15887
    46: 12740
    47: 10676
    48: 9110
    49: 7414
    50: 5909
    51: 4882
    52: 4135
    53: 3207
    54: 2583
    55: 2017
    56: 1589
    57: 1178
    58: 1026
    59: 858
    60: 704
    61: 546
    62: 434
    63: 324
    64: 264
    65: 201
    66: 144
    67: 103
    68: 88
    69: 80
    70: 63
    71: 67
    72: 45
    73: 33
    74: 34
    75: 17
    76: 8
    77: 13
    78: 12
    79: 4
    80: 6
    81: 5
    82: 6
    83: 4
    84: 0
    85: 3
    86: 3
    87: 3
    88: 1
    89: 0
    90: 1
    91: 0
    92: 2
    93: 0
    94: 1
    95: 0
    96: 0
    97: 0
    98: 0
    99: 0
  mem-1: # Memory controller stats
   rd: 425209127 # Read requests
   wr: 187073633 # Write requests
   rdlat: 45548145586 # Total latency experienced by read requests
   wrlat: 42852436837 # Total latency experienced by write requests
   rdhits: 3388267 # Read row hits
   wrhits: 7706824 # Write row hits
   mlh: # latency histogram for memory requests
    0: 0
    1: 0
    2: 0
    3: 0
    4: 0
    5: 18657
    6: 172584
    7: 290551
    8: 243521989
    9: 69770272
    10: 18126972
    11: 9398113
    12: 8195744
    13: 7024530
    14: 5900937
    15: 6253536
    16: 5889314
    17: 4665017
    18: 5374864
    19: 10414645
    20: 17007598
    21: 2631500
    22: 1660522
    23: 1435370
    24: 1273632
    25: 1012197
    26: 859875
    27: 751531
    28: 665600
    29: 561932
    30: 456021
    31: 378187
    32: 275384
    33: 229451
    34: 205119
    35: 169959
    36: 129588
    37: 95529
    38: 75498
    39: 60343
    40: 50097
    41: 40677
    42: 32857
    43: 26345
    44: 20341
    45: 16036
    46: 12778
    47: 10477
    48: 8954
    49: 7267
    50: 6044
    51: 4896
    52: 4125
    53: 3206
    54: 2443
    55: 2015
    56: 1513
    57: 1237
    58: 1024
    59: 818
    60: 676
    61: 552
    62: 430
    63: 328
    64: 280
    65: 214
    66: 170
    67: 158
    68: 107
    69: 97
    70: 69
    71: 61
    72: 50
    73: 45
    74: 37
    75: 19
    76: 24
    77: 23
    78: 12
    79: 8
    80: 11
    81: 12
    82: 7
    83: 8
    84: 7
    85: 1
    86: 2
    87: 1
    88: 2
    89: 1
    90: 2
    91: 0
    92: 0
    93: 0
    94: 0
    95: 1
    96: 0
    97: 0
    98: 0
    99: 1
  mem-2: # Memory controller stats
   rd: 425168304 # Read requests
   wr: 187021030 # Write requests
   rdlat: 45515840555 # Total latency experienced by read requests
   wrlat: 42669254072 # Total latency experienced by write requests
   rdhits: 3403204 # Read row hits
   wrhits: 7682732 # Write row hits
   mlh: # latency histogram for memory requests
    0: 0
    1: 0
    2: 0
    3: 0
    4: 0
    5: 21531
    6: 170637
    7: 288753
    8: 243819532
    9: 69725033
    10: 18119300
    11: 9383273
    12: 8101321
    13: 7005406
    14: 5902031
    15: 6188561
    16: 5718323
    17: 4856384
    18: 5380004
    19: 10378705
    20: 17058432
    21: 2621872
    22: 1647284
    23: 1420414
    24: 1263281
    25: 1005696
    26: 853442
    27: 747359
    28: 656677
    29: 549852
    30: 447386
    31: 371352
    32: 271356
    33: 227195
    34: 201510
    35: 166039
    36: 126203
    37: 92645
    38: 72744
    39: 58385
    40: 48801
    41: 40018
    42: 32246
    43: 25917
    44: 19823
    45: 15451
    46: 12465
    47: 10199
    48: 8614
    49: 7108
    50: 5887
    51: 4886
    52: 3886
    53: 3119
    54: 2473
    55: 1925
    56: 1475
    57: 1232
    58: 992
    59: 769
    60: 594
    61: 526
    62: 409
    63: 350
    64: 246
    65: 190
    66: 175
    67: 107
    68: 88
    69: 78
    70: 65
    71: 51
    72: 49
    73: 29
    74: 29
    75: 21
    76: 16
    77: 16
    78: 9
    79: 16
    80: 8
    81: 14
    82: 6
    83: 2
    84: 1
    85: 1
    86: 1
    87: 1
    88: 0
    89: 0
    90: 2
    91: 0
    92: 0
    93: 0
    94: 0
    95: 0
    96: 0
    97: 0
    98: 0
    99: 0
  mem-3: # Memory controller stats
   rd: 425252890 # Read requests
   wr: 187035283 # Write requests
   rdlat: 45544009389 # Total latency experienced by read requests
   wrlat: 42754941371 # Total latency experienced by write requests
   rdhits: 3391897 # Read row hits
   wrhits: 7727011 # Write row hits
   mlh: # latency histogram for memory requests
    0: 0
    1: 0
    2: 0
    3: 0
    4: 0
    5: 19920
    6: 172503
    7: 291094
    8: 243774346
    9: 69881206
    10: 18066018
    11: 9294005
    12: 7963987
    13: 7060002
    14: 5990476
    15: 6213935
    16: 5806015
    17: 4729545
    18: 5381209
    19: 10418038
    20: 17028184
    21: 2631912
    22: 1655649
    23: 1420525
    24: 1262861
    25: 1015246
    26: 857067
    27: 750136
    28: 670127
    29: 561737
    30: 466540
    31: 378323
    32: 275142
    33: 230012
    34: 203387
    35: 167108
    36: 128081
    37: 93974
    38: 74649
    39: 59526
    40: 49828
    41: 41281
    42: 32953
    43: 26798
    44: 20705
    45: 16213
    46: 13040
    47: 10831
    48: 9099
    49: 7453
    50: 6213
    51: 5074
    52: 4298
    53: 3361
    54: 2619
    55: 2061
    56: 1716
    57: 1301
    58: 1104
    59: 886
    60: 713
    61: 551
    62: 413
    63: 373
    64: 312
    65: 250
    66: 182
    67: 147
    68: 96
    69: 113
    70: 83
    71: 55
    72: 50
    73: 51
    74: 33
    75: 19
    76: 23
    77: 18
    78: 13
    79: 13
    80: 9
    81: 8
    82: 6
    83: 7
    84: 3
    85: 4
    86: 6
    87: 5
    88: 0
    89: 2
    90: 0
    91: 1
    92: 2
    93: 0
    94: 2
    95: 1
    96: 0
    97: 1
    98: 0
    99: 6
 sched: # Scheduler stats
  thCr: 8 # Threads created
  thFn: 8 # Threads finished
  schedEvs: 8 # Schedule events
  waitEvs: 0 # Wait events
  handoffEvs: 0 # Handoff events
  sleepEvs: 0 # Sleep events
  idlePhases: 0 # Phases with no thread active
  idlePeriods: 0 # Periods with no thread active
  occHist: # Occupancy histogram
   0: 0
   1: 134
   2: 13
   3: 13
   4: 13
   5: 13
   6: 13
   7: 12
   8: 2668561
  rqSzHist: # Run queue size histogram
   0: 2668772
   1: 0
   2: 0
   3: 0
   4: 0
   5: 0
   6: 0
   7: 0
   8: 0
   9: 0
   10: 0
   11: 0
   12: 0
   13: 0
   14: 0
   15: 0
   16: 0
 procCycles: # Per-process unhalted core cycles
  0: 213489660134
  1: 0
  2: 0
  3: 0
  4: 0
  5: 0
  6: 0
  7: 0
  8: 0
  9: 0
  10: 0
  11: 0
  12: 0
  13: 0
  14: 0
  15: 0
  16: 0
  17: 0
  18: 0
  19: 0
  20: 0
  21: 0
  22: 0
  23: 0
  24: 0
  25: 0
  26: 0
  27: 0
  28: 0
  29: 0
  30: 0
  31: 0
  32: 0
  33: 0
  34: 0
  35: 0
  36: 0
  37: 0
  38: 0
  39: 0
  40: 0
  41: 0
  42: 0
  43: 0
  44: 0
  45: 0
  46: 0
  47: 0
  48: 0
  49: 0
  50: 0
  51: 0
  52: 0
  53: 0
  54: 0
  55: 0
  56: 0
  57: 0
  58: 0
  59: 0
  60: 0
  61: 0
  62: 0
  63: 0
 procInstrs: # Per-process instructions
  0: 231131875068
  1: 0
  2: 0
  3: 0
  4: 0
  5: 0
  6: 0
  7: 0
  8: 0
  9: 0
  10: 0
  11: 0
  12: 0
  13: 0
  14: 0
  15: 0
  16: 0
  17: 0
  18: 0
  19: 0
  20: 0
  21: 0
  22: 0
  23: 0
  24: 0
  25: 0
  26: 0
  27: 0
  28: 0
  29: 0
  30: 0
  31: 0
  32: 0
  33: 0
  34: 0
  35: 0
  36: 0
  37: 0
  38: 0
  39: 0
  40: 0
  41: 0
  42: 0
  43: 0
  44: 0
  45: 0
  46: 0
  47: 0
  48: 0
  49: 0
  50: 0
  51: 0
  52: 0
  53: 0
  54: 0
  55: 0
  56: 0
  57: 0
  58: 0
  59: 0
  60: 0
  61: 0
  62: 0
  63: 0
 heartbeats: # Per-process heartbeats
  0: 0
  1: 0
  2: 0
  3: 0
  4: 0
  5: 0
  6: 0
  7: 0
  8: 0
  9: 0
  10: 0
  11: 0
  12: 0
  13: 0
  14: 0
  15: 0
  16: 0
  17: 0
  18: 0
  19: 0
  20: 0
  21: 0
  22: 0
  23: 0
  24: 0
  25: 0
  26: 0
  27: 0
  28: 0
  29: 0
  30: 0
  31: 0
  32: 0
  33: 0
  34: 0
  35: 0
  36: 0
  37: 0
  38: 0
  39: 0
  40: 0
  41: 0
  42: 0
  43: 0
  44: 0
  45: 0
  46: 0
  47: 0
  48: 0
  49: 0
  50: 0
  51: 0
  52: 0
  53: 0
  54: 0
  55: 0
  56: 0
  57: 0
  58: 0
  59: 0
  60: 0
  61: 0
  62: 0
  63: 0
===
