cg,A,2,CPU-0,cycles,4661089562
cg,A,2,CPU-0,cCycles,1063149653
cg,A,2,CPU-0,instrs,4137834610
cg,A,2,CPU-0,uops,4250850179
cg,A,2,CPU-0,bbls,768116868
cg,A,2,CPU-0,approxInstrs,3809720
cg,A,2,CPU-0,mispredBranches,8040386
cg,A,2,l1i_CPU-0,hGETS,43471
cg,A,2,l1i_CPU-0,hGETX,0
cg,A,2,l1i_CPU-0,mGETS,16710
cg,A,2,l1i_CPU-0,mGETXIM,0
cg,A,2,l1i_CPU-0,mGETXSM,0
cg,A,2,l1i_CPU-0,PUTS,0
cg,A,2,l1i_CPU-0,PUTX,0
cg,A,2,l1i_CPU-0,INV,61
cg,A,2,l1i_CPU-0,INVX,0
cg,A,2,l1i_CPU-0,FWD,0
cg,A,2,l1i_CPU-0,latGETnl,818465
cg,A,2,l1i_CPU-0,latGETnet,0
cg,A,2,l1d_CPU-0,hGETS,110338926
cg,A,2,l1d_CPU-0,hGETX,7003796
cg,A,2,l1d_CPU-0,mGETS,371215539
cg,A,2,l1d_CPU-0,mGETXIM,952505
cg,A,2,l1d_CPU-0,mGETXSM,323296
cg,A,2,l1d_CPU-0,PUTS,0
cg,A,2,l1d_CPU-0,PUTX,0
cg,A,2,l1d_CPU-0,INV,293903152
cg,A,2,l1d_CPU-0,INVX,103152
cg,A,2,l1d_CPU-0,FWD,0
cg,A,2,l1d_CPU-0,latGETnl,10376901546
cg,A,2,l1d_CPU-0,latGETnet,0
cg,A,2,l2_CPU-0,hGETS,292089116
cg,A,2,l2_CPU-0,hGETX,39668
cg,A,2,l2_CPU-0,mGETS,79143133
cg,A,2,l2_CPU-0,mGETXIM,903344
cg,A,2,l2_CPU-0,mGETXSM,332789
cg,A,2,l2_CPU-0,PUTS,368886368
cg,A,2,l2_CPU-0,PUTX,3294366
cg,A,2,l2_CPU-0,INV,8827699111
cg,A,2,l2_CPU-0,INVX,399111
cg,A,2,l2_CPU-0,FWD,0
cg,A,2,l2_CPU-0,latGETnl,5907623407
cg,A,2,l2_CPU-0,latGETnet,0
cg,A,2,CPU-1,cycles,4673930420
cg,A,2,CPU-1,cCycles,1076422084
cg,A,2,CPU-1,instrs,4167952654
cg,A,2,CPU-1,uops,4270399254
cg,A,2,CPU-1,bbls,778054559
cg,A,2,CPU-1,approxInstrs,3803143
cg,A,2,CPU-1,mispredBranches,8072100
cg,A,2,l1i_CPU-1,hGETS,982
cg,A,2,l1i_CPU-1,hGETX,0
cg,A,2,l1i_CPU-1,mGETS,297
cg,A,2,l1i_CPU-1,mGETXIM,0
cg,A,2,l1i_CPU-1,mGETXSM,0
cg,A,2,l1i_CPU-1,PUTS,0
cg,A,2,l1i_CPU-1,PUTX,0
cg,A,2,l1i_CPU-1,INV,0
cg,A,2,l1i_CPU-1,INVX,0
cg,A,2,l1i_CPU-1,FWD,0
cg,A,2,l1i_CPU-1,latGETnl,18208
cg,A,2,l1i_CPU-1,latGETnet,0
cg,A,2,l1d_CPU-1,hGETS,110326996
cg,A,2,l1d_CPU-1,hGETX,6944653
cg,A,2,l1d_CPU-1,mGETS,371141224
cg,A,2,l1d_CPU-1,mGETXIM,943447
cg,A,2,l1d_CPU-1,mGETXSM,343796
cg,A,2,l1d_CPU-1,PUTS,0
cg,A,2,l1d_CPU-1,PUTX,0
cg,A,2,l1d_CPU-1,INV,34318178
cg,A,2,l1d_CPU-1,INVX,98178
cg,A,2,l1d_CPU-1,FWD,0
cg,A,2,l1d_CPU-1,latGETnl,10334542776
cg,A,2,l1d_CPU-1,latGETnet,0
cg,A,2,l2_CPU-1,hGETS,293415573
cg,A,2,l2_CPU-1,hGETX,38422
cg,A,2,l2_CPU-1,mGETS,77725948
cg,A,2,l2_CPU-1,mGETXIM,893531
cg,A,2,l2_CPU-1,mGETXSM,355290
cg,A,2,l2_CPU-1,PUTS,368805958
cg,A,2,l2_CPU-1,PUTX,3274779
cg,A,2,l2_CPU-1,INV,10157193809
cg,A,2,l2_CPU-1,INVX,393809
cg,A,2,l2_CPU-1,FWD,0
cg,A,2,l2_CPU-1,latGETnl,5865415816
cg,A,2,l2_CPU-1,latGETnet,0
cg,A,2,l3-0b0,hGETS,1123625
cg,A,2,l3-0b0,hGETX,166235
cg,A,2,l3-0b0,mGETS,18416578
cg,A,2,l3-0b0,mGETXIM,145782
cg,A,2,l3-0b0,mGETXSM,0
cg,A,2,l3-0b0,PUTS,19020022
cg,A,2,l3-0b0,PUTX,718911
cg,A,2,l3-0b0,INV,0
cg,A,2,l3-0b0,INVX,0
cg,A,2,l3-0b0,FWD,0
cg,A,2,l3-0b0,latGETnl,872430920
cg,A,2,l3-0b0,latGETnet,0
cg,A,2,l3-0b1,hGETS,1293103
cg,A,2,l3-0b1,hGETX,167216
cg,A,2,l3-0b1,mGETS,18415784
cg,A,2,l3-0b1,mGETXIM,146119
cg,A,2,l3-0b1,mGETXSM,0
cg,A,2,l3-0b1,PUTS,19188417
cg,A,2,l3-0b1,PUTX,719563
cg,A,2,l3-0b1,INV,0
cg,A,2,l3-0b1,INVX,0
cg,A,2,l3-0b1,FWD,0
cg,A,2,l3-0b1,latGETnl,872409441
cg,A,2,l3-0b1,latGETnet,0
cg,A,2,l3-0b2,hGETS,1147416
cg,A,2,l3-0b2,hGETX,163245
cg,A,2,l3-0b2,mGETS,18416886
cg,A,2,l3-0b2,mGETXIM,146944
cg,A,2,l3-0b2,mGETXSM,0
cg,A,2,l3-0b2,PUTS,19048316
cg,A,2,l3-0b2,PUTX,718528
cg,A,2,l3-0b2,INV,0
cg,A,2,l3-0b2,INVX,0
cg,A,2,l3-0b2,FWD,0
cg,A,2,l3-0b2,latGETnl,872500010
cg,A,2,l3-0b2,latGETnet,0
cg,A,2,l3-0b3,hGETS,1171237
cg,A,2,l3-0b3,hGETX,164037
cg,A,2,l3-0b3,mGETS,18418290
cg,A,2,l3-0b3,mGETXIM,145753
cg,A,2,l3-0b3,mGETXSM,0
cg,A,2,l3-0b3,PUTS,19068832
cg,A,2,l3-0b3,PUTX,719927
cg,A,2,l3-0b3,INV,0
cg,A,2,l3-0b3,INVX,0
cg,A,2,l3-0b3,FWD,0
cg,A,2,l3-0b3,latGETnl,872510021
cg,A,2,l3-0b3,latGETnet,0
cg,A,2,l3-0b4,hGETS,1222088
cg,A,2,l3-0b4,hGETX,164706
cg,A,2,l3-0b4,mGETS,18418635
cg,A,2,l3-0b4,mGETXIM,146191
cg,A,2,l3-0b4,mGETXSM,0
cg,A,2,l3-0b4,PUTS,19120969
cg,A,2,l3-0b4,PUTX,718586
cg,A,2,l3-0b4,INV,0
cg,A,2,l3-0b4,INVX,0
cg,A,2,l3-0b4,FWD,0
cg,A,2,l3-0b4,latGETnl,872546822
cg,A,2,l3-0b4,latGETnet,0
cg,A,2,l3-0b5,hGETS,1195657
cg,A,2,l3-0b5,hGETX,163995
cg,A,2,l3-0b5,mGETS,18418091
cg,A,2,l3-0b5,mGETXIM,146275
cg,A,2,l3-0b5,mGETXSM,0
cg,A,2,l3-0b5,PUTS,19092919
cg,A,2,l3-0b5,PUTX,720041
cg,A,2,l3-0b5,INV,0
cg,A,2,l3-0b5,INVX,0
cg,A,2,l3-0b5,FWD,0
cg,A,2,l3-0b5,latGETnl,872525202
cg,A,2,l3-0b5,latGETnet,0
cg,A,2,l3-0b6,hGETS,1221078
cg,A,2,l3-0b6,hGETX,162605
cg,A,2,l3-0b6,mGETS,18416423
cg,A,2,l3-0b6,mGETXIM,145722
cg,A,2,l3-0b6,mGETXSM,0
cg,A,2,l3-0b6,PUTS,19120266
cg,A,2,l3-0b6,PUTX,718671
cg,A,2,l3-0b6,INV,0
cg,A,2,l3-0b6,INVX,0
cg,A,2,l3-0b6,FWD,0
cg,A,2,l3-0b6,latGETnl,872420815
cg,A,2,l3-0b6,latGETnet,0
cg,A,2,l3-0b7,hGETS,1157057
cg,A,2,l3-0b7,hGETX,164476
cg,A,2,l3-0b7,mGETS,18417133
cg,A,2,l3-0b7,mGETXIM,145653
cg,A,2,l3-0b7,mGETXSM,0
cg,A,2,l3-0b7,PUTS,19054484
cg,A,2,l3-0b7,PUTX,719476
cg,A,2,l3-0b7,INV,0
cg,A,2,l3-0b7,INVX,0
cg,A,2,l3-0b7,FWD,0
cg,A,2,l3-0b7,latGETnl,872450942
cg,A,2,l3-0b7,latGETnet,0
