is,A,1,CPU-0,cycles,8211926499
is,A,1,CPU-0,cCycles,828465007
is,A,1,CPU-0,instrs,4499376551
is,A,1,CPU-0,uops,5467348822
is,A,1,CPU-0,bbls,456425851
is,A,1,CPU-0,approxInstrs,8390086
is,A,1,CPU-0,mispredBranches,41488
is,A,1,l1i_CPU-0,hGETS,56564
is,A,1,l1i_CPU-0,hGETX,0
is,A,1,l1i_CPU-0,mGETS,2488
is,A,1,l1i_CPU-0,mGETXIM,0
is,A,1,l1i_CPU-0,mGETXSM,0
is,A,1,l1i_CPU-0,PUTS,0
is,A,1,l1i_CPU-0,PUTX,0
is,A,1,l1i_CPU-0,INV,173
is,A,1,l1i_CPU-0,INVX,0
is,A,1,l1i_CPU-0,FWD,0
is,A,1,l1i_CPU-0,latGETnl,211662
is,A,1,l1i_CPU-0,latGETnet,0
is,A,1,l1d_CPU-0,hGETS,63297717
is,A,1,l1d_CPU-0,hGETX,107914967
is,A,1,l1d_CPU-0,mGETS,19208370
is,A,1,l1d_CPU-0,mGETXIM,39353739
is,A,1,l1d_CPU-0,mGETXSM,0
is,A,1,l1d_CPU-0,PUTS,0
is,A,1,l1d_CPU-0,PUTX,0
is,A,1,l1d_CPU-0,INV,0
is,A,1,l1d_CPU-0,INVX,4
is,A,1,l1d_CPU-0,FWD,0
is,A,1,l1d_CPU-0,latGETnl,2707143801
is,A,1,l1d_CPU-0,latGETnet,0
is,A,1,l2_CPU-0,hGETS,810948
is,A,1,l2_CPU-0,hGETX,31246095
is,A,1,l2_CPU-0,mGETS,18399910
is,A,1,l2_CPU-0,mGETXIM,8107644
is,A,1,l2_CPU-0,mGETXSM,0
is,A,1,l2_CPU-0,PUTS,18390786
is,A,1,l2_CPU-0,PUTX,40172614
is,A,1,l2_CPU-0,INV,0
is,A,1,l2_CPU-0,INVX,0
is,A,1,l2_CPU-0,FWD,0
is,A,1,l2_CPU-0,latGETnl,2004580283
is,A,1,l2_CPU-0,latGETnet,0
is,A,1,l3-0b0,hGETS,47108
is,A,1,l3-0b0,hGETX,49048
is,A,1,l3-0b0,mGETS,2252342
is,A,1,l3-0b0,mGETXIM,964057
is,A,1,l3-0b0,mGETXSM,0
is,A,1,l3-0b0,PUTS,2294084
is,A,1,l3-0b0,PUTX,1017947
is,A,1,l3-0b0,INV,0
is,A,1,l3-0b0,INVX,0
is,A,1,l3-0b0,FWD,0
is,A,1,l3-0b0,latGETnl,151170753
is,A,1,l3-0b0,latGETnet,0
is,A,1,l3-0b1,hGETS,48202
is,A,1,l3-0b1,hGETX,49116
is,A,1,l3-0b1,mGETS,2252255
is,A,1,l3-0b1,mGETXIM,964059
is,A,1,l3-0b1,mGETXSM,0
is,A,1,l3-0b1,PUTS,2294369
is,A,1,l3-0b1,PUTX,1018746
is,A,1,l3-0b1,INV,0
is,A,1,l3-0b1,INVX,0
is,A,1,l3-0b1,FWD,0
is,A,1,l3-0b1,latGETnl,151166758
is,A,1,l3-0b1,latGETnet,0
is,A,1,l3-0b2,hGETS,47212
is,A,1,l3-0b2,hGETX,48543
is,A,1,l3-0b2,mGETS,2252070
is,A,1,l3-0b2,mGETXIM,964030
is,A,1,l3-0b2,mGETXSM,0
is,A,1,l3-0b2,PUTS,2294094
is,A,1,l3-0b2,PUTX,1017256
is,A,1,l3-0b2,INV,0
is,A,1,l3-0b2,INVX,0
is,A,1,l3-0b2,FWD,0
is,A,1,l3-0b2,latGETnl,151156700
is,A,1,l3-0b2,latGETnet,0
is,A,1,l3-0b3,hGETS,47083
is,A,1,l3-0b3,hGETX,49313
is,A,1,l3-0b3,mGETS,2252210
is,A,1,l3-0b3,mGETXIM,964135
is,A,1,l3-0b3,mGETXSM,0
is,A,1,l3-0b3,PUTS,2294104
is,A,1,l3-0b3,PUTX,1018131
is,A,1,l3-0b3,INV,0
is,A,1,l3-0b3,INVX,0
is,A,1,l3-0b3,FWD,0
is,A,1,l3-0b3,latGETnl,151168215
is,A,1,l3-0b3,latGETnet,0
is,A,1,l3-0b4,hGETS,48065
is,A,1,l3-0b4,hGETX,50056
is,A,1,l3-0b4,mGETS,2252248
is,A,1,l3-0b4,mGETXIM,964104
is,A,1,l3-0b4,mGETXSM,0
is,A,1,l3-0b4,PUTS,2294220
is,A,1,l3-0b4,PUTX,1019733
is,A,1,l3-0b4,INV,0
is,A,1,l3-0b4,INVX,0
is,A,1,l3-0b4,FWD,0
is,A,1,l3-0b4,latGETnl,151168544
is,A,1,l3-0b4,latGETnet,0
is,A,1,l3-0b5,hGETS,47429
is,A,1,l3-0b5,hGETX,49362
is,A,1,l3-0b5,mGETS,2252200
is,A,1,l3-0b5,mGETXIM,964132
is,A,1,l3-0b5,mGETXSM,0
is,A,1,l3-0b5,PUTS,2294178
is,A,1,l3-0b5,PUTX,1018438
is,A,1,l3-0b5,INV,0
is,A,1,l3-0b5,INVX,0
is,A,1,l3-0b5,FWD,0
is,A,1,l3-0b5,latGETnl,151167604
is,A,1,l3-0b5,latGETnet,0
is,A,1,l3-0b6,hGETS,48567
is,A,1,l3-0b6,hGETX,49205
is,A,1,l3-0b6,mGETS,2252307
is,A,1,l3-0b6,mGETXIM,964237
is,A,1,l3-0b6,mGETXSM,0
is,A,1,l3-0b6,PUTS,2294108
is,A,1,l3-0b6,PUTX,1019700
is,A,1,l3-0b6,INV,0
is,A,1,l3-0b6,INVX,0
is,A,1,l3-0b6,FWD,0
is,A,1,l3-0b6,latGETnl,151177568
is,A,1,l3-0b6,latGETnet,0
is,A,1,l3-0b7,hGETS,48341
is,A,1,l3-0b7,hGETX,49975
is,A,1,l3-0b7,mGETS,2252271
is,A,1,l3-0b7,mGETXIM,964272
is,A,1,l3-0b7,mGETXSM,0
is,A,1,l3-0b7,PUTS,2294146
is,A,1,l3-0b7,PUTX,1020204
is,A,1,l3-0b7,INV,0
is,A,1,l3-0b7,INVX,0
is,A,1,l3-0b7,FWD,0
is,A,1,l3-0b7,latGETnl,151177521
is,A,1,l3-0b7,latGETnet,0
