is,A,8,CPU-0,cycles,1036957177
is,A,8,CPU-0,cCycles,111252362
is,A,8,CPU-0,instrs,564052092
is,A,8,CPU-0,uops,685410426
is,A,8,CPU-0,bbls,57374466
is,A,8,CPU-0,approxInstrs,1050082
is,A,8,CPU-0,mispredBranches,11656
is,A,8,l1i_CPU-0,hGETS,17779
is,A,8,l1i_CPU-0,hGETX,0
is,A,8,l1i_CPU-0,mGETS,2612
is,A,8,l1i_CPU-0,mGETXIM,0
is,A,8,l1i_CPU-0,mGETXSM,0
is,A,8,l1i_CPU-0,PUTS,0
is,A,8,l1i_CPU-0,PUTX,0
is,A,8,l1i_CPU-0,INV,39
is,A,8,l1i_CPU-0,INVX,0
is,A,8,l1i_CPU-0,FWD,0
is,A,8,l1i_CPU-0,latGETnl,215419
is,A,8,l1i_CPU-0,latGETnet,0
is,A,8,l1d_CPU-0,hGETS,8031667
is,A,8,l1d_CPU-0,hGETX,13476203
is,A,8,l1d_CPU-0,mGETS,2568273
is,A,8,l1d_CPU-0,mGETXIM,4938743
is,A,8,l1d_CPU-0,mGETXSM,162773
is,A,8,l1d_CPU-0,PUTS,0
is,A,8,l1d_CPU-0,PUTX,0
is,A,8,l1d_CPU-0,INV,16604652971
is,A,8,l1d_CPU-0,INVX,152971
is,A,8,l1d_CPU-0,FWD,0
is,A,8,l1d_CPU-0,latGETnl,358785709
is,A,8,l1d_CPU-0,latGETnet,0
is,A,8,l2_CPU-0,hGETS,101959
is,A,8,l2_CPU-0,hGETX,3910208
is,A,8,l2_CPU-0,mGETS,2468926
is,A,8,l2_CPU-0,mGETXIM,1029576
is,A,8,l2_CPU-0,mGETXSM,161732
is,A,8,l2_CPU-0,PUTS,2316587
is,A,8,l2_CPU-0,PUTX,5037139
is,A,8,l2_CPU-0,INV,16686654997
is,A,8,l2_CPU-0,INVX,154997
is,A,8,l2_CPU-0,FWD,0
is,A,8,l2_CPU-0,latGETnl,266932300
is,A,8,l2_CPU-0,latGETnet,0
is,A,8,CPU-1,cycles,1036330644
is,A,8,CPU-1,cCycles,110992136
is,A,8,CPU-1,instrs,563848272
is,A,8,CPU-1,uops,685224028
is,A,8,CPU-1,bbls,57338592
is,A,8,CPU-1,approxInstrs,1048607
is,A,8,CPU-1,mispredBranches,4766
is,A,8,l1i_CPU-1,hGETS,6028
is,A,8,l1i_CPU-1,hGETX,0
is,A,8,l1i_CPU-1,mGETS,185
is,A,8,l1i_CPU-1,mGETXIM,0
is,A,8,l1i_CPU-1,mGETXSM,0
is,A,8,l1i_CPU-1,PUTS,0
is,A,8,l1i_CPU-1,PUTX,0
is,A,8,l1i_CPU-1,INV,1
is,A,8,l1i_CPU-1,INVX,0
is,A,8,l1i_CPU-1,FWD,0
is,A,8,l1i_CPU-1,latGETnl,8710
is,A,8,l1i_CPU-1,latGETnet,0
is,A,8,l1d_CPU-1,hGETS,7944674
is,A,8,l1d_CPU-1,hGETX,13452980
is,A,8,l1d_CPU-1,mGETS,2570858
is,A,8,l1d_CPU-1,mGETXIM,4924982
is,A,8,l1d_CPU-1,mGETXSM,169963
is,A,8,l1d_CPU-1,PUTS,0
is,A,8,l1d_CPU-1,PUTX,0
is,A,8,l1d_CPU-1,INV,17328060164
is,A,8,l1d_CPU-1,INVX,160164
is,A,8,l1d_CPU-1,FWD,0
is,A,8,l1d_CPU-1,latGETnl,358444313
is,A,8,l1d_CPU-1,latGETnet,0
is,A,8,l2_CPU-1,hGETS,101761
is,A,8,l2_CPU-1,hGETX,3912003
is,A,8,l2_CPU-1,mGETS,2469282
is,A,8,l2_CPU-1,mGETXIM,1014227
is,A,8,l2_CPU-1,mGETXSM,168715
is,A,8,l2_CPU-1,PUTS,2309641
is,A,8,l2_CPU-1,PUTX,5023876
is,A,8,l2_CPU-1,INV,17439462252
is,A,8,l2_CPU-1,INVX,162252
is,A,8,l2_CPU-1,FWD,0
is,A,8,l2_CPU-1,latGETnl,266461167
is,A,8,l2_CPU-1,latGETnet,0
is,A,8,CPU-2,cycles,1036330053
is,A,8,CPU-2,cCycles,111011065
is,A,8,CPU-2,instrs,563773883
is,A,8,CPU-2,uops,685115718
is,A,8,CPU-2,bbls,57326959
is,A,8,CPU-2,approxInstrs,1048596
is,A,8,CPU-2,mispredBranches,4792
is,A,8,l1i_CPU-2,hGETS,5943
is,A,8,l1i_CPU-2,hGETX,0
is,A,8,l1i_CPU-2,mGETS,170
is,A,8,l1i_CPU-2,mGETXIM,0
is,A,8,l1i_CPU-2,mGETXSM,0
is,A,8,l1i_CPU-2,PUTS,0
is,A,8,l1i_CPU-2,PUTX,0
is,A,8,l1i_CPU-2,INV,1
is,A,8,l1i_CPU-2,INVX,0
is,A,8,l1i_CPU-2,FWD,0
is,A,8,l1i_CPU-2,latGETnl,7516
is,A,8,l1i_CPU-2,latGETnet,0
is,A,8,l1d_CPU-2,hGETS,8121076
is,A,8,l1d_CPU-2,hGETX,13552493
is,A,8,l1d_CPU-2,mGETS,2561930
is,A,8,l1d_CPU-2,mGETXIM,4908753
is,A,8,l1d_CPU-2,mGETXSM,164931
is,A,8,l1d_CPU-2,PUTS,0
is,A,8,l1d_CPU-2,PUTX,0
is,A,8,l1d_CPU-2,INV,16856555462
is,A,8,l1d_CPU-2,INVX,155462
is,A,8,l1d_CPU-2,FWD,0
is,A,8,l1d_CPU-2,latGETnl,357586323
is,A,8,l1d_CPU-2,latGETnet,0
is,A,8,l2_CPU-2,hGETS,99156
is,A,8,l2_CPU-2,hGETX,3897041
is,A,8,l2_CPU-2,mGETS,2462944
is,A,8,l2_CPU-2,mGETXIM,1012722
is,A,8,l2_CPU-2,mGETXSM,163921
is,A,8,l2_CPU-2,PUTS,2308090
is,A,8,l2_CPU-2,PUTX,5004914
is,A,8,l2_CPU-2,INV,16964357473
is,A,8,l2_CPU-2,INVX,157473
is,A,8,l2_CPU-2,FWD,0
is,A,8,l2_CPU-2,latGETnl,265964431
is,A,8,l2_CPU-2,latGETnet,0
is,A,8,CPU-3,cycles,1036330800
is,A,8,CPU-3,cCycles,111121437
is,A,8,CPU-3,instrs,563695501
is,A,8,CPU-3,uops,685013295
is,A,8,CPU-3,bbls,57305941
is,A,8,CPU-3,approxInstrs,1048603
is,A,8,CPU-3,mispredBranches,4831
is,A,8,l1i_CPU-3,hGETS,6033
is,A,8,l1i_CPU-3,hGETX,0
is,A,8,l1i_CPU-3,mGETS,180
is,A,8,l1i_CPU-3,mGETXIM,0
is,A,8,l1i_CPU-3,mGETXSM,0
is,A,8,l1i_CPU-3,PUTS,0
is,A,8,l1i_CPU-3,PUTX,0
is,A,8,l1i_CPU-3,INV,5
is,A,8,l1i_CPU-3,INVX,0
is,A,8,l1i_CPU-3,FWD,0
is,A,8,l1i_CPU-3,latGETnl,7983
is,A,8,l1i_CPU-3,latGETnet,0
is,A,8,l1d_CPU-3,hGETS,8087204
is,A,8,l1d_CPU-3,hGETX,13512520
is,A,8,l1d_CPU-3,mGETS,2562097
is,A,8,l1d_CPU-3,mGETXIM,4923510
is,A,8,l1d_CPU-3,mGETXSM,162569
is,A,8,l1d_CPU-3,PUTS,0
is,A,8,l1d_CPU-3,PUTX,0
is,A,8,l1d_CPU-3,INV,16598153152
is,A,8,l1d_CPU-3,INVX,153152
is,A,8,l1d_CPU-3,FWD,0
is,A,8,l1d_CPU-3,latGETnl,357614542
is,A,8,l1d_CPU-3,latGETnet,0
is,A,8,l2_CPU-3,hGETS,100849
is,A,8,l2_CPU-3,hGETX,3910106
is,A,8,l2_CPU-3,mGETS,2461428
is,A,8,l2_CPU-3,mGETXIM,1014516
is,A,8,l2_CPU-3,mGETXSM,161457
is,A,8,l2_CPU-3,PUTS,2308403
is,A,8,l2_CPU-3,PUTX,5021701
is,A,8,l2_CPU-3,INV,16690155320
is,A,8,l2_CPU-3,INVX,155320
is,A,8,l2_CPU-3,FWD,0
is,A,8,l2_CPU-3,latGETnl,265842253
is,A,8,l2_CPU-3,latGETnet,0
is,A,8,CPU-4,cycles,1036320170
is,A,8,CPU-4,cCycles,111006146
is,A,8,CPU-4,instrs,563761688
is,A,8,CPU-4,uops,685095643
is,A,8,CPU-4,bbls,57324635
is,A,8,CPU-4,approxInstrs,1048596
is,A,8,CPU-4,mispredBranches,4796
is,A,8,l1i_CPU-4,hGETS,5991
is,A,8,l1i_CPU-4,hGETX,0
is,A,8,l1i_CPU-4,mGETS,169
is,A,8,l1i_CPU-4,mGETXIM,0
is,A,8,l1i_CPU-4,mGETXSM,0
is,A,8,l1i_CPU-4,PUTS,0
is,A,8,l1i_CPU-4,PUTX,0
is,A,8,l1i_CPU-4,INV,0
is,A,8,l1i_CPU-4,INVX,0
is,A,8,l1i_CPU-4,FWD,0
is,A,8,l1i_CPU-4,latGETnl,7568
is,A,8,l1i_CPU-4,latGETnet,0
is,A,8,l1d_CPU-4,hGETS,7976893
is,A,8,l1d_CPU-4,hGETX,13478976
is,A,8,l1d_CPU-4,mGETS,2564095
is,A,8,l1d_CPU-4,mGETXIM,4914616
is,A,8,l1d_CPU-4,mGETXSM,165091
is,A,8,l1d_CPU-4,PUTS,0
is,A,8,l1d_CPU-4,PUTX,0
is,A,8,l1d_CPU-4,INV,16859955726
is,A,8,l1d_CPU-4,INVX,155726
is,A,8,l1d_CPU-4,FWD,0
is,A,8,l1d_CPU-4,latGETnl,357753351
is,A,8,l1d_CPU-4,latGETnet,0
is,A,8,l2_CPU-4,hGETS,101477
is,A,8,l2_CPU-4,hGETX,3901726
is,A,8,l2_CPU-4,mGETS,2462787
is,A,8,l2_CPU-4,mGETXIM,1013981
is,A,8,l2_CPU-4,mGETXSM,164000
is,A,8,l2_CPU-4,PUTS,2307550
is,A,8,l2_CPU-4,PUTX,5013202
is,A,8,l2_CPU-4,INV,16961357770
is,A,8,l2_CPU-4,INVX,157770
is,A,8,l2_CPU-4,FWD,0
is,A,8,l2_CPU-4,latGETnl,266033267
is,A,8,l2_CPU-4,latGETnet,0
is,A,8,CPU-5,cycles,1036320196
is,A,8,CPU-5,cCycles,111055446
is,A,8,CPU-5,instrs,563734510
is,A,8,CPU-5,uops,685051763
is,A,8,CPU-5,bbls,57319619
is,A,8,CPU-5,approxInstrs,1048596
is,A,8,CPU-5,mispredBranches,4837
is,A,8,l1i_CPU-5,hGETS,6088
is,A,8,l1i_CPU-5,hGETX,0
is,A,8,l1i_CPU-5,mGETS,179
is,A,8,l1i_CPU-5,mGETXIM,0
is,A,8,l1i_CPU-5,mGETXSM,0
is,A,8,l1i_CPU-5,PUTS,0
is,A,8,l1i_CPU-5,PUTX,0
is,A,8,l1i_CPU-5,INV,6
is,A,8,l1i_CPU-5,INVX,0
is,A,8,l1i_CPU-5,FWD,0
is,A,8,l1i_CPU-5,latGETnl,7612
is,A,8,l1i_CPU-5,latGETnet,0
is,A,8,l1d_CPU-5,hGETS,8033127
is,A,8,l1d_CPU-5,hGETX,13519570
is,A,8,l1d_CPU-5,mGETS,2562598
is,A,8,l1d_CPU-5,mGETXIM,4927371
is,A,8,l1d_CPU-5,mGETXSM,165410
is,A,8,l1d_CPU-5,PUTS,0
is,A,8,l1d_CPU-5,PUTX,0
is,A,8,l1d_CPU-5,INV,16930455863
is,A,8,l1d_CPU-5,INVX,155863
is,A,8,l1d_CPU-5,FWD,0
is,A,8,l1d_CPU-5,latGETnl,357944071
is,A,8,l1d_CPU-5,latGETnet,0
is,A,8,l2_CPU-5,hGETS,100680
is,A,8,l2_CPU-5,hGETX,3913016
is,A,8,l2_CPU-5,mGETS,2462097
is,A,8,l2_CPU-5,mGETXIM,1015498
is,A,8,l2_CPU-5,mGETXSM,164267
is,A,8,l2_CPU-5,PUTS,2306792
is,A,8,l2_CPU-5,PUTX,5024965
is,A,8,l2_CPU-5,INV,17045557998
is,A,8,l2_CPU-5,INVX,157998
is,A,8,l2_CPU-5,FWD,0
is,A,8,l2_CPU-5,latGETnl,266084987
is,A,8,l2_CPU-5,latGETnet,0
is,A,8,CPU-6,cycles,1036321167
is,A,8,CPU-6,cCycles,111103547
is,A,8,CPU-6,instrs,563588244
is,A,8,CPU-6,uops,684859155
is,A,8,CPU-6,bbls,57299401
is,A,8,CPU-6,approxInstrs,1048597
is,A,8,CPU-6,mispredBranches,4867
is,A,8,l1i_CPU-6,hGETS,6072
is,A,8,l1i_CPU-6,hGETX,0
is,A,8,l1i_CPU-6,mGETS,185
is,A,8,l1i_CPU-6,mGETXIM,0
is,A,8,l1i_CPU-6,mGETXSM,0
is,A,8,l1i_CPU-6,PUTS,0
is,A,8,l1i_CPU-6,PUTX,0
is,A,8,l1i_CPU-6,INV,1
is,A,8,l1i_CPU-6,INVX,0
is,A,8,l1i_CPU-6,FWD,0
is,A,8,l1i_CPU-6,latGETnl,8052
is,A,8,l1i_CPU-6,latGETnet,0
is,A,8,l1d_CPU-6,hGETS,7906878
is,A,8,l1d_CPU-6,hGETX,13441876
is,A,8,l1d_CPU-6,mGETS,2560736
is,A,8,l1d_CPU-6,mGETXIM,4927656
is,A,8,l1d_CPU-6,mGETXSM,164916
is,A,8,l1d_CPU-6,PUTS,0
is,A,8,l1d_CPU-6,PUTX,0
is,A,8,l1d_CPU-6,INV,16866155504
is,A,8,l1d_CPU-6,INVX,155504
is,A,8,l1d_CPU-6,FWD,0
is,A,8,l1d_CPU-6,latGETnl,357781627
is,A,8,l1d_CPU-6,latGETnet,0
is,A,8,l2_CPU-6,hGETS,100200
is,A,8,l2_CPU-6,hGETX,3914712
is,A,8,l2_CPU-6,mGETS,2460721
is,A,8,l2_CPU-6,mGETXIM,1014055
is,A,8,l2_CPU-6,mGETXSM,163805
is,A,8,l2_CPU-6,PUTS,2305657
is,A,8,l2_CPU-6,PUTX,5025245
is,A,8,l2_CPU-6,INV,16958157586
is,A,8,l2_CPU-6,INVX,157586
is,A,8,l2_CPU-6,FWD,0
is,A,8,l2_CPU-6,latGETnl,265947763
is,A,8,l2_CPU-6,latGETnet,0
is,A,8,CPU-7,cycles,1035283403
is,A,8,CPU-7,cCycles,109173413
is,A,8,CPU-7,instrs,565709880
is,A,8,CPU-7,uops,687611514
is,A,8,CPU-7,bbls,57901971
is,A,8,CPU-7,approxInstrs,1048640
is,A,8,CPU-7,mispredBranches,4988
is,A,8,l1i_CPU-7,hGETS,6486
is,A,8,l1i_CPU-7,hGETX,0
is,A,8,l1i_CPU-7,mGETS,200
is,A,8,l1i_CPU-7,mGETXIM,0
is,A,8,l1i_CPU-7,mGETXSM,0
is,A,8,l1i_CPU-7,PUTS,0
is,A,8,l1i_CPU-7,PUTX,0
is,A,8,l1i_CPU-7,INV,1
is,A,8,l1i_CPU-7,INVX,0
is,A,8,l1i_CPU-7,FWD,0
is,A,8,l1i_CPU-7,latGETnl,10139
is,A,8,l1i_CPU-7,latGETnet,0
is,A,8,l1d_CPU-7,hGETS,8032453
is,A,8,l1d_CPU-7,hGETX,13489432
is,A,8,l1d_CPU-7,mGETS,2560382
is,A,8,l1d_CPU-7,mGETXIM,4943448
is,A,8,l1d_CPU-7,mGETXSM,163227
is,A,8,l1d_CPU-7,PUTS,0
is,A,8,l1d_CPU-7,PUTX,0
is,A,8,l1d_CPU-7,INV,16709853461
is,A,8,l1d_CPU-7,INVX,153461
is,A,8,l1d_CPU-7,FWD,0
is,A,8,l1d_CPU-7,latGETnl,355594982
is,A,8,l1d_CPU-7,latGETnet,0
is,A,8,l2_CPU-7,hGETS,102194
is,A,8,l2_CPU-7,hGETX,3927924
is,A,8,l2_CPU-7,mGETS,2458388
is,A,8,l2_CPU-7,mGETXIM,1016563
is,A,8,l2_CPU-7,mGETXSM,162188
is,A,8,l2_CPU-7,PUTS,2305226
is,A,8,l2_CPU-7,PUTX,5042610
is,A,8,l2_CPU-7,INV,16803555609
is,A,8,l2_CPU-7,INVX,155609
is,A,8,l2_CPU-7,FWD,0
is,A,8,l2_CPU-7,latGETnl,263598037
is,A,8,l2_CPU-7,latGETnet,0
is,A,8,l3-0b0,hGETS,63227
is,A,8,l3-0b0,hGETX,38494
is,A,8,l3-0b0,mGETS,2246731
is,A,8,l3-0b0,mGETXIM,973431
is,A,8,l3-0b0,mGETXSM,0
is,A,8,l3-0b0,PUTS,2302326
is,A,8,l3-0b0,PUTX,1014238
is,A,8,l3-0b0,INV,0
is,A,8,l3-0b0,INVX,0
is,A,8,l3-0b0,FWD,0
is,A,8,l3-0b0,latGETnl,151347614
is,A,8,l3-0b0,latGETnet,0
is,A,8,l3-0b1,hGETS,64478
is,A,8,l3-0b1,hGETX,40594
is,A,8,l3-0b1,mGETS,2246608
is,A,8,l3-0b1,mGETXIM,973431
is,A,8,l3-0b1,mGETXSM,0
is,A,8,l3-0b1,PUTS,2302399
is,A,8,l3-0b1,PUTX,1015125
is,A,8,l3-0b1,INV,0
is,A,8,l3-0b1,INVX,0
is,A,8,l3-0b1,FWD,0
is,A,8,l3-0b1,latGETnl,151341833
is,A,8,l3-0b1,latGETnet,0
is,A,8,l3-0b2,hGETS,1277887
is,A,8,l3-0b2,hGETX,1369736
is,A,8,l3-0b2,mGETS,2246657
is,A,8,l3-0b2,mGETXIM,973821
is,A,8,l3-0b2,mGETXSM,0
is,A,8,l3-0b2,PUTS,2302245
is,A,8,l3-0b2,PUTX,1014008
is,A,8,l3-0b2,INV,0
is,A,8,l3-0b2,INVX,0
is,A,8,l3-0b2,FWD,0
is,A,8,l3-0b2,latGETnl,151362466
is,A,8,l3-0b2,latGETnet,0
is,A,8,l3-0b3,hGETS,62902
is,A,8,l3-0b3,hGETX,38996
is,A,8,l3-0b3,mGETS,2246959
is,A,8,l3-0b3,mGETXIM,973373
is,A,8,l3-0b3,mGETXSM,0
is,A,8,l3-0b3,PUTS,2302291
is,A,8,l3-0b3,PUTX,1014111
is,A,8,l3-0b3,INV,0
is,A,8,l3-0b3,INVX,0
is,A,8,l3-0b3,FWD,0
is,A,8,l3-0b3,latGETnl,151355604
is,A,8,l3-0b3,latGETnet,0
is,A,8,l3-0b4,hGETS,64067
is,A,8,l3-0b4,hGETX,38749
is,A,8,l3-0b4,mGETS,2246030
is,A,8,l3-0b4,mGETXIM,973254
is,A,8,l3-0b4,mGETXSM,0
is,A,8,l3-0b4,PUTS,2302745
is,A,8,l3-0b4,PUTX,1013775
is,A,8,l3-0b4,INV,0
is,A,8,l3-0b4,INVX,0
is,A,8,l3-0b4,FWD,0
is,A,8,l3-0b4,latGETnl,151306348
is,A,8,l3-0b4,latGETnet,0
is,A,8,l3-0b5,hGETS,63528
is,A,8,l3-0b5,hGETX,37638
is,A,8,l3-0b5,mGETS,2246029
is,A,8,l3-0b5,mGETXIM,973278
is,A,8,l3-0b5,mGETXSM,0
is,A,8,l3-0b5,PUTS,2302168
is,A,8,l3-0b5,PUTX,1012764
is,A,8,l3-0b5,INV,0
is,A,8,l3-0b5,INVX,0
is,A,8,l3-0b5,FWD,0
is,A,8,l3-0b5,latGETnl,151307429
is,A,8,l3-0b5,latGETnet,0
is,A,8,l3-0b6,hGETS,63611
is,A,8,l3-0b6,hGETX,38167
is,A,8,l3-0b6,mGETS,2246464
is,A,8,l3-0b6,mGETXIM,973608
is,A,8,l3-0b6,mGETXSM,0
is,A,8,l3-0b6,PUTS,2302614
is,A,8,l3-0b6,PUTX,1013521
is,A,8,l3-0b6,INV,0
is,A,8,l3-0b6,INVX,0
is,A,8,l3-0b6,FWD,0
is,A,8,l3-0b6,latGETnl,151343384
is,A,8,l3-0b6,latGETnet,0
is,A,8,l3-0b7,hGETS,75079
is,A,8,l3-0b7,hGETX,50836
is,A,8,l3-0b7,mGETS,2246316
is,A,8,l3-0b7,mGETXIM,973817
is,A,8,l3-0b7,mGETXSM,0
is,A,8,l3-0b7,PUTS,2302393
is,A,8,l3-0b7,PUTX,1015057
is,A,8,l3-0b7,INV,0
is,A,8,l3-0b7,INVX,0
is,A,8,l3-0b7,FWD,0
is,A,8,l3-0b7,latGETnl,151346251
is,A,8,l3-0b7,latGETnet,0
