mg,A,4,CPU-0,cycles,4997962380
mg,A,4,CPU-0,cCycles,1313164374
mg,A,4,CPU-0,instrs,3249549590
mg,A,4,CPU-0,uops,4020361592
mg,A,4,CPU-0,bbls,294624204
mg,A,4,CPU-0,approxInstrs,16784388
mg,A,4,CPU-0,mispredBranches,1156135
mg,A,4,l1i_CPU-0,hGETS,53166
mg,A,4,l1i_CPU-0,hGETX,0
mg,A,4,l1i_CPU-0,mGETS,10659
mg,A,4,l1i_CPU-0,mGETXIM,0
mg,A,4,l1i_CPU-0,mGETXSM,0
mg,A,4,l1i_CPU-0,PUTS,0
mg,A,4,l1i_CPU-0,PUTX,0
mg,A,4,l1i_CPU-0,INV,36
mg,A,4,l1i_CPU-0,INVX,0
mg,A,4,l1i_CPU-0,FWD,0
mg,A,4,l1i_CPU-0,latGETnl,577398
mg,A,4,l1i_CPU-0,latGETnet,0
mg,A,4,l1d_CPU-0,hGETS,474724790
mg,A,4,l1d_CPU-0,hGETX,45215000
mg,A,4,l1d_CPU-0,mGETS,66011109
mg,A,4,l1d_CPU-0,mGETXIM,11762757
mg,A,4,l1d_CPU-0,mGETXSM,6230
mg,A,4,l1d_CPU-0,PUTS,0
mg,A,4,l1d_CPU-0,PUTX,0
mg,A,4,l1d_CPU-0,INV,2794995
mg,A,4,l1d_CPU-0,INVX,7995
mg,A,4,l1d_CPU-0,FWD,0
mg,A,4,l1d_CPU-0,latGETnl,4763213585
mg,A,4,l1d_CPU-0,latGETnet,0
mg,A,4,l2_CPU-0,hGETS,14758969
mg,A,4,l2_CPU-0,hGETX,28347
mg,A,4,l2_CPU-0,mGETS,51262799
mg,A,4,l2_CPU-0,mGETXIM,11733892
mg,A,4,l2_CPU-0,mGETXSM,6748
mg,A,4,l2_CPU-0,PUTS,59016915
mg,A,4,l2_CPU-0,PUTX,18763772
mg,A,4,l2_CPU-0,INV,54049405
mg,A,4,l2_CPU-0,INVX,19405
mg,A,4,l2_CPU-0,FWD,0
mg,A,4,l2_CPU-0,latGETnl,3830301919
mg,A,4,l2_CPU-0,latGETnet,0
mg,A,4,CPU-1,cycles,4996930074
mg,A,4,CPU-1,cCycles,1307735479
mg,A,4,CPU-1,instrs,3250819770
mg,A,4,CPU-1,uops,4022729939
mg,A,4,CPU-1,bbls,296705816
mg,A,4,CPU-1,approxInstrs,16777462
mg,A,4,CPU-1,mispredBranches,1136530
mg,A,4,l1i_CPU-1,hGETS,7517
mg,A,4,l1i_CPU-1,hGETX,0
mg,A,4,l1i_CPU-1,mGETS,347
mg,A,4,l1i_CPU-1,mGETXIM,0
mg,A,4,l1i_CPU-1,mGETXSM,0
mg,A,4,l1i_CPU-1,PUTS,0
mg,A,4,l1i_CPU-1,PUTX,0
mg,A,4,l1i_CPU-1,INV,5
mg,A,4,l1i_CPU-1,INVX,0
mg,A,4,l1i_CPU-1,FWD,0
mg,A,4,l1i_CPU-1,latGETnl,16360
mg,A,4,l1i_CPU-1,latGETnet,0
mg,A,4,l1d_CPU-1,hGETS,474735738
mg,A,4,l1d_CPU-1,hGETX,45191435
mg,A,4,l1d_CPU-1,mGETS,65850188
mg,A,4,l1d_CPU-1,mGETXIM,11763160
mg,A,4,l1d_CPU-1,mGETXSM,4365
mg,A,4,l1d_CPU-1,PUTS,0
mg,A,4,l1d_CPU-1,PUTX,0
mg,A,4,l1d_CPU-1,INV,4844898
mg,A,4,l1d_CPU-1,INVX,4898
mg,A,4,l1d_CPU-1,FWD,0
mg,A,4,l1d_CPU-1,latGETnl,4749587898
mg,A,4,l1d_CPU-1,latGETnet,0
mg,A,4,l2_CPU-1,hGETS,14719350
mg,A,4,l2_CPU-1,hGETX,35142
mg,A,4,l2_CPU-1,mGETS,51131185
mg,A,4,l2_CPU-1,mGETXIM,11727699
mg,A,4,l2_CPU-1,mGETXSM,4684
mg,A,4,l2_CPU-1,PUTS,58941880
mg,A,4,l2_CPU-1,PUTX,18666188
mg,A,4,l2_CPU-1,INV,92730581
mg,A,4,l2_CPU-1,INVX,20581
mg,A,4,l2_CPU-1,FWD,0
mg,A,4,l2_CPU-1,latGETnl,3818187538
mg,A,4,l2_CPU-1,latGETnet,0
mg,A,4,CPU-2,cycles,4996930153
mg,A,4,CPU-2,cCycles,1307218585
mg,A,4,CPU-2,instrs,3249424347
mg,A,4,CPU-2,uops,4021544797
mg,A,4,CPU-2,bbls,296393453
mg,A,4,CPU-2,approxInstrs,16777459
mg,A,4,CPU-2,mispredBranches,1133354
mg,A,4,l1i_CPU-2,hGETS,7281
mg,A,4,l1i_CPU-2,hGETX,0
mg,A,4,l1i_CPU-2,mGETS,359
mg,A,4,l1i_CPU-2,mGETXIM,0
mg,A,4,l1i_CPU-2,mGETXSM,0
mg,A,4,l1i_CPU-2,PUTS,0
mg,A,4,l1i_CPU-2,PUTX,0
mg,A,4,l1i_CPU-2,INV,2
mg,A,4,l1i_CPU-2,INVX,0
mg,A,4,l1i_CPU-2,FWD,0
mg,A,4,l1i_CPU-2,latGETnl,18791
mg,A,4,l1i_CPU-2,latGETnet,0
mg,A,4,l1d_CPU-2,hGETS,474717098
mg,A,4,l1d_CPU-2,hGETX,45177355
mg,A,4,l1d_CPU-2,mGETS,65849174
mg,A,4,l1d_CPU-2,mGETXIM,11696861
mg,A,4,l1d_CPU-2,mGETXSM,4813
mg,A,4,l1d_CPU-2,PUTS,0
mg,A,4,l1d_CPU-2,PUTX,0
mg,A,4,l1d_CPU-2,INV,4465328
mg,A,4,l1d_CPU-2,INVX,4328
mg,A,4,l1d_CPU-2,FWD,0
mg,A,4,l1d_CPU-2,latGETnl,4746859961
mg,A,4,l1d_CPU-2,latGETnet,0
mg,A,4,l2_CPU-2,hGETS,14721099
mg,A,4,l2_CPU-2,hGETX,34690
mg,A,4,l2_CPU-2,mGETS,51128434
mg,A,4,l2_CPU-2,mGETXIM,11661915
mg,A,4,l2_CPU-2,mGETXSM,5069
mg,A,4,l2_CPU-2,PUTS,58940775
mg,A,4,l2_CPU-2,PUTX,18600345
mg,A,4,l2_CPU-2,INV,79457692
mg,A,4,l2_CPU-2,INVX,17692
mg,A,4,l2_CPU-2,FWD,0
mg,A,4,l2_CPU-2,latGETnl,3816264268
mg,A,4,l2_CPU-2,latGETnet,0
mg,A,4,CPU-3,cycles,4996930488
mg,A,4,CPU-3,cCycles,1303798249
mg,A,4,CPU-3,instrs,3252031009
mg,A,4,CPU-3,uops,4024896288
mg,A,4,CPU-3,bbls,297141126
mg,A,4,CPU-3,approxInstrs,16777493
mg,A,4,CPU-3,mispredBranches,1133277
mg,A,4,l1i_CPU-3,hGETS,7277
mg,A,4,l1i_CPU-3,hGETX,0
mg,A,4,l1i_CPU-3,mGETS,362
mg,A,4,l1i_CPU-3,mGETXIM,0
mg,A,4,l1i_CPU-3,mGETXSM,0
mg,A,4,l1i_CPU-3,PUTS,0
mg,A,4,l1i_CPU-3,PUTX,0
mg,A,4,l1i_CPU-3,INV,8
mg,A,4,l1i_CPU-3,INVX,0
mg,A,4,l1i_CPU-3,FWD,0
mg,A,4,l1i_CPU-3,latGETnl,16990
mg,A,4,l1i_CPU-3,latGETnet,0
mg,A,4,l1d_CPU-3,hGETS,474716245
mg,A,4,l1d_CPU-3,hGETX,45179437
mg,A,4,l1d_CPU-3,mGETS,65848220
mg,A,4,l1d_CPU-3,mGETXIM,11697034
mg,A,4,l1d_CPU-3,mGETXSM,4408
mg,A,4,l1d_CPU-3,PUTS,0
mg,A,4,l1d_CPU-3,PUTX,0
mg,A,4,l1d_CPU-3,INV,4241903
mg,A,4,l1d_CPU-3,INVX,6903
mg,A,4,l1d_CPU-3,FWD,0
mg,A,4,l1d_CPU-3,latGETnl,4745825128
mg,A,4,l1d_CPU-3,latGETnet,0
mg,A,4,l2_CPU-3,hGETS,14725364
mg,A,4,l2_CPU-3,hGETX,35304
mg,A,4,l2_CPU-3,mGETS,51123218
mg,A,4,l2_CPU-3,mGETXIM,11661631
mg,A,4,l2_CPU-3,mGETXSM,4507
mg,A,4,l2_CPU-3,PUTS,58941371
mg,A,4,l2_CPU-3,PUTX,18599193
mg,A,4,l2_CPU-3,INV,64928182
mg,A,4,l2_CPU-3,INVX,18182
mg,A,4,l2_CPU-3,FWD,0
mg,A,4,l2_CPU-3,latGETnl,3815241830
mg,A,4,l2_CPU-3,latGETnet,0
mg,A,4,l3-0b0,hGETS,10834915
mg,A,4,l3-0b0,hGETX,25300
mg,A,4,l3-0b0,mGETS,14745439
mg,A,4,l3-0b0,mGETXIM,5826386
mg,A,4,l3-0b0,mGETXSM,0
mg,A,4,l3-0b0,PUTS,22150570
mg,A,4,l3-0b0,PUTX,9272589
mg,A,4,l3-0b0,INV,0
mg,A,4,l3-0b0,INVX,0
mg,A,4,l3-0b0,FWD,0
mg,A,4,l3-0b0,latGETnl,966875775
mg,A,4,l3-0b0,latGETnet,0
mg,A,4,l3-0b1,hGETS,10837960
mg,A,4,l3-0b1,hGETX,23964
mg,A,4,l3-0b1,mGETS,14745523
mg,A,4,l3-0b1,mGETXIM,5826404
mg,A,4,l3-0b1,mGETXSM,0
mg,A,4,l3-0b1,PUTS,22155957
mg,A,4,l3-0b1,PUTX,9270399
mg,A,4,l3-0b1,INV,0
mg,A,4,l3-0b1,INVX,0
mg,A,4,l3-0b1,FWD,0
mg,A,4,l3-0b1,latGETnl,966880569
mg,A,4,l3-0b1,latGETnet,0
mg,A,4,l3-0b2,hGETS,10833091
mg,A,4,l3-0b2,hGETX,25387
mg,A,4,l3-0b2,mGETS,14745693
mg,A,4,l3-0b2,mGETXIM,5826020
mg,A,4,l3-0b2,mGETXSM,0
mg,A,4,l3-0b2,PUTS,22150121
mg,A,4,l3-0b2,PUTX,9270992
mg,A,4,l3-0b2,INV,0
mg,A,4,l3-0b2,INVX,0
mg,A,4,l3-0b2,FWD,0
mg,A,4,l3-0b2,latGETnl,966870511
mg,A,4,l3-0b2,latGETnet,0
mg,A,4,l3-0b3,hGETS,10835048
mg,A,4,l3-0b3,hGETX,23766
mg,A,4,l3-0b3,mGETS,14745050
mg,A,4,l3-0b3,mGETXIM,5826210
mg,A,4,l3-0b3,mGETXSM,0
mg,A,4,l3-0b3,PUTS,22150954
mg,A,4,l3-0b3,PUTX,9271383
mg,A,4,l3-0b3,INV,0
mg,A,4,l3-0b3,INVX,0
mg,A,4,l3-0b3,FWD,0
mg,A,4,l3-0b3,latGETnl,966849220
mg,A,4,l3-0b3,latGETnet,0
mg,A,4,l3-0b4,hGETS,10837217
mg,A,4,l3-0b4,hGETX,24961
mg,A,4,l3-0b4,mGETS,14745662
mg,A,4,l3-0b4,mGETXIM,5826435
mg,A,4,l3-0b4,mGETXSM,0
mg,A,4,l3-0b4,PUTS,22149774
mg,A,4,l3-0b4,PUTX,9274177
mg,A,4,l3-0b4,INV,0
mg,A,4,l3-0b4,INVX,0
mg,A,4,l3-0b4,FWD,0
mg,A,4,l3-0b4,latGETnl,966888559
mg,A,4,l3-0b4,latGETnet,0
mg,A,4,l3-0b5,hGETS,10832122
mg,A,4,l3-0b5,hGETX,24069
mg,A,4,l3-0b5,mGETS,14746135
mg,A,4,l3-0b5,mGETXIM,5826613
mg,A,4,l3-0b5,mGETXSM,0
mg,A,4,l3-0b5,PUTS,22150226
mg,A,4,l3-0b5,PUTX,9270939
mg,A,4,l3-0b5,INV,0
mg,A,4,l3-0b5,INVX,0
mg,A,4,l3-0b5,FWD,0
mg,A,4,l3-0b5,latGETnl,966919156
mg,A,4,l3-0b5,latGETnet,0
mg,A,4,l3-0b6,hGETS,10830369
mg,A,4,l3-0b6,hGETX,23580
mg,A,4,l3-0b6,mGETS,14746448
mg,A,4,l3-0b6,mGETXIM,5826267
mg,A,4,l3-0b6,mGETXSM,0
mg,A,4,l3-0b6,PUTS,22149589
mg,A,4,l3-0b6,PUTX,9270621
mg,A,4,l3-0b6,INV,0
mg,A,4,l3-0b6,INVX,0
mg,A,4,l3-0b6,FWD,0
mg,A,4,l3-0b6,latGETnl,966917605
mg,A,4,l3-0b6,latGETnet,0
mg,A,4,l3-0b7,hGETS,10839152
mg,A,4,l3-0b7,hGETX,24489
mg,A,4,l3-0b7,mGETS,14745812
mg,A,4,l3-0b7,mGETXIM,5826294
mg,A,4,l3-0b7,mGETXSM,0
mg,A,4,l3-0b7,PUTS,22156501
mg,A,4,l3-0b7,PUTX,9270642
mg,A,4,l3-0b7,INV,0
mg,A,4,l3-0b7,INVX,0
mg,A,4,l3-0b7,FWD,0
mg,A,4,l3-0b7,latGETnl,966888982
mg,A,4,l3-0b7,latGETnet,0
