mg,A,1,CPU-0,cycles,19696616191
mg,A,1,CPU-0,cCycles,4997730800
mg,A,1,CPU-0,instrs,12953383277
mg,A,1,CPU-0,uops,16027213999
mg,A,1,CPU-0,bbls,1171100880
mg,A,1,CPU-0,approxInstrs,67116871
mg,A,1,CPU-0,mispredBranches,4545795
mg,A,1,l1i_CPU-0,hGETS,61946
mg,A,1,l1i_CPU-0,hGETX,0
mg,A,1,l1i_CPU-0,mGETS,10378
mg,A,1,l1i_CPU-0,mGETXIM,0
mg,A,1,l1i_CPU-0,mGETXSM,0
mg,A,1,l1i_CPU-0,PUTS,0
mg,A,1,l1i_CPU-0,PUTX,0
mg,A,1,l1i_CPU-0,INV,54
mg,A,1,l1i_CPU-0,INVX,0
mg,A,1,l1i_CPU-0,FWD,0
mg,A,1,l1i_CPU-0,latGETnl,580133
mg,A,1,l1i_CPU-0,latGETnet,0
mg,A,1,l1d_CPU-0,hGETS,1897840432
mg,A,1,l1d_CPU-0,hGETX,180248004
mg,A,1,l1d_CPU-0,mGETS,263605370
mg,A,1,l1d_CPU-0,mGETXIM,46880890
mg,A,1,l1d_CPU-0,mGETXSM,0
mg,A,1,l1d_CPU-0,PUTS,0
mg,A,1,l1d_CPU-0,PUTX,0
mg,A,1,l1d_CPU-0,INV,1
mg,A,1,l1d_CPU-0,INVX,1
mg,A,1,l1d_CPU-0,FWD,0
mg,A,1,l1d_CPU-0,latGETnl,18989248857
mg,A,1,l1d_CPU-0,latGETnet,0
mg,A,1,l2_CPU-0,hGETS,58894137
mg,A,1,l2_CPU-0,hGETX,103171
mg,A,1,l2_CPU-0,mGETS,204721611
mg,A,1,l2_CPU-0,mGETXIM,46777719
mg,A,1,l2_CPU-0,mGETXSM,0
mg,A,1,l2_CPU-0,PUTS,235925873
mg,A,1,l2_CPU-0,PUTX,74569686
mg,A,1,l2_CPU-0,INV,0
mg,A,1,l2_CPU-0,INVX,0
mg,A,1,l2_CPU-0,FWD,0
mg,A,1,l2_CPU-0,latGETnl,15263869330
mg,A,1,l2_CPU-0,latGETnet,0
mg,A,1,l3-0b0,hGETS,10894569
mg,A,1,l3-0b0,hGETX,12241
mg,A,1,l3-0b0,mGETS,14693423
mg,A,1,l3-0b0,mGETXIM,5835016
mg,A,1,l3-0b0,mGETXSM,0
mg,A,1,l3-0b0,PUTS,22150253
mg,A,1,l3-0b0,PUTX,9284472
mg,A,1,l3-0b0,INV,0
mg,A,1,l3-0b0,INVX,0
mg,A,1,l3-0b0,FWD,0
mg,A,1,l3-0b0,latGETnl,964836633
mg,A,1,l3-0b0,latGETnet,0
mg,A,1,l3-0b1,hGETS,10898908
mg,A,1,l3-0b1,hGETX,12256
mg,A,1,l3-0b1,mGETS,14694055
mg,A,1,l3-0b1,mGETXIM,5834956
mg,A,1,l3-0b1,mGETXSM,0
mg,A,1,l3-0b1,PUTS,22154837
mg,A,1,l3-0b1,PUTX,9284844
mg,A,1,l3-0b1,INV,0
mg,A,1,l3-0b1,INVX,0
mg,A,1,l3-0b1,FWD,0
mg,A,1,l3-0b1,latGETnl,964863517
mg,A,1,l3-0b1,latGETnet,0
mg,A,1,l3-0b2,hGETS,10895018
mg,A,1,l3-0b2,hGETX,12259
mg,A,1,l3-0b2,mGETS,14693534
mg,A,1,l3-0b2,mGETXIM,5834884
mg,A,1,l3-0b2,mGETXSM,0
mg,A,1,l3-0b2,PUTS,22150451
mg,A,1,l3-0b2,PUTX,9284738
mg,A,1,l3-0b2,INV,0
mg,A,1,l3-0b2,INVX,0
mg,A,1,l3-0b2,FWD,0
mg,A,1,l3-0b2,latGETnl,964835646
mg,A,1,l3-0b2,latGETnet,0
mg,A,1,l3-0b3,hGETS,10896600
mg,A,1,l3-0b3,hGETX,12282
mg,A,1,l3-0b3,mGETS,14693958
mg,A,1,l3-0b3,mGETXIM,5834933
mg,A,1,l3-0b3,mGETXSM,0
mg,A,1,l3-0b3,PUTS,22150021
mg,A,1,l3-0b3,PUTX,9287254
mg,A,1,l3-0b3,INV,0
mg,A,1,l3-0b3,INVX,0
mg,A,1,l3-0b3,FWD,0
mg,A,1,l3-0b3,latGETnl,964857877
mg,A,1,l3-0b3,latGETnet,0
mg,A,1,l3-0b4,hGETS,10894209
mg,A,1,l3-0b4,hGETX,12230
mg,A,1,l3-0b4,mGETS,14694439
mg,A,1,l3-0b4,mGETXIM,5834939
mg,A,1,l3-0b4,mGETXSM,0
mg,A,1,l3-0b4,PUTS,22150777
mg,A,1,l3-0b4,PUTX,9284493
mg,A,1,l3-0b4,INV,0
mg,A,1,l3-0b4,INVX,0
mg,A,1,l3-0b4,FWD,0
mg,A,1,l3-0b4,latGETnl,964880766
mg,A,1,l3-0b4,latGETnet,0
mg,A,1,l3-0b5,hGETS,10895660
mg,A,1,l3-0b5,hGETX,12274
mg,A,1,l3-0b5,mGETS,14693842
mg,A,1,l3-0b5,mGETXIM,5835045
mg,A,1,l3-0b5,mGETXSM,0
mg,A,1,l3-0b5,PUTS,22150107
mg,A,1,l3-0b5,PUTX,9286217
mg,A,1,l3-0b5,INV,0
mg,A,1,l3-0b5,INVX,0
mg,A,1,l3-0b5,FWD,0
mg,A,1,l3-0b5,latGETnl,964857689
mg,A,1,l3-0b5,latGETnet,0
mg,A,1,l3-0b6,hGETS,10893679
mg,A,1,l3-0b6,hGETX,12349
mg,A,1,l3-0b6,mGETS,14694569
mg,A,1,l3-0b6,mGETXIM,5834767
mg,A,1,l3-0b6,mGETXSM,0
mg,A,1,l3-0b6,PUTS,22150543
mg,A,1,l3-0b6,PUTX,9284307
mg,A,1,l3-0b6,INV,0
mg,A,1,l3-0b6,INVX,0
mg,A,1,l3-0b6,FWD,0
mg,A,1,l3-0b6,latGETnl,964878792
mg,A,1,l3-0b6,latGETnet,0
mg,A,1,l3-0b7,hGETS,10900821
mg,A,1,l3-0b7,hGETX,12285
mg,A,1,l3-0b7,mGETS,14694327
mg,A,1,l3-0b7,mGETXIM,5835003
mg,A,1,l3-0b7,mGETXSM,0
mg,A,1,l3-0b7,PUTS,22157079
mg,A,1,l3-0b7,PUTX,9284841
mg,A,1,l3-0b7,INV,0
mg,A,1,l3-0b7,INVX,0
mg,A,1,l3-0b7,FWD,0
mg,A,1,l3-0b7,latGETnl,964878510
mg,A,1,l3-0b7,latGETnet,0
